[gd_scene load_steps=33 format=2]

[ext_resource path="res://scenes/marblecastle/tileset.tres" type="TileSet" id=1]
[ext_resource path="res://scenes/common/breakables/bluetorch.tscn" type="PackedScene" id=2]
[ext_resource path="res://scenes/marblecastle/boss/statue.tscn" type="PackedScene" id=3]
[ext_resource path="res://scenes/marblecastle/boss/soprano.png" type="Texture" id=4]
[ext_resource path="res://scenes/marblecastle/boss/sopranoline.png" type="Texture" id=5]
[ext_resource path="res://scenes/marblecastle/boss/sopranorubble.png" type="Texture" id=6]
[ext_resource path="res://scenes/marblecastle/boss/alto.png" type="Texture" id=7]
[ext_resource path="res://scenes/marblecastle/boss/altoline.png" type="Texture" id=8]
[ext_resource path="res://scenes/marblecastle/boss/altorubble.png" type="Texture" id=9]
[ext_resource path="res://scenes/marblecastle/boss/tenor.png" type="Texture" id=10]
[ext_resource path="res://scenes/marblecastle/boss/tenorline.png" type="Texture" id=11]
[ext_resource path="res://scenes/marblecastle/boss/tenorrubble.png" type="Texture" id=12]
[ext_resource path="res://scenes/marblecastle/boss/statuehead.tscn" type="PackedScene" id=13]
[ext_resource path="res://scenes/marblecastle/sensor.gd" type="Script" id=14]
[ext_resource path="res://scenes/common/teleport.tscn" type="PackedScene" id=15]
[ext_resource path="res://scenes/marblecastle/parallax.tscn" type="PackedScene" id=16]
[ext_resource path="res://scenes/marblecastle/boss/soprano.ogg" type="AudioStream" id=17]
[ext_resource path="res://scenes/marblecastle/boss/alto.ogg" type="AudioStream" id=18]
[ext_resource path="res://scenes/marblecastle/boss/bass.ogg" type="AudioStream" id=19]
[ext_resource path="res://scenes/marblecastle/boss/tenor.ogg" type="AudioStream" id=20]
[ext_resource path="res://levels/common/nomusic.gd" type="Script" id=21]

[sub_resource type="ParticlesMaterial" id=1]
flag_disable_z = true
spread = 0.0
gravity = Vector3( 0, 98, 0 )
angular_velocity = 2.0
angular_velocity_random = 1.0
orbit_velocity = 0.0
orbit_velocity_random = 0.0
linear_accel = 64.0
linear_accel_random = 1.0
damping = 10.0
damping_random = 1.0
angle_random = 1.0
scale = 1.25
scale_random = 1.0
color = Color( 0.82, 0.85, 0.91, 1 )
anim_speed = 1.0

[sub_resource type="Curve" id=2]
_data = [ Vector2( 0, 1 ), 0.0, 0.0, 0, 0, Vector2( 1, 0.424805 ), 0.0, 0.0, 0, 0 ]

[sub_resource type="CurveTexture" id=3]
curve = SubResource( 2 )

[sub_resource type="ParticlesMaterial" id=4]
emission_shape = 2
emission_box_extents = Vector3( 48, 160, 1 )
flag_disable_z = true
gravity = Vector3( 0, 64, 0 )
angular_velocity = 3.0
angular_velocity_random = 1.0
orbit_velocity = 0.0
orbit_velocity_random = 0.0
linear_accel = 32.0
linear_accel_random = 1.0
radial_accel = 16.0
tangential_accel = 10.0
damping = 64.0
damping_random = 1.0
angle = 180.0
angle_random = 1.0
scale = 2.0
scale_curve = SubResource( 3 )
color = Color( 0.82, 0.85, 0.91, 1 )
anim_speed = 1.0

[sub_resource type="ParticlesMaterial" id=5]
flag_disable_z = true
spread = 0.0
gravity = Vector3( 0, 98, 0 )
angular_velocity = 2.0
angular_velocity_random = 1.0
orbit_velocity = 0.0
orbit_velocity_random = 0.0
linear_accel = 64.0
linear_accel_random = 1.0
damping = 10.0
damping_random = 1.0
angle_random = 1.0
scale = 1.25
scale_random = 1.0
color = Color( 0.61, 0.54902, 0.64, 1 )
anim_speed = 1.0

[sub_resource type="ParticlesMaterial" id=6]
emission_shape = 2
emission_box_extents = Vector3( 48, 160, 1 )
flag_disable_z = true
gravity = Vector3( 0, 64, 0 )
angular_velocity = 3.0
angular_velocity_random = 1.0
orbit_velocity = 0.0
orbit_velocity_random = 0.0
linear_accel = 32.0
linear_accel_random = 1.0
radial_accel = 16.0
tangential_accel = 10.0
damping = 64.0
damping_random = 1.0
angle = 180.0
angle_random = 1.0
scale = 2.0
scale_curve = SubResource( 3 )
color = Color( 0.607843, 0.54902, 0.639216, 1 )
anim_speed = 1.0

[sub_resource type="ParticlesMaterial" id=7]
flag_disable_z = true
spread = 0.0
gravity = Vector3( 0, 98, 0 )
angular_velocity = 2.0
angular_velocity_random = 1.0
orbit_velocity = 0.0
orbit_velocity_random = 0.0
linear_accel = 64.0
linear_accel_random = 1.0
damping = 10.0
damping_random = 1.0
angle_random = 1.0
scale = 1.25
scale_random = 1.0
color = Color( 0.42, 0.47, 0.44, 1 )
anim_speed = 1.0

[sub_resource type="Curve" id=8]
_data = [ Vector2( 0, 1 ), 0.0, 0.0, 0, 0, Vector2( 1, 0.424805 ), 0.0, 0.0, 0, 0 ]

[sub_resource type="CurveTexture" id=9]
curve = SubResource( 8 )

[sub_resource type="ParticlesMaterial" id=10]
emission_shape = 2
emission_box_extents = Vector3( 48, 160, 1 )
flag_disable_z = true
gravity = Vector3( 0, 64, 0 )
angular_velocity = 3.0
angular_velocity_random = 1.0
orbit_velocity = 0.0
orbit_velocity_random = 0.0
linear_accel = 32.0
linear_accel_random = 1.0
radial_accel = 16.0
tangential_accel = 10.0
damping = 64.0
damping_random = 1.0
angle = 180.0
angle_random = 1.0
scale = 2.0
scale_curve = SubResource( 9 )
color = Color( 0.419608, 0.466667, 0.439216, 1 )
anim_speed = 1.0

[sub_resource type="RectangleShape2D" id=11]
extents = Vector2( 16, 16 )

[node name="LVL_NOTITLE" type="Node2D"]
script = ExtResource( 21 )
__meta__ = {
"__editor_plugin_screen__": "2D"
}

[node name="voidmap" type="TileMap" parent="."]
tile_set = ExtResource( 1 )
cell_size = Vector2( 32, 32 )
compatibility_mode = true
format = 1
tile_data = PoolIntArray( -2097191, 37, 0, -2097190, 37, 0, -2097189, 37, 0, -2097188, 37, 0, -2097187, 37, 0, -2097186, 37, 0, -2097185, 37, 0, -2097184, 37, 0, -2097183, 37, 0, -2097182, 37, 0, -2097181, 37, 0, -2097180, 37, 0, -2097179, 37, 0, -2097178, 37, 0, -2097177, 37, 0, -2097176, 37, 0, -2097175, 37, 0, -2097174, 37, 0, -2097173, 37, 0, -2097172, 37, 0, -2097171, 37, 0, -2097170, 37, 0, -2097169, 37, 0, -2097168, 37, 0, -2097167, 37, 0, -2097166, 37, 0, -2097165, 37, 0, -2097164, 37, 0, -2097163, 37, 0, -2097162, 37, 0, -2097161, 37, 0, -2097160, 37, 0, -2097159, 37, 0, -2097158, 37, 0, -2097157, 37, 0, -2097156, 37, 0, -2097155, 37, 0, -2097154, 37, 0, -2097153, 37, 0, -2162688, 37, 0, -2031655, 37, 0, -2031654, 37, 0, -2031653, 37, 0, -2031652, 37, 0, -2031651, 37, 0, -2031650, 37, 0, -2031649, 37, 0, -2031648, 37, 0, -2031647, 37, 0, -2031646, 37, 0, -2031645, 37, 0, -2031644, 37, 0, -2031643, 37, 0, -2031642, 37, 0, -2031641, 37, 0, -2031640, 37, 0, -2031639, 37, 0, -2031638, 37, 0, -2031637, 37, 0, -2031636, 37, 0, -2031635, 37, 0, -2031634, 37, 0, -2031633, 37, 0, -2031632, 37, 0, -2031631, 37, 0, -2031630, 37, 0, -2031629, 37, 0, -2031628, 37, 0, -2031627, 37, 0, -2031626, 37, 0, -2031625, 37, 0, -2031624, 37, 0, -2031623, 37, 0, -2031622, 37, 0, -2031621, 37, 0, -2031620, 37, 0, -2031619, 37, 0, -2031618, 37, 0, -2031617, 37, 0, -2097152, 37, 0, -1966119, 37, 0, -1966118, 37, 0, -1966117, 37, 0, -1966116, 37, 0, -1966115, 37, 0, -1966114, 37, 0, -1966113, 37, 0, -1966112, 37, 0, -1966111, 37, 0, -1966110, 37, 0, -1966109, 37, 0, -1966108, 37, 0, -1966107, 37, 0, -1966106, 37, 0, -1966105, 37, 0, -1966104, 37, 0, -1966103, 37, 0, -1966102, 37, 0, -1966101, 37, 0, -1966100, 37, 0, -1966099, 37, 0, -1966098, 37, 0, -1966097, 37, 0, -1966096, 37, 0, -1966095, 37, 0, -1966094, 37, 0, -1966093, 37, 0, -1966092, 37, 0, -1966091, 37, 0, -1966090, 37, 0, -1966089, 37, 0, -1966088, 37, 0, -1966087, 37, 0, -1966086, 37, 0, -1966085, 37, 0, -1966084, 37, 0, -1966083, 37, 0, -1966082, 37, 0, -1966081, 37, 0, -2031616, 37, 0, -1900583, 37, 0, -1900582, 37, 0, -1900581, 37, 0, -1900580, 37, 0, -1900579, 37, 0, -1900578, 37, 0, -1900577, 37, 0, -1900576, 37, 0, -1900575, 37, 0, -1900574, 37, 0, -1900573, 37, 0, -1900572, 37, 0, -1900571, 37, 0, -1900570, 37, 0, -1900569, 37, 0, -1900568, 37, 0, -1900567, 37, 0, -1900566, 37, 0, -1900565, 37, 0, -1900564, 37, 0, -1900563, 37, 0, -1900562, 37, 0, -1900561, 37, 0, -1900560, 37, 0, -1900559, 37, 0, -1900558, 37, 0, -1900557, 37, 0, -1900556, 37, 0, -1900555, 37, 0, -1900554, 37, 0, -1900553, 37, 0, -1900552, 37, 0, -1900551, 37, 0, -1900550, 37, 0, -1900549, 37, 0, -1900548, 37, 0, -1900547, 37, 0, -1900546, 37, 0, -1900545, 37, 0, -1966080, 37, 0, -1835047, 37, 0, -1835046, 37, 0, -1835045, 37, 0, -1835044, 37, 0, -1835043, 37, 0, -1835042, 37, 0, -1835041, 37, 0, -1835040, 37, 0, -1835039, 37, 0, -1835038, 37, 0, -1835037, 37, 0, -1835036, 37, 0, -1835035, 37, 0, -1835034, 37, 0, -1835033, 37, 0, -1835032, 37, 0, -1835031, 37, 0, -1835030, 37, 0, -1835029, 37, 0, -1835028, 37, 0, -1835027, 37, 0, -1835026, 37, 0, -1835025, 37, 0, -1835024, 37, 0, -1835023, 37, 0, -1835022, 37, 0, -1835021, 37, 0, -1835020, 37, 0, -1835019, 37, 0, -1835018, 37, 0, -1835017, 37, 0, -1835016, 37, 0, -1835015, 37, 0, -1835014, 37, 0, -1835013, 37, 0, -1835012, 37, 0, -1835011, 37, 0, -1835010, 37, 0, -1835009, 37, 0, -1900544, 37, 0, -1769511, 37, 0, -1769510, 37, 0, -1769509, 37, 0, -1769508, 37, 0, -1769507, 37, 0, -1769506, 37, 0, -1769505, 37, 0, -1769504, 37, 0, -1769503, 37, 0, -1769502, 37, 0, -1769501, 37, 0, -1769500, 37, 0, -1769499, 37, 0, -1769498, 37, 0, -1769497, 37, 0, -1769496, 37, 0, -1769495, 37, 0, -1769494, 37, 0, -1769493, 37, 0, -1769492, 37, 0, -1769491, 37, 0, -1769490, 37, 0, -1769489, 37, 0, -1769488, 37, 0, -1769487, 37, 0, -1769486, 37, 0, -1769485, 37, 0, -1769484, 37, 0, -1769483, 37, 0, -1769482, 37, 0, -1769481, 37, 0, -1769480, 37, 0, -1769479, 37, 0, -1769478, 37, 0, -1769477, 37, 0, -1769476, 37, 0, -1769475, 37, 0, -1769474, 37, 0, -1769473, 37, 0, -1835008, 37, 0, -1703975, 37, 0, -1703974, 37, 0, -1703973, 37, 0, -1703972, 37, 0, -1703971, 37, 0, -1703970, 37, 0, -1703969, 37, 0, -1703968, 37, 0, -1703967, 37, 0, -1703966, 37, 0, -1703965, 37, 0, -1703964, 37, 0, -1703963, 37, 0, -1703962, 37, 0, -1703961, 37, 0, -1703960, 37, 0, -1703959, 37, 0, -1703958, 37, 0, -1703957, 37, 0, -1703956, 37, 0, -1703955, 37, 0, -1703954, 37, 0, -1703953, 37, 0, -1703952, 37, 0, -1703951, 37, 0, -1703950, 37, 0, -1703949, 37, 0, -1703948, 37, 0, -1703947, 37, 0, -1703946, 37, 0, -1703945, 37, 0, -1703944, 37, 0, -1703943, 37, 0, -1703942, 37, 0, -1703941, 37, 0, -1703940, 37, 0, -1703939, 37, 0, -1703938, 37, 0, -1703937, 37, 0, -1769472, 37, 0, -1638439, 37, 0, -1638438, 37, 0, -1638437, 37, 0, -1638436, 37, 0, -1638435, 37, 0, -1638434, 37, 0, -1638433, 37, 0, -1638432, 37, 0, -1638431, 37, 0, -1638430, 37, 0, -1638429, 37, 0, -1638428, 37, 0, -1638427, 37, 0, -1638426, 37, 0, -1638425, 37, 0, -1638424, 37, 0, -1638423, 37, 0, -1638422, 37, 0, -1638421, 37, 0, -1638420, 37, 0, -1638419, 37, 0, -1638418, 37, 0, -1638417, 37, 0, -1638416, 37, 0, -1638415, 37, 0, -1638414, 37, 0, -1638413, 37, 0, -1638412, 37, 0, -1638411, 37, 0, -1638410, 37, 0, -1638409, 37, 0, -1638408, 37, 0, -1638407, 37, 0, -1638406, 37, 0, -1638405, 37, 0, -1638404, 37, 0, -1638403, 37, 0, -1638402, 37, 0, -1638401, 37, 0, -1703936, 37, 0, -1572903, 37, 0, -1572902, 37, 0, -1572901, 37, 0, -1572900, 37, 0, -1572899, 37, 0, -1572898, 37, 0, -1572897, 37, 0, -1572896, 37, 0, -1572895, 37, 0, -1572894, 37, 0, -1572893, 37, 0, -1572892, 37, 0, -1572891, 37, 0, -1572890, 37, 0, -1572889, 37, 0, -1572888, 37, 0, -1572887, 37, 0, -1572886, 37, 0, -1572885, 37, 0, -1572884, 37, 0, -1572883, 37, 0, -1572882, 37, 0, -1572881, 37, 0, -1572880, 37, 0, -1572879, 37, 0, -1572878, 37, 0, -1572877, 37, 0, -1572876, 37, 0, -1572875, 37, 0, -1572874, 37, 0, -1572873, 37, 0, -1572872, 37, 0, -1572871, 37, 0, -1572870, 37, 0, -1572869, 37, 0, -1572868, 37, 0, -1572867, 37, 0, -1572866, 37, 0, -1572865, 37, 0, -1638400, 37, 0, -1507367, 37, 0, -1507366, 37, 0, -1507365, 37, 0, -1507364, 37, 0, -1507363, 37, 0, -1507362, 37, 0, -1507361, 37, 0, -1507360, 37, 0, -1507359, 37, 0, -1507358, 37, 0, -1507357, 37, 0, -1507356, 37, 0, -1507355, 37, 0, -1507354, 37, 0, -1507353, 37, 0, -1507352, 37, 0, -1507351, 37, 0, -1507350, 37, 0, -1507349, 37, 0, -1507348, 37, 0, -1507347, 37, 0, -1507346, 37, 0, -1507345, 37, 0, -1507344, 37, 0, -1507343, 37, 0, -1507342, 37, 0, -1507341, 37, 0, -1507340, 37, 0, -1507339, 37, 0, -1507338, 37, 0, -1507337, 37, 0, -1507336, 37, 0, -1507335, 37, 0, -1507334, 37, 0, -1507333, 37, 0, -1507332, 37, 0, -1507331, 37, 0, -1507330, 37, 0, -1507329, 37, 0, -1572864, 37, 0, -1441831, 37, 0, -1441830, 37, 0, -1441829, 37, 0, -1441828, 37, 0, -1441827, 37, 0, -1441826, 37, 0, -1441825, 37, 0, -1441824, 37, 0, -1441823, 37, 0, -1441822, 37, 0, -1441817, 37, 0, -1441812, 37, 0, -1441807, 37, 0, -1441802, 37, 0, -1441801, 37, 0, -1441800, 37, 0, -1441799, 37, 0, -1441798, 37, 0, -1441797, 37, 0, -1441796, 37, 0, -1441795, 37, 0, -1441794, 37, 0, -1441793, 37, 0, -1507328, 37, 0, -1376295, 37, 0, -1376294, 37, 0, -1376293, 37, 0, -1376292, 37, 0, -1376291, 37, 0, -1376290, 37, 0, -1376289, 37, 0, -1376288, 37, 0, -1376287, 37, 0, -1376286, 37, 0, -1376281, 37, 0, -1376276, 37, 0, -1376271, 37, 0, -1376266, 37, 0, -1376265, 37, 0, -1376264, 37, 0, -1376263, 37, 0, -1376262, 37, 0, -1376261, 37, 0, -1376260, 37, 0, -1376259, 37, 0, -1376258, 37, 0, -1376257, 37, 0, -1441792, 37, 0, -1310759, 37, 0, -1310758, 37, 0, -1310757, 37, 0, -1310756, 37, 0, -1310755, 37, 0, -1310754, 37, 0, -1310753, 37, 0, -1310752, 37, 0, -1310751, 37, 0, -1310750, 37, 0, -1310745, 37, 0, -1310740, 37, 0, -1310735, 37, 0, -1310730, 37, 0, -1310729, 37, 0, -1310728, 37, 0, -1310727, 37, 0, -1310726, 37, 0, -1310725, 37, 0, -1310724, 37, 0, -1310723, 37, 0, -1310722, 37, 0, -1310721, 37, 0, -1376256, 37, 0, -1245223, 37, 0, -1245222, 37, 0, -1245221, 37, 0, -1245220, 37, 0, -1245219, 37, 0, -1245218, 37, 0, -1245217, 37, 0, -1245216, 37, 0, -1245215, 37, 0, -1245214, 37, 0, -1245209, 37, 0, -1245204, 37, 0, -1245199, 37, 0, -1245194, 37, 0, -1245193, 37, 0, -1245192, 37, 0, -1245191, 37, 0, -1245190, 37, 0, -1245189, 37, 0, -1245188, 37, 0, -1245187, 37, 0, -1245186, 37, 0, -1245185, 37, 0, -1310720, 37, 0, -1179687, 37, 0, -1179686, 37, 0, -1179685, 37, 0, -1179684, 37, 0, -1179683, 37, 0, -1179682, 37, 0, -1179681, 37, 0, -1179680, 37, 0, -1179679, 37, 0, -1179678, 37, 0, -1179673, 37, 0, -1179668, 37, 0, -1179663, 37, 0, -1179658, 37, 0, -1179657, 37, 0, -1179656, 37, 0, -1179655, 37, 0, -1179654, 37, 0, -1179653, 37, 0, -1179652, 37, 0, -1179651, 37, 0, -1179650, 37, 0, -1179649, 37, 0, -1245184, 37, 0, -1114151, 37, 0, -1114150, 37, 0, -1114149, 37, 0, -1114148, 37, 0, -1114147, 37, 0, -1114146, 37, 0, -1114145, 37, 0, -1114144, 37, 0, -1114143, 37, 0, -1114142, 37, 0, -1114137, 37, 0, -1114132, 37, 0, -1114127, 37, 0, -1114122, 37, 0, -1114121, 37, 0, -1114120, 37, 0, -1114119, 37, 0, -1114118, 37, 0, -1114117, 37, 0, -1114116, 37, 0, -1114115, 37, 0, -1114114, 37, 0, -1114113, 37, 0, -1179648, 37, 0, -1048615, 37, 0, -1048614, 37, 0, -1048613, 37, 0, -1048612, 37, 0, -1048611, 37, 0, -1048610, 37, 0, -1048609, 37, 0, -1048608, 37, 0, -1048607, 37, 0, -1048606, 37, 0, -1048601, 37, 0, -1048596, 37, 0, -1048591, 37, 0, -1048586, 37, 0, -1048585, 37, 0, -1048584, 37, 0, -1048583, 37, 0, -1048582, 37, 0, -1048581, 37, 0, -1048580, 37, 0, -1048579, 37, 0, -1048578, 37, 0, -1048577, 37, 0, -1114112, 37, 0, -983079, 37, 0, -983078, 37, 0, -983077, 37, 0, -983076, 37, 0, -983075, 37, 0, -983074, 37, 0, -983073, 37, 0, -983072, 37, 0, -983071, 37, 0, -983070, 37, 0, -983065, 37, 0, -983060, 37, 0, -983055, 37, 0, -983050, 37, 0, -983049, 37, 0, -983048, 37, 0, -983047, 6, 0, -983046, 37, 0, -983045, 37, 0, -983044, 37, 0, -983043, 37, 0, -983042, 37, 0, -983041, 37, 0, -1048576, 37, 0, -917543, 37, 0, -917542, 37, 0, -917541, 37, 0, -917540, 37, 0, -917539, 37, 0, -917538, 37, 0, -917537, 37, 0, -917536, 37, 0, -917535, 37, 0, -917534, 37, 0, -917529, 37, 0, -917524, 37, 0, -917519, 37, 0, -917514, 37, 0, -917513, 37, 0, -917512, 37, 0, -917511, 37, 0, -917510, 37, 0, -917509, 37, 0, -917508, 37, 0, -917507, 37, 0, -917506, 37, 0, -917505, 37, 0, -983040, 37, 0, -852007, 37, 0, -852006, 37, 0, -852005, 37, 0, -852004, 37, 0, -852003, 37, 0, -852002, 37, 0, -852001, 37, 0, -852000, 37, 0, -851999, 37, 0, -851998, 37, 0, -851993, 37, 0, -851988, 37, 0, -851983, 37, 0, -851978, 37, 0, -851977, 37, 0, -851976, 37, 0, -851975, 37, 0, -851974, 37, 0, -851973, 37, 0, -851972, 37, 0, -851971, 37, 0, -851970, 37, 0, -851969, 37, 0, -917504, 37, 0, -786471, 37, 0, -786470, 37, 0, -786469, 37, 0, -786468, 37, 0, -786467, 37, 0, -786466, 37, 0, -786465, 37, 0, -786464, 37, 0, -786463, 37, 0, -786462, 37, 0, -786457, 37, 0, -786452, 37, 0, -786447, 37, 0, -786442, 37, 0, -786441, 37, 0, -786440, 37, 0, -786439, 37, 0, -786438, 37, 0, -786437, 37, 0, -786436, 37, 0, -786435, 37, 0, -786434, 37, 0, -786433, 37, 0, -851968, 37, 0, -720935, 37, 0, -720934, 37, 0, -720933, 37, 0, -720932, 37, 0, -720931, 37, 0, -720930, 37, 0, -720929, 37, 0, -720928, 37, 0, -720927, 37, 0, -720926, 37, 0, -720921, 37, 0, -720916, 37, 0, -720911, 37, 0, -720906, 37, 0, -720905, 37, 0, -720904, 37, 0, -720903, 37, 0, -720902, 37, 0, -720901, 37, 0, -720900, 37, 0, -720899, 37, 0, -720898, 37, 0, -720897, 37, 0, -786432, 37, 0, -655399, 37, 0, -655398, 37, 0, -655397, 37, 0, -655396, 37, 0, -655395, 37, 0, -655394, 37, 0, -655393, 37, 0, -655392, 37, 0, -655391, 37, 0, -655390, 37, 0, -655385, 37, 0, -655380, 37, 0, -655375, 37, 0, -655370, 37, 0, -655369, 37, 0, -655368, 37, 0, -655367, 37, 0, -655366, 37, 0, -655365, 37, 0, -655364, 37, 0, -655363, 37, 0, -655362, 37, 0, -655361, 37, 0, -720896, 37, 0, -589863, 37, 0, -589862, 37, 0, -589861, 37, 0, -589860, 37, 0, -589859, 37, 0, -589858, 37, 0, -589857, 37, 0, -589856, 37, 0, -589855, 37, 0, -589854, 37, 0, -589853, 37, 0, -589852, 37, 0, -589851, 37, 0, -589850, 37, 0, -589849, 37, 0, -589848, 37, 0, -589847, 37, 0, -589846, 37, 0, -589845, 37, 0, -589844, 37, 0, -589843, 37, 0, -589842, 37, 0, -589841, 37, 0, -589840, 37, 0, -589839, 37, 0, -589838, 37, 0, -589837, 37, 0, -589836, 37, 0, -589835, 37, 0, -589834, 37, 0, -589833, 37, 0, -589832, 37, 0, -589831, 37, 0, -589830, 37, 0, -589829, 37, 0, -589828, 37, 0, -589827, 37, 0, -589826, 37, 0, -589825, 37, 0, -655360, 37, 0, -524327, 37, 0, -524326, 37, 0, -524325, 37, 0, -524324, 37, 0, -524323, 37, 0, -524322, 37, 0, -524321, 37, 0, -524320, 37, 0, -524319, 37, 0, -524318, 37, 0, -524317, 37, 0, -524316, 37, 0, -524315, 37, 0, -524314, 37, 0, -524313, 37, 0, -524312, 37, 0, -524311, 37, 0, -524310, 37, 0, -524309, 37, 0, -524308, 37, 0, -524307, 37, 0, -524306, 37, 0, -524305, 37, 0, -524304, 37, 0, -524303, 37, 0, -524302, 37, 0, -524301, 37, 0, -524300, 37, 0, -524299, 37, 0, -524298, 37, 0, -524297, 37, 0, -524296, 37, 0, -524295, 37, 0, -524294, 37, 0, -524293, 37, 0, -524292, 37, 0, -524291, 37, 0, -524290, 37, 0, -524289, 37, 0, -589824, 37, 0, -458791, 37, 0, -458790, 37, 0, -458789, 37, 0, -458788, 37, 0, -458787, 37, 0, -458786, 37, 0, -458785, 37, 0, -458784, 37, 0, -458783, 37, 0, -458782, 37, 0, -458781, 37, 0, -458780, 37, 0, -458779, 37, 0, -458778, 37, 0, -458777, 37, 0, -458776, 37, 0, -458775, 37, 0, -458774, 37, 0, -458773, 37, 0, -458772, 37, 0, -458771, 37, 0, -458770, 37, 0, -458769, 37, 0, -458768, 37, 0, -458767, 37, 0, -458766, 37, 0, -458765, 37, 0, -458764, 37, 0, -458763, 37, 0, -458762, 37, 0, -458761, 37, 0, -458760, 37, 0, -458759, 37, 0, -458758, 37, 0, -458757, 37, 0, -458756, 37, 0, -458755, 37, 0, -458754, 37, 0, -458753, 37, 0, -524288, 37, 0, -393255, 37, 0, -393254, 37, 0, -393253, 37, 0, -393252, 37, 0, -393251, 37, 0, -393250, 37, 0, -393249, 37, 0, -393248, 37, 0, -393247, 37, 0, -393246, 37, 0, -393245, 37, 0, -393244, 37, 0, -393243, 37, 0, -393242, 37, 0, -393241, 37, 0, -393240, 37, 0, -393239, 37, 0, -393238, 37, 0, -393237, 37, 0, -393236, 37, 0, -393235, 37, 0, -393234, 37, 0, -393233, 37, 0, -393232, 37, 0, -393231, 37, 0, -393230, 37, 0, -393229, 37, 0, -393228, 37, 0, -393227, 37, 0, -393226, 37, 0, -393225, 37, 0, -393224, 37, 0, -393223, 37, 0, -393222, 37, 0, -393221, 37, 0, -393220, 37, 0, -393219, 37, 0, -393218, 37, 0, -393217, 37, 0, -458752, 37, 0, -327719, 37, 0, -327718, 37, 0, -327717, 37, 0, -327716, 37, 0, -327715, 37, 0, -327714, 37, 0, -327713, 37, 0, -327712, 37, 0, -327711, 37, 0, -327710, 37, 0, -327709, 37, 0, -327708, 37, 0, -327707, 37, 0, -327706, 37, 0, -327705, 37, 0, -327704, 37, 0, -327703, 37, 0, -327702, 37, 0, -327701, 37, 0, -327700, 37, 0, -327699, 37, 0, -327698, 37, 0, -327697, 37, 0, -327696, 37, 0, -327695, 37, 0, -327694, 37, 0, -327693, 37, 0, -327692, 37, 0, -327691, 37, 0, -327690, 37, 0, -327689, 37, 0, -327688, 37, 0, -327687, 37, 0, -327686, 37, 0, -327685, 37, 0, -327684, 37, 0, -327683, 37, 0, -327682, 37, 0, -327681, 37, 0, -393216, 37, 0, -262183, 37, 0, -262182, 37, 0, -262181, 37, 0, -262180, 37, 0, -262179, 37, 0, -262178, 37, 0, -262177, 37, 0, -262176, 37, 0, -262175, 37, 0, -262174, 37, 0, -262173, 37, 0, -262172, 37, 0, -262171, 37, 0, -262170, 37, 0, -262169, 37, 0, -262168, 37, 0, -262167, 37, 0, -262166, 37, 0, -262165, 37, 0, -262164, 37, 0, -262163, 37, 0, -262162, 37, 0, -262161, 37, 0, -262160, 37, 0, -262159, 37, 0, -262158, 37, 0, -262157, 37, 0, -262156, 37, 0, -262155, 37, 0, -262154, 37, 0, -262153, 37, 0, -262152, 37, 0, -262151, 37, 0, -262150, 37, 0, -262149, 37, 0, -262148, 37, 0, -262147, 37, 0, -262146, 37, 0, -262145, 37, 0, -327680, 37, 0, -196647, 37, 0, -196646, 37, 0, -196645, 37, 0, -196644, 37, 0, -196643, 37, 0, -196642, 37, 0, -196641, 37, 0, -196640, 37, 0, -196639, 37, 0, -196638, 37, 0, -196637, 37, 0, -196636, 37, 0, -196635, 37, 0, -196634, 37, 0, -196633, 37, 0, -196632, 37, 0, -196631, 37, 0, -196630, 37, 0, -196629, 37, 0, -196628, 37, 0, -196627, 37, 0, -196626, 37, 0, -196625, 37, 0, -196624, 37, 0, -196623, 37, 0, -196622, 37, 0, -196621, 37, 0, -196620, 37, 0, -196619, 37, 0, -196618, 37, 0, -196617, 37, 0, -196616, 37, 0, -196615, 37, 0, -196614, 37, 0, -196613, 37, 0, -196612, 37, 0, -196611, 37, 0, -196610, 37, 0, -196609, 37, 0, -262144, 37, 0, -131111, 37, 0, -131110, 37, 0, -131109, 37, 0, -131108, 37, 0, -131107, 37, 0, -131106, 37, 0, -131105, 37, 0, -131104, 37, 0, -131103, 37, 0, -131102, 37, 0, -131101, 37, 0, -131100, 37, 0, -131099, 37, 0, -131098, 37, 0, -131097, 37, 0, -131096, 37, 0, -131095, 37, 0, -131094, 37, 0, -131093, 37, 0, -131092, 37, 0, -131091, 37, 0, -131090, 37, 0, -131089, 37, 0, -131088, 37, 0, -131087, 37, 0, -131086, 37, 0, -131085, 37, 0, -131084, 37, 0, -131083, 37, 0, -131082, 37, 0, -131081, 37, 0, -131080, 37, 0, -131079, 37, 0, -131078, 37, 0, -131077, 37, 0, -131076, 37, 0, -131075, 37, 0, -131074, 37, 0, -131073, 37, 0, -196608, 37, 0, -65575, 37, 0, -65574, 37, 0, -65573, 37, 0, -65572, 37, 0, -65571, 37, 0, -65570, 37, 0, -65569, 37, 0, -65568, 37, 0, -65567, 37, 0, -65566, 37, 0, -65565, 37, 0, -65564, 37, 0, -65563, 37, 0, -65562, 37, 0, -65561, 37, 0, -65560, 37, 0, -65559, 37, 0, -65558, 37, 0, -65557, 37, 0, -65556, 37, 0, -65555, 37, 0, -65554, 37, 0, -65553, 37, 0, -65552, 37, 0, -65551, 37, 0, -65550, 37, 0, -65549, 37, 0, -65548, 37, 0, -65547, 37, 0, -65546, 37, 0, -65545, 37, 0, -65544, 37, 0, -65543, 37, 0, -65542, 37, 0, -65541, 37, 0, -65540, 37, 0, -65539, 37, 0, -65538, 37, 0, -65537, 37, 0, -131072, 37, 0, -39, 37, 0, -38, 37, 0, -37, 37, 0, -36, 37, 0, -35, 37, 0, -34, 37, 0, -33, 37, 0, -32, 37, 0, -31, 37, 0, -30, 37, 0, -29, 37, 0, -28, 37, 0, -27, 37, 0, -26, 37, 0, -25, 37, 0, -24, 37, 0, -23, 37, 0, -22, 37, 0, -21, 37, 0, -20, 37, 0, -19, 37, 0, -18, 37, 0, -17, 37, 0, -16, 37, 0, -15, 37, 0, -14, 37, 0, -13, 37, 0, -12, 37, 0, -11, 37, 0, -10, 37, 0, -9, 37, 0, -8, 37, 0, -7, 37, 0, -6, 37, 0, -5, 37, 0, -4, 37, 0, -3, 37, 0, -2, 37, 0, -1, 37, 0, -65536, 37, 0 )

[node name="tilemap" type="TileMap" parent="."]
tile_set = ExtResource( 1 )
cell_size = Vector2( 32, 32 )
compatibility_mode = true
collision_layer = 524288
format = 1
tile_data = PoolIntArray( -1638432, 1610612737, 0, -1638431, 1073741824, 0, -1638430, 1073741824, 0, -1638429, 1073741824, 0, -1638428, 1073741824, 0, -1638427, 1073741824, 0, -1638426, 1073741824, 0, -1638425, 1073741824, 0, -1638424, 1073741824, 0, -1638423, 1073741824, 0, -1638422, 1073741824, 0, -1638421, 1073741824, 0, -1638420, 1073741824, 0, -1638419, 1073741824, 0, -1638418, 1073741824, 0, -1638417, 1073741824, 0, -1638416, 1073741824, 0, -1638415, 1073741824, 0, -1638414, 1073741824, 0, -1638413, 1073741824, 0, -1638412, 1073741824, 0, -1638411, 1073741824, 0, -1638410, 1073741824, 0, -1638409, 1073741824, 0, -1638408, 1073741824, 0, -1638407, 1073741825, 0, -1572896, 2, 0, -1572895, 8, 0, -1572893, 12, 0, -1572892, 12, 0, -1572891, 12, 0, -1572890, 9, 0, -1572887, 12, 0, -1572886, 12, 0, -1572885, 9, 0, -1572882, 12, 0, -1572881, 12, 0, -1572880, 9, 0, -1572877, 12, 0, -1572876, 12, 0, -1572875, 12, 0, -1572874, 12, 0, -1572873, 536870920, 0, -1572871, 2, 0, -1507360, 2, 0, -1507335, 2, 0, -1441824, 2, 0, -1441823, 10, 0, -1441822, 6, 0, -1441821, 23, 0, -1441820, 33, 0, -1441819, 33, 0, -1441818, 536870935, 0, -1441817, 10, 0, -1441816, 23, 0, -1441815, 33, 0, -1441814, 33, 0, -1441813, 536870935, 0, -1441812, 10, 0, -1441811, 23, 0, -1441810, 33, 0, -1441809, 33, 0, -1441808, 536870935, 0, -1441807, 10, 0, -1441806, 23, 0, -1441805, 33, 0, -1441804, 33, 0, -1441803, 536870935, 0, -1441802, 6, 0, -1441801, 6, 0, -1441800, 10, 0, -1441799, 2, 0, -1376288, 2, 0, -1376287, 10, 0, -1376286, 6, 0, -1376285, 27, 0, -1376282, 536870939, 0, -1376281, 10, 0, -1376280, 27, 0, -1376277, 536870939, 0, -1376276, 10, 0, -1376275, 27, 0, -1376272, 536870939, 0, -1376271, 10, 0, -1376270, 27, 0, -1376267, 536870939, 0, -1376266, 6, 0, -1376265, 6, 0, -1376264, 10, 0, -1376263, 2, 0, -1310752, 2, 0, -1310751, 10, 0, -1310750, 6, 0, -1310749, 27, 0, -1310746, 536870939, 0, -1310745, 10, 0, -1310744, 27, 0, -1310741, 536870939, 0, -1310740, 10, 0, -1310739, 27, 0, -1310736, 536870939, 0, -1310735, 10, 0, -1310734, 27, 0, -1310731, 536870939, 0, -1310730, 6, 0, -1310729, 6, 0, -1310728, 10, 0, -1310727, 2, 0, -1245216, 2, 0, -1245215, 10, 0, -1245214, 6, 0, -1245213, 28, 0, -1245212, 26, 0, -1245211, 26, 0, -1245210, 536870940, 0, -1245209, 10, 0, -1245208, 28, 0, -1245207, 26, 0, -1245206, 26, 0, -1245205, 536870940, 0, -1245204, 10, 0, -1245203, 28, 0, -1245202, 26, 0, -1245201, 26, 0, -1245200, 536870940, 0, -1245199, 10, 0, -1245198, 28, 0, -1245197, 26, 0, -1245196, 26, 0, -1245195, 536870940, 0, -1245194, 6, 0, -1245193, 6, 0, -1245192, 10, 0, -1245191, 2, 0, -1179680, 2, 0, -1179679, 10, 0, -1179678, 6, 0, -1179677, 27, 0, -1179674, 536870939, 0, -1179673, 10, 0, -1179672, 27, 0, -1179669, 536870939, 0, -1179668, 10, 0, -1179667, 27, 0, -1179664, 536870939, 0, -1179663, 10, 0, -1179662, 27, 0, -1179659, 536870939, 0, -1179658, 6, 0, -1179657, 6, 0, -1179656, 10, 0, -1179655, 2, 0, -1114144, 2, 0, -1114143, 10, 0, -1114142, 6, 0, -1114141, 27, 0, -1114138, 536870939, 0, -1114137, 10, 0, -1114136, 27, 0, -1114133, 536870939, 0, -1114132, 10, 0, -1114131, 27, 0, -1114128, 536870939, 0, -1114127, 10, 0, -1114126, 27, 0, -1114123, 536870939, 0, -1114122, 6, 0, -1114121, 6, 0, -1114120, 10, 0, -1114119, 2, 0, -1048608, 2, 0, -1048607, 10, 0, -1048606, 6, 0, -1048605, 27, 0, -1048602, 536870939, 0, -1048601, 10, 0, -1048600, 27, 0, -1048597, 536870939, 0, -1048596, 10, 0, -1048595, 27, 0, -1048592, 536870939, 0, -1048591, 10, 0, -1048590, 27, 0, -1048587, 536870939, 0, -1048586, 6, 0, -1048585, 6, 0, -1048584, 10, 0, -1048583, 2, 0, -983072, 2, 0, -983071, 10, 0, -983070, 6, 0, -983069, 27, 0, -983066, 536870939, 0, -983065, 10, 0, -983064, 27, 0, -983061, 536870939, 0, -983060, 10, 0, -983059, 27, 0, -983056, 536870939, 0, -983055, 10, 0, -983054, 27, 0, -983051, 536870939, 0, -983050, 6, 0, -983049, 6, 0, -983048, 10, 0, -983047, 1610612737, 0, -917536, 2, 0, -917535, 10, 0, -917534, 6, 0, -917533, 28, 0, -917532, 26, 0, -917531, 26, 0, -917530, 536870940, 0, -917529, 10, 0, -917528, 28, 0, -917527, 26, 0, -917526, 26, 0, -917525, 536870940, 0, -917524, 10, 0, -917523, 28, 0, -917522, 26, 0, -917521, 26, 0, -917520, 536870940, 0, -917519, 10, 0, -917518, 28, 0, -917517, 26, 0, -917516, 26, 0, -917515, 536870940, 0, -917514, 6, 0, -917513, 6, 0, -917512, 10, 0, -917511, 7, 0, -852000, 2, 0, -851999, 10, 0, -851998, 6, 0, -851997, 27, 0, -851994, 536870939, 0, -851993, 10, 0, -851992, 27, 0, -851989, 536870939, 0, -851988, 10, 0, -851987, 27, 0, -851984, 536870939, 0, -851983, 10, 0, -851982, 27, 0, -851979, 536870939, 0, -851978, 6, 0, -851977, 6, 0, -851976, 10, 0, -851975, 7, 0, -786464, 2, 0, -786463, 10, 0, -786462, 6, 0, -786461, 27, 0, -786458, 536870939, 0, -786457, 10, 0, -786456, 27, 0, -786453, 536870939, 0, -786452, 10, 0, -786451, 27, 0, -786448, 536870939, 0, -786447, 10, 0, -786446, 27, 0, -786443, 536870939, 0, -786442, 6, 0, -786441, 6, 0, -786440, 10, 0, -786439, 7, 0, -720928, 2, 0, -720927, 10, 0, -720926, 6, 0, -720925, 27, 0, -720922, 536870939, 0, -720921, 10, 0, -720920, 27, 0, -720917, 536870939, 0, -720916, 10, 0, -720915, 27, 0, -720912, 536870939, 0, -720911, 10, 0, -720910, 27, 0, -720907, 536870939, 0, -720906, 6, 0, -720905, 6, 0, -720904, 10, 0, -720903, 7, 0, -655392, 2, 0, -655391, 11, 0, -655390, 6, 0, -655389, 28, 0, -655388, 26, 0, -655387, 26, 0, -655386, 536870940, 0, -655385, 11, 0, -655384, 28, 0, -655383, 26, 0, -655382, 26, 0, -655381, 536870940, 0, -655380, 11, 0, -655379, 28, 0, -655378, 26, 0, -655377, 26, 0, -655376, 536870940, 0, -655375, 11, 0, -655374, 28, 0, -655373, 26, 0, -655372, 26, 0, -655371, 536870940, 0, -655370, 6, 0, -655369, 6, 0, -655368, 11, 0, -655367, 7, 0, -589856, 536870913, 0, -589855, 0, 0, -589854, 0, 0, -589853, 0, 0, -589852, 0, 0, -589851, 0, 0, -589850, 0, 0, -589849, 0, 0, -589848, 0, 0, -589847, 0, 0, -589846, 0, 0, -589845, 0, 0, -589844, 0, 0, -589843, 0, 0, -589842, 0, 0, -589841, 0, 0, -589840, 0, 0, -589839, 0, 0, -589838, 0, 0, -589837, 0, 0, -589836, 0, 0, -589835, 0, 0, -589834, 0, 0, -589833, 0, 0, -589832, 0, 0, -589831, 1, 0, -524320, 2, 0, -524319, 5, 0, -524318, 5, 0, -524317, 5, 0, -524316, 5, 0, -524315, 5, 0, -524314, 5, 0, -524313, 5, 0, -524312, 5, 0, -524311, 5, 0, -524310, 5, 0, -524309, 5, 0, -524308, 5, 0, -524307, 5, 0, -524306, 5, 0, -524305, 5, 0, -524304, 5, 0, -524303, 5, 0, -524302, 5, 0, -524301, 5, 0, -524300, 5, 0, -524299, 5, 0, -524298, 5, 0, -524297, 5, 0, -524296, 5, 0, -524295, 2, 0, -458784, 2, 0, -458783, 5, 0, -458782, 5, 0, -458781, 5, 0, -458780, 5, 0, -458779, 5, 0, -458778, 5, 0, -458777, 5, 0, -458776, 5, 0, -458775, 5, 0, -458774, 5, 0, -458773, 5, 0, -458772, 5, 0, -458771, 5, 0, -458770, 5, 0, -458769, 5, 0, -458768, 5, 0, -458767, 5, 0, -458766, 5, 0, -458765, 5, 0, -458764, 5, 0, -458763, 5, 0, -458762, 5, 0, -458761, 5, 0, -458760, 5, 0, -458759, 2, 0, -393248, 2, 0, -393247, 5, 0, -393246, 5, 0, -393245, 5, 0, -393244, 5, 0, -393243, 5, 0, -393242, 5, 0, -393241, 5, 0, -393240, 5, 0, -393239, 5, 0, -393238, 5, 0, -393237, 5, 0, -393236, 5, 0, -393235, 5, 0, -393234, 5, 0, -393233, 5, 0, -393232, 5, 0, -393231, 5, 0, -393230, 5, 0, -393229, 5, 0, -393228, 5, 0, -393227, 5, 0, -393226, 5, 0, -393225, 5, 0, -393224, 5, 0, -393223, 2, 0 )

[node name="TorchGroup" type="Node2D" parent="tilemap"]

[node name="torch" parent="tilemap/TorchGroup" instance=ExtResource( 2 )]
position = Vector2( -464, -448 )

[node name="torch2" parent="tilemap/TorchGroup" instance=ExtResource( 2 )]
position = Vector2( -784, -448 )

[node name="StatueGroup" type="Node2D" parent="tilemap"]

[node name="soprano" parent="tilemap/StatueGroup" instance=ExtResource( 3 )]
position = Vector2( -896, -640 )

[node name="Sprite" parent="tilemap/StatueGroup/soprano" index="0"]
texture = ExtResource( 4 )

[node name="line" parent="tilemap/StatueGroup/soprano" index="1"]
self_modulate = Color( 0, 0.859375, 1, 1 )
texture = ExtResource( 5 )

[node name="rubble" parent="tilemap/StatueGroup/soprano" index="2"]
texture = ExtResource( 6 )

[node name="dust" parent="tilemap/StatueGroup/soprano" index="3"]
process_material = SubResource( 1 )

[node name="dust1" parent="tilemap/StatueGroup/soprano" index="4"]
process_material = SubResource( 1 )

[node name="dust2" parent="tilemap/StatueGroup/soprano" index="5"]
process_material = SubResource( 1 )

[node name="dust3" parent="tilemap/StatueGroup/soprano" index="6"]
process_material = SubResource( 1 )

[node name="dust4" parent="tilemap/StatueGroup/soprano" index="7"]
process_material = SubResource( 1 )

[node name="explode" parent="tilemap/StatueGroup/soprano" index="8"]
process_material = SubResource( 4 )

[node name="collision" parent="tilemap/StatueGroup/soprano" index="9"]
visible = true

[node name="voice" parent="tilemap/StatueGroup/soprano" index="11"]
stream = ExtResource( 17 )

[node name="alto" parent="tilemap/StatueGroup" instance=ExtResource( 3 )]
position = Vector2( -736, -640 )

[node name="Sprite" parent="tilemap/StatueGroup/alto" index="0"]
texture = ExtResource( 7 )

[node name="line" parent="tilemap/StatueGroup/alto" index="1"]
self_modulate = Color( 0.828125, 0, 1, 1 )
texture = ExtResource( 8 )

[node name="rubble" parent="tilemap/StatueGroup/alto" index="2"]
texture = ExtResource( 9 )

[node name="dust" parent="tilemap/StatueGroup/alto" index="3"]
process_material = SubResource( 5 )

[node name="dust1" parent="tilemap/StatueGroup/alto" index="4"]
process_material = SubResource( 5 )

[node name="dust2" parent="tilemap/StatueGroup/alto" index="5"]
process_material = SubResource( 5 )

[node name="dust3" parent="tilemap/StatueGroup/alto" index="6"]
process_material = SubResource( 5 )

[node name="dust4" parent="tilemap/StatueGroup/alto" index="7"]
process_material = SubResource( 5 )

[node name="explode" parent="tilemap/StatueGroup/alto" index="8"]
local_coords = true
process_material = SubResource( 6 )

[node name="collision" parent="tilemap/StatueGroup/alto" index="9"]
visible = true

[node name="voice" parent="tilemap/StatueGroup/alto" index="11"]
stream = ExtResource( 18 )

[node name="tenor" parent="tilemap/StatueGroup" instance=ExtResource( 3 )]
position = Vector2( -576, -640 )

[node name="Sprite" parent="tilemap/StatueGroup/tenor" index="0"]
texture = ExtResource( 10 )

[node name="line" parent="tilemap/StatueGroup/tenor" index="1"]
self_modulate = Color( 0, 1, 0.414062, 1 )
texture = ExtResource( 11 )

[node name="rubble" parent="tilemap/StatueGroup/tenor" index="2"]
texture = ExtResource( 12 )

[node name="dust" parent="tilemap/StatueGroup/tenor" index="3"]
process_material = SubResource( 7 )

[node name="dust1" parent="tilemap/StatueGroup/tenor" index="4"]
process_material = SubResource( 7 )

[node name="dust2" parent="tilemap/StatueGroup/tenor" index="5"]
process_material = SubResource( 7 )

[node name="dust3" parent="tilemap/StatueGroup/tenor" index="6"]
process_material = SubResource( 7 )

[node name="dust4" parent="tilemap/StatueGroup/tenor" index="7"]
process_material = SubResource( 7 )

[node name="explode" parent="tilemap/StatueGroup/tenor" index="8"]
process_material = SubResource( 10 )

[node name="collision" parent="tilemap/StatueGroup/tenor" index="9"]
visible = true

[node name="voice" parent="tilemap/StatueGroup/tenor" index="11"]
stream = ExtResource( 20 )

[node name="bass" parent="tilemap/StatueGroup" instance=ExtResource( 3 )]
position = Vector2( -416, -640 )

[node name="collision" parent="tilemap/StatueGroup/bass" index="9"]
visible = true

[node name="voice" parent="tilemap/StatueGroup/bass" index="11"]
stream = ExtResource( 19 )

[node name="BossGroup" type="Node2D" parent="tilemap"]

[node name="StatueHead" parent="tilemap/BossGroup" instance=ExtResource( 13 )]
position = Vector2( -640, -592 )

[node name="GateGroup" type="Node2D" parent="tilemap"]

[node name="SensorGroup" type="Node2D" parent="tilemap"]

[node name="sensor" type="Area2D" parent="tilemap/SensorGroup"]
position = Vector2( -272, -560 )
scale = Vector2( 1, 15 )
script = ExtResource( 14 )

[node name="CollisionShape2D" type="CollisionShape2D" parent="tilemap/SensorGroup/sensor"]
shape = SubResource( 11 )

[node name="TeleportGroup" type="Node2D" parent="tilemap"]

[node name="Teleport" parent="tilemap/TeleportGroup" instance=ExtResource( 15 )]
position = Vector2( -176, -400 )
target_level = "res://levels/marblecastle/0-8.tscn"
teleport_to = Vector2( -332, 336 )

[node name="teleport" parent="tilemap/TeleportGroup/Teleport" index="0"]
scale = Vector2( 1, 5 )

[node name="boundaries" type="Node2D" parent="tilemap"]

[node name="NW" type="Position2D" parent="tilemap/boundaries"]
position = Vector2( -1030, -838 )

[node name="SE" type="Position2D" parent="tilemap/boundaries"]
position = Vector2( -182, -182 )

[node name="ParallaxBackground" parent="." instance=ExtResource( 16 )]

[node name="Sprite" parent="ParallaxBackground/ParallaxLayer3" index="0"]
position = Vector2( 400, 0 )

[node name="Sprite" parent="ParallaxBackground/ParallaxLayer4" index="0"]
position = Vector2( 400, 0 )

[editable path="tilemap/StatueGroup/soprano"]

[editable path="tilemap/StatueGroup/alto"]

[editable path="tilemap/StatueGroup/tenor"]

[editable path="tilemap/StatueGroup/bass"]

[editable path="tilemap/TeleportGroup/Teleport"]

[editable path="ParallaxBackground"]
