[gd_scene load_steps=5 format=2]

[ext_resource path="res://scenes/winterislandcastle/tileset.tres" type="TileSet" id=1]
[ext_resource path="res://scenes/common/breakables/pot.tscn" type="PackedScene" id=2]
[ext_resource path="res://scenes/common/damagables/skeleton/skeleton.tscn" type="PackedScene" id=3]
[ext_resource path="res://scenes/common/teleport.tscn" type="PackedScene" id=4]

[node name="LVL_NOTITLE" type="Node2D"]
__meta__ = {
"__editor_plugin_screen__": "2D"
}

[node name="tilemap" type="TileMap" parent="."]
tile_set = ExtResource( 1 )
cell_size = Vector2( 32, 32 )
compatibility_mode = true
collision_layer = 524288
format = 1
tile_data = PoolIntArray( -327686, 1610612737, 0, -327685, 1073741824, 0, -327684, 1073741824, 0, -327683, 1073741824, 0, -327682, 1073741824, 0, -327681, 1073741824, 0, -393216, 1073741824, 0, -393215, 1073741824, 0, -393214, 1073741824, 0, -393213, 1073741824, 0, -393212, 1073741824, 0, -393211, 1073741824, 0, -393210, 1073741824, 0, -393209, 1073741824, 0, -393208, 1073741824, 0, -393207, 1073741824, 0, -393206, 1073741824, 0, -393205, 1073741824, 0, -393204, 1073741824, 0, -393203, 1073741824, 0, -393202, 1073741824, 0, -393201, 1073741824, 0, -393200, 1073741824, 0, -393199, 1073741824, 0, -393198, 1073741824, 0, -393197, 1073741825, 0, -262150, 2, 0, -262149, 10, 0, -262145, 10, 0, -327677, 10, 0, -327673, 10, 0, -327669, 10, 0, -327665, 10, 0, -327661, 2, 0, -196614, 2, 0, -262125, 2, 0, -131078, 2, 0, -131077, 24, 0, -131073, 23, 0, -196605, 22, 0, -196601, 24, 0, -196597, 25, 0, -196593, 24, 0, -196589, 2, 0, -65542, 2, 0, -131053, 2, 0, -6, 1073741825, 0, -65517, 1610612737, 0, 65530, 7, 0, 19, 7, 0, 131066, 7, 0, 65555, 7, 0, 196602, 7, 0, 131091, 7, 0, 262138, 7, 0, 196627, 7, 0, 327674, 7, 0, 262163, 7, 0, 393210, 536870913, 0, 393211, 0, 0, 393212, 0, 0, 393213, 0, 0, 393214, 0, 0, 393215, 0, 0, 327680, 0, 0, 327681, 0, 0, 327682, 0, 0, 327683, 0, 0, 327684, 0, 0, 327685, 0, 0, 327686, 0, 0, 327687, 0, 0, 327688, 0, 0, 327689, 0, 0, 327690, 0, 0, 327691, 0, 0, 327692, 0, 0, 327693, 0, 0, 327694, 0, 0, 327695, 0, 0, 327696, 0, 0, 327697, 0, 0, 327698, 0, 0, 327699, 1, 0, 458746, 2, 0, 458747, 3, 0, 458748, -1610612732, 0, 458749, -1610612732, 0, 458750, -1610612732, 0, 458751, -1610612732, 0, 393216, -1610612732, 0, 393217, -1610612732, 0, 393218, -1610612732, 0, 393219, -1610612732, 0, 393220, -1610612732, 0, 393221, -1610612732, 0, 393222, -1610612732, 0, 393223, -1610612732, 0, 393224, -1610612732, 0, 393225, -1610612732, 0, 393226, -1610612732, 0, 393227, -1610612732, 0, 393228, -1610612732, 0, 393229, -1610612732, 0, 393230, -1610612732, 0, 393231, -1610612732, 0, 393232, -1610612732, 0, 393233, -1610612732, 0, 393234, 536870915, 0, 393235, 2, 0, 524282, 2, 0, 524283, 4, 0, 524284, 5, 0, 524285, 5, 0, 524286, 5, 0, 524287, 5, 0, 458752, 5, 0, 458753, 5, 0, 458754, 5, 0, 458755, 5, 0, 458756, 5, 0, 458757, 5, 0, 458758, 5, 0, 458759, 5, 0, 458760, 5, 0, 458761, 5, 0, 458762, 5, 0, 458763, 5, 0, 458764, 5, 0, 458765, 5, 0, 458766, 5, 0, 458767, 5, 0, 458768, 5, 0, 458769, 5, 0, 458770, 4, 0, 458771, 2, 0, 589818, 2, 0, 589819, 4, 0, 589820, 5, 0, 589821, 5, 0, 589822, 5, 0, 589823, 5, 0, 524288, 5, 0, 524289, 5, 0, 524290, 5, 0, 524291, 5, 0, 524292, 5, 0, 524293, 5, 0, 524294, 5, 0, 524295, 5, 0, 524296, 5, 0, 524297, 5, 0, 524298, 5, 0, 524299, 5, 0, 524300, 5, 0, 524301, 5, 0, 524302, 5, 0, 524303, 5, 0, 524304, 5, 0, 524305, 5, 0, 524306, 4, 0, 524307, 2, 0, 655354, 2, 0, 655355, 1073741827, 0, 655356, -1610612732, 0, 655357, -1610612732, 0, 655358, -1610612732, 0, 655359, -1610612732, 0, 589824, -1610612732, 0, 589825, -1610612732, 0, 589826, -1610612732, 0, 589827, -1610612732, 0, 589828, -1610612732, 0, 589829, -1610612732, 0, 589830, -1610612732, 0, 589831, -1610612732, 0, 589832, -1610612732, 0, 589833, -1610612732, 0, 589834, -1610612732, 0, 589835, -1610612732, 0, 589836, -1610612732, 0, 589837, -1610612732, 0, 589838, -1610612732, 0, 589839, -1610612732, 0, 589840, -1610612732, 0, 589841, -1610612732, 0, 589842, 1610612739, 0, 589843, 2, 0 )

[node name="PotGroup" type="Node2D" parent="tilemap"]

[node name="Pot" parent="tilemap/PotGroup" instance=ExtResource( 2 )]
position = Vector2( 176, 112 )

[node name="EnemiesGroup" type="Node2D" parent="tilemap"]

[node name="Skeleton" parent="tilemap/EnemiesGroup" instance=ExtResource( 3 )]
position = Vector2( -48, 112 )
level = 2

[node name="Skeleton1" parent="tilemap/EnemiesGroup" instance=ExtResource( 3 )]
position = Vector2( 400, 112 )
level = 2

[node name="TeleportGroup" type="Node2D" parent="tilemap"]

[node name="Teleport" parent="tilemap/TeleportGroup" instance=ExtResource( 4 )]
position = Vector2( -208, 80 )
target_level = "res://levels/winterislandcastle/0-0.tscn"
teleport_to = Vector2( 236, -880 )

[node name="teleport" parent="tilemap/TeleportGroup/Teleport" index="0"]
scale = Vector2( 1, 5 )

[node name="Teleport1" parent="tilemap/TeleportGroup" instance=ExtResource( 4 )]
position = Vector2( 656, 80 )
target_level = "res://levels/winterislandcastle/2-1.tscn"
teleport_to = Vector2( -396, 144 )

[node name="teleport" parent="tilemap/TeleportGroup/Teleport1" index="0"]
scale = Vector2( 1, 5 )

[node name="boundaries" type="Node2D" parent="tilemap"]

[node name="NW" type="Position2D" parent="tilemap/boundaries"]
position = Vector2( -208, -208 )

[node name="SE" type="Position2D" parent="tilemap/boundaries"]
position = Vector2( 656, 336 )

[editable path="tilemap/TeleportGroup/Teleport"]

[editable path="tilemap/TeleportGroup/Teleport1"]
