[gd_scene load_steps=11 format=2]

[ext_resource path="res://scenes/winterislandcastle/tileset.tres" type="TileSet" id=1]
[ext_resource path="res://scenes/dungeon/ladder/ladder.tscn" type="PackedScene" id=2]
[ext_resource path="res://scenes/dungeon/ladder/laddertop.tscn" type="PackedScene" id=3]
[ext_resource path="res://scenes/springislandcastle/BGs/edge.png" type="Texture" id=4]
[ext_resource path="res://scenes/springislandcastle/BGs/marble.png" type="Texture" id=5]
[ext_resource path="res://scenes/common/switches/floorswitch.tscn" type="PackedScene" id=6]
[ext_resource path="res://scenes/common/breakables/pot.tscn" type="PackedScene" id=7]
[ext_resource path="res://scenes/common/damagables/zombie/zombie.tscn" type="PackedScene" id=8]
[ext_resource path="res://scenes/common/teleport.tscn" type="PackedScene" id=9]

[sub_resource type="RectangleShape2D" id=1]
extents = Vector2( 48, 160 )

[node name="LVL_NOTITLE" type="Node2D"]
__meta__ = {
"__editor_plugin_screen__": "2D"
}

[node name="tilemap" type="TileMap" parent="."]
tile_set = ExtResource( 1 )
cell_size = Vector2( 32, 32 )
compatibility_mode = true
collision_layer = 524288
format = 1
tile_data = PoolIntArray( 65490, 1610612737, 0, 65491, 1073741824, 0, 65492, 1073741824, 0, 65493, 1073741824, 0, 65494, 1073741824, 0, 65495, 1073741824, 0, 65496, 1073741824, 0, 65497, 1073741824, 0, 65498, 1073741825, 0, 65499, 7, 0, 65500, 7, 0, 65501, 7, 0, 65502, 1610612737, 0, 65503, 1073741824, 0, 65504, 1073741824, 0, 65505, 1073741824, 0, 65506, 1073741824, 0, 65507, 1073741824, 0, 65508, 1073741824, 0, 65509, 1073741824, 0, 65510, 1073741824, 0, 65511, 1073741824, 0, 65512, 1073741824, 0, 65513, 1073741824, 0, 65514, 1073741824, 0, 65515, 1073741824, 0, 65516, 1073741824, 0, 65517, 1073741824, 0, 65518, 1073741824, 0, 65519, 1073741824, 0, 65520, 1073741824, 0, 65521, 1073741824, 0, 65522, 1073741824, 0, 65523, 1073741824, 0, 65524, 1073741824, 0, 65525, 1073741824, 0, 65526, 1073741824, 0, 65527, 1073741824, 0, 65528, 1073741824, 0, 65529, 1073741824, 0, 65530, 1073741824, 0, 65531, 1073741824, 0, 65532, 1073741824, 0, 65533, 1073741824, 0, 65534, 1073741824, 0, 65535, 1073741824, 0, 0, 1073741824, 0, 1, 1073741824, 0, 2, 1073741824, 0, 3, 1073741824, 0, 4, 1073741824, 0, 5, 1073741824, 0, 6, 1073741825, 0, 131026, 2, 0, 131027, 10, 0, 131031, 10, 0, 131035, 10, 0, 131039, 10, 0, 131043, 10, 0, 131047, 10, 0, 131051, 10, 0, 131055, 7, 0, 131056, 7, 0, 131057, 7, 0, 131058, 10, 0, 131062, 10, 0, 131066, 10, 0, 131070, 10, 0, 65538, 10, 0, 65542, 2, 0, 196562, 2, 0, 196591, 7, 0, 196592, 7, 0, 196593, 7, 0, 131078, 2, 0, 262098, 2, 0, 262099, 6, 0, 262103, 13, 0, 262107, 22, 0, 262111, 22, 0, 262115, 23, 0, 262119, 22, 0, 262123, 6, 0, 262127, 7, 0, 262128, 7, 0, 262129, 7, 0, 262130, 6, 0, 262134, 13, 0, 262138, 24, 0, 262142, 13, 0, 196610, 6, 0, 196614, 2, 0, 327634, 2, 0, 327663, 7, 0, 327664, 7, 0, 327665, 7, 0, 262150, 2, 0, 393170, 1073741825, 0, 393199, 7, 0, 393200, 7, 0, 393201, 7, 0, 327686, 2, 0, 458706, 7, 0, 458735, 7, 0, 458736, 7, 0, 458737, 7, 0, 393222, 2, 0, 524242, 7, 0, 524271, 7, 0, 524272, 7, 0, 524273, 7, 0, 458758, 2, 0, 589778, 7, 0, 589807, 7, 0, 589808, 7, 0, 589809, 7, 0, 524294, 2, 0, 655314, 7, 0, 655343, 7, 0, 655344, 7, 0, 655345, 7, 0, 589830, 2, 0, 720850, 7, 0, 720879, 7, 0, 720880, 7, 0, 720881, 7, 0, 655366, 2, 0, 786386, 536870913, 0, 786387, 0, 0, 786388, 0, 0, 786389, 0, 0, 786390, 0, 0, 786391, 0, 0, 786392, 0, 0, 786393, 0, 0, 786394, 0, 0, 786395, 0, 0, 786396, 0, 0, 786397, 0, 0, 786398, 0, 0, 786399, 0, 0, 786400, 0, 0, 786401, 0, 0, 786402, 0, 0, 786403, 0, 0, 786404, 0, 0, 786405, 0, 0, 786406, 0, 0, 786407, 0, 0, 786408, 0, 0, 786409, 0, 0, 786410, 0, 0, 786411, 0, 0, 786412, 0, 0, 786413, 0, 0, 786414, 0, 0, 786415, 0, 0, 786416, 0, 0, 786417, 0, 0, 786418, 0, 0, 786419, 0, 0, 786420, 0, 0, 786421, 0, 0, 786422, 0, 0, 786423, 0, 0, 786424, 0, 0, 786425, 1, 0, 786426, 7, 0, 786427, 7, 0, 786428, 7, 0, 786429, 536870913, 0, 786430, 0, 0, 786431, 0, 0, 720896, 0, 0, 720897, 0, 0, 720898, 0, 0, 720899, 0, 0, 720900, 0, 0, 720901, 0, 0, 720902, 1, 0, 851922, 2, 0, 851923, 3, 0, 851924, -1610612732, 0, 851925, -1610612732, 0, 851926, -1610612732, 0, 851927, -1610612732, 0, 851928, -1610612732, 0, 851929, -1610612732, 0, 851930, -1610612732, 0, 851931, -1610612732, 0, 851932, -1610612732, 0, 851933, -1610612732, 0, 851934, -1610612732, 0, 851935, -1610612732, 0, 851936, -1610612732, 0, 851937, -1610612732, 0, 851938, -1610612732, 0, 851939, -1610612732, 0, 851940, -1610612732, 0, 851941, -1610612732, 0, 851942, -1610612732, 0, 851943, -1610612732, 0, 851944, -1610612732, 0, 851945, -1610612732, 0, 851946, -1610612732, 0, 851947, -1610612732, 0, 851948, -1610612732, 0, 851949, -1610612732, 0, 851950, -1610612732, 0, 851951, -1610612732, 0, 851952, -1610612732, 0, 851953, -1610612732, 0, 851954, -1610612732, 0, 851955, -1610612732, 0, 851956, -1610612732, 0, 851957, -1610612732, 0, 851958, -1610612732, 0, 851959, -1610612732, 0, 851960, 536870915, 0, 851961, 2, 0, 851962, 7, 0, 851963, 7, 0, 851964, 7, 0, 851965, 2, 0, 851966, 3, 0, 851967, -1610612732, 0, 786432, -1610612732, 0, 786433, -1610612732, 0, 786434, -1610612732, 0, 786435, -1610612732, 0, 786436, -1610612732, 0, 786437, 536870915, 0, 786438, 2, 0, 917458, 2, 0, 917459, 4, 0, 917460, 5, 0, 917461, 5, 0, 917462, 5, 0, 917463, 5, 0, 917464, 5, 0, 917465, 5, 0, 917466, 5, 0, 917467, 5, 0, 917468, 5, 0, 917469, 5, 0, 917470, 5, 0, 917471, 5, 0, 917472, 5, 0, 917473, 5, 0, 917474, 5, 0, 917475, 5, 0, 917476, 5, 0, 917477, 5, 0, 917478, 5, 0, 917479, 5, 0, 917480, 5, 0, 917481, 5, 0, 917482, 5, 0, 917483, 5, 0, 917484, 5, 0, 917485, 5, 0, 917486, 5, 0, 917487, 5, 0, 917488, 5, 0, 917489, 5, 0, 917490, 5, 0, 917491, 5, 0, 917492, 5, 0, 917493, 5, 0, 917494, 5, 0, 917495, 5, 0, 917496, 4, 0, 917497, 2, 0, 917498, 7, 0, 917499, 7, 0, 917500, 7, 0, 917501, 2, 0, 917502, 4, 0, 917503, 5, 0, 851968, 5, 0, 851969, 5, 0, 851970, 5, 0, 851971, 5, 0, 851972, 5, 0, 851973, 4, 0, 851974, 2, 0, 982994, 2, 0, 982995, 1073741827, 0, 982996, -1610612732, 0, 982997, -1610612732, 0, 982998, -1610612732, 0, 982999, -1610612732, 0, 983000, -1610612732, 0, 983001, -1610612732, 0, 983002, -1610612732, 0, 983003, -1610612732, 0, 983004, -1610612732, 0, 983005, -1610612732, 0, 983006, -1610612732, 0, 983007, -1610612732, 0, 983008, -1610612732, 0, 983009, -1610612732, 0, 983010, -1610612732, 0, 983011, -1610612732, 0, 983012, -1610612732, 0, 983013, -1610612732, 0, 983014, -1610612732, 0, 983015, -1610612732, 0, 983016, -1610612732, 0, 983017, -1610612732, 0, 983018, -1610612732, 0, 983019, -1610612732, 0, 983020, -1610612732, 0, 983021, -1610612732, 0, 983022, -1610612732, 0, 983023, -1610612732, 0, 983024, -1610612732, 0, 983025, -1610612732, 0, 983026, -1610612732, 0, 983027, -1610612732, 0, 983028, -1610612732, 0, 983029, -1610612732, 0, 983030, -1610612732, 0, 983031, -1610612732, 0, 983032, 1610612739, 0, 983033, 2, 0, 983034, 7, 0, 983035, 7, 0, 983036, 7, 0, 983037, 2, 0, 983038, 1073741827, 0, 983039, -1610612732, 0, 917504, -1610612732, 0, 917505, -1610612732, 0, 917506, -1610612732, 0, 917507, -1610612732, 0, 917508, -1610612732, 0, 917509, 1610612739, 0, 917510, 2, 0 )

[node name="LadderGroup" type="Node2D" parent="tilemap"]

[node name="TestLadder" parent="tilemap/LadderGroup" instance=ExtResource( 2 )]
position = Vector2( -144, 416 )

[node name="Sprite" parent="tilemap/LadderGroup/TestLadder/KinematicBody2D" index="0"]
region_rect = Rect2( 0, 0, 32, 128 )

[node name="ladder" parent="tilemap/LadderGroup/TestLadder/KinematicBody2D" index="1"]
scale = Vector2( 1, 4 )

[node name="TestLadder1" parent="tilemap/LadderGroup" instance=ExtResource( 2 )]
position = Vector2( -1136, 80 )

[node name="Sprite" parent="tilemap/LadderGroup/TestLadder1/KinematicBody2D" index="0"]
region_rect = Rect2( 0, 0, 32, 160 )

[node name="ladder" parent="tilemap/LadderGroup/TestLadder1/KinematicBody2D" index="1"]
scale = Vector2( 1, 5 )

[node name="TestLadder 2" parent="tilemap/LadderGroup" instance=ExtResource( 3 )]
position = Vector2( -144, 336 )

[node name="PlatformGroup" type="Node2D" parent="tilemap"]

[node name="platform" type="Node2D" parent="tilemap/PlatformGroup"]
position = Vector2( -496, 192 )

[node name="Sprite" type="Sprite" parent="tilemap/PlatformGroup/platform"]
position = Vector2( 32, 0 )
texture = ExtResource( 4 )
region_enabled = true
region_rect = Rect2( 0, 0, 32, 320 )

[node name="Sprite2" type="Sprite" parent="tilemap/PlatformGroup/platform"]
texture = ExtResource( 5 )
region_enabled = true
region_rect = Rect2( 0, 0, 32, 320 )

[node name="Sprite1" type="Sprite" parent="tilemap/PlatformGroup/platform"]
position = Vector2( -32, 0 )
texture = ExtResource( 4 )
region_enabled = true
region_rect = Rect2( 0, 0, 32, 320 )

[node name="StaticBody2D" type="StaticBody2D" parent="tilemap/PlatformGroup/platform"]
collision_layer = 524288

[node name="CollisionShape2D" type="CollisionShape2D" parent="tilemap/PlatformGroup/platform/StaticBody2D"]
shape = SubResource( 1 )

[node name="SwitchGroup" type="Node2D" parent="tilemap"]

[node name="FloorSwitch" parent="tilemap/SwitchGroup" instance=ExtResource( 6 )]
position = Vector2( 48, 352 )
once = true
target_nodes = [ "PlatformGroup/platform" ]
enabled = false
invert = true

[node name="PotGroup" type="Node2D" parent="tilemap"]

[node name="Pot" parent="tilemap/PotGroup" instance=ExtResource( 7 )]
position = Vector2( 48, 304 )
type = "SWITCH"
reward = "SwitchGroup/FloorSwitch"

[node name="Pot1" parent="tilemap/PotGroup" instance=ExtResource( 7 )]
position = Vector2( -320, 304 )
type = "SWITCH"
reward = "SwitchGroup/FloorSwitch"

[node name="Pot2" parent="tilemap/PotGroup" instance=ExtResource( 7 )]
position = Vector2( -1296, 304 )
type = "SWITCH"
reward = "SwitchGroup/FloorSwitch"

[node name="EnemiesGroup" type="Node2D" parent="tilemap"]

[node name="Zombie" parent="tilemap/EnemiesGroup" instance=ExtResource( 8 )]
position = Vector2( -736, 288 )

[node name="Zombie1" parent="tilemap/EnemiesGroup" instance=ExtResource( 8 )]
position = Vector2( -832, 288 )

[node name="Zombie2" parent="tilemap/EnemiesGroup" instance=ExtResource( 8 )]
position = Vector2( -928, 288 )

[node name="Zombie3" parent="tilemap/EnemiesGroup" instance=ExtResource( 8 )]
position = Vector2( -624, 288 )

[node name="Zombie4" parent="tilemap/EnemiesGroup" instance=ExtResource( 8 )]
position = Vector2( -688, 288 )

[node name="Zombie5" parent="tilemap/EnemiesGroup" instance=ExtResource( 8 )]
position = Vector2( -1008, 288 )

[node name="TeleportGroup" type="Node2D" parent="tilemap"]

[node name="Teleport" parent="tilemap/TeleportGroup" instance=ExtResource( 9 )]
position = Vector2( -1488, 272 )
target_level = "res://levels/winterislandcastle/0-1.tscn"
teleport_to = Vector2( 940, -496 )

[node name="teleport" parent="tilemap/TeleportGroup/Teleport" index="0"]
scale = Vector2( 1, 5 )

[node name="Teleport1" parent="tilemap/TeleportGroup" instance=ExtResource( 9 )]
position = Vector2( -144, 496 )
is_horizontal = false
target_level = "res://levels/winterislandcastle/6-5.tscn"
teleport_to = Vector2( -1264, -16 )

[node name="teleport" parent="tilemap/TeleportGroup/Teleport1" index="0"]
scale = Vector2( 3, 1 )

[node name="Teleport2" parent="tilemap/TeleportGroup" instance=ExtResource( 9 )]
position = Vector2( -1136, -16 )
is_horizontal = false
target_level = "res://levels/winterislandcastle/4-1.tscn"
teleport_to = Vector2( 16, 160 )

[node name="teleport" parent="tilemap/TeleportGroup/Teleport2" index="0"]
scale = Vector2( 3, 1 )

[node name="boundaries" type="Node2D" parent="tilemap"]

[node name="NW" type="Position2D" parent="tilemap/boundaries"]
position = Vector2( -1478, -6 )

[node name="SE" type="Position2D" parent="tilemap/boundaries"]
position = Vector2( 240, 496 )

[editable path="tilemap/LadderGroup/TestLadder"]

[editable path="tilemap/LadderGroup/TestLadder1"]

[editable path="tilemap/TeleportGroup/Teleport"]

[editable path="tilemap/TeleportGroup/Teleport1"]

[editable path="tilemap/TeleportGroup/Teleport2"]
