[gd_scene load_steps=11 format=2]

[ext_resource path="res://scenes/winterislandcastle/tileset.tres" type="TileSet" id=1]
[ext_resource path="res://scenes/dungeon/ladder/ladder.tscn" type="PackedScene" id=2]
[ext_resource path="res://scenes/winterislandcastle/climbableblock.tscn" type="PackedScene" id=3]
[ext_resource path="res://scenes/common/damagables/spiketile.tscn" type="PackedScene" id=4]
[ext_resource path="res://scenes/common/damagables/statues/statue1.tscn" type="PackedScene" id=5]
[ext_resource path="res://scenes/common/damagables/demon/demon.tscn" type="PackedScene" id=6]
[ext_resource path="res://scenes/common/damagables/enchantedarmor/enchantedarmor.tscn" type="PackedScene" id=7]
[ext_resource path="res://scenes/common/teleport.tscn" type="PackedScene" id=8]

[sub_resource type="PhysicsMaterial" id=1]
friction = 0.0

[sub_resource type="PhysicsMaterial" id=2]
friction = 0.0

[node name="LVL_NOTITLE" type="Node2D"]
__meta__ = {
"__editor_plugin_screen__": "2D"
}

[node name="ParallaxBackground" type="ParallaxBackground" parent="."]

[node name="ParallaxLayer" type="ParallaxLayer" parent="ParallaxBackground"]
motion_scale = Vector2( 1, 0.5 )
motion_mirroring = Vector2( 0, 1024 )

[node name="TileMap" type="TileMap" parent="ParallaxBackground/ParallaxLayer"]
tile_set = ExtResource( 1 )
cell_size = Vector2( 32, 32 )
format = 1
tile_data = PoolIntArray( -65545, 26, 0, -65537, 536870938, 0, 458743, 26, 0, 458751, 536870938, 0, 983031, 26, 0, 983039, 536870938, 0, 1507319, 26, 0, 1507327, 536870938, 0 )

[node name="BGTiles" type="TileMap" parent="."]
tile_set = ExtResource( 1 )
cell_size = Vector2( 32, 32 )
compatibility_mode = true
format = 1
tile_data = PoolIntArray( 1572871, 7, 0, 1638407, 7, 0, 1703943, 7, 0, 1769479, 7, 0, 1835015, 7, 0, 1900551, 7, 0 )

[node name="tilemap" type="TileMap" parent="."]
tile_set = ExtResource( 1 )
cell_size = Vector2( 32, 32 )
compatibility_mode = true
collision_layer = 524288
format = 1
tile_data = PoolIntArray( -851978, 536870939, 0, -851977, 536870939, 0, -851976, 536870939, 0, -851975, 536870939, 0, -851974, 536870939, 0, -851973, 536870939, 0, -851972, 536870939, 0, -851971, 536870939, 0, -851970, 536870939, 0, -851969, 536870939, 0, -917504, 536870939, 0, -917503, 536870939, 0, -917502, 536870939, 0, -917501, 536870939, 0, -917500, 536870939, 0, -917499, 536870939, 0, -917498, 536870939, 0, -917497, 536870939, 0, -786442, 536870939, 0, -786441, 536870939, 0, -786440, 536870939, 0, -786439, 536870939, 0, -786438, 536870939, 0, -786437, 536870939, 0, -786436, 536870939, 0, -786435, 536870939, 0, -786434, 536870939, 0, -786433, 536870939, 0, -851968, 536870939, 0, -851967, 536870939, 0, -851966, 536870939, 0, -851965, 536870939, 0, -851964, 536870939, 0, -851963, 536870939, 0, -851962, 536870939, 0, -851961, 536870939, 0, -720906, 536870939, 0, -720905, 536870939, 0, -720904, 536870939, 0, -720903, 536870939, 0, -720902, 536870939, 0, -720901, 536870939, 0, -720900, 536870939, 0, -720899, 536870939, 0, -720898, 536870939, 0, -720897, 536870939, 0, -786432, 536870939, 0, -786431, 536870939, 0, -786430, 536870939, 0, -786429, 536870939, 0, -786428, 536870939, 0, -786427, 536870939, 0, -786426, 536870939, 0, -786425, 536870939, 0, -655370, 536870939, 0, -655369, 536870939, 0, -655368, 536870939, 0, -655367, 536870939, 0, -655366, 536870939, 0, -655365, 536870939, 0, -655364, 536870939, 0, -655363, 536870939, 0, -655362, 536870939, 0, -655361, 536870939, 0, -720896, 536870939, 0, -720895, 536870939, 0, -720894, 536870939, 0, -720893, 536870939, 0, -720892, 536870939, 0, -720891, 536870939, 0, -720890, 536870939, 0, -720889, 536870939, 0, -589834, 536870939, 0, -589833, 536870939, 0, -589832, 536870939, 0, -589831, 536870939, 0, -589830, 536870939, 0, -589829, 536870939, 0, -589828, 536870939, 0, -589827, 536870939, 0, -589826, 536870939, 0, -589825, 536870939, 0, -655360, 536870939, 0, -655359, 536870939, 0, -655358, 536870939, 0, -655357, 536870939, 0, -655356, 536870939, 0, -655355, 536870939, 0, -655354, 536870939, 0, -655353, 536870939, 0, -524298, 536870939, 0, -524297, 536870939, 0, -524296, 536870939, 0, -524295, 536870939, 0, -524294, 536870939, 0, -524293, 536870939, 0, -524292, 536870939, 0, -524291, 536870939, 0, -524290, 536870939, 0, -524289, 536870939, 0, -589824, 536870939, 0, -589823, 536870939, 0, -589822, 536870939, 0, -589821, 536870939, 0, -589820, 536870939, 0, -589819, 536870939, 0, -589818, 536870939, 0, -589817, 536870939, 0, -458762, 536870939, 0, -458761, 536870939, 0, -458760, 536870939, 0, -458759, 536870939, 0, -458758, 536870939, 0, -458757, 536870939, 0, -458756, 536870939, 0, -458755, 536870939, 0, -458754, 536870939, 0, -458753, 536870939, 0, -524288, 536870939, 0, -524287, 536870939, 0, -524286, 536870939, 0, -524285, 536870939, 0, -524284, 536870939, 0, -524283, 536870939, 0, -524282, 536870939, 0, -524281, 536870939, 0, -393226, 536870939, 0, -393225, 536870939, 0, -393224, 536870939, 0, -393223, 536870939, 0, -393222, 536870939, 0, -393221, 536870939, 0, -393220, 536870939, 0, -393219, 536870939, 0, -393218, 536870939, 0, -393217, 536870939, 0, -458752, 536870939, 0, -458751, 536870939, 0, -458750, 536870939, 0, -458749, 536870939, 0, -458748, 536870939, 0, -458747, 536870939, 0, -458746, 536870939, 0, -458745, 536870939, 0, -327690, 2, 0, -327689, 3, 0, -327688, -1610612732, 0, -327687, -1610612732, 0, -327686, -1610612732, 0, -327685, 536870915, 0, -327684, 2, 0, -393216, 2, 0, -393215, 3, 0, -393214, -1610612732, 0, -393213, -1610612732, 0, -393212, -1610612732, 0, -393211, -1610612732, 0, -393210, 536870915, 0, -393209, 2, 0, -262154, 2, 0, -262153, 4, 0, -262152, 5, 0, -262151, 5, 0, -262150, 5, 0, -262149, 4, 0, -262148, 2, 0, -327680, 2, 0, -327679, 4, 0, -327678, 5, 0, -327677, 5, 0, -327676, 5, 0, -327675, 5, 0, -327674, 4, 0, -327673, 2, 0, -196618, 2, 0, -196617, 1073741827, 0, -196616, -1610612732, 0, -196615, -1610612732, 0, -196614, -1610612732, 0, -196613, 1610612739, 0, -196612, 2, 0, -262144, 2, 0, -262143, 1073741827, 0, -262142, -1610612732, 0, -262141, -1610612732, 0, -262140, -1610612732, 0, -262139, -1610612732, 0, -262138, 1610612739, 0, -262137, 2, 0, -131082, 1610612737, 0, -131081, 1073741824, 0, -131080, 1073741824, 0, -131079, 1073741824, 0, -131078, 1073741824, 0, -131077, 1073741824, 0, -131076, 1073741825, 0, -196608, 1610612737, 0, -196607, 1073741824, 0, -196606, 1073741824, 0, -196605, 1073741824, 0, -196604, 1073741824, 0, -196603, 1073741824, 0, -196602, 1073741824, 0, -196601, 1073741825, 0, -65546, 2, 0, -131065, 2, 0, -10, 2, 0, -65529, 2, 0, 65526, 2, 0, 7, 2, 0, 131062, 2, 0, 65543, 2, 0, 196598, 2, 0, 131079, 2, 0, 262134, 2, 0, 196615, 2, 0, 327670, 2, 0, 262151, 2, 0, 393206, 2, 0, 327687, 2, 0, 458742, 2, 0, 393223, 2, 0, 524278, 2, 0, 524279, 536870940, 0, 524280, 536870940, 0, 524281, 536870940, 0, 524282, 536870940, 0, 458755, 536870940, 0, 458756, 536870940, 0, 458757, 536870940, 0, 458758, 536870940, 0, 458759, 2, 0, 589814, 536870913, 0, 589815, 0, 0, 589816, 0, 0, 589817, 0, 0, 589818, 0, 0, 524291, 0, 0, 524292, 0, 0, 524293, 0, 0, 524294, 0, 0, 524295, 1, 0, 655350, 2, 0, 589831, 2, 0, 720886, 2, 0, 655367, 2, 0, 786422, 2, 0, 720903, 2, 0, 851958, 2, 0, 786439, 2, 0, 917494, 2, 0, 851975, 2, 0, 983030, 2, 0, 917511, 2, 0, 1048566, 2, 0, 983047, 2, 0, 1114102, 2, 0, 1048583, 2, 0, 1179638, 2, 0, 1114119, 2, 0, 1245174, 2, 0, 1179655, 2, 0, 1310710, 2, 0, 1245191, 2, 0, 1376246, 2, 0, 1310727, 2, 0, 1441782, 2, 0, 1376263, 2, 0, 1507318, 2, 0, 1441799, 2, 0, 1572854, 2, 0, 1507335, 2, 0, 1638390, 2, 0, 1572871, 1610612737, 0, 1703926, 2, 0, 1638407, 536870919, 0, 1769462, 2, 0, 1703943, 536870919, 0, 1834998, 2, 0, 1769479, 536870919, 0, 1900534, 2, 0, 1835015, 536870919, 0, 1966070, 2, 0, 1900548, 536870940, 0, 1900549, 536870940, 0, 1900550, 536870940, 0, 1900551, 536870940, 0, 2031606, 536870913, 0, 2031607, 0, 0, 2031608, 0, 0, 2031609, 0, 0, 2031610, 0, 0, 2031611, 0, 0, 2031612, 0, 0, 2031613, 0, 0, 2031614, 0, 0, 2031615, 0, 0, 1966080, 0, 0, 1966081, 0, 0, 1966082, 0, 0, 1966083, 0, 0, 1966084, 0, 0, 1966085, 0, 0, 1966086, 0, 0, 1966087, 1, 0, 2097142, 2, 0, 2097143, 3, 0, 2097144, -1610612732, 0, 2097145, -1610612732, 0, 2097146, -1610612732, 0, 2097147, -1610612732, 0, 2097148, -1610612732, 0, 2097149, -1610612732, 0, 2097150, -1610612732, 0, 2097151, -1610612732, 0, 2031616, -1610612732, 0, 2031617, -1610612732, 0, 2031618, -1610612732, 0, 2031619, -1610612732, 0, 2031620, -1610612732, 0, 2031621, -1610612732, 0, 2031622, 536870915, 0, 2031623, 2, 0, 2162678, 2, 0, 2162679, 4, 0, 2162680, 5, 0, 2162681, 5, 0, 2162682, 5, 0, 2162683, 5, 0, 2162684, 5, 0, 2162685, 5, 0, 2162686, 5, 0, 2162687, 5, 0, 2097152, 5, 0, 2097153, 5, 0, 2097154, 5, 0, 2097155, 5, 0, 2097156, 5, 0, 2097157, 5, 0, 2097158, 4, 0, 2097159, 2, 0, 2228214, 2, 0, 2228215, 1073741827, 0, 2228216, -1610612732, 0, 2228217, -1610612732, 0, 2228218, -1610612732, 0, 2228219, -1610612732, 0, 2228220, -1610612732, 0, 2228221, -1610612732, 0, 2228222, -1610612732, 0, 2228223, -1610612732, 0, 2162688, -1610612732, 0, 2162689, -1610612732, 0, 2162690, -1610612732, 0, 2162691, -1610612732, 0, 2162692, -1610612732, 0, 2162693, -1610612732, 0, 2162694, 1610612739, 0, 2162695, 2, 0, 2293750, 536870939, 0, 2293751, 536870939, 0, 2293752, 536870939, 0, 2293753, 536870939, 0, 2293754, 536870939, 0, 2293755, 536870939, 0, 2293756, 536870939, 0, 2293757, 536870939, 0, 2293758, 536870939, 0, 2293759, 536870939, 0, 2228224, 536870939, 0, 2228225, 536870939, 0, 2228226, 536870939, 0, 2228227, 536870939, 0, 2228228, 536870939, 0, 2228229, 536870939, 0, 2228230, 536870939, 0, 2228231, 536870939, 0, 2359286, 536870939, 0, 2359287, 536870939, 0, 2359288, 536870939, 0, 2359289, 536870939, 0, 2359290, 536870939, 0, 2359291, 536870939, 0, 2359292, 536870939, 0, 2359293, 536870939, 0, 2359294, 536870939, 0, 2359295, 536870939, 0, 2293760, 536870939, 0, 2293761, 536870939, 0, 2293762, 536870939, 0, 2293763, 536870939, 0, 2293764, 536870939, 0, 2293765, 536870939, 0, 2293766, 536870939, 0, 2293767, 536870939, 0, 2424822, 536870939, 0, 2424823, 536870939, 0, 2424824, 536870939, 0, 2424825, 536870939, 0, 2424826, 536870939, 0, 2424827, 536870939, 0, 2424828, 536870939, 0, 2424829, 536870939, 0, 2424830, 536870939, 0, 2424831, 536870939, 0, 2359296, 536870939, 0, 2359297, 536870939, 0, 2359298, 536870939, 0, 2359299, 536870939, 0, 2359300, 536870939, 0, 2359301, 536870939, 0, 2359302, 536870939, 0, 2359303, 536870939, 0, 2490358, 536870939, 0, 2490359, 536870939, 0, 2490360, 536870939, 0, 2490361, 536870939, 0, 2490362, 536870939, 0, 2490363, 536870939, 0, 2490364, 536870939, 0, 2490365, 536870939, 0, 2490366, 536870939, 0, 2490367, 536870939, 0, 2424832, 536870939, 0, 2424833, 536870939, 0, 2424834, 536870939, 0, 2424835, 536870939, 0, 2424836, 536870939, 0, 2424837, 536870939, 0, 2424838, 536870939, 0, 2424839, 536870939, 0, 2555894, 536870939, 0, 2555895, 536870939, 0, 2555896, 536870939, 0, 2555897, 536870939, 0, 2555898, 536870939, 0, 2555899, 536870939, 0, 2555900, 536870939, 0, 2555901, 536870939, 0, 2555902, 536870939, 0, 2555903, 536870939, 0, 2490368, 536870939, 0, 2490369, 536870939, 0, 2490370, 536870939, 0, 2490371, 536870939, 0, 2490372, 536870939, 0, 2490373, 536870939, 0, 2490374, 536870939, 0, 2490375, 536870939, 0, 2621430, 536870939, 0, 2621431, 536870939, 0, 2621432, 536870939, 0, 2621433, 536870939, 0, 2621434, 536870939, 0, 2621435, 536870939, 0, 2621436, 536870939, 0, 2621437, 536870939, 0, 2621438, 536870939, 0, 2621439, 536870939, 0, 2555904, 536870939, 0, 2555905, 536870939, 0, 2555906, 536870939, 0, 2555907, 536870939, 0, 2555908, 536870939, 0, 2555909, 536870939, 0, 2555910, 536870939, 0, 2555911, 536870939, 0, 2686966, 536870939, 0, 2686967, 536870939, 0, 2686968, 536870939, 0, 2686969, 536870939, 0, 2686970, 536870939, 0, 2686971, 536870939, 0, 2686972, 536870939, 0, 2686973, 536870939, 0, 2686974, 536870939, 0, 2686975, 536870939, 0, 2621440, 536870939, 0, 2621441, 536870939, 0, 2621442, 536870939, 0, 2621443, 536870939, 0, 2621444, 536870939, 0, 2621445, 536870939, 0, 2621446, 536870939, 0, 2621447, 536870939, 0, 2752502, 536870939, 0, 2752503, 536870939, 0, 2752504, 536870939, 0, 2752505, 536870939, 0, 2752506, 536870939, 0, 2752507, 536870939, 0, 2752508, 536870939, 0, 2752509, 536870939, 0, 2752510, 536870939, 0, 2752511, 536870939, 0, 2686976, 536870939, 0, 2686977, 536870939, 0, 2686978, 536870939, 0, 2686979, 536870939, 0, 2686980, 536870939, 0, 2686981, 536870939, 0, 2686982, 536870939, 0, 2686983, 536870939, 0, 2818038, 536870939, 0, 2818039, 536870939, 0, 2818040, 536870939, 0, 2818041, 536870939, 0, 2818042, 536870939, 0, 2818043, 536870939, 0, 2818044, 536870939, 0, 2818045, 536870939, 0, 2818046, 536870939, 0, 2818047, 536870939, 0, 2752512, 536870939, 0, 2752513, 536870939, 0, 2752514, 536870939, 0, 2752515, 536870939, 0, 2752516, 536870939, 0, 2752517, 536870939, 0, 2752518, 536870939, 0, 2752519, 536870939, 0 )

[node name="LadderGroup" type="Node2D" parent="tilemap"]

[node name="TestLadder" parent="tilemap/LadderGroup" instance=ExtResource( 2 )]
position = Vector2( -48, -95 )

[node name="Sprite" parent="tilemap/LadderGroup/TestLadder/KinematicBody2D" index="0"]
region_rect = Rect2( 0, 0, 32, 192 )

[node name="ladder" parent="tilemap/LadderGroup/TestLadder/KinematicBody2D" index="1"]
scale = Vector2( 1, 6 )

[node name="ClimbableGroup" type="Node2D" parent="tilemap"]

[node name="ClimbableBlock" parent="tilemap/ClimbableGroup" instance=ExtResource( 3 )]
position = Vector2( -144, 272 )
physics_material_override = SubResource( 1 )

[node name="Sprite" parent="tilemap/ClimbableGroup/ClimbableBlock" index="0"]
flip_h = false

[node name="ClimbableBlock1" parent="tilemap/ClimbableGroup" instance=ExtResource( 3 )]
position = Vector2( 80, 272 )
physics_material_override = SubResource( 2 )

[node name="SpikeGroup" type="Node2D" parent="tilemap"]

[node name="SpikeTile" parent="tilemap/SpikeGroup" instance=ExtResource( 4 )]
position = Vector2( -144, 944 )

[node name="SpikeTile1" parent="tilemap/SpikeGroup" instance=ExtResource( 4 )]
position = Vector2( -112, 944 )

[node name="SpikeTile2" parent="tilemap/SpikeGroup" instance=ExtResource( 4 )]
position = Vector2( -80, 944 )

[node name="SpikeTile3" parent="tilemap/SpikeGroup" instance=ExtResource( 4 )]
position = Vector2( -48, 944 )

[node name="SpikeTile4" parent="tilemap/SpikeGroup" instance=ExtResource( 4 )]
position = Vector2( -16, 944 )

[node name="SpikeTile5" parent="tilemap/SpikeGroup" instance=ExtResource( 4 )]
position = Vector2( 16, 944 )

[node name="EnemiesGroup" type="Node2D" parent="tilemap"]

[node name="Statue1" parent="tilemap/EnemiesGroup" instance=ExtResource( 5 )]
position = Vector2( -208, 160 )

[node name="Statue2" parent="tilemap/EnemiesGroup" instance=ExtResource( 5 )]
position = Vector2( 144, 160 )

[node name="Demon" parent="tilemap/EnemiesGroup" instance=ExtResource( 6 )]
position = Vector2( -192, 528 )

[node name="EnchantedArmor" parent="tilemap/EnemiesGroup" instance=ExtResource( 7 )]
position = Vector2( -192, 896 )

[node name="EnchantedArmor1" parent="tilemap/EnemiesGroup" instance=ExtResource( 7 )]
position = Vector2( 80, 896 )

[node name="TeleportGroup" type="Node2D" parent="tilemap"]

[node name="Teleport" parent="tilemap/TeleportGroup" instance=ExtResource( 8 )]
position = Vector2( 272, 880 )
target_level = "res://levels/winterislandcastle/6-1.tscn"
teleport_to = Vector2( -428, 80 )

[node name="teleport" parent="tilemap/TeleportGroup/Teleport" index="0"]
scale = Vector2( 1, 5 )

[node name="Teleport1" parent="tilemap/TeleportGroup" instance=ExtResource( 8 )]
position = Vector2( -48, -208 )
is_horizontal = false
target_level = "res://levels/winterislandcastle/0-12.tscn"
teleport_to = Vector2( 1040, 224 )

[node name="teleport" parent="tilemap/TeleportGroup/Teleport1" index="0"]
scale = Vector2( 3, 1 )

[node name="boundaries" type="Node2D" parent="tilemap"]

[node name="NW" type="Position2D" parent="tilemap/boundaries"]
position = Vector2( -336, -208 )

[node name="SE" type="Position2D" parent="tilemap/boundaries"]
position = Vector2( 266, 1098 )

[editable path="tilemap/LadderGroup/TestLadder"]
[editable path="tilemap/ClimbableGroup/ClimbableBlock"]
[editable path="tilemap/TeleportGroup/Teleport"]
[editable path="tilemap/TeleportGroup/Teleport1"]
