[gd_scene load_steps=15 format=2]

[ext_resource path="res://scenes/waterway/tileset.tres" type="TileSet" id=1]
[ext_resource path="res://scenes/dungeon/deco.tres" type="TileSet" id=2]
[ext_resource path="res://scenes/waterway/climbableblock.tscn" type="PackedScene" id=3]
[ext_resource path="res://scenes/dungeon/ladder/ladder.tscn" type="PackedScene" id=4]
[ext_resource path="res://scenes/dungeon/ladder/laddertop.tscn" type="PackedScene" id=5]
[ext_resource path="res://scenes/common/breakables/torch.tscn" type="PackedScene" id=6]
[ext_resource path="res://scenes/common/breakables/pot.tscn" type="PackedScene" id=7]
[ext_resource path="res://scenes/common/damagables/skeleton/skeleton.tscn" type="PackedScene" id=8]
[ext_resource path="res://scenes/common/damagables/skeleton/bloodskeleton.tscn" type="PackedScene" id=9]
[ext_resource path="res://scenes/common/switches/floorswitch.tscn" type="PackedScene" id=10]
[ext_resource path="res://scenes/common/sunbeam.tscn" type="PackedScene" id=11]
[ext_resource path="res://scenes/common/teleport.tscn" type="PackedScene" id=12]

[sub_resource type="PhysicsMaterial" id=1]
friction = 0.0

[sub_resource type="PhysicsMaterial" id=2]
friction = 0.0

[node name="LVL_AQUADUCT2" type="Node2D"]
__meta__ = {
"__editor_plugin_screen__": "2D"
}

[node name="tilemap" type="TileMap" parent="."]
tile_set = ExtResource( 1 )
cell_size = Vector2( 32, 32 )
compatibility_mode = true
collision_layer = 524288
format = 1
tile_data = PoolIntArray( -720918, 1610612749, 0, -720917, 1073741862, 0, -720916, 1073741862, 0, -720915, 1073741862, 0, -720914, 1073741862, 0, -720913, 1073741862, 0, -720912, 1073741862, 0, -720911, 1073741862, 0, -720910, 1073741862, 0, -720909, 1073741862, 0, -720908, 1073741862, 0, -720907, 1073741862, 0, -720906, 1073741862, 0, -720905, 1073741862, 0, -720904, 1073741862, 0, -720903, 1073741862, 0, -720902, 1073741862, 0, -720901, 1073741862, 0, -720900, 1073741862, 0, -720899, 1073741862, 0, -720898, 1073741862, 0, -720897, 1073741862, 0, -786432, 1073741862, 0, -786431, 1073741862, 0, -786430, 1073741862, 0, -786429, 1073741862, 0, -786428, 1073741862, 0, -786427, 1073741862, 0, -786426, 1073741862, 0, -786425, 1073741862, 0, -786424, 1073741862, 0, -786423, 1073741862, 0, -786422, 1073741862, 0, -786421, 1073741862, 0, -786420, 1073741862, 0, -786419, 1073741862, 0, -786418, 1073741862, 0, -786417, 1073741862, 0, -786416, 1073741862, 0, -786415, 1073741862, 0, -786414, 1073741862, 0, -786413, 1073741862, 0, -786412, 1073741862, 0, -786411, 1073741862, 0, -786410, 1073741862, 0, -786409, 1073741862, 0, -786408, 1073741862, 0, -786407, 1073741862, 0, -786406, 1073741862, 0, -786405, 1073741862, 0, -786404, 1073741862, 0, -786403, 1073741862, 0, -786402, 1073741862, 0, -786401, 1073741862, 0, -786400, 1073741862, 0, -786399, 1073741862, 0, -786398, 1073741862, 0, -786397, 1073741862, 0, -786396, 1073741862, 0, -786395, 1073741862, 0, -786394, 1073741862, 0, -786393, 1073741862, 0, -786392, 1073741862, 0, -786391, 1073741862, 0, -786390, 1073741862, 0, -786389, 1073741837, 0, -655382, 14, 0, -655381, 27, 0, -655380, 27, 0, -655379, 27, 0, -655378, 27, 0, -655377, 27, 0, -655376, 27, 0, -655375, 27, 0, -655374, 27, 0, -655373, 27, 0, -655372, 27, 0, -655371, 27, 0, -655370, 27, 0, -655369, 27, 0, -655368, 27, 0, -655367, 27, 0, -655366, 27, 0, -655365, 27, 0, -655364, 27, 0, -655363, 27, 0, -655362, 27, 0, -655361, 27, 0, -720896, 27, 0, -720895, 27, 0, -720894, 27, 0, -720893, 27, 0, -720892, 27, 0, -720891, 27, 0, -720890, 27, 0, -720889, 27, 0, -720888, 27, 0, -720887, 27, 0, -720886, 27, 0, -720885, 27, 0, -720884, 27, 0, -720883, 27, 0, -720882, 27, 0, -720881, 27, 0, -720880, 27, 0, -720879, 27, 0, -720878, 27, 0, -720877, 27, 0, -720876, 27, 0, -720875, 27, 0, -720874, 27, 0, -720873, 27, 0, -720872, 27, 0, -720871, 27, 0, -720870, 27, 0, -720869, 27, 0, -720868, 27, 0, -720867, 27, 0, -720866, 27, 0, -720865, 27, 0, -720864, 27, 0, -720863, 27, 0, -720862, 27, 0, -720861, 27, 0, -720860, 27, 0, -720859, 27, 0, -720858, 27, 0, -720857, 27, 0, -720856, 27, 0, -720855, 27, 0, -720854, 27, 0, -720853, 1073741838, 0, -589846, 14, 0, -589845, 27, 0, -589844, 27, 0, -589843, 27, 0, -589842, 27, 0, -589841, 27, 0, -589840, 27, 0, -589839, 27, 0, -589838, 27, 0, -589837, 27, 0, -589836, 27, 0, -589835, 27, 0, -589834, 27, 0, -589833, 27, 0, -589832, 27, 0, -589831, 27, 0, -589830, 27, 0, -589829, 27, 0, -589828, 27, 0, -589827, 27, 0, -589826, 27, 0, -589825, 27, 0, -655360, 27, 0, -655359, 27, 0, -655358, 27, 0, -655357, 27, 0, -655356, 27, 0, -655355, 27, 0, -655354, 27, 0, -655353, 27, 0, -655352, 27, 0, -655351, 27, 0, -655350, 27, 0, -655349, 27, 0, -655348, 27, 0, -655347, 27, 0, -655346, 27, 0, -655345, 27, 0, -655344, 27, 0, -655343, 27, 0, -655342, 27, 0, -655341, 27, 0, -655340, 27, 0, -655339, 27, 0, -655338, 27, 0, -655337, 27, 0, -655336, 27, 0, -655335, 27, 0, -655334, 27, 0, -655333, 27, 0, -655332, 27, 0, -655331, 27, 0, -655330, 27, 0, -655329, 27, 0, -655328, 27, 0, -655327, 27, 0, -655326, 27, 0, -655325, 27, 0, -655324, 27, 0, -655323, 27, 0, -655322, 27, 0, -655321, 27, 0, -655320, 27, 0, -655319, 27, 0, -655318, 27, 0, -655317, 1073741838, 0, -524310, 14, 0, -524309, 27, 0, -524308, 27, 0, -524307, 27, 0, -524306, 27, 0, -524305, 27, 0, -524304, 27, 0, -524303, 27, 0, -524302, 27, 0, -524301, 27, 0, -524300, 27, 0, -524299, 27, 0, -524298, 27, 0, -524297, 27, 0, -524296, 27, 0, -524295, 27, 0, -524294, 27, 0, -524293, 27, 0, -524292, 27, 0, -524291, 27, 0, -524290, 27, 0, -524289, 27, 0, -589824, 27, 0, -589823, 27, 0, -589822, 27, 0, -589821, 27, 0, -589820, 27, 0, -589819, 27, 0, -589818, 27, 0, -589817, 27, 0, -589816, 27, 0, -589815, 27, 0, -589814, 27, 0, -589813, 27, 0, -589812, 27, 0, -589811, 27, 0, -589810, 27, 0, -589809, 27, 0, -589808, 27, 0, -589807, 27, 0, -589806, 27, 0, -589805, 27, 0, -589804, 27, 0, -589803, 27, 0, -589802, 27, 0, -589801, 27, 0, -589800, 27, 0, -589799, 27, 0, -589798, 27, 0, -589797, 27, 0, -589796, 27, 0, -589795, 27, 0, -589794, 27, 0, -589793, 27, 0, -589792, 27, 0, -589791, 27, 0, -589790, 27, 0, -589789, 27, 0, -589788, 27, 0, -589787, 27, 0, -589786, 27, 0, -589785, 27, 0, -589784, 27, 0, -589783, 27, 0, -589782, 27, 0, -589781, 1073741838, 0, -458774, 14, 0, -458773, 27, 0, -458772, 27, 0, -458771, 27, 0, -458770, 27, 0, -458769, 27, 0, -458768, 27, 0, -458767, 27, 0, -458766, 27, 0, -458765, 27, 0, -458764, 27, 0, -458763, 27, 0, -458762, 27, 0, -458761, 27, 0, -458760, 27, 0, -458759, 27, 0, -458758, 27, 0, -458757, 27, 0, -458756, 27, 0, -458755, 27, 0, -458754, 27, 0, -458753, 27, 0, -524288, 27, 0, -524287, 27, 0, -524286, 27, 0, -524285, 27, 0, -524284, 27, 0, -524283, 27, 0, -524282, 27, 0, -524281, 27, 0, -524280, 27, 0, -524279, 27, 0, -524278, 27, 0, -524277, 27, 0, -524276, 27, 0, -524275, 27, 0, -524274, 27, 0, -524273, 27, 0, -524272, 27, 0, -524271, 27, 0, -524270, 27, 0, -524269, 27, 0, -524268, 27, 0, -524267, 27, 0, -524266, 27, 0, -524265, 27, 0, -524264, 27, 0, -524263, 27, 0, -524262, 27, 0, -524261, 27, 0, -524260, 27, 0, -524259, 27, 0, -524258, 27, 0, -524257, 27, 0, -524256, 27, 0, -524255, 27, 0, -524254, 27, 0, -524253, 27, 0, -524252, 27, 0, -524251, 27, 0, -524250, 27, 0, -524249, 27, 0, -524248, 27, 0, -524247, 27, 0, -524246, 27, 0, -524245, 1073741838, 0, -393238, 14, 0, -393237, 27, 0, -393236, 27, 0, -393235, 27, 0, -393234, 27, 0, -393233, 27, 0, -393232, 27, 0, -393231, 27, 0, -393230, 27, 0, -393229, 27, 0, -393228, 27, 0, -393227, 27, 0, -393226, 27, 0, -393225, 27, 0, -393224, 27, 0, -393223, 27, 0, -393222, 27, 0, -393221, 27, 0, -393220, 27, 0, -393219, 27, 0, -393218, 27, 0, -393217, 27, 0, -458752, 27, 0, -458751, 27, 0, -458750, 27, 0, -458749, 27, 0, -458748, 27, 0, -458747, 27, 0, -458746, 27, 0, -458745, 27, 0, -458744, 27, 0, -458743, 27, 0, -458742, 27, 0, -458741, 27, 0, -458740, 27, 0, -458739, 27, 0, -458738, 27, 0, -458737, 27, 0, -458736, 27, 0, -458735, 27, 0, -458734, 27, 0, -458733, 27, 0, -458732, 27, 0, -458731, 27, 0, -458730, 27, 0, -458729, 27, 0, -458728, 27, 0, -458727, 27, 0, -458726, 27, 0, -458725, 27, 0, -458724, 27, 0, -458723, 27, 0, -458722, 27, 0, -458721, 27, 0, -458720, 27, 0, -458719, 27, 0, -458718, 27, 0, -458717, 27, 0, -458716, 27, 0, -458715, 27, 0, -458714, 27, 0, -458713, 27, 0, -458712, 27, 0, -458711, 27, 0, -458710, 27, 0, -458709, 1073741838, 0, -327702, 14, 0, -327701, 27, 0, -327700, 27, 0, -327699, 27, 0, -327698, 27, 0, -327697, 27, 0, -327696, 27, 0, -327695, 27, 0, -327694, 27, 0, -327693, 27, 0, -327692, 27, 0, -327691, 27, 0, -327690, 27, 0, -327689, 27, 0, -327688, 27, 0, -327687, 27, 0, -327686, 27, 0, -327685, 27, 0, -327684, 27, 0, -327683, 27, 0, -327682, 27, 0, -327681, 27, 0, -393216, 27, 0, -393215, 27, 0, -393214, 27, 0, -393213, 59, 0, -393212, 59, 0, -393211, 59, 0, -393210, 59, 0, -393209, 59, 0, -393208, 59, 0, -393207, 59, 0, -393206, 59, 0, -393205, 59, 0, -393204, 59, 0, -393203, 59, 0, -393202, 59, 0, -393201, 59, 0, -393200, 59, 0, -393199, 59, 0, -393198, 59, 0, -393197, 59, 0, -393196, 59, 0, -393195, 59, 0, -393194, 59, 0, -393193, 59, 0, -393192, 59, 0, -393191, 27, 0, -393190, 27, 0, -393189, 27, 0, -393188, 27, 0, -393187, 27, 0, -393186, 27, 0, -393185, 27, 0, -393184, 27, 0, -393183, 27, 0, -393182, 27, 0, -393181, 27, 0, -393180, 27, 0, -393179, 27, 0, -393178, 27, 0, -393177, 27, 0, -393176, 27, 0, -393175, 27, 0, -393174, 27, 0, -393173, 1073741838, 0, -262166, 14, 0, -262165, 27, 0, -262164, 27, 0, -262163, 27, 0, -262162, 27, 0, -262161, 27, 0, -262160, 27, 0, -262159, 27, 0, -262158, 27, 0, -262157, 27, 0, -262156, 27, 0, -262155, 27, 0, -262154, 27, 0, -262153, 27, 0, -262152, 27, 0, -262151, 27, 0, -262150, 27, 0, -262149, 27, 0, -262148, 27, 0, -262147, 27, 0, -262146, 27, 0, -262145, 27, 0, -327680, 27, 0, -327679, 27, 0, -327678, 27, 0, -327677, 27, 0, -327676, 27, 0, -327675, 27, 0, -327674, 27, 0, -327673, 27, 0, -327672, 27, 0, -327671, 27, 0, -327670, 27, 0, -327669, 27, 0, -327668, 27, 0, -327667, 27, 0, -327666, 27, 0, -327665, 27, 0, -327664, 27, 0, -327663, 27, 0, -327662, 27, 0, -327661, 27, 0, -327660, 27, 0, -327659, 27, 0, -327658, 27, 0, -327657, 27, 0, -327656, 27, 0, -327655, 27, 0, -327654, 27, 0, -327653, 27, 0, -327652, 27, 0, -327651, 27, 0, -327650, 27, 0, -327649, 27, 0, -327648, 27, 0, -327647, 27, 0, -327646, 27, 0, -327645, 27, 0, -327644, 27, 0, -327643, 27, 0, -327642, 27, 0, -327641, 27, 0, -327640, 27, 0, -327639, 27, 0, -327638, 27, 0, -327637, 1073741838, 0, -196630, 14, 0, -196629, 27, 0, -196628, 27, 0, -196627, 27, 0, -196626, 27, 0, -196625, 27, 0, -196624, 27, 0, -196623, 27, 0, -196622, 27, 0, -196621, 27, 0, -196620, 27, 0, -196619, 27, 0, -196618, 27, 0, -196617, 27, 0, -196616, 27, 0, -196615, 27, 0, -196614, 27, 0, -196613, 27, 0, -196612, 27, 0, -196611, 27, 0, -196610, 27, 0, -196609, 27, 0, -262144, 27, 0, -262143, 27, 0, -262142, 27, 0, -262141, 27, 0, -262140, 27, 0, -262139, 27, 0, -262138, 27, 0, -262137, 27, 0, -262136, 27, 0, -262135, 27, 0, -262134, 27, 0, -262133, 27, 0, -262132, 27, 0, -262131, 27, 0, -262130, 27, 0, -262129, 27, 0, -262128, 27, 0, -262127, 27, 0, -262126, 27, 0, -262125, 27, 0, -262124, 27, 0, -262123, 27, 0, -262122, 27, 0, -262121, 27, 0, -262120, 27, 0, -262119, 27, 0, -262118, 27, 0, -262117, 27, 0, -262116, 27, 0, -262115, 27, 0, -262114, 27, 0, -262113, 27, 0, -262112, 27, 0, -262111, 27, 0, -262110, 27, 0, -262109, 27, 0, -262108, 27, 0, -262107, 27, 0, -262106, 27, 0, -262105, 27, 0, -262104, 27, 0, -262103, 27, 0, -262102, 27, 0, -262101, 1073741838, 0, -131094, 14, 0, -131093, 27, 0, -131092, 27, 0, -131091, 27, 0, -131090, 27, 0, -131089, 27, 0, -131088, 27, 0, -131087, 27, 0, -131086, 27, 0, -131085, 27, 0, -131084, 27, 0, -131083, 27, 0, -131082, 27, 0, -131081, 27, 0, -131080, 27, 0, -131079, 27, 0, -131078, 27, 0, -131077, 27, 0, -131076, 27, 0, -131075, 27, 0, -131074, 27, 0, -131073, 27, 0, -196608, 27, 0, -196607, 27, 0, -196606, 27, 0, -196605, 27, 0, -196604, 27, 0, -196603, 27, 0, -196602, 27, 0, -196601, 27, 0, -196600, 27, 0, -196599, 27, 0, -196598, 27, 0, -196597, 27, 0, -196596, 27, 0, -196595, 27, 0, -196594, 27, 0, -196593, 27, 0, -196592, 27, 0, -196591, 27, 0, -196590, 27, 0, -196589, 27, 0, -196588, 27, 0, -196587, 27, 0, -196586, 27, 0, -196585, 27, 0, -196584, 27, 0, -196583, 27, 0, -196582, 27, 0, -196581, 27, 0, -196580, 27, 0, -196579, 27, 0, -196578, 27, 0, -196577, 27, 0, -196576, 27, 0, -196575, 27, 0, -196574, 27, 0, -196573, 27, 0, -196572, 27, 0, -196571, 27, 0, -196570, 27, 0, -196569, 27, 0, -196568, 27, 0, -196567, 27, 0, -196566, 27, 0, -196565, 1610612749, 0, -65558, 14, 0, -65557, 27, 0, -65556, 27, 0, -65555, 27, 0, -65554, 27, 0, -65553, 27, 0, -65552, 27, 0, -65551, 27, 0, -65550, 27, 0, -65549, 27, 0, -65548, 27, 0, -65547, 27, 0, -65546, 27, 0, -65545, 27, 0, -65544, 27, 0, -65543, 27, 0, -65542, 27, 0, -65541, 27, 0, -65540, 27, 0, -65539, 27, 0, -65538, 27, 0, -65537, 27, 0, -131072, 27, 0, -131071, 27, 0, -131070, 27, 0, -131069, 27, 0, -131068, 27, 0, -131067, 27, 0, -131066, 27, 0, -131065, 27, 0, -131064, 27, 0, -131063, 27, 0, -131062, 27, 0, -131061, 27, 0, -131060, 27, 0, -131059, 27, 0, -131058, 27, 0, -131057, 27, 0, -131056, 27, 0, -131055, 27, 0, -131054, 27, 0, -131053, 27, 0, -131052, 27, 0, -131051, 27, 0, -131050, 27, 0, -131049, 27, 0, -131048, 27, 0, -131047, 27, 0, -131046, 27, 0, -131045, 27, 0, -131044, 27, 0, -131043, 27, 0, -131042, 27, 0, -131041, 27, 0, -131040, 27, 0, -131039, 27, 0, -131038, 27, 0, -131037, 27, 0, -131036, 27, 0, -131035, 27, 0, -131034, 27, 0, -131033, 27, 0, -131032, 27, 0, -131031, 27, 0, -131030, 27, 0, -131029, 27, 0, -22, 14, 0, -21, 27, 0, -20, 27, 0, -19, 27, 0, -18, 27, 0, -17, 27, 0, -16, 27, 0, -15, 27, 0, -14, 27, 0, -13, 27, 0, -12, 27, 0, -11, 27, 0, -10, 27, 0, -9, 27, 0, -8, 27, 0, -7, 27, 0, -6, 27, 0, -5, 27, 0, -4, 27, 0, -3, 27, 0, -2, 27, 0, -1, 27, 0, -65536, 27, 0, -65535, 536870925, 0, -65534, 27, 0, -65533, 27, 0, -65532, 27, 0, -65531, 27, 0, -65530, 27, 0, -65529, 27, 0, -65528, 27, 0, -65527, 27, 0, -65526, 27, 0, -65525, 27, 0, -65524, 27, 0, -65523, 27, 0, -65522, 27, 0, -65521, 27, 0, -65520, 27, 0, -65519, 27, 0, -65518, 27, 0, -65517, 27, 0, -65516, 27, 0, -65515, 27, 0, -65514, 27, 0, -65513, 27, 0, -65512, 27, 0, -65511, 27, 0, -65510, 13, 0, -65509, 27, 0, -65508, 27, 0, -65507, 27, 0, -65506, 27, 0, -65505, 27, 0, -65504, 27, 0, -65503, 27, 0, -65502, 27, 0, -65501, 27, 0, -65500, 27, 0, -65499, 27, 0, -65498, 27, 0, -65497, 27, 0, -65496, 27, 0, -65495, 27, 0, -65494, 27, 0, -65493, 27, 0, 65514, 14, 0, 65515, 27, 0, 65516, 27, 0, 65517, 27, 0, 65518, 27, 0, 65519, 27, 0, 65520, 27, 0, 65521, 27, 0, 65522, 27, 0, 65523, 27, 0, 65524, 27, 0, 65525, 27, 0, 65526, 27, 0, 65527, 27, 0, 65528, 27, 0, 65529, 27, 0, 65530, 27, 0, 65531, 27, 0, 65532, 27, 0, 65533, 27, 0, 65534, 27, 0, 65535, 27, 0, 0, 27, 0, 1, 14, 0, 2, 27, 0, 3, 27, 0, 4, 27, 0, 5, 27, 0, 6, 27, 0, 7, 27, 0, 8, 27, 0, 9, 27, 0, 10, 27, 0, 11, 27, 0, 12, 27, 0, 13, 27, 0, 14, 27, 0, 15, 27, 0, 16, 27, 0, 17, 27, 0, 18, 27, 0, 19, 27, 0, 20, 27, 0, 21, 27, 0, 22, 27, 0, 23, 27, 0, 24, 27, 0, 25, 27, 0, 26, 14, 0, 27, 27, 0, 28, 27, 0, 29, 27, 0, 30, 27, 0, 31, 27, 0, 32, 27, 0, 33, 27, 0, 34, 27, 0, 35, 27, 0, 36, 27, 0, 37, 27, 0, 38, 27, 0, 39, 27, 0, 40, 27, 0, 41, 27, 0, 42, 27, 0, 43, 27, 0, 131050, 14, 0, 131051, 27, 0, 131052, 27, 0, 131053, 27, 0, 131054, 27, 0, 131055, 27, 0, 131056, 27, 0, 131057, 27, 0, 131058, 27, 0, 131059, 27, 0, 131060, 27, 0, 131061, 27, 0, 131062, 27, 0, 131063, 27, 0, 131064, 27, 0, 131065, 27, 0, 131066, 27, 0, 131067, 27, 0, 131068, 27, 0, 131069, 27, 0, 131070, 27, 0, 131071, 27, 0, 65536, 27, 0, 65537, 14, 0, 65538, 27, 0, 65539, 27, 0, 65540, 27, 0, 65541, 27, 0, 65542, 27, 0, 65543, 27, 0, 65544, 27, 0, 65545, 27, 0, 65546, 27, 0, 65547, 27, 0, 65548, 27, 0, 65549, 27, 0, 65550, 27, 0, 65551, 27, 0, 65552, 27, 0, 65553, 27, 0, 65554, 27, 0, 65555, 27, 0, 65556, 27, 0, 65557, 27, 0, 65558, 27, 0, 65559, 27, 0, 65560, 27, 0, 65561, 27, 0, 65562, 14, 0, 65563, 27, 0, 65564, 27, 0, 65565, 27, 0, 65566, 27, 0, 65567, 27, 0, 65568, 27, 0, 65569, 27, 0, 65570, 27, 0, 65571, 27, 0, 65572, 27, 0, 65573, 27, 0, 65574, 27, 0, 65575, 27, 0, 65576, 27, 0, 65577, 27, 0, 65578, 27, 0, 65579, 27, 0, 196586, 14, 0, 196587, 27, 0, 196588, 27, 0, 196589, 27, 0, 196590, 27, 0, 196591, 27, 0, 196592, 27, 0, 196593, 27, 0, 196594, 27, 0, 196595, 27, 0, 196596, 27, 0, 196597, 27, 0, 196598, 27, 0, 196599, 27, 0, 196600, 27, 0, 196601, 27, 0, 196602, 27, 0, 196603, 27, 0, 196604, 27, 0, 196605, 27, 0, 196606, 27, 0, 196607, 27, 0, 131072, 27, 0, 131073, 14, 0, 131074, 27, 0, 131075, 27, 0, 131076, 27, 0, 131077, 27, 0, 131078, 27, 0, 131079, 27, 0, 131080, 27, 0, 131081, 27, 0, 131082, 27, 0, 131083, 27, 0, 131084, 27, 0, 131085, 27, 0, 131086, 27, 0, 131087, 27, 0, 131088, 27, 0, 131089, 27, 0, 131090, 27, 0, 131091, 27, 0, 131092, 27, 0, 131093, 27, 0, 131094, 27, 0, 131095, 27, 0, 131096, 27, 0, 131097, 27, 0, 131098, 14, 0, 131099, 27, 0, 131100, 27, 0, 131101, 27, 0, 131102, 27, 0, 131103, 27, 0, 131104, 27, 0, 131105, 27, 0, 131106, 27, 0, 131107, 27, 0, 131108, 27, 0, 131109, 27, 0, 131110, 27, 0, 131111, 27, 0, 131112, 27, 0, 131113, 27, 0, 131114, 27, 0, 131115, 27, 0, 262122, 536870925, 0, 262123, 38, 0, 262124, 38, 0, 262125, 38, 0, 262126, 38, 0, 262127, 38, 0, 262128, 13, 0, 262129, 27, 0, 262130, 27, 0, 262131, 27, 0, 262132, 536870925, 0, 262133, 38, 0, 262134, 38, 0, 262135, 38, 0, 262136, 38, 0, 262137, 38, 0, 262138, 38, 0, 262139, 38, 0, 262140, 38, 0, 262141, 38, 0, 262142, 38, 0, 262143, 38, 0, 196608, 38, 0, 196609, 38, 0, 196610, 38, 0, 196611, 38, 0, 196612, 38, 0, 196613, 38, 0, 196614, 38, 0, 196615, 38, 0, 196616, 38, 0, 196617, 38, 0, 196618, 38, 0, 196619, 38, 0, 196620, 38, 0, 196621, 38, 0, 196622, 38, 0, 196623, 38, 0, 196624, 38, 0, 196625, 38, 0, 196626, 38, 0, 196627, 38, 0, 196628, 38, 0, 196629, 38, 0, 196630, 38, 0, 196631, 38, 0, 196632, 38, 0, 196633, 38, 0, 196634, 38, 0, 196635, 38, 0, 196636, 38, 0, 196637, 38, 0, 196638, 38, 0, 196639, 38, 0, 196640, 38, 0, 196641, 38, 0, 196642, 38, 0, 196643, 38, 0, 196644, 38, 0, 196645, 38, 0, 196646, 38, 0, 196647, 38, 0, 196648, 38, 0, 196649, 38, 0, 196650, 38, 0, 196651, 13, 0, 327658, 14, 0, 327659, 35, 0, 327660, 35, 0, 327661, 35, 0, 327662, 35, 0, 327663, 35, 0, 327664, 14, 0, 327665, 27, 0, 327666, 27, 0, 327667, 27, 0, 327668, 14, 0, 327669, 35, 0, 327670, 35, 0, 327671, 35, 0, 327672, 35, 0, 327673, 35, 0, 327674, 35, 0, 327675, 35, 0, 327676, 35, 0, 327677, 35, 0, 327678, 35, 0, 327679, 35, 0, 262144, 35, 0, 262145, 35, 0, 262146, 35, 0, 262147, 35, 0, 262148, 35, 0, 262149, 35, 0, 262150, 35, 0, 262151, 35, 0, 262152, 35, 0, 262153, 35, 0, 262154, 35, 0, 262155, 35, 0, 262156, 35, 0, 262157, 35, 0, 262158, 35, 0, 262159, 35, 0, 262160, 35, 0, 262161, 35, 0, 262162, 35, 0, 262163, 35, 0, 262164, 35, 0, 262165, 35, 0, 262166, 35, 0, 262167, 35, 0, 262168, 35, 0, 262169, 35, 0, 262170, 35, 0, 262171, 35, 0, 262172, 35, 0, 262173, 35, 0, 262174, 35, 0, 262175, 35, 0, 262176, 35, 0, 262177, 35, 0, 262178, 35, 0, 262179, 35, 0, 262180, 35, 0, 262181, 35, 0, 262182, 35, 0, 262183, 35, 0, 262184, 35, 0, 262185, 35, 0, 262186, 35, 0, 262187, 14, 0, 393194, 14, 0, 393195, 35, 0, 393196, 35, 0, 393197, 35, 0, 393198, 35, 0, 393199, 35, 0, 393200, 14, 0, 393201, 27, 0, 393202, 27, 0, 393203, 27, 0, 393204, 14, 0, 393205, 35, 0, 393206, 35, 0, 393207, 35, 0, 393208, 35, 0, 393209, 35, 0, 393210, 35, 0, 393211, 35, 0, 393212, 35, 0, 393213, 35, 0, 393214, 35, 0, 393215, 35, 0, 327680, 35, 0, 327681, 35, 0, 327682, 35, 0, 327683, 35, 0, 327684, 35, 0, 327685, 35, 0, 327686, 35, 0, 327687, 35, 0, 327688, 35, 0, 327689, 35, 0, 327690, 35, 0, 327691, 35, 0, 327692, 35, 0, 327693, 35, 0, 327694, 35, 0, 327695, 35, 0, 327696, 35, 0, 327697, 35, 0, 327698, 35, 0, 327699, 35, 0, 327700, 35, 0, 327701, 35, 0, 327702, 35, 0, 327703, 35, 0, 327704, 35, 0, 327705, 35, 0, 327706, 35, 0, 327707, 35, 0, 327708, 35, 0, 327709, 35, 0, 327710, 35, 0, 327711, 35, 0, 327712, 35, 0, 327713, 35, 0, 327714, 35, 0, 327715, 35, 0, 327716, 35, 0, 327717, 35, 0, 327718, 35, 0, 327719, 35, 0, 327720, 35, 0, 327721, 35, 0, 327722, 35, 0, 327723, 14, 0, 458730, 14, 0, 458731, 35, 0, 458732, 35, 0, 458733, 35, 0, 458734, 35, 0, 458735, 35, 0, 458736, 14, 0, 458737, 27, 0, 458738, 27, 0, 458739, 27, 0, 458740, 14, 0, 458741, 35, 0, 458742, 35, 0, 458743, 35, 0, 458744, 35, 0, 458745, 35, 0, 458746, 35, 0, 458747, 35, 0, 458748, 35, 0, 458749, 35, 0, 458750, 35, 0, 458751, 35, 0, 393216, 35, 0, 393217, 35, 0, 393218, 35, 0, 393219, 35, 0, 393220, 35, 0, 393221, 35, 0, 393222, 35, 0, 393223, 35, 0, 393224, 35, 0, 393225, 35, 0, 393226, 35, 0, 393227, 35, 0, 393228, 35, 0, 393229, 35, 0, 393230, 35, 0, 393231, 35, 0, 393232, 35, 0, 393233, 35, 0, 393234, 35, 0, 393235, 35, 0, 393236, 35, 0, 393237, 35, 0, 393238, 35, 0, 393239, 35, 0, 393240, 35, 0, 393241, 35, 0, 393242, 35, 0, 393243, 35, 0, 393244, 35, 0, 393245, 35, 0, 393246, 35, 0, 393247, 35, 0, 393248, 35, 0, 393249, 35, 0, 393250, 35, 0, 393251, 35, 0, 393252, 35, 0, 393253, 35, 0, 393254, 35, 0, 393255, 35, 0, 393256, 35, 0, 393257, 35, 0, 393258, 35, 0, 393259, 14, 0, 524266, 14, 0, 524267, 35, 0, 524268, 35, 0, 524269, 35, 0, 524270, 35, 0, 524271, 35, 0, 524272, 14, 0, 524273, 27, 0, 524274, 27, 0, 524275, 27, 0, 524276, 14, 0, 524277, 35, 0, 524278, 35, 0, 524279, 35, 0, 524280, 35, 0, 524281, 35, 0, 524282, 35, 0, 524283, 35, 0, 524284, 35, 0, 524285, 35, 0, 524286, 35, 0, 524287, 35, 0, 458752, 35, 0, 458753, 35, 0, 458754, 35, 0, 458755, 35, 0, 458756, 35, 0, 458757, 35, 0, 458758, 35, 0, 458759, 35, 0, 458760, 35, 0, 458761, 35, 0, 458762, 35, 0, 458763, 35, 0, 458764, 35, 0, 458765, 35, 0, 458766, 35, 0, 458767, 35, 0, 458768, 35, 0, 458769, 35, 0, 458770, 35, 0, 458771, 35, 0, 458772, 35, 0, 458773, 35, 0, 458774, 35, 0, 458775, 35, 0, 458776, 35, 0, 458777, 35, 0, 458778, 35, 0, 458779, 35, 0, 458780, 35, 0, 458781, 35, 0, 458782, 35, 0, 458783, 35, 0, 458784, 35, 0, 458785, 35, 0, 458786, 35, 0, 458787, 35, 0, 458788, 35, 0, 458789, 35, 0, 458790, 35, 0, 458791, 35, 0, 458792, 35, 0, 458793, 35, 0, 458794, 35, 0, 458795, 14, 0, 589802, 14, 0, 589803, 35, 0, 589804, 35, 0, 589805, 35, 0, 589806, 35, 0, 589807, 35, 0, 589808, 14, 0, 589809, 27, 0, 589810, 27, 0, 589811, 27, 0, 589812, 14, 0, 589813, 35, 0, 589814, 35, 0, 589815, 35, 0, 589816, 35, 0, 589817, 35, 0, 589818, 35, 0, 589819, 35, 0, 589820, 35, 0, 589821, 35, 0, 589822, 35, 0, 589823, 35, 0, 524288, 35, 0, 524289, 35, 0, 524290, 35, 0, 524291, 35, 0, 524292, 35, 0, 524293, 35, 0, 524294, 35, 0, 524295, 35, 0, 524296, 35, 0, 524297, 35, 0, 524298, 35, 0, 524299, 35, 0, 524300, 35, 0, 524301, 35, 0, 524302, 35, 0, 524303, 35, 0, 524304, 35, 0, 524305, 35, 0, 524306, 35, 0, 524307, 35, 0, 524308, 35, 0, 524309, 35, 0, 524310, 35, 0, 524311, 35, 0, 524312, 35, 0, 524313, 35, 0, 524314, 35, 0, 524315, 35, 0, 524316, 35, 0, 524317, 35, 0, 524318, 35, 0, 524319, 35, 0, 524320, 35, 0, 524321, 35, 0, 524322, 35, 0, 524323, 35, 0, 524324, 35, 0, 524325, 35, 0, 524326, 35, 0, 524327, 35, 0, 524328, 35, 0, 524329, 35, 0, 524330, 35, 0, 524331, 14, 0, 655338, 14, 0, 655339, 35, 0, 655340, 35, 0, 655341, 35, 0, 655342, 35, 0, 655343, 35, 0, 655344, 14, 0, 655345, 27, 0, 655346, 27, 0, 655347, 27, 0, 655348, 14, 0, 655349, 35, 0, 655350, 35, 0, 655351, 35, 0, 655352, 35, 0, 655353, 35, 0, 655354, 35, 0, 655355, 35, 0, 655356, 35, 0, 655357, 35, 0, 655358, 35, 0, 655359, 35, 0, 589824, 35, 0, 589825, 35, 0, 589826, 35, 0, 589827, 35, 0, 589828, 35, 0, 589829, 35, 0, 589830, 35, 0, 589831, 35, 0, 589832, 35, 0, 589833, 35, 0, 589834, 35, 0, 589835, 35, 0, 589836, 35, 0, 589837, 35, 0, 589838, 35, 0, 589839, 35, 0, 589840, 35, 0, 589841, 35, 0, 589842, 35, 0, 589843, 35, 0, 589844, 35, 0, 589845, 35, 0, 589846, 35, 0, 589847, 35, 0, 589848, 35, 0, 589849, 35, 0, 589850, 35, 0, 589851, 35, 0, 589852, 35, 0, 589853, 35, 0, 589854, 35, 0, 589855, 35, 0, 589856, 35, 0, 589857, 35, 0, 589858, 35, 0, 589859, 35, 0, 589860, 35, 0, 589861, 35, 0, 589862, 35, 0, 589863, 35, 0, 589864, 35, 0, 589865, 35, 0, 589866, 35, 0, 589867, 14, 0, 720874, 14, 0, 720875, 35, 0, 720876, 35, 0, 720877, 35, 0, 720878, 35, 0, 720879, 35, 0, 720880, 14, 0, 720881, 27, 0, 720882, 27, 0, 720883, 27, 0, 720884, 14, 0, 720885, 35, 0, 720886, 35, 0, 720887, 35, 0, 720888, 35, 0, 720889, 35, 0, 720890, 35, 0, 720891, 35, 0, 720892, 35, 0, 720893, 35, 0, 720894, 35, 0, 720895, 35, 0, 655360, 35, 0, 655361, 35, 0, 655362, 35, 0, 655363, 35, 0, 655364, 35, 0, 655365, 35, 0, 655366, 35, 0, 655367, 35, 0, 655368, 35, 0, 655369, 35, 0, 655370, 35, 0, 655371, 35, 0, 655372, 35, 0, 655373, 35, 0, 655374, 35, 0, 655375, 35, 0, 655376, 35, 0, 655377, 35, 0, 655378, 35, 0, 655379, 35, 0, 655380, 35, 0, 655381, 35, 0, 655382, 35, 0, 655383, 35, 0, 655384, 35, 0, 655385, 35, 0, 655386, 35, 0, 655387, 35, 0, 655388, 35, 0, 655389, 35, 0, 655390, 35, 0, 655391, 35, 0, 655392, 35, 0, 655393, 35, 0, 655394, 35, 0, 655395, 35, 0, 655396, 35, 0, 655397, 35, 0, 655398, 35, 0, 655399, 35, 0, 655400, 35, 0, 655401, 35, 0, 655402, 35, 0, 655403, 14, 0 )

[node name="DecoGroup" type="Node2D" parent="tilemap"]

[node name="TileMap" type="TileMap" parent="tilemap/DecoGroup"]
tile_set = ExtResource( 2 )
cell_size = Vector2( 32, 32 )
compatibility_mode = true
format = 1
tile_data = PoolIntArray( -655354, 0, 0, -655349, 0, 0, -655344, 0, 0, -655339, 0, 0, -589818, 1, 0, -589813, 1, 0, -589808, 1, 0, -589803, 2, 0, -524282, 2, 0, -524277, 1, 0, -524272, 2, 0, -458748, 8, 0, -458741, 2, 0, -458732, 8, 0, -458731, 8, 0, -65543, 3, 0, -65542, 4, 0, -65541, 4, 0, -65540, 536870915, 0, -131041, 3, 0, -131040, 4, 0, -131039, 4, 0, -131038, 536870915, 0, -7, 5, 0, -6, 6, 0, -5, 6, 0, -4, 536870917, 0, -65505, 5, 0, -65504, 6, 0, -65503, 6, 0, -65502, 536870917, 0, 65529, 5, 0, 65530, 6, 0, 65531, 6, 0, 65532, 536870917, 0, 31, 5, 0, 32, 6, 0, 33, 6, 0, 34, 536870917, 0, 39, 0, 0, 131065, 5, 0, 131066, 6, 0, 131067, 6, 0, 131068, 536870917, 0, 65567, 5, 0, 65568, 6, 0, 65569, 6, 0, 65570, 536870917, 0, 65575, 2, 0, 196590, 8, 0, 196601, 5, 0, 196602, 6, 0, 196603, 6, 0, 196604, 536870917, 0, 196606, 8, 0, 131087, 8, 0, 131102, 8, 0, 131103, 5, 0, 131104, 6, 0, 131105, 6, 0, 131106, 536870917, 0, 131113, 8, 0 )

[node name="ClimbableGroup" type="Node2D" parent="tilemap"]

[node name="ClimbableBlock" parent="tilemap/ClimbableGroup" instance=ExtResource( 3 )]
position = Vector2( 80, -176 )
physics_material_override = SubResource( 1 )

[node name="ClimbableBlock1" parent="tilemap/ClimbableGroup" instance=ExtResource( 3 )]
position = Vector2( 816, -176 )
physics_material_override = SubResource( 2 )

[node name="Sprite" parent="tilemap/ClimbableGroup/ClimbableBlock1" index="0"]
offset = Vector2( 2, 0 )
flip_h = false

[node name="LadderGroup" type="Node2D" parent="tilemap"]

[node name="TestLadder" parent="tilemap/LadderGroup" instance=ExtResource( 4 )]
position = Vector2( -432, 224 )

[node name="Sprite" parent="tilemap/LadderGroup/TestLadder/KinematicBody2D" index="0"]
region_rect = Rect2( 0, 0, 32, 256 )

[node name="ladder" parent="tilemap/LadderGroup/TestLadder/KinematicBody2D" index="1"]
scale = Vector2( 1, 8 )

[node name="TestLadder 2" parent="tilemap/LadderGroup" instance=ExtResource( 5 )]
position = Vector2( -432, 80 )

[node name="TorchGroup" type="Node2D" parent="tilemap"]

[node name="torch" parent="tilemap/TorchGroup" instance=ExtResource( 6 )]
position = Vector2( -432, -96 )

[node name="torch2" parent="tilemap/TorchGroup" instance=ExtResource( 6 )]
position = Vector2( 256, -64 )

[node name="torch3" parent="tilemap/TorchGroup" instance=ExtResource( 6 )]
position = Vector2( 640, -64 )

[node name="torch4" parent="tilemap/TorchGroup" instance=ExtResource( 6 )]
position = Vector2( 1264, -64 )

[node name="PotGroup" type="Node2D" parent="tilemap"]

[node name="Pot" parent="tilemap/PotGroup" instance=ExtResource( 7 )]
position = Vector2( -592, 48 )

[node name="Pot1" parent="tilemap/PotGroup" instance=ExtResource( 7 )]
position = Vector2( -160, 48 )

[node name="EnemiesGroup" type="Node2D" parent="tilemap"]

[node name="Skeleton" parent="tilemap/EnemiesGroup" instance=ExtResource( 8 )]
position = Vector2( 272, 48 )
level = 2

[node name="Skeleton1" parent="tilemap/EnemiesGroup" instance=ExtResource( 8 )]
position = Vector2( 368, 48 )
level = 2

[node name="Skeleton2" parent="tilemap/EnemiesGroup" instance=ExtResource( 8 )]
position = Vector2( 592, 48 )
level = 2

[node name="Skeleton3" parent="tilemap/EnemiesGroup" instance=ExtResource( 8 )]
position = Vector2( 672, 48 )
level = 2

[node name="Skeleton4" parent="tilemap/EnemiesGroup" instance=ExtResource( 8 )]
position = Vector2( 512, 48 )
level = 2

[node name="Skeleton5" parent="tilemap/EnemiesGroup" instance=ExtResource( 8 )]
position = Vector2( 128, 48 )
level = 2

[node name="SimpleProjectile" parent="tilemap/EnemiesGroup" instance=ExtResource( 9 )]
position = Vector2( 224, 48 )

[node name="SimpleProjectile1" parent="tilemap/EnemiesGroup" instance=ExtResource( 9 )]
position = Vector2( 624, 48 )

[node name="SimpleProjectile2" parent="tilemap/EnemiesGroup" instance=ExtResource( 9 )]
position = Vector2( 320, 48 )

[node name="SwitchGroup" type="Node2D" parent="tilemap"]

[node name="FloorSwitch" parent="tilemap/SwitchGroup" instance=ExtResource( 10 )]
position = Vector2( 448, 96 )
target_nodes = [ "SunbeamGroup/Sunbeam2" ]
invert = true
is_toggle = true

[node name="FloorSwitch1" parent="tilemap/SwitchGroup" instance=ExtResource( 10 )]
position = Vector2( 720, 96 )
target_nodes = [ "SunbeamGroup/Sunbeam1" ]
invert = true
is_toggle = true

[node name="FloorSwitch2" parent="tilemap/SwitchGroup" instance=ExtResource( 10 )]
position = Vector2( 176, 96 )
target_nodes = [ "SunbeamGroup/Sunbeam" ]
invert = true
is_toggle = true

[node name="SunbeamGroup" type="Node2D" parent="tilemap"]

[node name="Sunbeam" parent="tilemap/SunbeamGroup" instance=ExtResource( 11 )]
position = Vector2( -160, -144 )

[node name="block" parent="tilemap/SunbeamGroup/Sunbeam" index="0"]
scale = Vector2( 5, 15 )

[node name="sunbeam" parent="tilemap/SunbeamGroup/Sunbeam" index="1"]
scale = Vector2( 5, 15 )

[node name="Sunbeam1" parent="tilemap/SunbeamGroup" instance=ExtResource( 11 )]
position = Vector2( 1056, -144 )

[node name="block" parent="tilemap/SunbeamGroup/Sunbeam1" index="0"]
scale = Vector2( 5, 15 )

[node name="sunbeam" parent="tilemap/SunbeamGroup/Sunbeam1" index="1"]
scale = Vector2( 5, 15 )

[node name="Sunbeam2" parent="tilemap/SunbeamGroup" instance=ExtResource( 11 )]
position = Vector2( 448, -288 )

[node name="block" parent="tilemap/SunbeamGroup/Sunbeam2" index="0"]
scale = Vector2( 20, 6 )

[node name="sunbeam" parent="tilemap/SunbeamGroup/Sunbeam2" index="1"]
scale = Vector2( 20, 6 )

[node name="Pot2" parent="tilemap/SunbeamGroup" instance=ExtResource( 7 )]
position = Vector2( 1056, 48 )

[node name="TeleportGroup" type="Node2D" parent="tilemap"]

[node name="Teleport" parent="tilemap/TeleportGroup" instance=ExtResource( 12 )]
position = Vector2( -432, 368 )
is_horizontal = false
target_level = "res://levels/common/catacombs.tscn"
teleport_to = Vector2( -16, -272 )

[node name="teleport" parent="tilemap/TeleportGroup/Teleport" index="0"]
scale = Vector2( 3, 1 )

[node name="Teleport1" parent="tilemap/TeleportGroup" instance=ExtResource( 12 )]
position = Vector2( 1424, 16 )
target_level = "res://levels/waterway/0-1.tscn"
teleport_to = Vector2( -364, 112 )

[node name="teleport" parent="tilemap/TeleportGroup/Teleport1" index="0"]
scale = Vector2( 1, 5 )

[node name="boundaries" type="Node2D" parent="tilemap"]

[node name="NW" type="Position2D" parent="tilemap/boundaries"]
position = Vector2( -720, -400 )

[node name="SE" type="Position2D" parent="tilemap/boundaries"]
position = Vector2( 1424, 368 )

[node name="CanvasModulate" type="CanvasModulate" parent="."]
visible = false
color = Color( 0.305511, 0.832031, 0.511183, 1 )

[editable path="tilemap/ClimbableGroup/ClimbableBlock1"]

[editable path="tilemap/LadderGroup/TestLadder"]

[editable path="tilemap/SunbeamGroup/Sunbeam"]

[editable path="tilemap/SunbeamGroup/Sunbeam1"]

[editable path="tilemap/SunbeamGroup/Sunbeam2"]

[editable path="tilemap/TeleportGroup/Teleport"]

[editable path="tilemap/TeleportGroup/Teleport1"]
