[gd_scene load_steps=16 format=2]

[ext_resource path="res://scenes/waterway/tileset.tres" type="TileSet" id=1]
[ext_resource path="res://scenes/dungeon/deco.tres" type="TileSet" id=2]
[ext_resource path="res://scenes/waterway/climbableblock.tscn" type="PackedScene" id=3]
[ext_resource path="res://scenes/waterway/onewayplatform.tscn" type="PackedScene" id=4]
[ext_resource path="res://scenes/waterway/BGs/flooredge2.png" type="Texture" id=5]
[ext_resource path="res://scenes/dungeon/ladder/ladder.tscn" type="PackedScene" id=6]
[ext_resource path="res://scenes/common/breakables/pot.tscn" type="PackedScene" id=7]
[ext_resource path="res://scenes/common/damagables/statues/bust_h.tscn" type="PackedScene" id=8]
[ext_resource path="res://scenes/items/potion/manapotionplus.tscn" type="PackedScene" id=9]
[ext_resource path="res://scenes/items/special/styxchalice.tscn" type="PackedScene" id=10]
[ext_resource path="res://scenes/common/sunbeam.tscn" type="PackedScene" id=11]
[ext_resource path="res://scenes/common/teleport.tscn" type="PackedScene" id=12]

[sub_resource type="PhysicsMaterial" id=1]
friction = 0.0

[sub_resource type="PhysicsMaterial" id=2]
friction = 0.0

[sub_resource type="PhysicsMaterial" id=3]
friction = 0.0

[node name="LVL_NOTITLE" type="Node2D"]
__meta__ = {
"__editor_plugin_screen__": "2D"
}

[node name="tilemap" type="TileMap" parent="."]
tile_set = ExtResource( 1 )
cell_size = Vector2( 32, 32 )
compatibility_mode = true
collision_layer = 524288
format = 1
tile_data = PoolIntArray( -6225929, 1610612749, 0, -6225928, 1073741862, 0, -6225927, 1073741862, 0, -6225926, 1073741862, 0, -6225925, 1073741862, 0, -6225924, 1073741862, 0, -6225923, 1073741862, 0, -6225922, 1073741862, 0, -6225921, 1073741862, 0, -6291456, 1073741862, 0, -6291455, 1073741862, 0, -6291454, 1073741862, 0, -6291453, 1073741862, 0, -6291452, 1073741862, 0, -6291451, 1073741837, 0, -6160393, 14, 0, -6160392, 27, 0, -6160391, 27, 0, -6160390, 27, 0, -6160389, 27, 0, -6160388, 27, 0, -6160387, 27, 0, -6160386, 27, 0, -6160385, 27, 0, -6225920, 27, 0, -6225919, 27, 0, -6225918, 27, 0, -6225917, 27, 0, -6225916, 27, 0, -6225915, 14, 0, -6094857, 14, 0, -6094856, 27, 0, -6094855, 27, 0, -6094854, 27, 0, -6094853, 27, 0, -6094852, 27, 0, -6094851, 27, 0, -6094850, 27, 0, -6094849, 27, 0, -6160384, 27, 0, -6160383, 27, 0, -6160382, 27, 0, -6160381, 27, 0, -6160380, 27, 0, -6160379, 14, 0, -6029321, 14, 0, -6029320, 27, 0, -6029319, 27, 0, -6029318, 27, 0, -6029317, 27, 0, -6029316, 27, 0, -6029315, 27, 0, -6029314, 27, 0, -6029313, 27, 0, -6094848, 27, 0, -6094847, 27, 0, -6094846, 27, 0, -6094845, 27, 0, -6094844, 27, 0, -6094843, 14, 0, -5963785, 14, 0, -5963784, 27, 0, -5963783, 27, 0, -5963782, 27, 0, -5963781, 27, 0, -5963780, 27, 0, -5963779, 27, 0, -5963778, 27, 0, -5963777, 27, 0, -6029312, 27, 0, -6029311, 27, 0, -6029310, 27, 0, -6029309, 27, 0, -6029308, 27, 0, -6029307, 14, 0, -5898249, 14, 0, -5898248, 27, 0, -5898247, 27, 0, -5898246, 27, 0, -5898245, 27, 0, -5898244, 27, 0, -5898243, 27, 0, -5898242, 27, 0, -5898241, 27, 0, -5963776, 27, 0, -5963775, 27, 0, -5963774, 27, 0, -5963773, 27, 0, -5963772, 27, 0, -5963771, 14, 0, -5832713, 14, 0, -5832712, 27, 0, -5832711, 27, 0, -5832710, 27, 0, -5832709, 27, 0, -5832708, 27, 0, -5832707, 27, 0, -5832706, 27, 0, -5832705, 27, 0, -5898240, 27, 0, -5898239, 27, 0, -5898238, 27, 0, -5898237, 27, 0, -5898236, 27, 0, -5898235, 14, 0, -5767177, 14, 0, -5767176, 27, 0, -5767175, 27, 0, -5767174, 27, 0, -5767173, 27, 0, -5767172, 27, 0, -5767171, 27, 0, -5767170, 27, 0, -5767169, 27, 0, -5832704, 27, 0, -5832703, 27, 0, -5832702, 27, 0, -5832701, 27, 0, -5832700, 27, 0, -5832699, 14, 0, -5701641, 14, 0, -5701640, 27, 0, -5701639, 27, 0, -5701638, 27, 0, -5701637, 27, 0, -5701636, 27, 0, -5701635, 27, 0, -5701634, 27, 0, -5701633, 27, 0, -5767168, 27, 0, -5767167, 27, 0, -5767166, 27, 0, -5767165, 27, 0, -5767164, 27, 0, -5767163, 14, 0, -5636105, 14, 0, -5636104, 27, 0, -5636103, 27, 0, -5636102, 27, 0, -5636101, 27, 0, -5636100, 27, 0, -5636099, 27, 0, -5636098, 27, 0, -5636097, 27, 0, -5701632, 27, 0, -5701631, 27, 0, -5701630, 27, 0, -5701629, 27, 0, -5701628, 27, 0, -5701627, 14, 0, -5570569, 14, 0, -5570568, 27, 0, -5570567, 27, 0, -5570566, 27, 0, -5570565, 27, 0, -5570564, 27, 0, -5570563, 27, 0, -5570562, 27, 0, -5570561, 27, 0, -5636096, 27, 0, -5636095, 27, 0, -5636094, 27, 0, -5636093, 27, 0, -5636092, 27, 0, -5636091, 14, 0, -5505033, 14, 0, -5505032, 27, 0, -5505031, 27, 0, -5505030, 27, 0, -5505029, 27, 0, -5505028, 27, 0, -5505027, 27, 0, -5505026, 27, 0, -5505025, 27, 0, -5570560, 27, 0, -5570559, 27, 0, -5570558, 27, 0, -5570557, 27, 0, -5570556, 27, 0, -5570555, 14, 0, -5439497, 14, 0, -5439496, 27, 0, -5439495, 27, 0, -5439494, 27, 0, -5439493, 27, 0, -5439492, 27, 0, -5439491, 27, 0, -5439490, 27, 0, -5439489, 27, 0, -5505024, 27, 0, -5505023, 27, 0, -5505022, 27, 0, -5505021, 27, 0, -5505020, 27, 0, -5505019, 14, 0, -5373961, 14, 0, -5373960, 27, 0, -5373959, 27, 0, -5373958, 27, 0, -5373957, 27, 0, -5373956, 27, 0, -5373955, 27, 0, -5373954, 27, 0, -5373953, 27, 0, -5439488, 27, 0, -5439487, 27, 0, -5439486, 27, 0, -5439485, 27, 0, -5439484, 27, 0, -5439483, 14, 0, -5308425, 14, 0, -5308424, 27, 0, -5308423, 27, 0, -5308422, 27, 0, -5308421, 27, 0, -5308420, 27, 0, -5308419, 27, 0, -5308418, 27, 0, -5308417, 27, 0, -5373952, 27, 0, -5373951, 27, 0, -5373950, 27, 0, -5373949, 27, 0, -5373948, 27, 0, -5373947, 14, 0, -5242889, 14, 0, -5242888, 27, 0, -5242887, 27, 0, -5242886, 27, 0, -5242885, 27, 0, -5242884, 27, 0, -5242883, 27, 0, -5242882, 27, 0, -5242881, 27, 0, -5308416, 27, 0, -5308415, 27, 0, -5308414, 27, 0, -5308413, 27, 0, -5308412, 27, 0, -5308411, 14, 0, -5177353, 14, 0, -5177352, 27, 0, -5177351, 27, 0, -5177350, 27, 0, -5177349, 27, 0, -5177348, 27, 0, -5177347, 27, 0, -5177346, 27, 0, -5177345, 27, 0, -5242880, 27, 0, -5242879, 27, 0, -5242878, 27, 0, -5242877, 27, 0, -5242876, 27, 0, -5242875, 14, 0, -5111817, 14, 0, -5111816, 27, 0, -5111815, 27, 0, -5111814, 27, 0, -5111813, 27, 0, -5111812, 27, 0, -5111811, 27, 0, -5111810, 27, 0, -5111809, 27, 0, -5177344, 27, 0, -5177343, 27, 0, -5177342, 27, 0, -5177341, 27, 0, -5177340, 27, 0, -5177339, 14, 0, -5046281, 14, 0, -5046280, 27, 0, -5046279, 27, 0, -5046278, 27, 0, -5046277, 27, 0, -5046276, 27, 0, -5046275, 27, 0, -5046274, 27, 0, -5046273, 27, 0, -5111808, 27, 0, -5111807, 27, 0, -5111806, 27, 0, -5111805, 27, 0, -5111804, 27, 0, -5111803, 14, 0, -4980745, 14, 0, -4980744, 27, 0, -4980743, 27, 0, -4980742, 27, 0, -4980741, 27, 0, -4980740, 27, 0, -4980739, 27, 0, -4980738, 27, 0, -4980737, 27, 0, -5046272, 27, 0, -5046271, 27, 0, -5046270, 27, 0, -5046269, 27, 0, -5046268, 27, 0, -5046267, 14, 0, -4915209, 14, 0, -4915208, 27, 0, -4915207, 27, 0, -4915206, 27, 0, -4915205, 27, 0, -4915204, 27, 0, -4915203, 27, 0, -4915202, 27, 0, -4915201, 27, 0, -4980736, 27, 0, -4980735, 27, 0, -4980734, 27, 0, -4980733, 27, 0, -4980732, 27, 0, -4980731, 14, 0, -4849674, 1610612780, 0, -4849673, 1073741837, 0, -4849672, 27, 0, -4849671, 27, 0, -4849670, 27, 0, -4849669, 27, 0, -4849668, 27, 0, -4849667, 27, 0, -4849666, 27, 0, -4849665, 27, 0, -4915200, 27, 0, -4915199, 27, 0, -4915198, 27, 0, -4915197, 27, 0, -4915196, 27, 0, -4915195, 14, 0, -4784138, 14, 0, -4784137, 27, 0, -4784136, 27, 0, -4784135, 27, 0, -4784134, 27, 0, -4784133, 27, 0, -4784132, 27, 0, -4784131, 27, 0, -4784130, 27, 0, -4784129, 27, 0, -4849664, 27, 0, -4849663, 27, 0, -4849662, 27, 0, -4849661, 27, 0, -4849660, 27, 0, -4849659, 14, 0, -4718602, 536870956, 0, -4718601, 13, 0, -4718600, 27, 0, -4718599, 27, 0, -4718598, 27, 0, -4718597, 27, 0, -4718596, 27, 0, -4718595, 27, 0, -4718594, 27, 0, -4718593, 27, 0, -4784128, 27, 0, -4784127, 27, 0, -4784126, 27, 0, -4784125, 27, 0, -4784124, 27, 0, -4784123, 14, 0, -4653065, 14, 0, -4653064, 27, 0, -4653063, 27, 0, -4653062, 27, 0, -4653061, 27, 0, -4653060, 27, 0, -4653059, 27, 0, -4653058, 27, 0, -4653057, 27, 0, -4718592, 27, 0, -4718591, 27, 0, -4718590, 27, 0, -4718589, 27, 0, -4718588, 27, 0, -4718587, 14, 0, -4587529, 14, 0, -4587528, 27, 0, -4587527, 27, 0, -4587526, 27, 0, -4587525, 27, 0, -4587524, 27, 0, -4587523, 27, 0, -4587522, 27, 0, -4587521, 27, 0, -4653056, 27, 0, -4653055, 27, 0, -4653054, 27, 0, -4653053, 27, 0, -4653052, 27, 0, -4653051, 14, 0, -4521993, 14, 0, -4521992, 27, 0, -4521991, 27, 0, -4521990, 27, 0, -4521989, 27, 0, -4521988, 27, 0, -4521987, 27, 0, -4521986, 27, 0, -4521985, 27, 0, -4587520, 27, 0, -4587519, 27, 0, -4587518, 27, 0, -4587517, 27, 0, -4587516, 27, 0, -4587515, 14, 0, -4456457, 14, 0, -4456456, 27, 0, -4456455, 27, 0, -4456454, 27, 0, -4456453, 27, 0, -4456452, 27, 0, -4456451, 27, 0, -4456450, 27, 0, -4456449, 27, 0, -4521984, 27, 0, -4521983, 27, 0, -4521982, 27, 0, -4521981, 27, 0, -4521980, 27, 0, -4521979, 1610612749, 0, -4521978, 1073741868, 0, -4390921, 1073741838, 0, -4390920, 27, 0, -4390919, 27, 0, -4390918, 27, 0, -4390917, 27, 0, -4390916, 27, 0, -4390915, 27, 0, -4390914, 27, 0, -4390913, 27, 0, -4456448, 27, 0, -4456447, 27, 0, -4456446, 27, 0, -4456445, 27, 0, -4456444, 27, 0, -4456443, 27, 0, -4456442, 14, 0, -4325385, 1073741838, 0, -4325384, 27, 0, -4325383, 27, 0, -4325382, 27, 0, -4325381, 27, 0, -4325380, 27, 0, -4325379, 27, 0, -4325378, 27, 0, -4325377, 27, 0, -4390912, 27, 0, -4390911, 27, 0, -4390910, 27, 0, -4390909, 27, 0, -4390908, 27, 0, -4390907, 536870925, 0, -4390906, 44, 0, -4259849, 14, 0, -4259848, 27, 0, -4259847, 27, 0, -4259846, 27, 0, -4259845, 27, 0, -4259844, 27, 0, -4259843, 27, 0, -4259842, 27, 0, -4259841, 27, 0, -4325376, 27, 0, -4325375, 27, 0, -4325374, 27, 0, -4325373, 27, 0, -4325372, 27, 0, -4325371, 14, 0, -4194313, 14, 0, -4194312, 27, 0, -4194311, 27, 0, -4194310, 27, 0, -4194309, 27, 0, -4194308, 27, 0, -4194307, 27, 0, -4194306, 27, 0, -4194305, 27, 0, -4259840, 27, 0, -4259839, 27, 0, -4259838, 27, 0, -4259837, 27, 0, -4259836, 27, 0, -4259835, 14, 0, -4128777, 14, 0, -4128776, 27, 0, -4128775, 27, 0, -4128774, 27, 0, -4128773, 27, 0, -4128772, 27, 0, -4128771, 27, 0, -4128770, 27, 0, -4128769, 27, 0, -4194304, 27, 0, -4194303, 27, 0, -4194302, 27, 0, -4194301, 27, 0, -4194300, 27, 0, -4194299, 14, 0, -4063241, 14, 0, -4063240, 27, 0, -4063239, 27, 0, -4063238, 27, 0, -4063237, 27, 0, -4063236, 27, 0, -4063235, 27, 0, -4063234, 27, 0, -4063233, 27, 0, -4128768, 27, 0, -4128767, 27, 0, -4128766, 27, 0, -4128765, 27, 0, -4128764, 27, 0, -4128763, 14, 0, -3997705, 14, 0, -3997704, 27, 0, -3997703, 27, 0, -3997702, 27, 0, -3997701, 27, 0, -3997700, 27, 0, -3997699, 27, 0, -3997698, 27, 0, -3997697, 27, 0, -4063232, 27, 0, -4063231, 27, 0, -4063230, 27, 0, -4063229, 27, 0, -4063228, 27, 0, -4063227, 14, 0, -3932169, 14, 0, -3932168, 27, 0, -3932167, 27, 0, -3932166, 27, 0, -3932165, 27, 0, -3932164, 27, 0, -3932163, 27, 0, -3932162, 27, 0, -3932161, 27, 0, -3997696, 27, 0, -3997695, 27, 0, -3997694, 27, 0, -3997693, 27, 0, -3997692, 27, 0, -3997691, 14, 0, -3866633, 14, 0, -3866632, 27, 0, -3866631, 27, 0, -3866630, 27, 0, -3866629, 27, 0, -3866628, 27, 0, -3866627, 27, 0, -3866626, 27, 0, -3866625, 27, 0, -3932160, 27, 0, -3932159, 27, 0, -3932158, 27, 0, -3932157, 27, 0, -3932156, 27, 0, -3932155, 14, 0, -3801097, 14, 0, -3801096, 27, 0, -3801095, 27, 0, -3801094, 27, 0, -3801093, 27, 0, -3801092, 27, 0, -3801091, 27, 0, -3801090, 27, 0, -3801089, 27, 0, -3866624, 27, 0, -3866623, 27, 0, -3866622, 27, 0, -3866621, 27, 0, -3866620, 27, 0, -3866619, 14, 0, -3735562, 1610612780, 0, -3735561, 1073741837, 0, -3735560, 27, 0, -3735559, 27, 0, -3735558, 27, 0, -3735557, 27, 0, -3735556, 27, 0, -3735555, 27, 0, -3735554, 27, 0, -3735553, 27, 0, -3801088, 27, 0, -3801087, 27, 0, -3801086, 27, 0, -3801085, 27, 0, -3801084, 27, 0, -3801083, 14, 0, -3670026, 14, 0, -3670025, 27, 0, -3670024, 27, 0, -3670023, 27, 0, -3670022, 27, 0, -3670021, 27, 0, -3670020, 27, 0, -3670019, 27, 0, -3670018, 27, 0, -3670017, 27, 0, -3735552, 27, 0, -3735551, 27, 0, -3735550, 27, 0, -3735549, 27, 0, -3735548, 27, 0, -3735547, 14, 0, -3604490, 536870956, 0, -3604489, 13, 0, -3604488, 27, 0, -3604487, 27, 0, -3604486, 27, 0, -3604485, 27, 0, -3604484, 27, 0, -3604483, 27, 0, -3604482, 27, 0, -3604481, 27, 0, -3670016, 27, 0, -3670015, 27, 0, -3670014, 27, 0, -3670013, 27, 0, -3670012, 27, 0, -3670011, 14, 0, -3538953, 14, 0, -3538952, 27, 0, -3538951, 27, 0, -3538950, 27, 0, -3538949, 27, 0, -3538948, 27, 0, -3538947, 27, 0, -3538946, 27, 0, -3538945, 27, 0, -3604480, 27, 0, -3604479, 27, 0, -3604478, 27, 0, -3604477, 27, 0, -3604476, 27, 0, -3604475, 14, 0, -3473417, 14, 0, -3473416, 27, 0, -3473415, 27, 0, -3473414, 27, 0, -3473413, 27, 0, -3473412, 27, 0, -3473411, 27, 0, -3473410, 27, 0, -3473409, 27, 0, -3538944, 27, 0, -3538943, 27, 0, -3538942, 27, 0, -3538941, 27, 0, -3538940, 27, 0, -3538939, 14, 0, -3407881, 14, 0, -3407880, 27, 0, -3407879, 27, 0, -3407878, 27, 0, -3407877, 27, 0, -3407876, 27, 0, -3407875, 27, 0, -3407874, 27, 0, -3407873, 27, 0, -3473408, 27, 0, -3473407, 27, 0, -3473406, 27, 0, -3473405, 27, 0, -3473404, 27, 0, -3473403, 14, 0, -3342345, 14, 0, -3342344, 27, 0, -3342343, 27, 0, -3342342, 27, 0, -3342341, 27, 0, -3342340, 27, 0, -3342339, 27, 0, -3342338, 27, 0, -3342337, 27, 0, -3407872, 27, 0, -3407871, 27, 0, -3407870, 27, 0, -3407869, 27, 0, -3407868, 27, 0, -3407867, 14, 0, -3276809, 14, 0, -3276808, 27, 0, -3276807, 27, 0, -3276806, 27, 0, -3276805, 27, 0, -3276804, 27, 0, -3276803, 27, 0, -3276802, 27, 0, -3276801, 27, 0, -3342336, 27, 0, -3342335, 27, 0, -3342334, 27, 0, -3342333, 27, 0, -3342332, 27, 0, -3342331, 14, 0, -3211273, 14, 0, -3211272, 27, 0, -3211271, 27, 0, -3211270, 27, 0, -3211269, 27, 0, -3211268, 27, 0, -3211267, 27, 0, -3211266, 27, 0, -3211265, 27, 0, -3276800, 27, 0, -3276799, 27, 0, -3276798, 27, 0, -3276797, 27, 0, -3276796, 27, 0, -3276795, 14, 0, -3145737, 14, 0, -3145736, 27, 0, -3145735, 27, 0, -3145734, 27, 0, -3145733, 27, 0, -3145732, 27, 0, -3145731, 27, 0, -3145730, 27, 0, -3145729, 27, 0, -3211264, 27, 0, -3211263, 27, 0, -3211262, 27, 0, -3211261, 27, 0, -3211260, 27, 0, -3211259, 14, 0, -3080201, 14, 0, -3080200, 27, 0, -3080199, 27, 0, -3080198, 27, 0, -3080197, 27, 0, -3080196, 27, 0, -3080195, 27, 0, -3080194, 27, 0, -3080193, 27, 0, -3145728, 27, 0, -3145727, 27, 0, -3145726, 27, 0, -3145725, 27, 0, -3145724, 27, 0, -3145723, 14, 0, -3014665, 536870925, 0, -3014664, 59, 0, -3014663, 59, 0, -3014662, 27, 0, -3014661, 27, 0, -3014660, 27, 0, -3014659, 27, 0, -3014658, 27, 0, -3014657, 27, 0, -3080192, 27, 0, -3080191, 27, 0, -3080190, 27, 0, -3080189, 27, 0, -3080188, 27, 0, -3080187, 14, 0, -2949129, 14, 0, -2949128, 27, 0, -2949127, 27, 0, -2949126, 27, 0, -2949125, 27, 0, -2949124, 27, 0, -2949123, 27, 0, -2949122, 27, 0, -2949121, 27, 0, -3014656, 27, 0, -3014655, 27, 0, -3014654, 27, 0, -3014653, 27, 0, -3014652, 27, 0, -3014651, 14, 0, -2883593, 14, 0, -2883592, 27, 0, -2883591, 27, 0, -2883590, 27, 0, -2883589, 27, 0, -2883588, 27, 0, -2883587, 27, 0, -2883586, 27, 0, -2883585, 27, 0, -2949120, 27, 0, -2949119, 27, 0, -2949118, 27, 0, -2949117, 27, 0, -2949116, 27, 0, -2949115, 14, 0, -2818057, 14, 0, -2818056, 27, 0, -2818055, 27, 0, -2818054, 27, 0, -2818053, 27, 0, -2818052, 27, 0, -2818051, 27, 0, -2818050, 27, 0, -2818049, 27, 0, -2883584, 27, 0, -2883583, 27, 0, -2883582, 27, 0, -2883581, 27, 0, -2883580, 27, 0, -2883579, 1610612749, 0, -2883578, 1073741868, 0, -2752521, 14, 0, -2752520, 27, 0, -2752519, 27, 0, -2752518, 27, 0, -2752517, 27, 0, -2752516, 27, 0, -2752515, 27, 0, -2752514, 27, 0, -2752513, 27, 0, -2818048, 27, 0, -2818047, 27, 0, -2818046, 27, 0, -2818045, 27, 0, -2818044, 27, 0, -2818043, 27, 0, -2818042, 14, 0, -2686985, 14, 0, -2686984, 27, 0, -2686983, 27, 0, -2686982, 27, 0, -2686981, 27, 0, -2686980, 27, 0, -2686979, 27, 0, -2686978, 27, 0, -2686977, 27, 0, -2752512, 27, 0, -2752511, 27, 0, -2752510, 27, 0, -2752509, 27, 0, -2752508, 27, 0, -2752507, 536870925, 0, -2752506, 44, 0, -2621449, 14, 0, -2621448, 27, 0, -2621447, 27, 0, -2621446, 27, 0, -2621445, 27, 0, -2621444, 27, 0, -2621443, 27, 0, -2621442, 27, 0, -2621441, 27, 0, -2686976, 27, 0, -2686975, 27, 0, -2686974, 27, 0, -2686973, 27, 0, -2686972, 27, 0, -2686971, 14, 0, -2555913, 14, 0, -2555912, 27, 0, -2555911, 27, 0, -2555910, 27, 0, -2555909, 27, 0, -2555908, 27, 0, -2555907, 27, 0, -2555906, 27, 0, -2555905, 27, 0, -2621440, 27, 0, -2621439, 27, 0, -2621438, 27, 0, -2621437, 27, 0, -2621436, 27, 0, -2621435, 14, 0, -2490377, 14, 0, -2490376, 27, 0, -2490375, 27, 0, -2490374, 27, 0, -2490373, 27, 0, -2490372, 27, 0, -2490371, 27, 0, -2490370, 27, 0, -2490369, 27, 0, -2555904, 27, 0, -2555903, 27, 0, -2555902, 27, 0, -2555901, 27, 0, -2555900, 27, 0, -2555899, 14, 0, -2424841, 14, 0, -2424840, 27, 0, -2424839, 27, 0, -2424838, 27, 0, -2424837, 27, 0, -2424836, 27, 0, -2424835, 27, 0, -2424834, 27, 0, -2424833, 27, 0, -2490368, 27, 0, -2490367, 27, 0, -2490366, 27, 0, -2490365, 27, 0, -2490364, 27, 0, -2490363, 14, 0, -2359305, 14, 0, -2359304, 27, 0, -2359303, 27, 0, -2359302, 27, 0, -2359301, 27, 0, -2359300, 27, 0, -2359299, 27, 0, -2359298, 27, 0, -2359297, 27, 0, -2424832, 27, 0, -2424831, 27, 0, -2424830, 27, 0, -2424829, 27, 0, -2424828, 27, 0, -2424827, 14, 0, -2293769, 14, 0, -2293768, 27, 0, -2293767, 27, 0, -2293766, 27, 0, -2293765, 27, 0, -2293764, 27, 0, -2293763, 27, 0, -2293762, 27, 0, -2293761, 27, 0, -2359296, 27, 0, -2359295, 27, 0, -2359294, 27, 0, -2359293, 27, 0, -2359292, 27, 0, -2359291, 14, 0, -2228233, 14, 0, -2228232, 27, 0, -2228231, 27, 0, -2228230, 27, 0, -2228229, 27, 0, -2228228, 27, 0, -2228227, 27, 0, -2228226, 27, 0, -2228225, 27, 0, -2293760, 27, 0, -2293759, 27, 0, -2293758, 27, 0, -2293757, 27, 0, -2293756, 27, 0, -2293755, 14, 0, -2162698, 1610612780, 0, -2162697, 1073741837, 0, -2162696, 27, 0, -2162695, 27, 0, -2162694, 27, 0, -2162693, 27, 0, -2162692, 27, 0, -2162691, 27, 0, -2162690, 27, 0, -2162689, 27, 0, -2228224, 27, 0, -2228223, 27, 0, -2228222, 27, 0, -2228221, 27, 0, -2228220, 27, 0, -2228219, 14, 0, -2097162, 14, 0, -2097161, 27, 0, -2097160, 27, 0, -2097159, 27, 0, -2097158, 27, 0, -2097157, 27, 0, -2097156, 27, 0, -2097155, 27, 0, -2097154, 27, 0, -2097153, 27, 0, -2162688, 27, 0, -2162687, 27, 0, -2162686, 27, 0, -2162685, 27, 0, -2162684, 27, 0, -2162683, 14, 0, -2031626, 536870956, 0, -2031625, 13, 0, -2031624, 27, 0, -2031623, 27, 0, -2031622, 27, 0, -2031621, 27, 0, -2031620, 27, 0, -2031619, 27, 0, -2031618, 27, 0, -2031617, 27, 0, -2097152, 27, 0, -2097151, 27, 0, -2097150, 27, 0, -2097149, 27, 0, -2097148, 27, 0, -2097147, 14, 0, -1966089, 14, 0, -1966088, 27, 0, -1966087, 27, 0, -1966086, 27, 0, -1966085, 27, 0, -1966084, 27, 0, -1966083, 27, 0, -1966082, 27, 0, -1966081, 27, 0, -2031616, 27, 0, -2031615, 27, 0, -2031614, 27, 0, -2031613, 27, 0, -2031612, 27, 0, -2031611, 14, 0, -1900553, 14, 0, -1900552, 27, 0, -1900551, 27, 0, -1900550, 27, 0, -1900549, 27, 0, -1900548, 27, 0, -1900547, 27, 0, -1900546, 27, 0, -1900545, 27, 0, -1966080, 27, 0, -1966079, 27, 0, -1966078, 27, 0, -1966077, 27, 0, -1966076, 27, 0, -1966075, 14, 0, -1835017, 14, 0, -1835016, 27, 0, -1835015, 27, 0, -1835014, 27, 0, -1835013, 27, 0, -1835012, 27, 0, -1835011, 27, 0, -1835010, 27, 0, -1835009, 27, 0, -1900544, 27, 0, -1900543, 27, 0, -1900542, 27, 0, -1900541, 27, 0, -1900540, 27, 0, -1900539, 14, 0, -1769481, 14, 0, -1769480, 27, 0, -1769479, 27, 0, -1769478, 27, 0, -1769477, 27, 0, -1769476, 27, 0, -1769475, 27, 0, -1769474, 27, 0, -1769473, 27, 0, -1835008, 27, 0, -1835007, 27, 0, -1835006, 27, 0, -1835005, 27, 0, -1835004, 27, 0, -1835003, 14, 0, -1703945, 14, 0, -1703944, 27, 0, -1703943, 27, 0, -1703942, 27, 0, -1703941, 27, 0, -1703940, 27, 0, -1703939, 27, 0, -1703938, 27, 0, -1703937, 27, 0, -1769472, 27, 0, -1769471, 27, 0, -1769470, 27, 0, -1769469, 27, 0, -1769468, 27, 0, -1769467, 14, 0, -1638409, 14, 0, -1638408, 27, 0, -1638407, 27, 0, -1638406, 27, 0, -1638405, 27, 0, -1638404, 27, 0, -1638403, 27, 0, -1638402, 27, 0, -1638401, 27, 0, -1703936, 27, 0, -1703935, 27, 0, -1703934, 27, 0, -1703933, 27, 0, -1703932, 27, 0, -1703931, 14, 0, -1572873, 14, 0, -1572872, 27, 0, -1572871, 27, 0, -1572870, 27, 0, -1572869, 27, 0, -1572868, 27, 0, -1572867, 27, 0, -1572866, 27, 0, -1572865, 27, 0, -1638400, 27, 0, -1638399, 27, 0, -1638398, 27, 0, -1638397, 27, 0, -1638396, 27, 0, -1638395, 14, 0, -1507337, 14, 0, -1507336, 27, 0, -1507335, 27, 0, -1507334, 27, 0, -1507333, 27, 0, -1507332, 27, 0, -1507331, 27, 0, -1507330, 27, 0, -1507329, 27, 0, -1572864, 27, 0, -1572863, 27, 0, -1572862, 27, 0, -1572861, 27, 0, -1572860, 27, 0, -1572859, 14, 0, -1441801, 14, 0, -1441800, 27, 0, -1441799, 27, 0, -1441798, 27, 0, -1441797, 27, 0, -1441796, 27, 0, -1441795, 27, 0, -1441794, 27, 0, -1441793, 27, 0, -1507328, 27, 0, -1507327, 27, 0, -1507326, 27, 0, -1507325, 27, 0, -1507324, 27, 0, -1507323, 14, 0, -1376265, 536870925, 0, -1376264, 59, 0, -1376263, 59, 0, -1376262, 27, 0, -1376261, 27, 0, -1376260, 27, 0, -1376259, 27, 0, -1376258, 27, 0, -1376257, 27, 0, -1441792, 27, 0, -1441791, 27, 0, -1441790, 27, 0, -1441789, 27, 0, -1441788, 27, 0, -1441787, 14, 0, -1310729, 14, 0, -1310728, 27, 0, -1310727, 27, 0, -1310726, 27, 0, -1310725, 27, 0, -1310724, 27, 0, -1310723, 27, 0, -1310722, 27, 0, -1310721, 27, 0, -1376256, 27, 0, -1376255, 27, 0, -1376254, 27, 0, -1376253, 27, 0, -1376252, 27, 0, -1376251, 14, 0, -1245193, 14, 0, -1245192, 27, 0, -1245191, 27, 0, -1245190, 27, 0, -1245189, 27, 0, -1245188, 27, 0, -1245187, 27, 0, -1245186, 27, 0, -1245185, 27, 0, -1310720, 27, 0, -1310719, 27, 0, -1310718, 27, 0, -1310717, 27, 0, -1310716, 27, 0, -1310715, 14, 0, -1179657, 14, 0, -1179656, 27, 0, -1179655, 27, 0, -1179654, 27, 0, -1179653, 27, 0, -1179652, 27, 0, -1179651, 27, 0, -1179650, 27, 0, -1179649, 27, 0, -1245184, 27, 0, -1245183, 27, 0, -1245182, 27, 0, -1245181, 27, 0, -1245180, 27, 0, -1245179, 14, 0, -1114121, 14, 0, -1114120, 27, 0, -1114119, 27, 0, -1114118, 27, 0, -1114117, 27, 0, -1114116, 27, 0, -1114115, 27, 0, -1114114, 27, 0, -1114113, 27, 0, -1179648, 27, 0, -1179647, 27, 0, -1179646, 27, 0, -1179645, 27, 0, -1179644, 27, 0, -1179643, 1610612749, 0, -1179642, 1073741868, 0, -1048585, 14, 0, -1048584, 27, 0, -1048583, 27, 0, -1048582, 27, 0, -1048581, 27, 0, -1048580, 27, 0, -1048579, 27, 0, -1048578, 27, 0, -1048577, 27, 0, -1114112, 27, 0, -1114111, 27, 0, -1114110, 27, 0, -1114109, 27, 0, -1114108, 27, 0, -1114107, 27, 0, -1114106, 14, 0, -983049, 14, 0, -983048, 27, 0, -983047, 27, 0, -983046, 27, 0, -983045, 27, 0, -983044, 27, 0, -983043, 27, 0, -983042, 27, 0, -983041, 27, 0, -1048576, 27, 0, -1048575, 27, 0, -1048574, 27, 0, -1048573, 27, 0, -1048572, 27, 0, -1048571, 536870925, 0, -1048570, 44, 0, -917513, 14, 0, -917512, 27, 0, -917511, 27, 0, -917510, 27, 0, -917509, 27, 0, -917508, 27, 0, -917507, 27, 0, -917506, 27, 0, -917505, 27, 0, -983040, 27, 0, -983039, 27, 0, -983038, 27, 0, -983037, 27, 0, -983036, 27, 0, -983035, 14, 0, -851977, 14, 0, -851976, 27, 0, -851975, 27, 0, -851974, 27, 0, -851973, 27, 0, -851972, 27, 0, -851971, 27, 0, -851970, 27, 0, -851969, 27, 0, -917504, 27, 0, -917503, 27, 0, -917502, 27, 0, -917501, 27, 0, -917500, 27, 0, -917499, 14, 0, -786441, 14, 0, -786440, 27, 0, -786439, 27, 0, -786438, 27, 0, -786437, 27, 0, -786436, 27, 0, -786435, 27, 0, -786434, 27, 0, -786433, 27, 0, -851968, 27, 0, -851967, 27, 0, -851966, 27, 0, -851965, 27, 0, -851964, 27, 0, -851963, 14, 0, -720905, 14, 0, -720904, 27, 0, -720903, 27, 0, -720902, 27, 0, -720901, 27, 0, -720900, 27, 0, -720899, 27, 0, -720898, 27, 0, -720897, 27, 0, -786432, 27, 0, -786431, 27, 0, -786430, 27, 0, -786429, 27, 0, -786428, 27, 0, -786427, 14, 0, -655369, 14, 0, -655368, 27, 0, -655367, 27, 0, -655366, 27, 0, -655365, 27, 0, -655364, 27, 0, -655363, 27, 0, -655362, 27, 0, -655361, 27, 0, -720896, 27, 0, -720895, 27, 0, -720894, 27, 0, -720893, 27, 0, -720892, 27, 0, -720891, 14, 0, -589833, 14, 0, -589832, 27, 0, -589831, 27, 0, -589830, 27, 0, -589829, 27, 0, -589828, 27, 0, -589827, 27, 0, -589826, 27, 0, -589825, 27, 0, -655360, 27, 0, -655359, 27, 0, -655358, 27, 0, -655357, 27, 0, -655356, 27, 0, -655355, 14, 0, -524298, 1610612780, 0, -524297, 1073741837, 0, -524296, 27, 0, -524295, 27, 0, -524294, 27, 0, -524293, 27, 0, -524292, 27, 0, -524291, 27, 0, -524290, 27, 0, -524289, 27, 0, -589824, 27, 0, -589823, 27, 0, -589822, 27, 0, -589821, 27, 0, -589820, 27, 0, -589819, 14, 0, -458762, 14, 0, -458761, 27, 0, -458760, 27, 0, -458759, 27, 0, -458758, 27, 0, -458757, 27, 0, -458756, 27, 0, -458755, 27, 0, -458754, 27, 0, -458753, 27, 0, -524288, 27, 0, -524287, 27, 0, -524286, 27, 0, -524285, 59, 0, -524284, 59, 0, -524283, 13, 0, -393226, 536870956, 0, -393225, 13, 0, -393224, 27, 0, -393223, 27, 0, -393222, 27, 0, -393221, 27, 0, -393220, 27, 0, -393219, 27, 0, -393218, 27, 0, -393217, 27, 0, -458752, 27, 0, -458751, 27, 0, -458750, 27, 0, -458749, 27, 0, -458748, 27, 0, -458747, 14, 0, -327689, 14, 0, -327688, 27, 0, -327687, 27, 0, -327686, 27, 0, -327685, 27, 0, -327684, 27, 0, -327683, 27, 0, -327682, 27, 0, -327681, 27, 0, -393216, 27, 0, -393215, 27, 0, -393214, 27, 0, -393213, 27, 0, -393212, 27, 0, -393211, 14, 0, -262153, 14, 0, -262152, 27, 0, -262151, 27, 0, -262150, 27, 0, -262149, 27, 0, -262148, 27, 0, -262147, 27, 0, -262146, 27, 0, -262145, 27, 0, -327680, 27, 0, -327679, 27, 0, -327678, 27, 0, -327677, 27, 0, -327676, 27, 0, -327675, 14, 0, -196617, 14, 0, -196616, 27, 0, -196615, 27, 0, -196614, 27, 0, -196613, 27, 0, -196612, 27, 0, -196611, 27, 0, -196610, 27, 0, -196609, 27, 0, -262144, 27, 0, -262143, 27, 0, -262142, 27, 0, -262141, 27, 0, -262140, 27, 0, -262139, 14, 0, -131081, 14, 0, -131080, 27, 0, -131079, 27, 0, -131078, 27, 0, -131077, 27, 0, -131076, 27, 0, -131075, 27, 0, -131074, 27, 0, -131073, 27, 0, -196608, 27, 0, -196607, 27, 0, -196606, 27, 0, -196605, 27, 0, -196604, 27, 0, -196603, 14, 0, -65545, 14, 0, -65544, 27, 0, -65543, 27, 0, -65542, 27, 0, -65541, 27, 0, -65540, 27, 0, -65539, 27, 0, -65538, 27, 0, -65537, 27, 0, -131072, 27, 0, -131071, 27, 0, -131070, 27, 0, -131069, 27, 0, -131068, 27, 0, -131067, 14, 0, -9, 14, 0, -8, 27, 0, -7, 27, 0, -6, 27, 0, -5, 27, 0, -4, 27, 0, -3, 27, 0, -2, 27, 0, -1, 27, 0, -65536, 27, 0, -65535, 27, 0, -65534, 27, 0, -65533, 27, 0, -65532, 27, 0, -65531, 14, 0, 65527, 14, 0, 65528, 27, 0, 65529, 27, 0, 65530, 27, 0, 65531, 27, 0, 65532, 27, 0, 65533, 27, 0, 65534, 27, 0, 65535, 27, 0, 0, 27, 0, 1, 27, 0, 2, 27, 0, 3, 27, 0, 4, 27, 0, 5, 14, 0, 131063, 536870925, 0, 131064, 38, 0, 131065, 38, 0, 131066, 38, 0, 131067, 38, 0, 131068, 13, 0, 131069, 27, 0, 131070, 27, 0, 131071, 27, 0, 65536, 536870925, 0, 65537, 38, 0, 65538, 38, 0, 65539, 38, 0, 65540, 38, 0, 65541, 13, 0 )

[node name="DecoGroup" type="Node2D" parent="tilemap"]

[node name="TileMap" type="TileMap" parent="tilemap/DecoGroup"]
tile_set = ExtResource( 2 )
cell_size = Vector2( 32, 32 )
compatibility_mode = true
format = 1
tile_data = PoolIntArray( -5898246, 0, 0, -5898243, 0, 0, -5832710, 1, 0, -5832707, 1, 0, -5767174, 1, 0, -5767171, 1, 0, -5701638, 1, 0, -5701635, 2, 0, -5636102, 1, 0, -5570566, 1, 0, -5505030, 2, 0, -5308418, 0, 0, -5242882, 2, 0, -4653058, 0, 0, -4587522, 2, 0, -3538946, 0, 0, -3473410, 2, 0, -3080199, 8, 0, -2818050, 0, 0, -2752514, 1, 0, -2686978, 1, 0, -2621442, 1, 0, -2555906, 2, 0, -2293761, 0, 0, -2359294, 0, 0, -2228225, 2, 0, -2293758, 1, 0, -2228222, 2, 0, -1769479, 0, 0, -1703943, 1, 0, -1638407, 1, 0, -1572871, 2, 0, -1179650, 0, 0, -1114114, 1, 0, -1048578, 1, 0, -983042, 2, 0, -524284, 8, 0, -262142, 0, 0, -196606, 1, 0, -131070, 2, 0, 65529, 8, 0, 1, 8, 0 )

[node name="ClimbableGroup" type="Node2D" parent="tilemap"]

[node name="ClimbableBlock" parent="tilemap/ClimbableGroup" instance=ExtResource( 3 )]
position = Vector2( 80, -240 )
physics_material_override = SubResource( 1 )

[node name="ClimbableBlock7" parent="tilemap/ClimbableGroup" instance=ExtResource( 3 )]
position = Vector2( -176, -1488 )
physics_material_override = SubResource( 2 )

[node name="Sprite" parent="tilemap/ClimbableGroup/ClimbableBlock7" index="0"]
offset = Vector2( 2, 0 )
flip_h = false

[node name="ClimbableBlock1" parent="tilemap/ClimbableGroup" instance=ExtResource( 3 )]
position = Vector2( -176, -688 )
physics_material_override = SubResource( 3 )

[node name="Sprite" parent="tilemap/ClimbableGroup/ClimbableBlock1" index="0"]
offset = Vector2( 2, 0 )
flip_h = false

[node name="One-WayPlatformGroup" type="Node2D" parent="tilemap"]

[node name="One-WayPlatform" parent="tilemap/One-WayPlatformGroup" instance=ExtResource( 4 )]
position = Vector2( -48, -416 )

[node name="Sprite" parent="tilemap/One-WayPlatformGroup/One-WayPlatform/KinematicBody2D" index="0"]
region_enabled = true
region_rect = Rect2( 0, 0, 128, 32 )

[node name="oneway" parent="tilemap/One-WayPlatformGroup/One-WayPlatform/KinematicBody2D" index="1"]
scale = Vector2( 4, 1 )

[node name="One-WayPlatform3 3" parent="tilemap/One-WayPlatformGroup" instance=ExtResource( 4 )]
position = Vector2( -48, -864 )

[node name="Sprite" parent="tilemap/One-WayPlatformGroup/One-WayPlatform3 3/KinematicBody2D" index="0"]
region_enabled = true
region_rect = Rect2( 0, 0, 128, 32 )

[node name="oneway" parent="tilemap/One-WayPlatformGroup/One-WayPlatform3 3/KinematicBody2D" index="1"]
scale = Vector2( 4, 1 )

[node name="One-WayPlatform34" parent="tilemap/One-WayPlatformGroup" instance=ExtResource( 4 )]
position = Vector2( 32, -1024 )

[node name="Sprite" parent="tilemap/One-WayPlatformGroup/One-WayPlatform34/KinematicBody2D" index="0"]
region_enabled = true
region_rect = Rect2( 0, 0, 128, 32 )

[node name="oneway" parent="tilemap/One-WayPlatformGroup/One-WayPlatform34/KinematicBody2D" index="1"]
scale = Vector2( 4, 1 )

[node name="One-WayPlatform35 2" parent="tilemap/One-WayPlatformGroup" instance=ExtResource( 4 )]
position = Vector2( -48, -1200 )

[node name="Sprite" parent="tilemap/One-WayPlatformGroup/One-WayPlatform35 2/KinematicBody2D" index="0"]
region_enabled = true
region_rect = Rect2( 0, 0, 128, 32 )

[node name="oneway" parent="tilemap/One-WayPlatformGroup/One-WayPlatform35 2/KinematicBody2D" index="1"]
scale = Vector2( 4, 1 )

[node name="One-WayPlatform353" parent="tilemap/One-WayPlatformGroup" instance=ExtResource( 4 )]
position = Vector2( -48, -1648 )

[node name="Sprite" parent="tilemap/One-WayPlatformGroup/One-WayPlatform353/KinematicBody2D" index="0"]
region_enabled = true
region_rect = Rect2( 0, 0, 128, 32 )

[node name="oneway" parent="tilemap/One-WayPlatformGroup/One-WayPlatform353/KinematicBody2D" index="1"]
scale = Vector2( 4, 1 )

[node name="One-WayPlatform354" parent="tilemap/One-WayPlatformGroup" instance=ExtResource( 4 )]
position = Vector2( -48, -1824 )

[node name="Sprite" parent="tilemap/One-WayPlatformGroup/One-WayPlatform354/KinematicBody2D" index="0"]
region_enabled = true
region_rect = Rect2( 0, 0, 128, 32 )

[node name="oneway" parent="tilemap/One-WayPlatformGroup/One-WayPlatform354/KinematicBody2D" index="1"]
scale = Vector2( 4, 1 )

[node name="One-WayPlatform355" parent="tilemap/One-WayPlatformGroup" instance=ExtResource( 4 )]
position = Vector2( 32, -2000 )

[node name="Sprite" parent="tilemap/One-WayPlatformGroup/One-WayPlatform355/KinematicBody2D" index="0"]
region_enabled = true
region_rect = Rect2( 0, 0, 128, 32 )

[node name="oneway" parent="tilemap/One-WayPlatformGroup/One-WayPlatform355/KinematicBody2D" index="1"]
scale = Vector2( 4, 1 )

[node name="One-WayPlatform356" parent="tilemap/One-WayPlatformGroup" instance=ExtResource( 4 )]
position = Vector2( -48, -2176 )

[node name="Sprite" parent="tilemap/One-WayPlatformGroup/One-WayPlatform356/KinematicBody2D" index="0"]
region_enabled = true
region_rect = Rect2( 0, 0, 128, 32 )

[node name="oneway" parent="tilemap/One-WayPlatformGroup/One-WayPlatform356/KinematicBody2D" index="1"]
scale = Vector2( 4, 1 )

[node name="One-WayPlatform357" parent="tilemap/One-WayPlatformGroup" instance=ExtResource( 4 )]
position = Vector2( 32, -2352 )

[node name="Sprite" parent="tilemap/One-WayPlatformGroup/One-WayPlatform357/KinematicBody2D" index="0"]
region_enabled = true
region_rect = Rect2( 0, 0, 128, 32 )

[node name="oneway" parent="tilemap/One-WayPlatformGroup/One-WayPlatform357/KinematicBody2D" index="1"]
scale = Vector2( 4, 1 )

[node name="One-WayPlatform358" parent="tilemap/One-WayPlatformGroup" instance=ExtResource( 4 )]
position = Vector2( -48, -2528 )

[node name="Sprite" parent="tilemap/One-WayPlatformGroup/One-WayPlatform358/KinematicBody2D" index="0"]
region_enabled = true
region_rect = Rect2( 0, 0, 128, 32 )

[node name="oneway" parent="tilemap/One-WayPlatformGroup/One-WayPlatform358/KinematicBody2D" index="1"]
scale = Vector2( 4, 1 )

[node name="One-WayPlatform359" parent="tilemap/One-WayPlatformGroup" instance=ExtResource( 4 )]
position = Vector2( 32, -2704 )

[node name="Sprite" parent="tilemap/One-WayPlatformGroup/One-WayPlatform359/KinematicBody2D" index="0"]
region_enabled = true
region_rect = Rect2( 0, 0, 128, 32 )

[node name="oneway" parent="tilemap/One-WayPlatformGroup/One-WayPlatform359/KinematicBody2D" index="1"]
scale = Vector2( 4, 1 )

[node name="One-WayPlatform1" parent="tilemap/One-WayPlatformGroup" instance=ExtResource( 4 )]
position = Vector2( 32, -416 )

[node name="Sprite" parent="tilemap/One-WayPlatformGroup/One-WayPlatform1/KinematicBody2D" index="0"]
texture = ExtResource( 5 )
offset = Vector2( 2, 0 )

[node name="One-WayPlatform3" parent="tilemap/One-WayPlatformGroup" instance=ExtResource( 4 )]
position = Vector2( 32, -864 )

[node name="Sprite" parent="tilemap/One-WayPlatformGroup/One-WayPlatform3/KinematicBody2D" index="0"]
texture = ExtResource( 5 )
offset = Vector2( 2, 0 )

[node name="One-WayPlatform4" parent="tilemap/One-WayPlatformGroup" instance=ExtResource( 4 )]
position = Vector2( 112, -1024 )

[node name="Sprite" parent="tilemap/One-WayPlatformGroup/One-WayPlatform4/KinematicBody2D" index="0"]
texture = ExtResource( 5 )
offset = Vector2( 2, 0 )

[node name="One-WayPlatform5" parent="tilemap/One-WayPlatformGroup" instance=ExtResource( 4 )]
position = Vector2( 32, -1200 )

[node name="Sprite" parent="tilemap/One-WayPlatformGroup/One-WayPlatform5/KinematicBody2D" index="0"]
texture = ExtResource( 5 )
offset = Vector2( 2, 0 )

[node name="One-WayPlatform6" parent="tilemap/One-WayPlatformGroup" instance=ExtResource( 4 )]
position = Vector2( 32, -1648 )

[node name="Sprite" parent="tilemap/One-WayPlatformGroup/One-WayPlatform6/KinematicBody2D" index="0"]
texture = ExtResource( 5 )
offset = Vector2( 2, 0 )

[node name="One-WayPlatform7" parent="tilemap/One-WayPlatformGroup" instance=ExtResource( 4 )]
position = Vector2( 32, -1824 )

[node name="Sprite" parent="tilemap/One-WayPlatformGroup/One-WayPlatform7/KinematicBody2D" index="0"]
texture = ExtResource( 5 )
offset = Vector2( 2, 0 )

[node name="One-WayPlatform8" parent="tilemap/One-WayPlatformGroup" instance=ExtResource( 4 )]
position = Vector2( 112, -2000 )

[node name="Sprite" parent="tilemap/One-WayPlatformGroup/One-WayPlatform8/KinematicBody2D" index="0"]
texture = ExtResource( 5 )
offset = Vector2( 2, 0 )

[node name="One-WayPlatform9" parent="tilemap/One-WayPlatformGroup" instance=ExtResource( 4 )]
position = Vector2( 32, -2176 )

[node name="Sprite" parent="tilemap/One-WayPlatformGroup/One-WayPlatform9/KinematicBody2D" index="0"]
texture = ExtResource( 5 )
offset = Vector2( 2, 0 )

[node name="One-WayPlatform10" parent="tilemap/One-WayPlatformGroup" instance=ExtResource( 4 )]
position = Vector2( 112, -2352 )

[node name="Sprite" parent="tilemap/One-WayPlatformGroup/One-WayPlatform10/KinematicBody2D" index="0"]
texture = ExtResource( 5 )
offset = Vector2( 2, 0 )

[node name="One-WayPlatform11" parent="tilemap/One-WayPlatformGroup" instance=ExtResource( 4 )]
position = Vector2( 32, -2528 )

[node name="Sprite" parent="tilemap/One-WayPlatformGroup/One-WayPlatform11/KinematicBody2D" index="0"]
texture = ExtResource( 5 )
offset = Vector2( 2, 0 )

[node name="One-WayPlatform12" parent="tilemap/One-WayPlatformGroup" instance=ExtResource( 4 )]
position = Vector2( 112, -2704 )

[node name="Sprite" parent="tilemap/One-WayPlatformGroup/One-WayPlatform12/KinematicBody2D" index="0"]
texture = ExtResource( 5 )
offset = Vector2( 2, 0 )

[node name="One-WayPlatform2" parent="tilemap/One-WayPlatformGroup" instance=ExtResource( 4 )]
position = Vector2( -128, -416 )

[node name="Sprite" parent="tilemap/One-WayPlatformGroup/One-WayPlatform2/KinematicBody2D" index="0"]
texture = ExtResource( 5 )
offset = Vector2( -2, 0 )
flip_h = true

[node name="One-WayPlatform3 2" parent="tilemap/One-WayPlatformGroup" instance=ExtResource( 4 )]
position = Vector2( -128, -864 )

[node name="Sprite" parent="tilemap/One-WayPlatformGroup/One-WayPlatform3 2/KinematicBody2D" index="0"]
texture = ExtResource( 5 )
offset = Vector2( -2, 0 )
flip_h = true

[node name="One-WayPlatform33" parent="tilemap/One-WayPlatformGroup" instance=ExtResource( 4 )]
position = Vector2( -48, -1024 )

[node name="Sprite" parent="tilemap/One-WayPlatformGroup/One-WayPlatform33/KinematicBody2D" index="0"]
texture = ExtResource( 5 )
offset = Vector2( -2, 0 )
flip_h = true

[node name="One-WayPlatform35" parent="tilemap/One-WayPlatformGroup" instance=ExtResource( 4 )]
position = Vector2( -128, -1200 )

[node name="Sprite" parent="tilemap/One-WayPlatformGroup/One-WayPlatform35/KinematicBody2D" index="0"]
texture = ExtResource( 5 )
offset = Vector2( -2, 0 )
flip_h = true

[node name="One-WayPlatform36" parent="tilemap/One-WayPlatformGroup" instance=ExtResource( 4 )]
position = Vector2( -128, -1648 )

[node name="Sprite" parent="tilemap/One-WayPlatformGroup/One-WayPlatform36/KinematicBody2D" index="0"]
texture = ExtResource( 5 )
offset = Vector2( -2, 0 )
flip_h = true

[node name="One-WayPlatform37" parent="tilemap/One-WayPlatformGroup" instance=ExtResource( 4 )]
position = Vector2( -128, -1824 )

[node name="Sprite" parent="tilemap/One-WayPlatformGroup/One-WayPlatform37/KinematicBody2D" index="0"]
texture = ExtResource( 5 )
offset = Vector2( -2, 0 )
flip_h = true

[node name="One-WayPlatform38" parent="tilemap/One-WayPlatformGroup" instance=ExtResource( 4 )]
position = Vector2( -48, -2000 )

[node name="Sprite" parent="tilemap/One-WayPlatformGroup/One-WayPlatform38/KinematicBody2D" index="0"]
texture = ExtResource( 5 )
offset = Vector2( -2, 0 )
flip_h = true

[node name="One-WayPlatform39" parent="tilemap/One-WayPlatformGroup" instance=ExtResource( 4 )]
position = Vector2( -128, -2176 )

[node name="Sprite" parent="tilemap/One-WayPlatformGroup/One-WayPlatform39/KinematicBody2D" index="0"]
texture = ExtResource( 5 )
offset = Vector2( -2, 0 )
flip_h = true

[node name="One-WayPlatform40" parent="tilemap/One-WayPlatformGroup" instance=ExtResource( 4 )]
position = Vector2( -48, -2352 )

[node name="Sprite" parent="tilemap/One-WayPlatformGroup/One-WayPlatform40/KinematicBody2D" index="0"]
texture = ExtResource( 5 )
offset = Vector2( -2, 0 )
flip_h = true

[node name="One-WayPlatform41" parent="tilemap/One-WayPlatformGroup" instance=ExtResource( 4 )]
position = Vector2( -128, -2528 )

[node name="Sprite" parent="tilemap/One-WayPlatformGroup/One-WayPlatform41/KinematicBody2D" index="0"]
texture = ExtResource( 5 )
offset = Vector2( -2, 0 )
flip_h = true

[node name="One-WayPlatform42" parent="tilemap/One-WayPlatformGroup" instance=ExtResource( 4 )]
position = Vector2( -48, -2704 )

[node name="Sprite" parent="tilemap/One-WayPlatformGroup/One-WayPlatform42/KinematicBody2D" index="0"]
texture = ExtResource( 5 )
offset = Vector2( -2, 0 )
flip_h = true

[node name="LadderGroup" type="Node2D" parent="tilemap"]

[node name="TestLadder" parent="tilemap/LadderGroup" instance=ExtResource( 6 )]
position = Vector2( -48, 0 )

[node name="Sprite" parent="tilemap/LadderGroup/TestLadder/KinematicBody2D" index="0"]
region_rect = Rect2( 0, 0, 32, 128 )

[node name="ladder" parent="tilemap/LadderGroup/TestLadder/KinematicBody2D" index="1"]
scale = Vector2( 1, 4 )

[node name="PotGroup" type="Node2D" parent="tilemap"]

[node name="Pot" parent="tilemap/PotGroup" instance=ExtResource( 7 )]
position = Vector2( -176, -16 )

[node name="EnemiesGroup" type="Node2D" parent="tilemap"]

[node name="Bust" parent="tilemap/EnemiesGroup" instance=ExtResource( 8 )]
position = Vector2( 176, -528 )
rateX = -2

[node name="Bust2" parent="tilemap/EnemiesGroup" instance=ExtResource( 8 )]
position = Vector2( 176, -1360 )
rateX = -2

[node name="Bust3" parent="tilemap/EnemiesGroup" instance=ExtResource( 8 )]
position = Vector2( 176, -2160 )
rateX = -2

[node name="Bust4" parent="tilemap/EnemiesGroup" instance=ExtResource( 8 )]
position = Vector2( -272, -2352 )
scale = Vector2( -1, 1 )
rateX = 2

[node name="Bust5" parent="tilemap/EnemiesGroup" instance=ExtResource( 8 )]
position = Vector2( -272.001, -1808 )
scale = Vector2( -1, 1 )
rateX = 2

[node name="Bust6" parent="tilemap/EnemiesGroup" instance=ExtResource( 8 )]
position = Vector2( -272.001, -1040 )
scale = Vector2( -1, 1 )
rateX = 2

[node name="Bust7" parent="tilemap/EnemiesGroup" instance=ExtResource( 8 )]
position = Vector2( -272, -240 )
scale = Vector2( -1, 1 )
rateX = 2

[node name="SpecialItemGroup" type="Node2D" parent="tilemap"]

[node name="ITEM_MANAPOTIONPLUS" parent="tilemap/SpecialItemGroup" instance=ExtResource( 9 )]
position = Vector2( 32, -2896 )
isgoal = true

[node name="ITEM_STYXCHALICE" parent="tilemap/SpecialItemGroup" instance=ExtResource( 10 )]
position = Vector2( 32, -2896 )
isgoal = true

[node name="SunbeamGroup" type="Node2D" parent="tilemap"]

[node name="Sunbeam" parent="tilemap/SunbeamGroup" instance=ExtResource( 11 )]
position = Vector2( -48, -1504 )

[node name="block" parent="tilemap/SunbeamGroup/Sunbeam" index="0"]
scale = Vector2( 13, 96 )

[node name="sunbeam" parent="tilemap/SunbeamGroup/Sunbeam" index="1"]
scale = Vector2( 13, 96 )

[node name="TeleportGroup" type="Node2D" parent="tilemap"]

[node name="Teleport" parent="tilemap/TeleportGroup" instance=ExtResource( 12 )]
position = Vector2( -48, 80 )
is_horizontal = false
target_level = "res://levels/waterway/0-1.tscn"
teleport_to = Vector2( -144, -816 )

[node name="teleport" parent="tilemap/TeleportGroup/Teleport" index="0"]
scale = Vector2( 3, 1 )

[node name="boundaries" type="Node2D" parent="tilemap"]

[node name="NW" type="Position2D" parent="tilemap/boundaries"]
position = Vector2( -304, -3088 )

[node name="SE" type="Position2D" parent="tilemap/boundaries"]
position = Vector2( 208, 80 )

[editable path="tilemap/ClimbableGroup/ClimbableBlock7"]

[editable path="tilemap/ClimbableGroup/ClimbableBlock1"]

[editable path="tilemap/One-WayPlatformGroup/One-WayPlatform"]

[editable path="tilemap/One-WayPlatformGroup/One-WayPlatform3 3"]

[editable path="tilemap/One-WayPlatformGroup/One-WayPlatform34"]

[editable path="tilemap/One-WayPlatformGroup/One-WayPlatform35 2"]

[editable path="tilemap/One-WayPlatformGroup/One-WayPlatform353"]

[editable path="tilemap/One-WayPlatformGroup/One-WayPlatform354"]

[editable path="tilemap/One-WayPlatformGroup/One-WayPlatform355"]

[editable path="tilemap/One-WayPlatformGroup/One-WayPlatform356"]

[editable path="tilemap/One-WayPlatformGroup/One-WayPlatform357"]

[editable path="tilemap/One-WayPlatformGroup/One-WayPlatform358"]

[editable path="tilemap/One-WayPlatformGroup/One-WayPlatform359"]

[editable path="tilemap/One-WayPlatformGroup/One-WayPlatform1"]

[editable path="tilemap/One-WayPlatformGroup/One-WayPlatform3"]

[editable path="tilemap/One-WayPlatformGroup/One-WayPlatform4"]

[editable path="tilemap/One-WayPlatformGroup/One-WayPlatform5"]

[editable path="tilemap/One-WayPlatformGroup/One-WayPlatform6"]

[editable path="tilemap/One-WayPlatformGroup/One-WayPlatform7"]

[editable path="tilemap/One-WayPlatformGroup/One-WayPlatform8"]

[editable path="tilemap/One-WayPlatformGroup/One-WayPlatform9"]

[editable path="tilemap/One-WayPlatformGroup/One-WayPlatform10"]

[editable path="tilemap/One-WayPlatformGroup/One-WayPlatform11"]

[editable path="tilemap/One-WayPlatformGroup/One-WayPlatform12"]

[editable path="tilemap/One-WayPlatformGroup/One-WayPlatform2"]

[editable path="tilemap/One-WayPlatformGroup/One-WayPlatform3 2"]

[editable path="tilemap/One-WayPlatformGroup/One-WayPlatform33"]

[editable path="tilemap/One-WayPlatformGroup/One-WayPlatform35"]

[editable path="tilemap/One-WayPlatformGroup/One-WayPlatform36"]

[editable path="tilemap/One-WayPlatformGroup/One-WayPlatform37"]

[editable path="tilemap/One-WayPlatformGroup/One-WayPlatform38"]

[editable path="tilemap/One-WayPlatformGroup/One-WayPlatform39"]

[editable path="tilemap/One-WayPlatformGroup/One-WayPlatform40"]

[editable path="tilemap/One-WayPlatformGroup/One-WayPlatform41"]

[editable path="tilemap/One-WayPlatformGroup/One-WayPlatform42"]

[editable path="tilemap/LadderGroup/TestLadder"]

[editable path="tilemap/SunbeamGroup/Sunbeam"]

[editable path="tilemap/TeleportGroup/Teleport"]
