[gd_scene load_steps=10 format=2]

[ext_resource path="res://scenes/cave/parallax2.tscn" type="PackedScene" id=1]
[ext_resource path="res://scenes/cave/tileset.tres" type="TileSet" id=2]
[ext_resource path="res://scenes/cave/climbableblock.tscn" type="PackedScene" id=3]
[ext_resource path="res://scenes/common/bloodfountain/bloodfountain.tscn" type="PackedScene" id=4]
[ext_resource path="res://scenes/common/damagables/orc/orc.tscn" type="PackedScene" id=5]
[ext_resource path="res://scenes/common/damagables/flyingskull/flyingskull.tscn" type="PackedScene" id=6]
[ext_resource path="res://scenes/common/teleport.tscn" type="PackedScene" id=7]

[sub_resource type="PhysicsMaterial" id=1]
friction = 0.0

[sub_resource type="PhysicsMaterial" id=2]
friction = 0.0

[node name="LVL_NOTITLE" type="Node2D"]
__meta__ = {
"__editor_plugin_screen__": "2D"
}

[node name="Parallax" parent="." instance=ExtResource( 1 )]

[node name="tilemap" type="TileMap" parent="."]
tile_set = ExtResource( 2 )
cell_size = Vector2( 32, 32 )
compatibility_mode = true
collision_layer = 524288
format = 1
tile_data = PoolIntArray( -5636112, 21, 0, -5636111, 21, 0, -5636110, 21, 0, -5636109, 21, 0, -5636108, 21, 0, -5636107, 21, 0, -5636106, 21, 0, -5636105, 21, 0, -5636104, 21, 0, -5636103, 21, 0, -5636102, 21, 0, -5636101, 21, 0, -5636100, 21, 0, -5636099, 21, 0, -5636098, 21, 0, -5636097, 21, 0, -5701632, 21, 0, -5701631, 21, 0, -5701630, 21, 0, -5701629, 21, 0, -5701628, 21, 0, -5701627, 21, 0, -5701626, 21, 0, -5701625, 21, 0, -5701624, 21, 0, -5701623, 21, 0, -5701622, 21, 0, -5701621, 21, 0, -5701620, 21, 0, -5701619, 21, 0, -5701618, 21, 0, -5701617, 21, 0, -5701616, 21, 0, -5701615, 21, 0, -5701614, 21, 0, -5701613, 21, 0, -5701612, 21, 0, -5701611, 21, 0, -5701610, 21, 0, -5701609, 21, 0, -5701608, 21, 0, -5701607, 21, 0, -5701606, 21, 0, -5701605, 21, 0, -5701604, 21, 0, -5570576, 21, 0, -5570575, 21, 0, -5570574, 21, 0, -5570573, 21, 0, -5570572, 21, 0, -5570571, 21, 0, -5570570, 21, 0, -5570569, 21, 0, -5570568, 21, 0, -5570567, 21, 0, -5570566, 21, 0, -5570565, 21, 0, -5570564, 21, 0, -5570563, 21, 0, -5570562, 21, 0, -5570561, 21, 0, -5636096, 21, 0, -5636095, 21, 0, -5636094, 21, 0, -5636093, 21, 0, -5636092, 21, 0, -5636091, 21, 0, -5636090, 21, 0, -5636089, 21, 0, -5636088, 21, 0, -5636087, 21, 0, -5636086, 21, 0, -5636085, 21, 0, -5636084, 21, 0, -5636083, 21, 0, -5636082, 21, 0, -5636081, 21, 0, -5636080, 21, 0, -5636079, 21, 0, -5636078, 21, 0, -5636077, 21, 0, -5636076, 21, 0, -5636075, 21, 0, -5636074, 21, 0, -5636073, 21, 0, -5636072, 21, 0, -5636071, 21, 0, -5636070, 21, 0, -5636069, 21, 0, -5636068, 21, 0, -5505040, 21, 0, -5505039, 21, 0, -5505038, 21, 0, -5505037, 21, 0, -5505036, 21, 0, -5505035, 21, 0, -5505034, 21, 0, -5505033, 21, 0, -5505032, 21, 0, -5505031, 21, 0, -5505030, 21, 0, -5505029, 21, 0, -5505028, 21, 0, -5505027, 21, 0, -5505026, 21, 0, -5505025, 21, 0, -5570560, 21, 0, -5570559, 21, 0, -5570558, 21, 0, -5570557, 21, 0, -5570556, 21, 0, -5570555, 21, 0, -5570554, 21, 0, -5570553, 21, 0, -5570552, 21, 0, -5570551, 21, 0, -5570550, 21, 0, -5570549, 21, 0, -5570548, 21, 0, -5570547, 21, 0, -5570546, 21, 0, -5570545, 21, 0, -5570544, 21, 0, -5570543, 21, 0, -5570542, 21, 0, -5570541, 21, 0, -5570540, 21, 0, -5570539, 21, 0, -5570538, 21, 0, -5570537, 21, 0, -5570536, 21, 0, -5570535, 21, 0, -5570534, 21, 0, -5570533, 21, 0, -5570532, 21, 0, -5439504, 21, 0, -5439503, 21, 0, -5439502, 21, 0, -5439501, 21, 0, -5439500, 21, 0, -5439499, 21, 0, -5439498, 21, 0, -5439497, 21, 0, -5439496, 21, 0, -5439495, 21, 0, -5439494, 21, 0, -5439493, 21, 0, -5439492, 21, 0, -5439491, 21, 0, -5439490, 21, 0, -5439489, 21, 0, -5505024, 21, 0, -5505023, 21, 0, -5505022, 21, 0, -5505021, 21, 0, -5505020, 21, 0, -5505019, 21, 0, -5505018, 21, 0, -5505017, 21, 0, -5505016, 21, 0, -5505015, 21, 0, -5505014, 21, 0, -5505013, 21, 0, -5505012, 21, 0, -5505011, 21, 0, -5505010, 21, 0, -5505009, 21, 0, -5505008, 21, 0, -5505007, 21, 0, -5505006, 21, 0, -5505005, 21, 0, -5505004, 21, 0, -5505003, 21, 0, -5505002, 21, 0, -5505001, 21, 0, -5505000, 21, 0, -5504999, 21, 0, -5504998, 21, 0, -5504997, 21, 0, -5504996, 21, 0, -5373968, 21, 0, -5373967, 21, 0, -5373966, 21, 0, -5373965, 21, 0, -5373964, 21, 0, -5373963, 21, 0, -5373962, 536870915, 0, -5373961, 12, 0, -5373960, 12, 0, -5373959, 12, 0, -5373958, 12, 0, -5373957, 12, 0, -5373956, 12, 0, -5373955, 12, 0, -5373954, 12, 0, -5373953, 12, 0, -5439488, 12, 0, -5439487, 12, 0, -5439486, 12, 0, -5439485, 12, 0, -5439484, 12, 0, -5439483, 12, 0, -5439482, 12, 0, -5439481, 12, 0, -5439480, 12, 0, -5439479, 12, 0, -5439478, 12, 0, -5439477, 12, 0, -5439476, 12, 0, -5439475, 12, 0, -5439474, 12, 0, -5439473, 12, 0, -5439472, 12, 0, -5439471, 12, 0, -5439470, 12, 0, -5439469, 12, 0, -5439468, 12, 0, -5439467, 3, 0, -5439466, 21, 0, -5439465, 21, 0, -5439464, 21, 0, -5439463, 21, 0, -5439462, 21, 0, -5439461, 21, 0, -5439460, 21, 0, -5308432, 21, 0, -5308431, 21, 0, -5308430, 21, 0, -5308429, 21, 0, -5308428, 21, 0, -5308427, 21, 0, -5308426, 536870915, 0, -5308425, 12, 0, -5308424, 12, 0, -5308423, 12, 0, -5308422, 12, 0, -5308421, 12, 0, -5308420, 12, 0, -5308419, 12, 0, -5308418, 12, 0, -5308417, 12, 0, -5373952, 12, 0, -5373951, 12, 0, -5373950, 12, 0, -5373949, 12, 0, -5373948, 12, 0, -5373947, 12, 0, -5373946, 12, 0, -5373945, 12, 0, -5373944, 12, 0, -5373943, 12, 0, -5373942, 12, 0, -5373941, 12, 0, -5373940, 12, 0, -5373939, 12, 0, -5373938, 12, 0, -5373937, 12, 0, -5373936, 12, 0, -5373935, 12, 0, -5373934, 12, 0, -5373933, 12, 0, -5373932, 12, 0, -5373931, 3, 0, -5373930, 21, 0, -5373929, 21, 0, -5373928, 21, 0, -5373927, 21, 0, -5373926, 21, 0, -5373925, 21, 0, -5373924, 21, 0, -5242896, 21, 0, -5242895, 21, 0, -5242894, 21, 0, -5242893, 21, 0, -5242892, 21, 0, -5242891, 21, 0, -5242890, 536870915, 0, -5242889, 12, 0, -5242888, 12, 0, -5242887, 12, 0, -5242886, 12, 0, -5242885, 12, 0, -5242884, 12, 0, -5242883, 12, 0, -5242882, 12, 0, -5242881, 12, 0, -5308416, 12, 0, -5308415, 12, 0, -5308414, 12, 0, -5308413, 12, 0, -5308412, 12, 0, -5308411, 12, 0, -5308410, 12, 0, -5308409, 12, 0, -5308408, 12, 0, -5308407, 12, 0, -5308406, 12, 0, -5308405, 12, 0, -5308404, 12, 0, -5308403, 12, 0, -5308402, 12, 0, -5308401, 12, 0, -5308400, 12, 0, -5308399, 12, 0, -5308398, 12, 0, -5308397, 12, 0, -5308396, 12, 0, -5308395, 3, 0, -5308394, 21, 0, -5308393, 21, 0, -5308392, 21, 0, -5308391, 21, 0, -5308390, 21, 0, -5308389, 21, 0, -5308388, 21, 0, -5177360, 21, 0, -5177359, 21, 0, -5177358, 21, 0, -5177357, 21, 0, -5177356, 21, 0, -5177355, 21, 0, -5177354, 536870915, 0, -5177353, 12, 0, -5177352, 12, 0, -5177351, 12, 0, -5177350, 12, 0, -5177349, 12, 0, -5177348, 12, 0, -5177347, 12, 0, -5177346, 12, 0, -5177345, 12, 0, -5242880, 12, 0, -5242879, 12, 0, -5242878, 12, 0, -5242877, 12, 0, -5242876, 12, 0, -5242875, 12, 0, -5242874, 12, 0, -5242873, 12, 0, -5242872, 12, 0, -5242871, 12, 0, -5242870, 12, 0, -5242869, 12, 0, -5242868, 12, 0, -5242867, 12, 0, -5242866, 12, 0, -5242865, 12, 0, -5242864, 12, 0, -5242863, 12, 0, -5242862, 12, 0, -5242861, 12, 0, -5242860, 12, 0, -5242859, 3, 0, -5242858, 21, 0, -5242857, 21, 0, -5242856, 21, 0, -5242855, 21, 0, -5242854, 21, 0, -5242853, 21, 0, -5242852, 21, 0, -5111824, 21, 0, -5111823, 21, 0, -5111822, 21, 0, -5111821, 21, 0, -5111820, 21, 0, -5111819, 21, 0, -5111818, 1073741825, 0, -5111817, 1073741824, 0, -5111816, 1073741824, 0, -5111815, 1073741824, 0, -5111814, 1073741824, 0, -5111813, 1073741824, 0, -5111812, 1073741824, 0, -5111811, 1073741824, 0, -5111810, 1073741824, 0, -5111809, 1073741824, 0, -5177344, 1073741824, 0, -5177343, 1073741824, 0, -5177342, 1073741824, 0, -5177341, 1073741824, 0, -5177340, 1073741824, 0, -5177339, 1073741824, 0, -5177338, 1073741824, 0, -5177337, 1073741824, 0, -5177336, 1073741824, 0, -5177335, 1073741824, 0, -5177334, 1073741824, 0, -5177333, 1073741824, 0, -5177332, 1073741824, 0, -5177331, 1073741824, 0, -5177330, 1073741824, 0, -5177329, 1073741824, 0, -5177328, 1073741824, 0, -5177327, 1073741824, 0, -5177326, 1073741824, 0, -5177325, 1073741824, 0, -5177324, 1073741824, 0, -5177323, 1073741826, 0, -5177322, 21, 0, -5177321, 21, 0, -5177320, 21, 0, -5177319, 21, 0, -5177318, 21, 0, -5177317, 21, 0, -5177316, 21, 0, -5046288, 21, 0, -5046287, 21, 0, -5046286, 21, 0, -5046285, 21, 0, -5046284, 21, 0, -5046283, 21, 0, -5046282, 3, 0, -5111787, 536870915, 0, -5111786, 21, 0, -5111785, 21, 0, -5111784, 21, 0, -5111783, 21, 0, -5111782, 21, 0, -5111781, 21, 0, -5111780, 21, 0, -4980752, 21, 0, -4980751, 21, 0, -4980750, 21, 0, -4980749, 21, 0, -4980748, 21, 0, -4980747, 21, 0, -4980746, 3, 0, -5046251, 536870915, 0, -5046250, 21, 0, -5046249, 21, 0, -5046248, 21, 0, -5046247, 21, 0, -5046246, 21, 0, -5046245, 21, 0, -5046244, 21, 0, -4915216, 21, 0, -4915215, 21, 0, -4915214, 21, 0, -4915213, 21, 0, -4915212, 21, 0, -4915211, 21, 0, -4915210, 3, 0, -4980715, 536870915, 0, -4980714, 21, 0, -4980713, 21, 0, -4980712, 21, 0, -4980711, 21, 0, -4980710, 21, 0, -4980709, 21, 0, -4980708, 21, 0, -4849680, 21, 0, -4849679, 21, 0, -4849678, 21, 0, -4849677, 21, 0, -4849676, 21, 0, -4849675, 21, 0, -4849674, 1073741826, 0, -4915179, 1073741825, 0, -4915178, 21, 0, -4915177, 21, 0, -4915176, 21, 0, -4915175, 21, 0, -4915174, 21, 0, -4915173, 21, 0, -4915172, 21, 0, -4784144, 21, 0, -4784143, 21, 0, -4784142, 21, 0, -4784141, 21, 0, -4784140, 21, 0, -4784139, 21, 0, -4849642, 21, 0, -4849641, 21, 0, -4849640, 21, 0, -4849639, 21, 0, -4849638, 21, 0, -4849637, 21, 0, -4849636, 21, 0, -4718608, 21, 0, -4718607, 21, 0, -4718606, 21, 0, -4718605, 21, 0, -4718604, 21, 0, -4718603, 21, 0, -4784106, 21, 0, -4784105, 21, 0, -4784104, 21, 0, -4784103, 21, 0, -4784102, 21, 0, -4784101, 21, 0, -4784100, 21, 0, -4653072, 21, 0, -4653071, 21, 0, -4653070, 21, 0, -4653069, 21, 0, -4653068, 21, 0, -4653067, 21, 0, -4718570, 21, 0, -4718569, 21, 0, -4718568, 21, 0, -4718567, 21, 0, -4718566, 21, 0, -4718565, 21, 0, -4718564, 21, 0, -4587536, 21, 0, -4587535, 21, 0, -4587534, 21, 0, -4587533, 21, 0, -4587532, 21, 0, -4587531, 21, 0, -4653034, 21, 0, -4653033, 21, 0, -4653032, 21, 0, -4653031, 21, 0, -4653030, 21, 0, -4653029, 21, 0, -4653028, 21, 0, -4522000, 21, 0, -4521999, 21, 0, -4521998, 21, 0, -4521997, 21, 0, -4521996, 21, 0, -4521995, 21, 0, -4587498, 21, 0, -4587497, 21, 0, -4587496, 21, 0, -4587495, 21, 0, -4587494, 21, 0, -4587493, 21, 0, -4587492, 21, 0, -4456464, 21, 0, -4456463, 21, 0, -4456462, 21, 0, -4456461, 21, 0, -4456460, 21, 0, -4456459, 21, 0, -4456458, 2, 0, -4456457, 0, 0, -4456456, 0, 0, -4456455, 0, 0, -4456454, 0, 0, -4456453, 0, 0, -4456452, 0, 0, -4456451, 0, 0, -4456450, 0, 0, -4456449, 0, 0, -4521984, 0, 0, -4521983, 0, 0, -4521973, 0, 0, -4521972, 0, 0, -4521971, 0, 0, -4521970, 0, 0, -4521969, 0, 0, -4521968, 0, 0, -4521967, 0, 0, -4521966, 0, 0, -4521965, 0, 0, -4521964, 0, 0, -4521963, 1, 0, -4521962, 21, 0, -4521961, 21, 0, -4521960, 21, 0, -4521959, 21, 0, -4521958, 21, 0, -4521957, 21, 0, -4521956, 21, 0, -4390928, 21, 0, -4390927, 21, 0, -4390926, 21, 0, -4390925, 21, 0, -4390924, 21, 0, -4390923, 21, 0, -4390922, 3, 0, -4456427, 536870915, 0, -4456426, 21, 0, -4456425, 21, 0, -4456424, 21, 0, -4456423, 21, 0, -4456422, 21, 0, -4456421, 21, 0, -4456420, 21, 0, -4325392, 21, 0, -4325391, 21, 0, -4325390, 21, 0, -4325389, 21, 0, -4325388, 21, 0, -4325387, 21, 0, -4325386, 3, 0, -4390891, 536870915, 0, -4390890, 21, 0, -4390889, 21, 0, -4390888, 21, 0, -4390887, 21, 0, -4390886, 21, 0, -4390885, 21, 0, -4390884, 21, 0, -4259856, 21, 0, -4259855, 21, 0, -4259854, 21, 0, -4259853, 21, 0, -4259852, 21, 0, -4259851, 21, 0, -4259850, 3, 0, -4325355, 536870915, 0, -4325354, 21, 0, -4325353, 21, 0, -4325352, 21, 0, -4325351, 21, 0, -4325350, 21, 0, -4325349, 21, 0, -4325348, 21, 0, -4194320, 21, 0, -4194319, 21, 0, -4194318, 21, 0, -4194317, 21, 0, -4194316, 21, 0, -4194315, 21, 0, -4194314, 3, 0, -4259819, 536870915, 0, -4259818, 21, 0, -4259817, 21, 0, -4259816, 21, 0, -4259815, 21, 0, -4259814, 21, 0, -4259813, 21, 0, -4259812, 21, 0, -4128784, 21, 0, -4128783, 21, 0, -4128782, 21, 0, -4128781, 21, 0, -4128780, 21, 0, -4128779, 21, 0, -4128778, 3, 0, -4194283, 536870915, 0, -4194282, 21, 0, -4194281, 21, 0, -4194280, 21, 0, -4194279, 21, 0, -4194278, 21, 0, -4194277, 21, 0, -4194276, 21, 0, -4063248, 21, 0, -4063247, 21, 0, -4063246, 21, 0, -4063245, 21, 0, -4063244, 21, 0, -4063243, 21, 0, -4063242, 3, 0, -4128747, 536870915, 0, -4128746, 21, 0, -4128745, 21, 0, -4128744, 21, 0, -4128743, 21, 0, -4128742, 21, 0, -4128741, 21, 0, -4128740, 21, 0, -3997712, 21, 0, -3997711, 21, 0, -3997710, 21, 0, -3997709, 21, 0, -3997708, 21, 0, -3997707, 21, 0, -3997706, 3, 0, -4063211, 536870915, 0, -4063210, 21, 0, -4063209, 21, 0, -4063208, 21, 0, -4063207, 21, 0, -4063206, 21, 0, -4063205, 21, 0, -4063204, 21, 0, -3932176, 21, 0, -3932175, 21, 0, -3932174, 21, 0, -3932173, 21, 0, -3932172, 21, 0, -3932171, 21, 0, -3932170, 3, 0, -3997675, 536870915, 0, -3997674, 21, 0, -3997673, 21, 0, -3997672, 21, 0, -3997671, 21, 0, -3997670, 21, 0, -3997669, 21, 0, -3997668, 21, 0, -3866640, 21, 0, -3866639, 21, 0, -3866638, 21, 0, -3866637, 21, 0, -3866636, 21, 0, -3866635, 21, 0, -3866634, 3, 0, -3932139, 536870915, 0, -3932138, 21, 0, -3932137, 21, 0, -3932136, 21, 0, -3932135, 21, 0, -3932134, 21, 0, -3932133, 21, 0, -3932132, 21, 0, -3801104, 21, 0, -3801103, 21, 0, -3801102, 21, 0, -3801101, 21, 0, -3801100, 21, 0, -3801099, 21, 0, -3801098, 3, 0, -3866603, 536870915, 0, -3866602, 21, 0, -3866601, 21, 0, -3866600, 21, 0, -3866599, 21, 0, -3866598, 21, 0, -3866597, 21, 0, -3866596, 21, 0, -3735568, 21, 0, -3735567, 21, 0, -3735566, 21, 0, -3735565, 21, 0, -3735564, 21, 0, -3735563, 21, 0, -3735562, 3, 0, -3801067, 536870915, 0, -3801066, 21, 0, -3801065, 21, 0, -3801064, 21, 0, -3801063, 21, 0, -3801062, 21, 0, -3801061, 21, 0, -3801060, 21, 0, -3670032, 21, 0, -3670031, 21, 0, -3670030, 21, 0, -3670029, 21, 0, -3670028, 21, 0, -3670027, 21, 0, -3670026, 3, 0, -3735531, 536870915, 0, -3735530, 21, 0, -3735529, 21, 0, -3735528, 21, 0, -3735527, 21, 0, -3735526, 21, 0, -3735525, 21, 0, -3735524, 21, 0, -3604496, 21, 0, -3604495, 21, 0, -3604494, 21, 0, -3604493, 21, 0, -3604492, 21, 0, -3604491, 21, 0, -3604490, 3, 0, -3669995, 536870915, 0, -3669994, 21, 0, -3669993, 21, 0, -3669992, 21, 0, -3669991, 21, 0, -3669990, 21, 0, -3669989, 21, 0, -3669988, 21, 0, -3538960, 21, 0, -3538959, 21, 0, -3538958, 21, 0, -3538957, 21, 0, -3538956, 21, 0, -3538955, 21, 0, -3538954, 3, 0, -3604459, 536870915, 0, -3604458, 21, 0, -3604457, 21, 0, -3604456, 21, 0, -3604455, 21, 0, -3604454, 21, 0, -3604453, 21, 0, -3604452, 21, 0, -3473424, 21, 0, -3473423, 21, 0, -3473422, 21, 0, -3473421, 21, 0, -3473420, 21, 0, -3473419, 21, 0, -3473418, 3, 0, -3538923, 536870915, 0, -3538922, 21, 0, -3538921, 21, 0, -3538920, 21, 0, -3538919, 21, 0, -3538918, 21, 0, -3538917, 21, 0, -3538916, 21, 0, -3407888, 21, 0, -3407887, 21, 0, -3407886, 21, 0, -3407885, 21, 0, -3407884, 21, 0, -3407883, 21, 0, -3407882, 3, 0, -3473387, 536870915, 0, -3473386, 21, 0, -3473385, 21, 0, -3473384, 21, 0, -3473383, 21, 0, -3473382, 21, 0, -3473381, 21, 0, -3473380, 21, 0, -3342352, 21, 0, -3342351, 21, 0, -3342350, 21, 0, -3342349, 21, 0, -3342348, 21, 0, -3342347, 21, 0, -3342346, 3, 0, -3407851, 536870915, 0, -3407850, 21, 0, -3407849, 21, 0, -3407848, 21, 0, -3407847, 21, 0, -3407846, 21, 0, -3407845, 21, 0, -3407844, 21, 0, -3276816, 21, 0, -3276815, 21, 0, -3276814, 21, 0, -3276813, 21, 0, -3276812, 21, 0, -3276811, 21, 0, -3276810, 3, 0, -3342315, 536870915, 0, -3342314, 21, 0, -3342313, 21, 0, -3342312, 21, 0, -3342311, 21, 0, -3342310, 21, 0, -3342309, 21, 0, -3342308, 21, 0, -3211280, 21, 0, -3211279, 21, 0, -3211278, 21, 0, -3211277, 21, 0, -3211276, 21, 0, -3211275, 21, 0, -3211274, 3, 0, -3276779, 536870915, 0, -3276778, 21, 0, -3276777, 21, 0, -3276776, 21, 0, -3276775, 21, 0, -3276774, 21, 0, -3276773, 21, 0, -3276772, 21, 0, -3145744, 21, 0, -3145743, 21, 0, -3145742, 21, 0, -3145741, 21, 0, -3145740, 21, 0, -3145739, 21, 0, -3145738, 3, 0, -3211243, 536870915, 0, -3211242, 21, 0, -3211241, 21, 0, -3211240, 21, 0, -3211239, 21, 0, -3211238, 21, 0, -3211237, 21, 0, -3211236, 21, 0, -3080208, 21, 0, -3080207, 21, 0, -3080206, 21, 0, -3080205, 21, 0, -3080204, 21, 0, -3080203, 21, 0, -3080202, 3, 0, -3145707, 536870915, 0, -3145706, 21, 0, -3145705, 21, 0, -3145704, 21, 0, -3145703, 21, 0, -3145702, 21, 0, -3145701, 21, 0, -3145700, 21, 0, -3014672, 21, 0, -3014671, 21, 0, -3014670, 21, 0, -3014669, 21, 0, -3014668, 21, 0, -3014667, 21, 0, -3014666, 3, 0, -3080171, 536870915, 0, -3080170, 21, 0, -3080169, 21, 0, -3080168, 21, 0, -3080167, 21, 0, -3080166, 21, 0, -3080165, 21, 0, -3080164, 21, 0, -2949136, 21, 0, -2949135, 21, 0, -2949134, 21, 0, -2949133, 21, 0, -2949132, 21, 0, -2949131, 21, 0, -2949130, 3, 0, -3014635, 536870915, 0, -3014634, 21, 0, -3014633, 21, 0, -3014632, 21, 0, -3014631, 21, 0, -3014630, 21, 0, -3014629, 21, 0, -3014628, 21, 0, -2883600, 21, 0, -2883599, 21, 0, -2883598, 21, 0, -2883597, 21, 0, -2883596, 21, 0, -2883595, 21, 0, -2883594, 3, 0, -2949099, 536870915, 0, -2949098, 21, 0, -2949097, 21, 0, -2949096, 21, 0, -2949095, 21, 0, -2949094, 21, 0, -2949093, 21, 0, -2949092, 21, 0, -2818064, 21, 0, -2818063, 21, 0, -2818062, 21, 0, -2818061, 21, 0, -2818060, 21, 0, -2818059, 21, 0, -2818058, 3, 0, -2883563, 536870915, 0, -2883562, 21, 0, -2883561, 21, 0, -2883560, 21, 0, -2883559, 21, 0, -2883558, 21, 0, -2883557, 21, 0, -2883556, 21, 0, -2752528, 21, 0, -2752527, 21, 0, -2752526, 21, 0, -2752525, 21, 0, -2752524, 21, 0, -2752523, 21, 0, -2752522, 3, 0, -2818027, 536870915, 0, -2818026, 21, 0, -2818025, 21, 0, -2818024, 21, 0, -2818023, 21, 0, -2818022, 21, 0, -2818021, 21, 0, -2818020, 21, 0, -2686992, 21, 0, -2686991, 21, 0, -2686990, 21, 0, -2686989, 21, 0, -2686988, 21, 0, -2686987, 21, 0, -2686986, 3, 0, -2752491, 536870915, 0, -2752490, 21, 0, -2752489, 21, 0, -2752488, 21, 0, -2752487, 21, 0, -2752486, 21, 0, -2752485, 21, 0, -2752484, 21, 0, -2621456, 21, 0, -2621455, 21, 0, -2621454, 21, 0, -2621453, 21, 0, -2621452, 21, 0, -2621451, 21, 0, -2621450, 3, 0, -2686955, 536870915, 0, -2686954, 21, 0, -2686953, 21, 0, -2686952, 21, 0, -2686951, 21, 0, -2686950, 21, 0, -2686949, 21, 0, -2686948, 21, 0, -2555920, 21, 0, -2555919, 21, 0, -2555918, 21, 0, -2555917, 21, 0, -2555916, 21, 0, -2555915, 21, 0, -2555914, 3, 0, -2621419, 536870915, 0, -2621418, 21, 0, -2621417, 21, 0, -2621416, 21, 0, -2621415, 21, 0, -2621414, 21, 0, -2621413, 21, 0, -2621412, 21, 0, -2490384, 21, 0, -2490383, 21, 0, -2490382, 21, 0, -2490381, 21, 0, -2490380, 21, 0, -2490379, 21, 0, -2490378, 3, 0, -2555883, 536870915, 0, -2555882, 21, 0, -2555881, 21, 0, -2555880, 21, 0, -2555879, 21, 0, -2555878, 21, 0, -2555877, 21, 0, -2555876, 21, 0, -2424848, 21, 0, -2424847, 21, 0, -2424846, 21, 0, -2424845, 21, 0, -2424844, 21, 0, -2424843, 21, 0, -2424842, 3, 0, -2490347, 536870915, 0, -2490346, 21, 0, -2490345, 21, 0, -2490344, 21, 0, -2490343, 21, 0, -2490342, 21, 0, -2490341, 21, 0, -2490340, 21, 0, -2359312, 21, 0, -2359311, 21, 0, -2359310, 21, 0, -2359309, 21, 0, -2359308, 21, 0, -2359307, 21, 0, -2359306, 3, 0, -2424811, 536870915, 0, -2424810, 21, 0, -2424809, 21, 0, -2424808, 21, 0, -2424807, 21, 0, -2424806, 21, 0, -2424805, 21, 0, -2424804, 21, 0, -2293776, 21, 0, -2293775, 21, 0, -2293774, 21, 0, -2293773, 21, 0, -2293772, 21, 0, -2293771, 21, 0, -2293770, 3, 0, -2359275, 536870915, 0, -2359274, 21, 0, -2359273, 21, 0, -2359272, 21, 0, -2359271, 21, 0, -2359270, 21, 0, -2359269, 21, 0, -2359268, 21, 0, -2228240, 21, 0, -2228239, 21, 0, -2228238, 21, 0, -2228237, 21, 0, -2228236, 21, 0, -2228235, 21, 0, -2228234, 3, 0, -2293739, 536870915, 0, -2293738, 21, 0, -2293737, 21, 0, -2293736, 21, 0, -2293735, 21, 0, -2293734, 21, 0, -2293733, 21, 0, -2293732, 21, 0, -2162704, 21, 0, -2162703, 21, 0, -2162702, 21, 0, -2162701, 21, 0, -2162700, 21, 0, -2162699, 21, 0, -2162698, 3, 0, -2228203, 536870915, 0, -2228202, 21, 0, -2228201, 21, 0, -2228200, 21, 0, -2228199, 21, 0, -2228198, 21, 0, -2228197, 21, 0, -2228196, 21, 0, -2097168, 21, 0, -2097167, 21, 0, -2097166, 21, 0, -2097165, 21, 0, -2097164, 21, 0, -2097163, 21, 0, -2097162, 3, 0, -2162667, 536870915, 0, -2162666, 21, 0, -2162665, 21, 0, -2162664, 21, 0, -2162663, 21, 0, -2162662, 21, 0, -2162661, 21, 0, -2162660, 21, 0, -2031632, 21, 0, -2031631, 21, 0, -2031630, 21, 0, -2031629, 21, 0, -2031628, 21, 0, -2031627, 21, 0, -2031626, 3, 0, -2097131, 536870915, 0, -2097130, 21, 0, -2097129, 21, 0, -2097128, 21, 0, -2097127, 21, 0, -2097126, 21, 0, -2097125, 21, 0, -2097124, 21, 0, -1966096, 21, 0, -1966095, 21, 0, -1966094, 21, 0, -1966093, 21, 0, -1966092, 21, 0, -1966091, 21, 0, -1966090, 3, 0, -2031595, 536870915, 0, -2031594, 21, 0, -2031593, 21, 0, -2031592, 21, 0, -2031591, 21, 0, -2031590, 21, 0, -2031589, 21, 0, -2031588, 21, 0, -1900560, 21, 0, -1900559, 21, 0, -1900558, 21, 0, -1900557, 21, 0, -1900556, 21, 0, -1900555, 21, 0, -1900554, 3, 0, -1966059, 536870915, 0, -1966058, 21, 0, -1966057, 21, 0, -1966056, 21, 0, -1966055, 21, 0, -1966054, 21, 0, -1966053, 21, 0, -1966052, 21, 0, -1835024, 21, 0, -1835023, 21, 0, -1835022, 21, 0, -1835021, 21, 0, -1835020, 21, 0, -1835019, 21, 0, -1835018, 3, 0, -1900523, 536870915, 0, -1900522, 21, 0, -1900521, 21, 0, -1900520, 21, 0, -1900519, 21, 0, -1900518, 21, 0, -1900517, 21, 0, -1900516, 21, 0, -1769488, 21, 0, -1769487, 21, 0, -1769486, 21, 0, -1769485, 21, 0, -1769484, 21, 0, -1769483, 21, 0, -1769482, 3, 0, -1834987, 536870915, 0, -1834986, 21, 0, -1834985, 21, 0, -1834984, 21, 0, -1834983, 21, 0, -1834982, 21, 0, -1834981, 21, 0, -1834980, 21, 0, -1703952, 21, 0, -1703951, 21, 0, -1703950, 21, 0, -1703949, 21, 0, -1703948, 21, 0, -1703947, 21, 0, -1703946, 3, 0, -1769451, 536870915, 0, -1769450, 21, 0, -1769449, 21, 0, -1769448, 21, 0, -1769447, 21, 0, -1769446, 21, 0, -1769445, 21, 0, -1769444, 21, 0, -1638416, 21, 0, -1638415, 21, 0, -1638414, 21, 0, -1638413, 21, 0, -1638412, 21, 0, -1638411, 21, 0, -1638410, 3, 0, -1703915, 536870915, 0, -1703914, 21, 0, -1703913, 21, 0, -1703912, 21, 0, -1703911, 21, 0, -1703910, 21, 0, -1703909, 21, 0, -1703908, 21, 0, -1572880, 21, 0, -1572879, 21, 0, -1572878, 21, 0, -1572877, 21, 0, -1572876, 21, 0, -1572875, 21, 0, -1572874, 3, 0, -1638379, 536870915, 0, -1638378, 21, 0, -1638377, 21, 0, -1638376, 21, 0, -1638375, 21, 0, -1638374, 21, 0, -1638373, 21, 0, -1638372, 21, 0, -1507344, 21, 0, -1507343, 21, 0, -1507342, 21, 0, -1507341, 21, 0, -1507340, 21, 0, -1507339, 21, 0, -1507338, 3, 0, -1572843, 536870915, 0, -1572842, 21, 0, -1572841, 21, 0, -1572840, 21, 0, -1572839, 21, 0, -1572838, 21, 0, -1572837, 21, 0, -1572836, 21, 0, -1441808, 21, 0, -1441807, 21, 0, -1441806, 21, 0, -1441805, 21, 0, -1441804, 21, 0, -1441803, 21, 0, -1441802, 3, 0, -1507307, 536870915, 0, -1507306, 21, 0, -1507305, 21, 0, -1507304, 21, 0, -1507303, 21, 0, -1507302, 21, 0, -1507301, 21, 0, -1507300, 21, 0, -1376272, 21, 0, -1376271, 21, 0, -1376270, 21, 0, -1376269, 21, 0, -1376268, 21, 0, -1376267, 21, 0, -1376266, 3, 0, -1441771, 536870915, 0, -1441770, 21, 0, -1441769, 21, 0, -1441768, 21, 0, -1441767, 21, 0, -1441766, 21, 0, -1441765, 21, 0, -1441764, 21, 0, -1310736, 21, 0, -1310735, 21, 0, -1310734, 21, 0, -1310733, 21, 0, -1310732, 21, 0, -1310731, 21, 0, -1310730, 3, 0, -1376235, 536870915, 0, -1376234, 21, 0, -1376233, 21, 0, -1376232, 21, 0, -1376231, 21, 0, -1376230, 21, 0, -1376229, 21, 0, -1376228, 21, 0, -1245200, 21, 0, -1245199, 21, 0, -1245198, 21, 0, -1245197, 21, 0, -1245196, 21, 0, -1245195, 21, 0, -1245194, 3, 0, -1310699, 536870915, 0, -1310698, 21, 0, -1310697, 21, 0, -1310696, 21, 0, -1310695, 21, 0, -1310694, 21, 0, -1310693, 21, 0, -1310692, 21, 0, -1179664, 21, 0, -1179663, 21, 0, -1179662, 21, 0, -1179661, 21, 0, -1179660, 21, 0, -1179659, 21, 0, -1179658, 3, 0, -1245163, 536870915, 0, -1245162, 21, 0, -1245161, 21, 0, -1245160, 21, 0, -1245159, 21, 0, -1245158, 21, 0, -1245157, 21, 0, -1245156, 21, 0, -1114128, 21, 0, -1114127, 21, 0, -1114126, 21, 0, -1114125, 21, 0, -1114124, 21, 0, -1114123, 21, 0, -1114122, 3, 0, -1179627, 536870915, 0, -1179626, 21, 0, -1179625, 21, 0, -1179624, 21, 0, -1179623, 21, 0, -1179622, 21, 0, -1179621, 21, 0, -1179620, 21, 0, -1048592, 21, 0, -1048591, 21, 0, -1048590, 21, 0, -1048589, 21, 0, -1048588, 21, 0, -1048587, 21, 0, -1048586, 3, 0, -1114091, 536870915, 0, -1114090, 21, 0, -1114089, 21, 0, -1114088, 21, 0, -1114087, 21, 0, -1114086, 21, 0, -1114085, 21, 0, -1114084, 21, 0, -983056, 21, 0, -983055, 21, 0, -983054, 21, 0, -983053, 21, 0, -983052, 21, 0, -983051, 21, 0, -983050, 3, 0, -1048555, 536870915, 0, -1048554, 21, 0, -1048553, 21, 0, -1048552, 21, 0, -1048551, 21, 0, -1048550, 21, 0, -1048549, 21, 0, -1048548, 21, 0, -917520, 21, 0, -917519, 21, 0, -917518, 21, 0, -917517, 21, 0, -917516, 21, 0, -917515, 21, 0, -917514, 3, 0, -983019, 536870915, 0, -983018, 21, 0, -983017, 21, 0, -983016, 21, 0, -983015, 21, 0, -983014, 21, 0, -983013, 21, 0, -983012, 21, 0, -851984, 21, 0, -851983, 21, 0, -851982, 21, 0, -851981, 21, 0, -851980, 21, 0, -851979, 21, 0, -851978, 3, 0, -917483, 536870915, 0, -917482, 21, 0, -917481, 21, 0, -917480, 21, 0, -917479, 21, 0, -917478, 21, 0, -917477, 21, 0, -917476, 21, 0, -786448, 21, 0, -786447, 21, 0, -786446, 21, 0, -786445, 21, 0, -786444, 21, 0, -786443, 21, 0, -786442, 3, 0, -851947, 536870915, 0, -851946, 21, 0, -851945, 21, 0, -851944, 21, 0, -851943, 21, 0, -851942, 21, 0, -851941, 21, 0, -851940, 21, 0, -720912, 21, 0, -720911, 21, 0, -720910, 21, 0, -720909, 21, 0, -720908, 21, 0, -720907, 21, 0, -720906, 3, 0, -786411, 536870915, 0, -786410, 21, 0, -786409, 21, 0, -786408, 21, 0, -786407, 21, 0, -786406, 21, 0, -786405, 21, 0, -786404, 21, 0, -655376, 21, 0, -655375, 21, 0, -655374, 21, 0, -655373, 21, 0, -655372, 21, 0, -655371, 21, 0, -655370, 3, 0, -720875, 536870915, 0, -720874, 21, 0, -720873, 21, 0, -720872, 21, 0, -720871, 21, 0, -720870, 21, 0, -720869, 21, 0, -720868, 21, 0, -589840, 21, 0, -589839, 21, 0, -589838, 21, 0, -589837, 21, 0, -589836, 21, 0, -589835, 21, 0, -589834, 3, 0, -655339, 536870915, 0, -655338, 21, 0, -655337, 21, 0, -655336, 21, 0, -655335, 21, 0, -655334, 21, 0, -655333, 21, 0, -655332, 21, 0, -524304, 21, 0, -524303, 21, 0, -524302, 21, 0, -524301, 21, 0, -524300, 21, 0, -524299, 21, 0, -524298, 3, 0, -589803, 536870915, 0, -589802, 21, 0, -589801, 21, 0, -589800, 21, 0, -589799, 21, 0, -589798, 21, 0, -589797, 21, 0, -589796, 21, 0, -458768, 21, 0, -458767, 21, 0, -458766, 21, 0, -458765, 21, 0, -458764, 21, 0, -458763, 21, 0, -458762, 3, 0, -524267, 536870915, 0, -524266, 21, 0, -524265, 21, 0, -524264, 21, 0, -524263, 21, 0, -524262, 21, 0, -524261, 21, 0, -524260, 21, 0, -393232, 21, 0, -393231, 21, 0, -393230, 21, 0, -393229, 21, 0, -393228, 21, 0, -393227, 21, 0, -393226, 3, 0, -458731, 536870915, 0, -458730, 21, 0, -458729, 21, 0, -458728, 21, 0, -458727, 21, 0, -458726, 21, 0, -458725, 21, 0, -458724, 21, 0, -327696, 21, 0, -327695, 21, 0, -327694, 21, 0, -327693, 21, 0, -327692, 21, 0, -327691, 21, 0, -327690, 3, 0, -393195, 536870915, 0, -393194, 21, 0, -393193, 21, 0, -393192, 21, 0, -393191, 21, 0, -393190, 21, 0, -393189, 21, 0, -393188, 21, 0, -262160, 21, 0, -262159, 21, 0, -262158, 21, 0, -262157, 21, 0, -262156, 21, 0, -262155, 21, 0, -262154, 3, 0, -327659, 536870915, 0, -327658, 21, 0, -327657, 21, 0, -327656, 21, 0, -327655, 21, 0, -327654, 21, 0, -327653, 21, 0, -327652, 21, 0, -196624, 21, 0, -196623, 21, 0, -196622, 21, 0, -196621, 21, 0, -196620, 21, 0, -196619, 21, 0, -196618, 3, 0, -262123, 536870915, 0, -262122, 21, 0, -262121, 21, 0, -262120, 21, 0, -262119, 21, 0, -262118, 21, 0, -262117, 21, 0, -262116, 21, 0, -131088, 21, 0, -131087, 21, 0, -131086, 21, 0, -131085, 21, 0, -131084, 21, 0, -131083, 21, 0, -131082, 1073741826, 0, -196587, 536870915, 0, -196586, 21, 0, -196585, 21, 0, -196584, 21, 0, -196583, 21, 0, -196582, 21, 0, -196581, 21, 0, -196580, 21, 0, -65552, 21, 0, -65551, 21, 0, -65550, 21, 0, -65549, 21, 0, -65548, 21, 0, -65547, 21, 0, -131051, 536870915, 0, -131050, 21, 0, -131049, 21, 0, -131048, 21, 0, -131047, 21, 0, -131046, 21, 0, -131045, 21, 0, -131044, 21, 0, -16, 21, 0, -15, 21, 0, -14, 21, 0, -13, 21, 0, -12, 21, 0, -11, 21, 0, -65515, 536870915, 0, -65514, 21, 0, -65513, 21, 0, -65512, 21, 0, -65511, 21, 0, -65510, 21, 0, -65509, 21, 0, -65508, 21, 0, 65520, 21, 0, 65521, 21, 0, 65522, 21, 0, 65523, 21, 0, 65524, 21, 0, 65525, 21, 0, 21, 536870915, 0, 22, 21, 0, 23, 21, 0, 24, 21, 0, 25, 21, 0, 26, 21, 0, 27, 21, 0, 28, 21, 0, 131056, 21, 0, 131057, 21, 0, 131058, 21, 0, 131059, 21, 0, 131060, 21, 0, 131061, 21, 0, 65557, 536870915, 0, 65558, 21, 0, 65559, 21, 0, 65560, 21, 0, 65561, 21, 0, 65562, 21, 0, 65563, 21, 0, 65564, 21, 0, 196592, 21, 0, 196593, 21, 0, 196594, 21, 0, 196595, 21, 0, 196596, 21, 0, 196597, 21, 0, 131093, 536870915, 0, 131094, 21, 0, 131095, 21, 0, 131096, 21, 0, 131097, 21, 0, 131098, 21, 0, 131099, 21, 0, 131100, 21, 0, 262128, 21, 0, 262129, 21, 0, 262130, 21, 0, 262131, 21, 0, 262132, 21, 0, 262133, 21, 0, 262134, 1, 0, 262135, 0, 0, 262136, 0, 0, 262137, 0, 0, 262138, 0, 0, 262139, 0, 0, 262140, 0, 0, 262141, 0, 0, 262142, 0, 0, 262143, 0, 0, 196608, 0, 0, 196609, 0, 0, 196610, 0, 0, 196611, 0, 0, 196612, 0, 0, 196613, 0, 0, 196614, 0, 0, 196615, 0, 0, 196616, 0, 0, 196617, 0, 0, 196618, 0, 0, 196619, 0, 0, 196620, 0, 0, 196621, 0, 0, 196622, 0, 0, 196623, 0, 0, 196624, 0, 0, 196625, 0, 0, 196626, 0, 0, 196627, 0, 0, 196628, 0, 0, 196629, 2, 0, 196630, 21, 0, 196631, 21, 0, 196632, 21, 0, 196633, 21, 0, 196634, 21, 0, 196635, 21, 0, 196636, 21, 0, 327664, 21, 0, 327665, 21, 0, 327666, 21, 0, 327667, 21, 0, 327668, 21, 0, 327669, 21, 0, 327670, 536870915, 0, 327671, 12, 0, 327672, 12, 0, 327673, 12, 0, 327674, 12, 0, 327675, 12, 0, 327676, 12, 0, 327677, 12, 0, 327678, 12, 0, 327679, 12, 0, 262144, 12, 0, 262145, 12, 0, 262146, 12, 0, 262147, 12, 0, 262148, 12, 0, 262149, 12, 0, 262150, 12, 0, 262151, 12, 0, 262152, 12, 0, 262153, 12, 0, 262154, 12, 0, 262155, 12, 0, 262156, 12, 0, 262157, 12, 0, 262158, 12, 0, 262159, 12, 0, 262160, 12, 0, 262161, 12, 0, 262162, 12, 0, 262163, 12, 0, 262164, 12, 0, 262165, 3, 0, 262166, 21, 0, 262167, 21, 0, 262168, 21, 0, 262169, 21, 0, 262170, 21, 0, 262171, 21, 0, 262172, 21, 0, 393200, 21, 0, 393201, 21, 0, 393202, 21, 0, 393203, 21, 0, 393204, 21, 0, 393205, 21, 0, 393206, 536870915, 0, 393207, 12, 0, 393208, 12, 0, 393209, 12, 0, 393210, 12, 0, 393211, 12, 0, 393212, 12, 0, 393213, 12, 0, 393214, 12, 0, 393215, 12, 0, 327680, 12, 0, 327681, 12, 0, 327682, 12, 0, 327683, 12, 0, 327684, 12, 0, 327685, 12, 0, 327686, 12, 0, 327687, 12, 0, 327688, 12, 0, 327689, 12, 0, 327690, 12, 0, 327691, 12, 0, 327692, 12, 0, 327693, 12, 0, 327694, 12, 0, 327695, 12, 0, 327696, 12, 0, 327697, 12, 0, 327698, 12, 0, 327699, 12, 0, 327700, 12, 0, 327701, 3, 0, 327702, 21, 0, 327703, 21, 0, 327704, 21, 0, 327705, 21, 0, 327706, 21, 0, 327707, 21, 0, 327708, 21, 0, 458736, 21, 0, 458737, 21, 0, 458738, 21, 0, 458739, 21, 0, 458740, 21, 0, 458741, 21, 0, 458742, 536870915, 0, 458743, 12, 0, 458744, 12, 0, 458745, 12, 0, 458746, 12, 0, 458747, 12, 0, 458748, 12, 0, 458749, 12, 0, 458750, 12, 0, 458751, 12, 0, 393216, 12, 0, 393217, 12, 0, 393218, 12, 0, 393219, 12, 0, 393220, 12, 0, 393221, 12, 0, 393222, 12, 0, 393223, 12, 0, 393224, 12, 0, 393225, 12, 0, 393226, 12, 0, 393227, 12, 0, 393228, 12, 0, 393229, 12, 0, 393230, 12, 0, 393231, 12, 0, 393232, 12, 0, 393233, 12, 0, 393234, 12, 0, 393235, 12, 0, 393236, 12, 0, 393237, 3, 0, 393238, 21, 0, 393239, 21, 0, 393240, 21, 0, 393241, 21, 0, 393242, 21, 0, 393243, 21, 0, 393244, 21, 0, 524272, 21, 0, 524273, 21, 0, 524274, 21, 0, 524275, 21, 0, 524276, 21, 0, 524277, 21, 0, 524278, 536870915, 0, 524279, 12, 0, 524280, 12, 0, 524281, 12, 0, 524282, 12, 0, 524283, 12, 0, 524284, 12, 0, 524285, 12, 0, 524286, 12, 0, 524287, 12, 0, 458752, 12, 0, 458753, 12, 0, 458754, 12, 0, 458755, 12, 0, 458756, 12, 0, 458757, 12, 0, 458758, 12, 0, 458759, 12, 0, 458760, 12, 0, 458761, 12, 0, 458762, 12, 0, 458763, 12, 0, 458764, 12, 0, 458765, 12, 0, 458766, 12, 0, 458767, 12, 0, 458768, 12, 0, 458769, 12, 0, 458770, 12, 0, 458771, 12, 0, 458772, 12, 0, 458773, 3, 0, 458774, 21, 0, 458775, 21, 0, 458776, 21, 0, 458777, 21, 0, 458778, 21, 0, 458779, 21, 0, 458780, 21, 0, 589808, 21, 0, 589809, 21, 0, 589810, 21, 0, 589811, 21, 0, 589812, 21, 0, 589813, 21, 0, 589814, 21, 0, 589815, 21, 0, 589816, 21, 0, 589817, 21, 0, 589818, 21, 0, 589819, 21, 0, 589820, 21, 0, 589821, 21, 0, 589822, 21, 0, 589823, 21, 0, 524288, 21, 0, 524289, 21, 0, 524290, 21, 0, 524291, 21, 0, 524292, 21, 0, 524293, 21, 0, 524294, 21, 0, 524295, 21, 0, 524296, 21, 0, 524297, 21, 0, 524298, 21, 0, 524299, 21, 0, 524300, 21, 0, 524301, 21, 0, 524302, 21, 0, 524303, 21, 0, 524304, 21, 0, 524305, 21, 0, 524306, 21, 0, 524307, 21, 0, 524308, 21, 0, 524309, 21, 0, 524310, 21, 0, 524311, 21, 0, 524312, 21, 0, 524313, 21, 0, 524314, 21, 0, 524315, 21, 0, 524316, 21, 0 )

[node name="DecoGroup" type="Node2D" parent="tilemap"]

[node name="TileMap" type="TileMap" parent="tilemap/DecoGroup"]
tile_set = ExtResource( 2 )
cell_size = Vector2( 32, 32 )
compatibility_mode = true
format = 1
tile_data = PoolIntArray( -5046279, 20, 0, -5111807, 18, 0, -5111792, 20, 0, -4456448, 20, 0, -4456435, 18, 0, -4456429, 20, 0, 131090, 13, 0 )

[node name="ClimbableGroup" type="Node2D" parent="tilemap"]

[node name="ClimbableBlock" parent="tilemap/ClimbableGroup" instance=ExtResource( 3 )]
position = Vector2( 80, -2192 )
physics_material_override = SubResource( 1 )

[node name="Sprite" parent="tilemap/ClimbableGroup/ClimbableBlock" index="0"]
flip_h = true

[node name="ClimbableBlock1" parent="tilemap/ClimbableGroup" instance=ExtResource( 3 )]
position = Vector2( 336, -2192 )
physics_material_override = SubResource( 2 )

[node name="BloodFountainGroup" type="Node2D" parent="tilemap"]

[node name="BloodFountain" parent="tilemap/BloodFountainGroup" instance=ExtResource( 4 )]
position = Vector2( 512, 32 )

[node name="EnemiesGroup" type="Node2D" parent="tilemap"]

[node name="Orc" parent="tilemap/EnemiesGroup" instance=ExtResource( 5 )]
position = Vector2( 112, 32 )

[node name="FlyingSkull" parent="tilemap/EnemiesGroup" instance=ExtResource( 6 )]
position = Vector2( -96, -272 )

[node name="FlyingSkull1" parent="tilemap/EnemiesGroup" instance=ExtResource( 6 )]
position = Vector2( 160, -480 )

[node name="FlyingSkull2" parent="tilemap/EnemiesGroup" instance=ExtResource( 6 )]
position = Vector2( -96, -720 )

[node name="FlyingSkull3" parent="tilemap/EnemiesGroup" instance=ExtResource( 6 )]
position = Vector2( 160, -960 )

[node name="FlyingSkull4" parent="tilemap/EnemiesGroup" instance=ExtResource( 6 )]
position = Vector2( -96, -1232 )

[node name="FlyingSkull5" parent="tilemap/EnemiesGroup" instance=ExtResource( 6 )]
position = Vector2( 160, -1536 )

[node name="FlyingSkull6" parent="tilemap/EnemiesGroup" instance=ExtResource( 6 )]
position = Vector2( -96, -1856 )

[node name="FlyingSkull7" parent="tilemap/EnemiesGroup" instance=ExtResource( 6 )]
position = Vector2( -96, -2368 )

[node name="TeleportGroup" type="Node2D" parent="tilemap"]

[node name="Teleport" parent="tilemap/TeleportGroup" instance=ExtResource( 7 )]
position = Vector2( -336, 16 )
target_level = "res://levels/cave/0-1.tscn"
teleport_to = Vector2( 1964, 112 )

[node name="teleport" parent="tilemap/TeleportGroup/Teleport" index="0"]
scale = Vector2( 1, 5 )

[node name="Teleport1" parent="tilemap/TeleportGroup" instance=ExtResource( 7 )]
position = Vector2( -336, -2288 )
target_level = "res://levels/cave/0-3.tscn"
teleport_to = Vector2( 524, 48 )

[node name="teleport" parent="tilemap/TeleportGroup/Teleport1" index="0"]
scale = Vector2( 1, 5 )

[node name="Teleport2" parent="tilemap/TeleportGroup" instance=ExtResource( 7 )]
position = Vector2( 720, -2288 )
target_level = "res://levels/cave/2-0.tscn"
teleport_to = Vector2( -2124, 16 )

[node name="teleport" parent="tilemap/TeleportGroup/Teleport2" index="0"]
scale = Vector2( 1, 5 )

[node name="boundaries" type="Node2D" parent="tilemap"]

[node name="NW" type="Position2D" parent="tilemap/boundaries"]
position = Vector2( -336, -2672 )

[node name="SE" type="Position2D" parent="tilemap/boundaries"]
position = Vector2( 720, 272 )

[editable path="tilemap/ClimbableGroup/ClimbableBlock"]

[editable path="tilemap/TeleportGroup/Teleport"]

[editable path="tilemap/TeleportGroup/Teleport1"]

[editable path="tilemap/TeleportGroup/Teleport2"]
