[gd_scene load_steps=23 format=2]

[ext_resource path="res://scenes/cave/tileset.tres" type="TileSet" id=1]
[ext_resource path="res://scenes/cave/climbableblock.tscn" type="PackedScene" id=2]
[ext_resource path="res://scenes/cave/BGs/cornerL.png" type="Texture" id=3]
[ext_resource path="res://scenes/cave/BGs/cornerR.png" type="Texture" id=4]
[ext_resource path="res://scenes/cave/BGs/edge.png" type="Texture" id=5]
[ext_resource path="res://scenes/common/switches/floorswitch.tscn" type="PackedScene" id=6]
[ext_resource path="res://scenes/common/breakables/pot.tscn" type="PackedScene" id=7]
[ext_resource path="res://scenes/common/damagables/orc/orc.tscn" type="PackedScene" id=8]
[ext_resource path="res://scenes/common/damagables/lizardman/lizardman.tscn" type="PackedScene" id=9]
[ext_resource path="res://scenes/items/magic/thunder.tscn" type="PackedScene" id=10]
[ext_resource path="res://scenes/npcs/npc.tscn" type="PackedScene" id=11]
[ext_resource path="res://scenes/common/teleport.tscn" type="PackedScene" id=12]
[ext_resource path="res://scenes/cave/parallax2.tscn" type="PackedScene" id=13]

[sub_resource type="PhysicsMaterial" id=1]
friction = 0.0

[sub_resource type="PhysicsMaterial" id=2]
friction = 0.0

[sub_resource type="PhysicsMaterial" id=3]
friction = 0.0

[sub_resource type="PhysicsMaterial" id=4]
friction = 0.0

[sub_resource type="PhysicsMaterial" id=5]
friction = 0.0

[sub_resource type="PhysicsMaterial" id=6]
friction = 0.0

[sub_resource type="PhysicsMaterial" id=7]
friction = 0.0

[sub_resource type="PhysicsMaterial" id=8]
friction = 0.0

[sub_resource type="RectangleShape2D" id=9]
extents = Vector2( 32, 80 )

[node name="LVL_NOTITLE" type="Node2D"]
__meta__ = {
"__editor_plugin_screen__": "2D"
}

[node name="tilemap" type="TileMap" parent="."]
tile_set = ExtResource( 1 )
cell_size = Vector2( 32, 32 )
compatibility_mode = true
collision_layer = 524288
format = 1
tile_data = PoolIntArray( -2424905, 21, 0, -2424904, 21, 0, -2424903, 21, 0, -2424902, 21, 0, -2424901, 21, 0, -2424900, 21, 0, -2424899, 21, 0, -2424898, 21, 0, -2424897, 21, 0, -2424896, 21, 0, -2424895, 21, 0, -2424894, 21, 0, -2424893, 21, 0, -2424892, 21, 0, -2424891, 21, 0, -2424890, 21, 0, -2424889, 21, 0, -2424888, 21, 0, -2424887, 21, 0, -2424886, 21, 0, -2424885, 21, 0, -2424884, 21, 0, -2424883, 21, 0, -2424882, 21, 0, -2424881, 21, 0, -2424880, 21, 0, -2424879, 21, 0, -2424878, 21, 0, -2424877, 21, 0, -2424876, 21, 0, -2424875, 21, 0, -2424874, 21, 0, -2424873, 21, 0, -2424872, 21, 0, -2424871, 21, 0, -2424870, 21, 0, -2424869, 21, 0, -2424868, 21, 0, -2424867, 21, 0, -2424866, 21, 0, -2424865, 21, 0, -2424864, 21, 0, -2424863, 21, 0, -2424862, 21, 0, -2424861, 21, 0, -2424860, 21, 0, -2424859, 21, 0, -2424858, 21, 0, -2424857, 21, 0, -2424856, 21, 0, -2424855, 21, 0, -2424854, 21, 0, -2424853, 21, 0, -2424852, 21, 0, -2424851, 21, 0, -2424850, 21, 0, -2424849, 21, 0, -2424848, 21, 0, -2424847, 21, 0, -2424846, 21, 0, -2424845, 21, 0, -2424844, 21, 0, -2424843, 21, 0, -2424842, 21, 0, -2424841, 21, 0, -2424840, 21, 0, -2424839, 21, 0, -2424838, 21, 0, -2424837, 21, 0, -2424836, 21, 0, -2424835, 21, 0, -2424834, 21, 0, -2424833, 21, 0, -2490368, 21, 0, -2490367, 21, 0, -2490366, 21, 0, -2490365, 21, 0, -2490364, 21, 0, -2490363, 21, 0, -2490362, 21, 0, -2490361, 21, 0, -2490360, 21, 0, -2490359, 21, 0, -2490358, 21, 0, -2490357, 21, 0, -2490356, 21, 0, -2490355, 21, 0, -2490354, 21, 0, -2490353, 21, 0, -2490352, 21, 0, -2490351, 21, 0, -2490350, 21, 0, -2490349, 21, 0, -2490348, 21, 0, -2490347, 21, 0, -2490346, 21, 0, -2490345, 21, 0, -2490344, 21, 0, -2490343, 21, 0, -2490342, 21, 0, -2490341, 21, 0, -2490340, 21, 0, -2490339, 21, 0, -2490338, 21, 0, -2490337, 21, 0, -2490336, 21, 0, -2490335, 21, 0, -2490334, 21, 0, -2490333, 21, 0, -2490332, 21, 0, -2490331, 21, 0, -2490330, 21, 0, -2490329, 21, 0, -2490328, 21, 0, -2490327, 21, 0, -2490326, 21, 0, -2490325, 21, 0, -2490324, 21, 0, -2490323, 21, 0, -2490322, 21, 0, -2490321, 21, 0, -2490320, 21, 0, -2490319, 21, 0, -2490318, 21, 0, -2490317, 21, 0, -2490316, 21, 0, -2490315, 21, 0, -2490314, 21, 0, -2490313, 21, 0, -2490312, 21, 0, -2490311, 21, 0, -2490310, 21, 0, -2490309, 21, 0, -2490308, 21, 0, -2490307, 21, 0, -2490306, 21, 0, -2490305, 21, 0, -2490304, 21, 0, -2490303, 21, 0, -2490302, 21, 0, -2490301, 21, 0, -2490300, 21, 0, -2490299, 21, 0, -2490298, 21, 0, -2490297, 21, 0, -2490296, 21, 0, -2490295, 21, 0, -2490294, 21, 0, -2490293, 21, 0, -2490292, 21, 0, -2490291, 21, 0, -2490290, 21, 0, -2490289, 21, 0, -2359369, 21, 0, -2359368, 21, 0, -2359367, 21, 0, -2359366, 21, 0, -2359365, 21, 0, -2359364, 21, 0, -2359363, 21, 0, -2359362, 21, 0, -2359361, 21, 0, -2359360, 21, 0, -2359359, 21, 0, -2359358, 21, 0, -2359357, 21, 0, -2359356, 21, 0, -2359355, 21, 0, -2359354, 21, 0, -2359353, 21, 0, -2359352, 21, 0, -2359351, 21, 0, -2359350, 21, 0, -2359349, 21, 0, -2359348, 21, 0, -2359347, 21, 0, -2359346, 21, 0, -2359345, 21, 0, -2359344, 21, 0, -2359343, 21, 0, -2359342, 21, 0, -2359341, 21, 0, -2359340, 21, 0, -2359339, 21, 0, -2359338, 21, 0, -2359337, 21, 0, -2359336, 21, 0, -2359335, 21, 0, -2359334, 21, 0, -2359333, 21, 0, -2359332, 21, 0, -2359331, 21, 0, -2359330, 21, 0, -2359329, 21, 0, -2359328, 21, 0, -2359327, 21, 0, -2359326, 21, 0, -2359325, 21, 0, -2359324, 21, 0, -2359323, 21, 0, -2359322, 21, 0, -2359321, 21, 0, -2359320, 21, 0, -2359319, 21, 0, -2359318, 21, 0, -2359317, 21, 0, -2359316, 21, 0, -2359315, 21, 0, -2359314, 21, 0, -2359313, 21, 0, -2359312, 21, 0, -2359311, 21, 0, -2359310, 21, 0, -2359309, 21, 0, -2359308, 21, 0, -2359307, 21, 0, -2359306, 21, 0, -2359305, 21, 0, -2359304, 21, 0, -2359303, 21, 0, -2359302, 21, 0, -2359301, 21, 0, -2359300, 21, 0, -2359299, 21, 0, -2359298, 21, 0, -2359297, 21, 0, -2424832, 21, 0, -2424831, 21, 0, -2424830, 21, 0, -2424829, 21, 0, -2424828, 21, 0, -2424827, 21, 0, -2424826, 21, 0, -2424825, 21, 0, -2424824, 21, 0, -2424823, 21, 0, -2424822, 21, 0, -2424821, 21, 0, -2424820, 21, 0, -2424819, 21, 0, -2424818, 21, 0, -2424817, 21, 0, -2424816, 21, 0, -2424815, 21, 0, -2424814, 21, 0, -2424813, 21, 0, -2424812, 21, 0, -2424811, 21, 0, -2424810, 21, 0, -2424809, 21, 0, -2424808, 21, 0, -2424807, 21, 0, -2424806, 21, 0, -2424805, 21, 0, -2424804, 21, 0, -2424803, 21, 0, -2424802, 21, 0, -2424801, 21, 0, -2424800, 21, 0, -2424799, 21, 0, -2424798, 21, 0, -2424797, 21, 0, -2424796, 21, 0, -2424795, 21, 0, -2424794, 21, 0, -2424793, 21, 0, -2424792, 21, 0, -2424791, 21, 0, -2424790, 21, 0, -2424789, 21, 0, -2424788, 21, 0, -2424787, 21, 0, -2424786, 21, 0, -2424785, 21, 0, -2424784, 21, 0, -2424783, 21, 0, -2424782, 21, 0, -2424781, 21, 0, -2424780, 21, 0, -2424779, 21, 0, -2424778, 21, 0, -2424777, 21, 0, -2424776, 21, 0, -2424775, 21, 0, -2424774, 21, 0, -2424773, 21, 0, -2424772, 21, 0, -2424771, 21, 0, -2424770, 21, 0, -2424769, 21, 0, -2424768, 21, 0, -2424767, 21, 0, -2424766, 21, 0, -2424765, 21, 0, -2424764, 21, 0, -2424763, 21, 0, -2424762, 21, 0, -2424761, 21, 0, -2424760, 21, 0, -2424759, 21, 0, -2424758, 21, 0, -2424757, 21, 0, -2424756, 21, 0, -2424755, 21, 0, -2424754, 21, 0, -2424753, 21, 0, -2293833, 21, 0, -2293832, 21, 0, -2293831, 21, 0, -2293830, 21, 0, -2293829, 21, 0, -2293828, 21, 0, -2293827, 21, 0, -2293826, 21, 0, -2293825, 21, 0, -2293824, 21, 0, -2293823, 21, 0, -2293822, 21, 0, -2293821, 21, 0, -2293820, 21, 0, -2293819, 21, 0, -2293818, 21, 0, -2293817, 21, 0, -2293816, 21, 0, -2293815, 21, 0, -2293814, 21, 0, -2293813, 21, 0, -2293812, 21, 0, -2293811, 21, 0, -2293810, 21, 0, -2293809, 21, 0, -2293808, 21, 0, -2293807, 21, 0, -2293806, 21, 0, -2293805, 21, 0, -2293804, 21, 0, -2293803, 21, 0, -2293802, 21, 0, -2293801, 21, 0, -2293800, 21, 0, -2293799, 21, 0, -2293798, 21, 0, -2293797, 21, 0, -2293796, 21, 0, -2293795, 21, 0, -2293794, 21, 0, -2293793, 21, 0, -2293792, 21, 0, -2293791, 21, 0, -2293790, 21, 0, -2293789, 21, 0, -2293788, 21, 0, -2293787, 21, 0, -2293786, 21, 0, -2293785, 21, 0, -2293784, 21, 0, -2293783, 21, 0, -2293782, 21, 0, -2293781, 21, 0, -2293780, 21, 0, -2293779, 21, 0, -2293778, 21, 0, -2293777, 21, 0, -2293776, 21, 0, -2293775, 21, 0, -2293774, 21, 0, -2293773, 21, 0, -2293772, 21, 0, -2293771, 21, 0, -2293770, 21, 0, -2293769, 21, 0, -2293768, 21, 0, -2293767, 21, 0, -2293766, 21, 0, -2293765, 21, 0, -2293764, 21, 0, -2293763, 21, 0, -2293762, 21, 0, -2293761, 21, 0, -2359296, 21, 0, -2359295, 21, 0, -2359294, 21, 0, -2359293, 21, 0, -2359292, 21, 0, -2359291, 21, 0, -2359290, 21, 0, -2359289, 21, 0, -2359288, 21, 0, -2359287, 21, 0, -2359286, 21, 0, -2359285, 21, 0, -2359284, 21, 0, -2359283, 21, 0, -2359282, 21, 0, -2359281, 21, 0, -2359280, 21, 0, -2359279, 21, 0, -2359278, 21, 0, -2359277, 21, 0, -2359276, 21, 0, -2359275, 21, 0, -2359274, 21, 0, -2359273, 21, 0, -2359272, 21, 0, -2359271, 21, 0, -2359270, 21, 0, -2359269, 21, 0, -2359268, 21, 0, -2359267, 21, 0, -2359266, 21, 0, -2359265, 21, 0, -2359264, 21, 0, -2359263, 21, 0, -2359262, 21, 0, -2359261, 21, 0, -2359260, 21, 0, -2359259, 21, 0, -2359258, 21, 0, -2359257, 21, 0, -2359256, 21, 0, -2359255, 21, 0, -2359254, 21, 0, -2359253, 21, 0, -2359252, 21, 0, -2359251, 21, 0, -2359250, 21, 0, -2359249, 21, 0, -2359248, 21, 0, -2359247, 21, 0, -2359246, 21, 0, -2359245, 21, 0, -2359244, 21, 0, -2359243, 21, 0, -2359242, 21, 0, -2359241, 21, 0, -2359240, 21, 0, -2359239, 21, 0, -2359238, 21, 0, -2359237, 21, 0, -2359236, 21, 0, -2359235, 21, 0, -2359234, 21, 0, -2359233, 21, 0, -2359232, 21, 0, -2359231, 21, 0, -2359230, 21, 0, -2359229, 21, 0, -2359228, 21, 0, -2359227, 21, 0, -2359226, 21, 0, -2359225, 21, 0, -2359224, 21, 0, -2359223, 21, 0, -2359222, 21, 0, -2359221, 21, 0, -2359220, 21, 0, -2359219, 21, 0, -2359218, 21, 0, -2359217, 21, 0, -2228297, 21, 0, -2228296, 21, 0, -2228295, 21, 0, -2228294, 21, 0, -2228293, 21, 0, -2228292, 21, 0, -2228291, 21, 0, -2228290, 21, 0, -2228289, 21, 0, -2228288, 21, 0, -2228287, 21, 0, -2228286, 21, 0, -2228285, 21, 0, -2228284, 21, 0, -2228283, 21, 0, -2228282, 21, 0, -2228281, 21, 0, -2228280, 21, 0, -2228279, 21, 0, -2228278, 21, 0, -2228277, 21, 0, -2228276, 21, 0, -2228275, 21, 0, -2228274, 21, 0, -2228273, 21, 0, -2228272, 21, 0, -2228271, 21, 0, -2228270, 21, 0, -2228269, 21, 0, -2228268, 21, 0, -2228267, 21, 0, -2228266, 21, 0, -2228265, 21, 0, -2228264, 21, 0, -2228263, 21, 0, -2228262, 21, 0, -2228261, 21, 0, -2228260, 21, 0, -2228259, 21, 0, -2228258, 21, 0, -2228257, 21, 0, -2228256, 21, 0, -2228255, 21, 0, -2228254, 21, 0, -2228253, 21, 0, -2228252, 21, 0, -2228251, 21, 0, -2228250, 21, 0, -2228249, 21, 0, -2228248, 21, 0, -2228247, 21, 0, -2228246, 21, 0, -2228245, 21, 0, -2228244, 21, 0, -2228243, 21, 0, -2228242, 21, 0, -2228241, 21, 0, -2228240, 21, 0, -2228239, 21, 0, -2228238, 21, 0, -2228237, 21, 0, -2228236, 21, 0, -2228235, 21, 0, -2228234, 21, 0, -2228233, 21, 0, -2228232, 21, 0, -2228231, 21, 0, -2228230, 21, 0, -2228229, 21, 0, -2228228, 21, 0, -2228227, 21, 0, -2228226, 21, 0, -2228225, 21, 0, -2293760, 21, 0, -2293759, 21, 0, -2293758, 21, 0, -2293757, 21, 0, -2293756, 21, 0, -2293755, 21, 0, -2293754, 21, 0, -2293753, 21, 0, -2293752, 21, 0, -2293751, 21, 0, -2293750, 21, 0, -2293749, 21, 0, -2293748, 21, 0, -2293747, 21, 0, -2293746, 21, 0, -2293745, 21, 0, -2293744, 21, 0, -2293743, 21, 0, -2293742, 21, 0, -2293741, 21, 0, -2293740, 21, 0, -2293739, 21, 0, -2293738, 21, 0, -2293737, 21, 0, -2293736, 21, 0, -2293735, 21, 0, -2293734, 21, 0, -2293733, 21, 0, -2293732, 21, 0, -2293731, 21, 0, -2293730, 21, 0, -2293729, 21, 0, -2293728, 21, 0, -2293727, 21, 0, -2293726, 21, 0, -2293725, 21, 0, -2293724, 21, 0, -2293723, 21, 0, -2293722, 21, 0, -2293721, 21, 0, -2293720, 21, 0, -2293719, 21, 0, -2293718, 21, 0, -2293717, 21, 0, -2293716, 21, 0, -2293715, 21, 0, -2293714, 21, 0, -2293713, 21, 0, -2293712, 21, 0, -2293711, 21, 0, -2293710, 21, 0, -2293709, 21, 0, -2293708, 21, 0, -2293707, 21, 0, -2293706, 21, 0, -2293705, 21, 0, -2293704, 21, 0, -2293703, 21, 0, -2293702, 21, 0, -2293701, 21, 0, -2293700, 21, 0, -2293699, 21, 0, -2293698, 21, 0, -2293697, 21, 0, -2293696, 21, 0, -2293695, 21, 0, -2293694, 21, 0, -2293693, 21, 0, -2293692, 21, 0, -2293691, 21, 0, -2293690, 21, 0, -2293689, 21, 0, -2293688, 21, 0, -2293687, 21, 0, -2293686, 21, 0, -2293685, 21, 0, -2293684, 21, 0, -2293683, 21, 0, -2293682, 21, 0, -2293681, 21, 0, -2162761, 21, 0, -2162760, 21, 0, -2162759, 21, 0, -2162758, 21, 0, -2162757, 21, 0, -2162756, 21, 0, -2162755, 536870915, 0, -2162754, 12, 0, -2162753, 12, 0, -2162752, 12, 0, -2162751, 12, 0, -2162750, 12, 0, -2162749, 12, 0, -2162748, 12, 0, -2162747, 12, 0, -2162746, 12, 0, -2162745, 12, 0, -2162744, 12, 0, -2162743, 12, 0, -2162742, 12, 0, -2162741, 12, 0, -2162740, 12, 0, -2162739, 12, 0, -2162738, 12, 0, -2162737, 12, 0, -2162736, 12, 0, -2162735, 12, 0, -2162734, 12, 0, -2162733, 12, 0, -2162732, 12, 0, -2162731, 12, 0, -2162730, 12, 0, -2162729, 12, 0, -2162728, 12, 0, -2162727, 12, 0, -2162726, 12, 0, -2162725, 12, 0, -2162724, 12, 0, -2162723, 12, 0, -2162722, 12, 0, -2162721, 12, 0, -2162720, 12, 0, -2162719, 12, 0, -2162718, 12, 0, -2162717, 12, 0, -2162716, 12, 0, -2162715, 12, 0, -2162714, 12, 0, -2162713, 12, 0, -2162712, 12, 0, -2162711, 12, 0, -2162710, 12, 0, -2162709, 12, 0, -2162708, 12, 0, -2162707, 12, 0, -2162706, 12, 0, -2162705, 12, 0, -2162704, 12, 0, -2162703, 12, 0, -2162702, 12, 0, -2162701, 12, 0, -2162700, 12, 0, -2162699, 12, 0, -2162698, 12, 0, -2162697, 12, 0, -2162696, 12, 0, -2162695, 12, 0, -2162694, 12, 0, -2162693, 12, 0, -2162692, 12, 0, -2162691, 12, 0, -2162690, 12, 0, -2162689, 12, 0, -2228224, 12, 0, -2228223, 12, 0, -2228222, 12, 0, -2228221, 12, 0, -2228220, 12, 0, -2228219, 12, 0, -2228218, 12, 0, -2228217, 12, 0, -2228216, 12, 0, -2228215, 12, 0, -2228214, 12, 0, -2228213, 12, 0, -2228212, 12, 0, -2228211, 12, 0, -2228210, 12, 0, -2228209, 12, 0, -2228208, 12, 0, -2228207, 12, 0, -2228206, 12, 0, -2228205, 12, 0, -2228204, 12, 0, -2228203, 12, 0, -2228202, 12, 0, -2228201, 12, 0, -2228200, 12, 0, -2228199, 12, 0, -2228198, 12, 0, -2228197, 12, 0, -2228196, 12, 0, -2228195, 12, 0, -2228194, 12, 0, -2228193, 12, 0, -2228192, 12, 0, -2228191, 12, 0, -2228190, 12, 0, -2228189, 12, 0, -2228188, 12, 0, -2228187, 12, 0, -2228186, 12, 0, -2228185, 12, 0, -2228184, 12, 0, -2228183, 12, 0, -2228182, 12, 0, -2228181, 12, 0, -2228180, 12, 0, -2228179, 12, 0, -2228178, 12, 0, -2228177, 12, 0, -2228176, 12, 0, -2228175, 12, 0, -2228174, 12, 0, -2228173, 12, 0, -2228172, 12, 0, -2228171, 12, 0, -2228170, 12, 0, -2228169, 12, 0, -2228168, 12, 0, -2228167, 12, 0, -2228166, 12, 0, -2228165, 12, 0, -2228164, 12, 0, -2228163, 12, 0, -2228162, 12, 0, -2228161, 12, 0, -2228160, 12, 0, -2228159, 12, 0, -2228158, 12, 0, -2228157, 12, 0, -2228156, 12, 0, -2228155, 12, 0, -2228154, 12, 0, -2228153, 12, 0, -2228152, 12, 0, -2228151, 3, 0, -2228150, 21, 0, -2228149, 21, 0, -2228148, 21, 0, -2228147, 21, 0, -2228146, 21, 0, -2228145, 21, 0, -2097225, 21, 0, -2097224, 21, 0, -2097223, 21, 0, -2097222, 21, 0, -2097221, 21, 0, -2097220, 21, 0, -2097219, 536870915, 0, -2097218, 12, 0, -2097217, 12, 0, -2097216, 12, 0, -2097215, 12, 0, -2097214, 12, 0, -2097213, 12, 0, -2097212, 12, 0, -2097211, 12, 0, -2097210, 12, 0, -2097209, 12, 0, -2097208, 12, 0, -2097207, 12, 0, -2097206, 12, 0, -2097205, 12, 0, -2097204, 12, 0, -2097203, 12, 0, -2097202, 12, 0, -2097201, 12, 0, -2097200, 12, 0, -2097199, 12, 0, -2097198, 12, 0, -2097197, 12, 0, -2097196, 12, 0, -2097195, 12, 0, -2097194, 12, 0, -2097193, 12, 0, -2097192, 12, 0, -2097191, 12, 0, -2097190, 12, 0, -2097189, 12, 0, -2097188, 12, 0, -2097187, 12, 0, -2097186, 12, 0, -2097185, 12, 0, -2097184, 12, 0, -2097183, 12, 0, -2097182, 12, 0, -2097181, 12, 0, -2097180, 12, 0, -2097179, 12, 0, -2097178, 12, 0, -2097177, 12, 0, -2097176, 12, 0, -2097175, 12, 0, -2097174, 12, 0, -2097173, 12, 0, -2097172, 12, 0, -2097171, 12, 0, -2097170, 12, 0, -2097169, 12, 0, -2097168, 12, 0, -2097167, 12, 0, -2097166, 12, 0, -2097165, 12, 0, -2097164, 12, 0, -2097163, 12, 0, -2097162, 12, 0, -2097161, 12, 0, -2097160, 12, 0, -2097159, 12, 0, -2097158, 12, 0, -2097157, 12, 0, -2097156, 12, 0, -2097155, 12, 0, -2097154, 12, 0, -2097153, 12, 0, -2162688, 12, 0, -2162687, 12, 0, -2162686, 12, 0, -2162685, 12, 0, -2162684, 12, 0, -2162683, 12, 0, -2162682, 12, 0, -2162681, 12, 0, -2162680, 12, 0, -2162679, 12, 0, -2162678, 12, 0, -2162677, 12, 0, -2162676, 12, 0, -2162675, 12, 0, -2162674, 12, 0, -2162673, 12, 0, -2162672, 12, 0, -2162671, 12, 0, -2162670, 12, 0, -2162669, 12, 0, -2162668, 12, 0, -2162667, 12, 0, -2162666, 12, 0, -2162665, 12, 0, -2162664, 12, 0, -2162663, 12, 0, -2162662, 12, 0, -2162661, 12, 0, -2162660, 12, 0, -2162659, 12, 0, -2162658, 12, 0, -2162657, 12, 0, -2162656, 12, 0, -2162655, 12, 0, -2162654, 12, 0, -2162653, 12, 0, -2162652, 12, 0, -2162651, 12, 0, -2162650, 12, 0, -2162649, 12, 0, -2162648, 12, 0, -2162647, 12, 0, -2162646, 12, 0, -2162645, 12, 0, -2162644, 12, 0, -2162643, 12, 0, -2162642, 12, 0, -2162641, 12, 0, -2162640, 12, 0, -2162639, 12, 0, -2162638, 12, 0, -2162637, 12, 0, -2162636, 12, 0, -2162635, 12, 0, -2162634, 12, 0, -2162633, 12, 0, -2162632, 12, 0, -2162631, 12, 0, -2162630, 12, 0, -2162629, 12, 0, -2162628, 12, 0, -2162627, 12, 0, -2162626, 12, 0, -2162625, 12, 0, -2162624, 12, 0, -2162623, 12, 0, -2162622, 12, 0, -2162621, 12, 0, -2162620, 12, 0, -2162619, 12, 0, -2162618, 12, 0, -2162617, 12, 0, -2162616, 12, 0, -2162615, 3, 0, -2162614, 21, 0, -2162613, 21, 0, -2162612, 21, 0, -2162611, 21, 0, -2162610, 21, 0, -2162609, 21, 0, -2031689, 21, 0, -2031688, 21, 0, -2031687, 21, 0, -2031686, 21, 0, -2031685, 21, 0, -2031684, 21, 0, -2031683, 536870915, 0, -2031682, 12, 0, -2031681, 12, 0, -2031680, 12, 0, -2031679, 12, 0, -2031678, 12, 0, -2031677, 12, 0, -2031676, 12, 0, -2031675, 12, 0, -2031674, 12, 0, -2031673, 12, 0, -2031672, 12, 0, -2031671, 12, 0, -2031670, 12, 0, -2031669, 12, 0, -2031668, 12, 0, -2031667, 12, 0, -2031666, 12, 0, -2031665, 12, 0, -2031664, 12, 0, -2031663, 12, 0, -2031662, 12, 0, -2031661, 12, 0, -2031660, 12, 0, -2031659, 12, 0, -2031658, 12, 0, -2031657, 12, 0, -2031656, 12, 0, -2031655, 12, 0, -2031654, 12, 0, -2031653, 12, 0, -2031652, 12, 0, -2031651, 12, 0, -2031650, 12, 0, -2031649, 12, 0, -2031648, 12, 0, -2031647, 12, 0, -2031646, 12, 0, -2031645, 12, 0, -2031644, 12, 0, -2031643, 12, 0, -2031642, 12, 0, -2031641, 12, 0, -2031640, 12, 0, -2031639, 12, 0, -2031638, 12, 0, -2031637, 12, 0, -2031636, 12, 0, -2031635, 12, 0, -2031634, 12, 0, -2031633, 12, 0, -2031632, 12, 0, -2031631, 12, 0, -2031630, 12, 0, -2031629, 12, 0, -2031628, 12, 0, -2031627, 12, 0, -2031626, 12, 0, -2031625, 12, 0, -2031624, 12, 0, -2031623, 12, 0, -2031622, 12, 0, -2031621, 12, 0, -2031620, 12, 0, -2031619, 12, 0, -2031618, 12, 0, -2031617, 12, 0, -2097152, 12, 0, -2097151, 12, 0, -2097150, 12, 0, -2097149, 12, 0, -2097148, 12, 0, -2097147, 12, 0, -2097146, 12, 0, -2097145, 12, 0, -2097144, 12, 0, -2097143, 12, 0, -2097142, 12, 0, -2097141, 12, 0, -2097140, 12, 0, -2097139, 12, 0, -2097138, 12, 0, -2097137, 12, 0, -2097136, 12, 0, -2097135, 12, 0, -2097134, 12, 0, -2097133, 12, 0, -2097132, 12, 0, -2097131, 12, 0, -2097130, 12, 0, -2097129, 12, 0, -2097128, 12, 0, -2097127, 12, 0, -2097126, 12, 0, -2097125, 12, 0, -2097124, 12, 0, -2097123, 12, 0, -2097122, 12, 0, -2097121, 12, 0, -2097120, 12, 0, -2097119, 12, 0, -2097118, 12, 0, -2097117, 12, 0, -2097116, 12, 0, -2097115, 12, 0, -2097114, 12, 0, -2097113, 12, 0, -2097112, 12, 0, -2097111, 12, 0, -2097110, 12, 0, -2097109, 12, 0, -2097108, 12, 0, -2097107, 12, 0, -2097106, 12, 0, -2097105, 12, 0, -2097104, 12, 0, -2097103, 12, 0, -2097102, 12, 0, -2097101, 12, 0, -2097100, 12, 0, -2097099, 12, 0, -2097098, 12, 0, -2097097, 12, 0, -2097096, 12, 0, -2097095, 12, 0, -2097094, 12, 0, -2097093, 12, 0, -2097092, 12, 0, -2097091, 12, 0, -2097090, 12, 0, -2097089, 12, 0, -2097088, 12, 0, -2097087, 12, 0, -2097086, 12, 0, -2097085, 12, 0, -2097084, 12, 0, -2097083, 12, 0, -2097082, 12, 0, -2097081, 12, 0, -2097080, 12, 0, -2097079, 3, 0, -2097078, 21, 0, -2097077, 21, 0, -2097076, 21, 0, -2097075, 21, 0, -2097074, 21, 0, -2097073, 21, 0, -1966153, 21, 0, -1966152, 21, 0, -1966151, 21, 0, -1966150, 21, 0, -1966149, 21, 0, -1966148, 21, 0, -1966147, 1073741825, 0, -1966146, 1073741824, 0, -1966145, 1073741824, 0, -1966144, 1073741824, 0, -1966143, 1073741824, 0, -1966142, 1073741824, 0, -1966141, 1073741824, 0, -1966140, 1073741824, 0, -1966139, 1073741824, 0, -1966138, 1073741824, 0, -1966137, 1073741824, 0, -1966136, 1073741824, 0, -1966135, 1073741824, 0, -1966134, 1073741824, 0, -1966133, 1073741824, 0, -1966132, 1073741824, 0, -1966131, 1073741824, 0, -1966130, 1073741824, 0, -1966129, 1073741824, 0, -1966128, 1073741824, 0, -1966127, 1073741824, 0, -1966126, 1073741824, 0, -1966125, 1073741824, 0, -1966124, 1073741824, 0, -1966123, 1073741824, 0, -1966122, 1073741824, 0, -1966121, 1073741824, 0, -1966120, 1073741824, 0, -1966119, 1073741824, 0, -1966118, 1073741824, 0, -1966117, 1073741824, 0, -1966116, 1073741824, 0, -1966115, 1073741824, 0, -1966114, 1073741824, 0, -1966113, 1073741824, 0, -1966112, 1073741824, 0, -1966111, 1073741824, 0, -1966110, 1073741824, 0, -1966109, 1073741824, 0, -1966108, 1073741824, 0, -1966107, 1073741824, 0, -1966106, 1073741824, 0, -1966105, 1073741824, 0, -1966104, 1073741824, 0, -1966103, 1073741824, 0, -1966102, 1073741824, 0, -1966101, 1073741824, 0, -1966100, 1073741824, 0, -1966099, 1073741824, 0, -1966098, 1073741824, 0, -1966097, 1073741824, 0, -1966096, 1073741824, 0, -1966095, 1073741824, 0, -1966094, 1073741824, 0, -1966093, 1073741824, 0, -1966092, 1073741824, 0, -1966091, 1073741824, 0, -1966090, 1073741824, 0, -1966089, 1073741824, 0, -1966088, 1073741824, 0, -1966087, 1073741824, 0, -1966086, 1073741824, 0, -1966085, 1073741824, 0, -1966084, 1073741824, 0, -1966083, 1073741824, 0, -1966082, 1073741824, 0, -1966081, 1073741824, 0, -2031616, 1073741824, 0, -2031615, 1073741824, 0, -2031614, 1073741824, 0, -2031613, 1073741824, 0, -2031612, 1073741824, 0, -2031611, 1073741824, 0, -2031610, 1073741824, 0, -2031609, 1073741824, 0, -2031608, 1073741824, 0, -2031607, 1073741824, 0, -2031606, 1073741824, 0, -2031605, 1073741824, 0, -2031604, 1073741824, 0, -2031603, 1073741824, 0, -2031602, 1073741824, 0, -2031601, 1073741824, 0, -2031600, 1073741824, 0, -2031599, 1073741824, 0, -2031598, 1073741824, 0, -2031597, 1073741824, 0, -2031596, 1073741824, 0, -2031595, 1073741824, 0, -2031594, 1073741824, 0, -2031593, 1073741824, 0, -2031592, 1073741824, 0, -2031591, 1073741824, 0, -2031590, 1073741824, 0, -2031589, 1073741824, 0, -2031588, 1073741824, 0, -2031587, 1073741824, 0, -2031586, 1073741824, 0, -2031585, 1073741824, 0, -2031584, 1073741824, 0, -2031583, 1073741824, 0, -2031582, 1073741824, 0, -2031581, 1073741824, 0, -2031580, 1073741824, 0, -2031579, 1073741824, 0, -2031578, 1073741824, 0, -2031577, 1073741824, 0, -2031576, 1073741824, 0, -2031575, 1073741824, 0, -2031574, 1073741824, 0, -2031573, 1073741824, 0, -2031572, 1073741824, 0, -2031571, 1073741824, 0, -2031570, 1073741824, 0, -2031569, 1073741824, 0, -2031568, 1073741824, 0, -2031567, 1073741824, 0, -2031566, 1073741824, 0, -2031565, 1073741824, 0, -2031564, 1073741824, 0, -2031563, 1073741824, 0, -2031562, 1073741824, 0, -2031561, 1073741824, 0, -2031560, 1073741824, 0, -2031559, 1073741824, 0, -2031558, 1073741824, 0, -2031557, 1073741824, 0, -2031556, 1073741824, 0, -2031555, 1073741824, 0, -2031554, 1073741824, 0, -2031553, 1073741824, 0, -2031552, 1073741824, 0, -2031551, 1073741824, 0, -2031550, 1073741824, 0, -2031549, 1073741824, 0, -2031548, 1073741824, 0, -2031547, 1073741824, 0, -2031546, 1073741824, 0, -2031545, 1073741824, 0, -2031544, 1073741824, 0, -2031543, 1073741826, 0, -2031542, 21, 0, -2031541, 21, 0, -2031540, 21, 0, -2031539, 21, 0, -2031538, 21, 0, -2031537, 21, 0, -1900617, 21, 0, -1900616, 21, 0, -1900615, 21, 0, -1900614, 21, 0, -1900613, 21, 0, -1900612, 21, 0, -1900611, 3, 0, -1966007, 536870915, 0, -1966006, 21, 0, -1966005, 21, 0, -1966004, 21, 0, -1966003, 21, 0, -1966002, 21, 0, -1966001, 21, 0, -1835081, 21, 0, -1835080, 21, 0, -1835079, 21, 0, -1835078, 21, 0, -1835077, 21, 0, -1835076, 21, 0, -1835075, 3, 0, -1900471, 536870915, 0, -1900470, 21, 0, -1900469, 21, 0, -1900468, 21, 0, -1900467, 21, 0, -1900466, 21, 0, -1900465, 21, 0, -1769545, 21, 0, -1769544, 21, 0, -1769543, 21, 0, -1769542, 21, 0, -1769541, 21, 0, -1769540, 21, 0, -1769539, 3, 0, -1834935, 536870915, 0, -1834934, 21, 0, -1834933, 21, 0, -1834932, 21, 0, -1834931, 21, 0, -1834930, 21, 0, -1834929, 21, 0, -1704009, 21, 0, -1704008, 21, 0, -1704007, 21, 0, -1704006, 21, 0, -1704005, 21, 0, -1704004, 21, 0, -1704003, 3, 0, -1769399, 536870915, 0, -1769398, 21, 0, -1769397, 21, 0, -1769396, 21, 0, -1769395, 21, 0, -1769394, 21, 0, -1769393, 21, 0, -1638473, 21, 0, -1638472, 21, 0, -1638471, 21, 0, -1638470, 21, 0, -1638469, 21, 0, -1638468, 21, 0, -1638467, 3, 0, -1703863, 536870915, 0, -1703862, 21, 0, -1703861, 21, 0, -1703860, 21, 0, -1703859, 21, 0, -1703858, 21, 0, -1703857, 21, 0, -1572937, 21, 0, -1572936, 21, 0, -1572935, 21, 0, -1572934, 21, 0, -1572933, 21, 0, -1572932, 21, 0, -1572931, 3, 0, -1572912, 0, 0, -1572911, 0, 0, -1572910, 0, 0, -1572909, 0, 0, -1572908, 0, 0, -1572907, 0, 0, -1572906, 0, 0, -1572905, 0, 0, -1572904, 0, 0, -1572903, 0, 0, -1572902, 0, 0, -1572901, 0, 0, -1572900, 0, 0, -1572899, 0, 0, -1572898, 0, 0, -1572897, 0, 0, -1572896, 0, 0, -1572895, 0, 0, -1572894, 0, 0, -1572893, 0, 0, -1572892, 0, 0, -1572891, 0, 0, -1572890, 0, 0, -1572889, 0, 0, -1572888, 0, 0, -1572887, 0, 0, -1572886, 0, 0, -1572885, 0, 0, -1572884, 0, 0, -1572883, 0, 0, -1572882, 0, 0, -1572881, 0, 0, -1572880, 0, 0, -1572879, 0, 0, -1572878, 0, 0, -1572877, 0, 0, -1572876, 0, 0, -1572875, 0, 0, -1572874, 0, 0, -1572873, 0, 0, -1572872, 0, 0, -1572871, 0, 0, -1572870, 0, 0, -1572869, 0, 0, -1572868, 0, 0, -1572867, 0, 0, -1572866, 0, 0, -1572865, 0, 0, -1638400, 0, 0, -1638399, 0, 0, -1638398, 0, 0, -1638397, 0, 0, -1638396, 0, 0, -1638395, 0, 0, -1638394, 0, 0, -1638393, 0, 0, -1638392, 0, 0, -1638391, 0, 0, -1638390, 0, 0, -1638389, 0, 0, -1638388, 0, 0, -1638387, 0, 0, -1638386, 0, 0, -1638385, 0, 0, -1638384, 0, 0, -1638383, 0, 0, -1638382, 0, 0, -1638381, 0, 0, -1638380, 0, 0, -1638379, 0, 0, -1638378, 0, 0, -1638377, 0, 0, -1638376, 0, 0, -1638375, 0, 0, -1638374, 0, 0, -1638373, 0, 0, -1638372, 0, 0, -1638371, 0, 0, -1638370, 0, 0, -1638369, 0, 0, -1638368, 0, 0, -1638367, 0, 0, -1638366, 0, 0, -1638365, 0, 0, -1638364, 0, 0, -1638363, 0, 0, -1638362, 0, 0, -1638361, 0, 0, -1638360, 0, 0, -1638359, 0, 0, -1638358, 0, 0, -1638357, 0, 0, -1638356, 0, 0, -1638355, 0, 0, -1638354, 0, 0, -1638353, 0, 0, -1638352, 0, 0, -1638351, 0, 0, -1638350, 0, 0, -1638349, 0, 0, -1638348, 0, 0, -1638347, 0, 0, -1638346, 0, 0, -1638345, 0, 0, -1638344, 0, 0, -1638343, 0, 0, -1638342, 0, 0, -1638341, 0, 0, -1638340, 0, 0, -1638339, 0, 0, -1638338, 0, 0, -1638337, 0, 0, -1638336, 0, 0, -1638335, 0, 0, -1638334, 0, 0, -1638333, 0, 0, -1638332, 0, 0, -1638331, 0, 0, -1638330, 0, 0, -1638329, 0, 0, -1638328, 0, 0, -1638327, 2, 0, -1638326, 21, 0, -1638325, 21, 0, -1638324, 21, 0, -1638323, 21, 0, -1638322, 21, 0, -1638321, 21, 0, -1507401, 21, 0, -1507400, 21, 0, -1507399, 21, 0, -1507398, 21, 0, -1507397, 21, 0, -1507396, 21, 0, -1507395, 3, 0, -1507377, 1073741824, 0, -1507376, 1073741824, 0, -1507375, 1073741824, 0, -1507374, 1073741824, 0, -1507373, 1073741824, 0, -1507372, 1073741824, 0, -1507371, 1073741824, 0, -1507370, 1073741824, 0, -1507369, 1073741824, 0, -1507368, 1073741824, 0, -1507367, 1073741824, 0, -1507366, 1073741824, 0, -1507365, 1073741824, 0, -1507364, 1073741824, 0, -1507363, 1073741824, 0, -1507362, 1073741824, 0, -1507361, 1073741824, 0, -1507360, 1073741824, 0, -1507359, 1073741824, 0, -1507358, 1073741824, 0, -1507357, 1073741824, 0, -1507356, 1073741824, 0, -1507355, 1073741824, 0, -1507354, 1073741824, 0, -1507353, 1073741824, 0, -1507352, 1073741824, 0, -1507351, 1073741824, 0, -1507350, 1073741824, 0, -1507349, 1073741824, 0, -1507348, 1073741824, 0, -1507347, 1073741824, 0, -1507346, 1073741824, 0, -1507345, 1073741824, 0, -1507344, 1073741824, 0, -1507343, 1073741824, 0, -1507342, 1073741824, 0, -1507341, 1073741824, 0, -1507340, 1073741824, 0, -1507339, 1073741824, 0, -1507338, 1073741824, 0, -1507337, 1073741824, 0, -1507336, 1073741824, 0, -1507335, 1073741824, 0, -1507334, 1073741824, 0, -1507333, 1073741824, 0, -1507332, 1073741824, 0, -1507331, 1073741824, 0, -1507330, 1073741824, 0, -1507329, 1073741824, 0, -1572864, 1073741824, 0, -1572863, 1073741824, 0, -1572862, 1073741824, 0, -1572861, 1073741824, 0, -1572860, 1073741824, 0, -1572859, 1073741824, 0, -1572858, 1073741824, 0, -1572857, 1073741824, 0, -1572856, 1073741824, 0, -1572855, 1073741824, 0, -1572854, 1073741824, 0, -1572853, 1073741824, 0, -1572852, 1073741824, 0, -1572851, 1073741824, 0, -1572850, 1073741824, 0, -1572849, 1073741824, 0, -1572848, 1073741824, 0, -1572847, 1073741824, 0, -1572846, 1073741824, 0, -1572845, 1073741824, 0, -1572844, 1073741824, 0, -1572843, 1073741824, 0, -1572842, 1073741824, 0, -1572841, 1073741824, 0, -1572840, 1073741824, 0, -1572839, 1073741824, 0, -1572838, 1073741824, 0, -1572837, 1073741824, 0, -1572836, 1073741824, 0, -1572835, 1073741824, 0, -1572834, 1073741824, 0, -1572833, 1073741824, 0, -1572832, 1073741824, 0, -1572831, 1073741824, 0, -1572830, 1073741824, 0, -1572829, 1073741824, 0, -1572828, 1073741824, 0, -1572827, 1073741824, 0, -1572826, 1073741824, 0, -1572825, 1073741824, 0, -1572824, 1073741824, 0, -1572823, 1073741824, 0, -1572822, 1073741824, 0, -1572821, 1073741824, 0, -1572820, 1073741824, 0, -1572819, 1073741824, 0, -1572818, 1073741824, 0, -1572817, 1073741824, 0, -1572816, 1073741824, 0, -1572815, 1073741824, 0, -1572814, 1073741824, 0, -1572813, 1073741824, 0, -1572812, 1073741824, 0, -1572811, 1073741824, 0, -1572810, 1073741824, 0, -1572809, 1073741824, 0, -1572808, 1073741824, 0, -1572807, 1073741824, 0, -1572806, 1073741824, 0, -1572805, 1073741824, 0, -1572804, 1073741824, 0, -1572803, 1073741824, 0, -1572802, 1073741824, 0, -1572801, 1073741824, 0, -1572800, 1073741824, 0, -1572799, 1073741824, 0, -1572798, 1073741824, 0, -1572797, 1073741824, 0, -1572796, 1073741824, 0, -1572795, 1073741824, 0, -1572794, 1073741824, 0, -1572793, 1073741824, 0, -1572792, 1073741824, 0, -1572791, 1073741826, 0, -1572790, 21, 0, -1572789, 21, 0, -1572788, 21, 0, -1572787, 21, 0, -1572786, 21, 0, -1572785, 21, 0, -1441865, 21, 0, -1441864, 21, 0, -1441863, 21, 0, -1441862, 21, 0, -1441861, 21, 0, -1441860, 21, 0, -1441859, 3, 0, -1507255, 536870915, 0, -1507254, 21, 0, -1507253, 21, 0, -1507252, 21, 0, -1507251, 21, 0, -1507250, 21, 0, -1507249, 21, 0, -1376329, 21, 0, -1376328, 21, 0, -1376327, 21, 0, -1376326, 21, 0, -1376325, 21, 0, -1376324, 21, 0, -1376323, 3, 0, -1441719, 536870915, 0, -1441718, 21, 0, -1441717, 21, 0, -1441716, 21, 0, -1441715, 21, 0, -1441714, 21, 0, -1441713, 21, 0, -1310793, 21, 0, -1310792, 21, 0, -1310791, 21, 0, -1310790, 21, 0, -1310789, 21, 0, -1310788, 21, 0, -1310787, 3, 0, -1376183, 536870915, 0, -1376182, 21, 0, -1376181, 21, 0, -1376180, 21, 0, -1376179, 21, 0, -1376178, 21, 0, -1376177, 21, 0, -1245257, 21, 0, -1245256, 21, 0, -1245255, 21, 0, -1245254, 21, 0, -1245253, 21, 0, -1245252, 21, 0, -1245251, 3, 0, -1310647, 536870915, 0, -1310646, 21, 0, -1310645, 21, 0, -1310644, 21, 0, -1310643, 21, 0, -1310642, 21, 0, -1310641, 21, 0, -1179721, 21, 0, -1179720, 21, 0, -1179719, 21, 0, -1179718, 21, 0, -1179717, 21, 0, -1179716, 21, 0, -1179715, 3, 0, -1245111, 536870915, 0, -1245110, 21, 0, -1245109, 21, 0, -1245108, 21, 0, -1245107, 21, 0, -1245106, 21, 0, -1245105, 21, 0, -1114185, 21, 0, -1114184, 21, 0, -1114183, 21, 0, -1114182, 21, 0, -1114181, 21, 0, -1114180, 21, 0, -1114179, 3, 0, -1114160, 0, 0, -1114159, 0, 0, -1114158, 0, 0, -1114157, 0, 0, -1114156, 0, 0, -1114155, 0, 0, -1114154, 0, 0, -1114153, 0, 0, -1114152, 0, 0, -1114151, 0, 0, -1114150, 0, 0, -1114149, 0, 0, -1114148, 0, 0, -1114147, 0, 0, -1114146, 0, 0, -1114145, 0, 0, -1114144, 0, 0, -1114143, 0, 0, -1114142, 0, 0, -1114141, 0, 0, -1114140, 0, 0, -1114139, 0, 0, -1114138, 0, 0, -1114137, 0, 0, -1114136, 0, 0, -1114135, 0, 0, -1114134, 0, 0, -1114133, 0, 0, -1114132, 0, 0, -1114131, 0, 0, -1114130, 0, 0, -1114129, 0, 0, -1114128, 0, 0, -1114127, 0, 0, -1114126, 0, 0, -1114125, 0, 0, -1114124, 0, 0, -1114123, 0, 0, -1114122, 0, 0, -1114121, 0, 0, -1114120, 0, 0, -1114119, 0, 0, -1114118, 0, 0, -1114117, 0, 0, -1114116, 0, 0, -1114115, 0, 0, -1114114, 0, 0, -1114113, 0, 0, -1179648, 0, 0, -1179647, 0, 0, -1179646, 0, 0, -1179645, 0, 0, -1179644, 0, 0, -1179643, 0, 0, -1179642, 0, 0, -1179641, 0, 0, -1179640, 0, 0, -1179639, 0, 0, -1179638, 0, 0, -1179637, 0, 0, -1179636, 0, 0, -1179635, 0, 0, -1179634, 0, 0, -1179633, 0, 0, -1179632, 0, 0, -1179631, 0, 0, -1179630, 0, 0, -1179629, 0, 0, -1179628, 0, 0, -1179627, 0, 0, -1179626, 0, 0, -1179625, 0, 0, -1179624, 0, 0, -1179623, 0, 0, -1179622, 0, 0, -1179621, 0, 0, -1179620, 0, 0, -1179619, 0, 0, -1179618, 0, 0, -1179617, 0, 0, -1179616, 0, 0, -1179615, 0, 0, -1179614, 0, 0, -1179613, 0, 0, -1179612, 0, 0, -1179611, 0, 0, -1179610, 0, 0, -1179609, 0, 0, -1179608, 0, 0, -1179607, 0, 0, -1179606, 0, 0, -1179605, 0, 0, -1179604, 0, 0, -1179603, 0, 0, -1179602, 0, 0, -1179601, 0, 0, -1179600, 0, 0, -1179599, 0, 0, -1179598, 0, 0, -1179597, 0, 0, -1179596, 0, 0, -1179595, 0, 0, -1179594, 0, 0, -1179593, 0, 0, -1179592, 0, 0, -1179591, 0, 0, -1179590, 0, 0, -1179589, 0, 0, -1179588, 0, 0, -1179587, 0, 0, -1179586, 0, 0, -1179585, 0, 0, -1179584, 0, 0, -1179575, 536870915, 0, -1179574, 21, 0, -1179573, 21, 0, -1179572, 21, 0, -1179571, 21, 0, -1179570, 21, 0, -1179569, 21, 0, -1048649, 21, 0, -1048648, 21, 0, -1048647, 21, 0, -1048646, 21, 0, -1048645, 21, 0, -1048644, 21, 0, -1048643, 3, 0, -1048625, 1073741824, 0, -1048624, 1073741824, 0, -1048623, 1073741824, 0, -1048622, 1073741824, 0, -1048621, 1073741824, 0, -1048620, 1073741824, 0, -1048619, 1073741824, 0, -1048618, 1073741824, 0, -1048617, 1073741824, 0, -1048616, 1073741824, 0, -1048615, 1073741824, 0, -1048614, 1073741824, 0, -1048613, 1073741824, 0, -1048612, 1073741824, 0, -1048611, 1073741824, 0, -1048610, 1073741824, 0, -1048609, 1073741824, 0, -1048608, 1073741824, 0, -1048607, 1073741824, 0, -1048606, 1073741824, 0, -1048605, 1073741824, 0, -1048604, 1073741824, 0, -1048603, 1073741824, 0, -1048602, 1073741824, 0, -1048601, 1073741824, 0, -1048600, 1073741824, 0, -1048599, 1073741824, 0, -1048598, 1073741824, 0, -1048597, 1073741824, 0, -1048596, 1073741824, 0, -1048595, 1073741824, 0, -1048594, 1073741824, 0, -1048593, 1073741824, 0, -1048592, 1073741824, 0, -1048591, 1073741824, 0, -1048590, 1073741824, 0, -1048589, 1073741824, 0, -1048588, 1073741824, 0, -1048587, 1073741824, 0, -1048586, 1073741824, 0, -1048585, 1073741824, 0, -1048584, 1073741824, 0, -1048583, 1073741824, 0, -1048582, 1073741824, 0, -1048581, 1073741824, 0, -1048580, 1073741824, 0, -1048579, 1073741824, 0, -1048578, 1073741824, 0, -1048577, 1073741824, 0, -1114112, 1073741824, 0, -1114111, 1073741824, 0, -1114110, 1073741824, 0, -1114109, 1073741824, 0, -1114108, 1073741824, 0, -1114107, 1073741824, 0, -1114106, 1073741824, 0, -1114105, 1073741824, 0, -1114104, 1073741824, 0, -1114103, 1073741824, 0, -1114102, 1073741824, 0, -1114101, 1073741824, 0, -1114100, 1073741824, 0, -1114099, 1073741824, 0, -1114098, 1073741824, 0, -1114097, 1073741824, 0, -1114096, 1073741824, 0, -1114095, 1073741824, 0, -1114094, 1073741824, 0, -1114093, 1073741824, 0, -1114092, 1073741824, 0, -1114091, 1073741824, 0, -1114090, 1073741824, 0, -1114089, 1073741824, 0, -1114088, 1073741824, 0, -1114087, 1073741824, 0, -1114086, 1073741824, 0, -1114085, 1073741824, 0, -1114084, 1073741824, 0, -1114083, 1073741824, 0, -1114082, 1073741824, 0, -1114081, 1073741824, 0, -1114080, 1073741824, 0, -1114079, 1073741824, 0, -1114078, 1073741824, 0, -1114077, 1073741824, 0, -1114076, 1073741824, 0, -1114075, 1073741824, 0, -1114074, 1073741824, 0, -1114073, 1073741824, 0, -1114072, 1073741824, 0, -1114071, 1073741824, 0, -1114070, 1073741824, 0, -1114069, 1073741824, 0, -1114068, 1073741824, 0, -1114067, 1073741824, 0, -1114066, 1073741824, 0, -1114065, 1073741824, 0, -1114064, 1073741824, 0, -1114063, 1073741824, 0, -1114062, 1073741824, 0, -1114061, 1073741824, 0, -1114060, 1073741824, 0, -1114059, 1073741824, 0, -1114058, 1073741824, 0, -1114057, 1073741824, 0, -1114056, 1073741824, 0, -1114055, 1073741824, 0, -1114054, 1073741824, 0, -1114053, 1073741824, 0, -1114052, 1073741824, 0, -1114051, 1073741824, 0, -1114050, 1073741824, 0, -1114049, 1073741824, 0, -1114048, 1073741824, 0, -1114047, 1073741824, 0, -1114039, 536870915, 0, -1114038, 21, 0, -1114037, 21, 0, -1114036, 21, 0, -1114035, 21, 0, -1114034, 21, 0, -1114033, 21, 0, -983113, 21, 0, -983112, 21, 0, -983111, 21, 0, -983110, 21, 0, -983109, 21, 0, -983108, 21, 0, -983107, 3, 0, -1048512, 536870915, 0, -1048511, 3, 0, -1048503, 536870915, 0, -1048502, 21, 0, -1048501, 21, 0, -1048500, 21, 0, -1048499, 21, 0, -1048498, 21, 0, -1048497, 21, 0, -917577, 21, 0, -917576, 21, 0, -917575, 21, 0, -917574, 21, 0, -917573, 21, 0, -917572, 21, 0, -917571, 3, 0, -982976, 536870915, 0, -982975, 3, 0, -982967, 536870915, 0, -982966, 21, 0, -982965, 21, 0, -982964, 21, 0, -982963, 21, 0, -982962, 21, 0, -982961, 21, 0, -852041, 21, 0, -852040, 21, 0, -852039, 21, 0, -852038, 21, 0, -852037, 21, 0, -852036, 21, 0, -852035, 3, 0, -917440, 536870915, 0, -917439, 3, 0, -917431, 536870915, 0, -917430, 21, 0, -917429, 21, 0, -917428, 21, 0, -917427, 21, 0, -917426, 21, 0, -917425, 21, 0, -786505, 21, 0, -786504, 21, 0, -786503, 21, 0, -786502, 21, 0, -786501, 21, 0, -786500, 21, 0, -786499, 3, 0, -851904, 536870915, 0, -851903, 3, 0, -851895, 536870915, 0, -851894, 21, 0, -851893, 21, 0, -851892, 21, 0, -851891, 21, 0, -851890, 21, 0, -851889, 21, 0, -720969, 21, 0, -720968, 21, 0, -720967, 21, 0, -720966, 21, 0, -720965, 21, 0, -720964, 21, 0, -720963, 3, 0, -786368, 536870915, 0, -786367, 3, 0, -786359, 536870915, 0, -786358, 21, 0, -786357, 21, 0, -786356, 21, 0, -786355, 21, 0, -786354, 21, 0, -786353, 21, 0, -655433, 21, 0, -655432, 21, 0, -655431, 21, 0, -655430, 21, 0, -655429, 21, 0, -655428, 21, 0, -655427, 3, 0, -655408, 0, 0, -655407, 0, 0, -655406, 0, 0, -655405, 0, 0, -655404, 0, 0, -655403, 0, 0, -655402, 0, 0, -655401, 0, 0, -655400, 0, 0, -655399, 0, 0, -655398, 0, 0, -655397, 0, 0, -655396, 0, 0, -655395, 0, 0, -655394, 0, 0, -655393, 0, 0, -655392, 0, 0, -655391, 0, 0, -655390, 0, 0, -655389, 0, 0, -655388, 0, 0, -655387, 0, 0, -655386, 0, 0, -655385, 0, 0, -655384, 0, 0, -655383, 0, 0, -655382, 0, 0, -655381, 0, 0, -655380, 0, 0, -655379, 0, 0, -655378, 0, 0, -655377, 0, 0, -655376, 0, 0, -655375, 0, 0, -655374, 0, 0, -655373, 0, 0, -655372, 0, 0, -655371, 0, 0, -655370, 0, 0, -655369, 0, 0, -655368, 0, 0, -655367, 0, 0, -655366, 0, 0, -655365, 0, 0, -720891, 0, 0, -720890, 0, 0, -720889, 0, 0, -720888, 0, 0, -720887, 0, 0, -720886, 0, 0, -720885, 0, 0, -720884, 0, 0, -720883, 0, 0, -720882, 0, 0, -720881, 0, 0, -720880, 0, 0, -720879, 0, 0, -720878, 0, 0, -720877, 0, 0, -720876, 0, 0, -720875, 0, 0, -720874, 0, 0, -720873, 0, 0, -720872, 0, 0, -720871, 0, 0, -720870, 0, 0, -720869, 0, 0, -720868, 0, 0, -720867, 0, 0, -720866, 0, 0, -720865, 0, 0, -720864, 0, 0, -720863, 0, 0, -720862, 0, 0, -720861, 0, 0, -720860, 0, 0, -720859, 0, 0, -720858, 0, 0, -720857, 0, 0, -720856, 0, 0, -720855, 0, 0, -720854, 0, 0, -720853, 0, 0, -720852, 0, 0, -720851, 0, 0, -720850, 0, 0, -720849, 0, 0, -720848, 0, 0, -720847, 0, 0, -720846, 0, 0, -720845, 0, 0, -720844, 0, 0, -720843, 0, 0, -720842, 0, 0, -720841, 0, 0, -720840, 0, 0, -720839, 0, 0, -720838, 0, 0, -720837, 0, 0, -720836, 0, 0, -720835, 0, 0, -720834, 0, 0, -720833, 0, 0, -720832, 0, 0, -720831, 2, 0, -720823, 536870915, 0, -720822, 21, 0, -720821, 21, 0, -720820, 21, 0, -720819, 21, 0, -720818, 21, 0, -720817, 21, 0, -589897, 21, 0, -589896, 21, 0, -589895, 21, 0, -589894, 21, 0, -589893, 21, 0, -589892, 21, 0, -589891, 3, 0, -589873, 1073741824, 0, -589872, 1073741824, 0, -589871, 1073741824, 0, -589870, 1073741824, 0, -589869, 1073741824, 0, -589868, 1073741824, 0, -589867, 1073741824, 0, -589866, 1073741824, 0, -589865, 1073741824, 0, -589864, 1073741824, 0, -589863, 1073741824, 0, -589862, 1073741824, 0, -589861, 1073741824, 0, -589860, 1073741824, 0, -589859, 1073741824, 0, -589858, 1073741824, 0, -589857, 1073741824, 0, -589856, 1073741824, 0, -589855, 1073741824, 0, -589854, 1073741824, 0, -589853, 1073741824, 0, -589852, 1073741824, 0, -589851, 1073741824, 0, -589850, 1073741824, 0, -589849, 1073741824, 0, -589848, 1073741824, 0, -589847, 1073741824, 0, -589846, 1073741824, 0, -589845, 1073741824, 0, -589844, 1073741824, 0, -589843, 1073741824, 0, -589842, 1073741824, 0, -589841, 1073741824, 0, -589840, 1073741824, 0, -589839, 1073741824, 0, -589838, 1073741824, 0, -589837, 1073741824, 0, -589836, 1073741824, 0, -589835, 1073741824, 0, -589834, 1073741824, 0, -589833, 1073741824, 0, -589832, 1073741824, 0, -589831, 1073741824, 0, -589830, 1073741824, 0, -589829, 1073741824, 0, -589828, 1073741824, 0, -655356, 1073741824, 0, -655355, 1073741824, 0, -655354, 1073741824, 0, -655353, 1073741824, 0, -655352, 1073741824, 0, -655351, 1073741824, 0, -655350, 1073741824, 0, -655349, 1073741824, 0, -655348, 1073741824, 0, -655347, 1073741824, 0, -655346, 1073741824, 0, -655345, 1073741824, 0, -655344, 1073741824, 0, -655343, 1073741824, 0, -655342, 1073741824, 0, -655341, 1073741824, 0, -655340, 1073741824, 0, -655339, 1073741824, 0, -655338, 1073741824, 0, -655337, 1073741824, 0, -655336, 1073741824, 0, -655335, 1073741824, 0, -655334, 1073741824, 0, -655333, 1073741824, 0, -655332, 1073741824, 0, -655331, 1073741824, 0, -655330, 1073741824, 0, -655329, 1073741824, 0, -655328, 1073741824, 0, -655327, 1073741824, 0, -655326, 1073741824, 0, -655325, 1073741824, 0, -655324, 1073741824, 0, -655323, 1073741824, 0, -655322, 1073741824, 0, -655321, 1073741824, 0, -655320, 1073741824, 0, -655319, 1073741824, 0, -655318, 1073741824, 0, -655317, 1073741824, 0, -655316, 1073741824, 0, -655315, 1073741824, 0, -655314, 1073741824, 0, -655313, 1073741824, 0, -655312, 1073741824, 0, -655311, 1073741824, 0, -655310, 1073741824, 0, -655309, 1073741824, 0, -655308, 1073741824, 0, -655307, 1073741824, 0, -655306, 1073741824, 0, -655305, 1073741824, 0, -655304, 1073741824, 0, -655303, 1073741824, 0, -655302, 1073741824, 0, -655301, 1073741824, 0, -655300, 1073741824, 0, -655299, 1073741824, 0, -655298, 1073741824, 0, -655297, 1073741824, 0, -655296, 1073741824, 0, -655295, 1073741826, 0, -655287, 536870915, 0, -655286, 21, 0, -655285, 21, 0, -655284, 21, 0, -655283, 21, 0, -655282, 21, 0, -655281, 21, 0, -524361, 21, 0, -524360, 21, 0, -524359, 21, 0, -524358, 21, 0, -524357, 21, 0, -524356, 21, 0, -524355, 3, 0, -589820, 536870915, 0, -589819, 3, 0, -589751, 536870915, 0, -589750, 21, 0, -589749, 21, 0, -589748, 21, 0, -589747, 21, 0, -589746, 21, 0, -589745, 21, 0, -458825, 21, 0, -458824, 21, 0, -458823, 21, 0, -458822, 21, 0, -458821, 21, 0, -458820, 21, 0, -458819, 3, 0, -524284, 536870915, 0, -524283, 3, 0, -524215, 536870915, 0, -524214, 21, 0, -524213, 21, 0, -524212, 21, 0, -524211, 21, 0, -524210, 21, 0, -524209, 21, 0, -393289, 21, 0, -393288, 21, 0, -393287, 21, 0, -393286, 21, 0, -393285, 21, 0, -393284, 21, 0, -393283, 3, 0, -458748, 536870915, 0, -458747, 3, 0, -458679, 536870915, 0, -458678, 21, 0, -458677, 21, 0, -458676, 21, 0, -458675, 21, 0, -458674, 21, 0, -458673, 21, 0, -327753, 21, 0, -327752, 21, 0, -327751, 21, 0, -327750, 21, 0, -327749, 21, 0, -327748, 21, 0, -327747, 3, 0, -393212, 536870915, 0, -393211, 3, 0, -393143, 536870915, 0, -393142, 21, 0, -393141, 21, 0, -393140, 21, 0, -393139, 21, 0, -393138, 21, 0, -393137, 21, 0, -262217, 21, 0, -262216, 21, 0, -262215, 21, 0, -262214, 21, 0, -262213, 21, 0, -262212, 21, 0, -262211, 3, 0, -327676, 536870915, 0, -327675, 3, 0, -327607, 536870915, 0, -327606, 21, 0, -327605, 21, 0, -327604, 21, 0, -327603, 21, 0, -327602, 21, 0, -327601, 21, 0, -196681, 21, 0, -196680, 21, 0, -196679, 21, 0, -196678, 21, 0, -196677, 21, 0, -196676, 21, 0, -196675, 3, 0, -196656, 0, 0, -196655, 0, 0, -196654, 0, 0, -196653, 0, 0, -196652, 0, 0, -196651, 0, 0, -196650, 0, 0, -196649, 0, 0, -196648, 0, 0, -196647, 0, 0, -196646, 0, 0, -196645, 0, 0, -196644, 0, 0, -196643, 0, 0, -196642, 0, 0, -196641, 0, 0, -196640, 0, 0, -196639, 0, 0, -196638, 0, 0, -196637, 0, 0, -196636, 0, 0, -196635, 0, 0, -196634, 0, 0, -196633, 0, 0, -196632, 0, 0, -196631, 0, 0, -196630, 0, 0, -196629, 0, 0, -196628, 0, 0, -196627, 0, 0, -196626, 0, 0, -196625, 0, 0, -196624, 0, 0, -196623, 0, 0, -196622, 0, 0, -196621, 0, 0, -196620, 0, 0, -196619, 0, 0, -196618, 0, 0, -196617, 0, 0, -196616, 0, 0, -196615, 0, 0, -196614, 0, 0, -196613, 0, 0, -196612, 0, 0, -196611, 0, 0, -196610, 0, 0, -196609, 0, 0, -262144, 0, 0, -262143, 0, 0, -262142, 0, 0, -262141, 0, 0, -262140, 0, 0, -262139, 0, 0, -262138, 0, 0, -262137, 0, 0, -262136, 0, 0, -262135, 0, 0, -262134, 0, 0, -262133, 0, 0, -262132, 0, 0, -262131, 0, 0, -262130, 0, 0, -262129, 0, 0, -262128, 0, 0, -262127, 0, 0, -262126, 0, 0, -262125, 0, 0, -262124, 0, 0, -262123, 0, 0, -262122, 0, 0, -262121, 0, 0, -262120, 0, 0, -262119, 0, 0, -262118, 0, 0, -262117, 0, 0, -262116, 0, 0, -262115, 0, 0, -262114, 0, 0, -262113, 0, 0, -262112, 0, 0, -262111, 0, 0, -262110, 0, 0, -262109, 0, 0, -262108, 0, 0, -262107, 0, 0, -262106, 0, 0, -262105, 0, 0, -262104, 0, 0, -262103, 0, 0, -262102, 0, 0, -262101, 0, 0, -262100, 0, 0, -262099, 0, 0, -262098, 0, 0, -262097, 0, 0, -262096, 0, 0, -262095, 0, 0, -262094, 0, 0, -262093, 0, 0, -262092, 0, 0, -262091, 0, 0, -262090, 0, 0, -262089, 0, 0, -262088, 0, 0, -262087, 0, 0, -262086, 0, 0, -262085, 0, 0, -262084, 0, 0, -262083, 0, 0, -262082, 0, 0, -262081, 0, 0, -262080, 0, 0, -262071, 536870915, 0, -262070, 21, 0, -262069, 21, 0, -262068, 21, 0, -262067, 21, 0, -262066, 21, 0, -262065, 21, 0, -131145, 21, 0, -131144, 21, 0, -131143, 21, 0, -131142, 21, 0, -131141, 21, 0, -131140, 21, 0, -131139, 1073741826, 0, -131121, 1073741824, 0, -131120, 1073741824, 0, -131119, 1073741824, 0, -131118, 1073741824, 0, -131117, 1073741824, 0, -131116, 1073741824, 0, -131115, 1073741824, 0, -131114, 1073741824, 0, -131113, 1073741824, 0, -131112, 1073741824, 0, -131111, 1073741824, 0, -131110, 1073741824, 0, -131109, 1073741824, 0, -131108, 1073741824, 0, -131107, 1073741824, 0, -131106, 1073741824, 0, -131105, 1073741824, 0, -131104, 1073741824, 0, -131103, 1073741824, 0, -131102, 1073741824, 0, -131101, 1073741824, 0, -131100, 1073741824, 0, -131099, 1073741824, 0, -131098, 1073741824, 0, -131097, 1073741824, 0, -131096, 1073741824, 0, -131095, 1073741824, 0, -131094, 1073741824, 0, -131093, 1073741824, 0, -131092, 1073741824, 0, -131091, 1073741824, 0, -131090, 1073741824, 0, -131089, 1073741824, 0, -131088, 1073741824, 0, -131087, 1073741824, 0, -131086, 1073741824, 0, -131085, 1073741824, 0, -131084, 1073741824, 0, -131083, 1073741824, 0, -131082, 1073741824, 0, -131081, 1073741824, 0, -131080, 1073741824, 0, -131079, 1073741824, 0, -131078, 1073741824, 0, -131077, 1073741824, 0, -131076, 1073741824, 0, -131075, 1073741824, 0, -131074, 1073741824, 0, -131073, 1073741824, 0, -196608, 1073741824, 0, -196607, 1073741824, 0, -196606, 1073741824, 0, -196605, 1073741824, 0, -196604, 1073741824, 0, -196603, 1073741824, 0, -196602, 1073741824, 0, -196601, 1073741824, 0, -196600, 1073741824, 0, -196599, 1073741824, 0, -196598, 1073741824, 0, -196597, 1073741824, 0, -196596, 1073741824, 0, -196595, 1073741824, 0, -196594, 1073741824, 0, -196593, 1073741824, 0, -196592, 1073741824, 0, -196591, 1073741824, 0, -196590, 1073741824, 0, -196589, 1073741824, 0, -196588, 1073741824, 0, -196587, 1073741824, 0, -196586, 1073741824, 0, -196585, 1073741824, 0, -196584, 1073741824, 0, -196583, 1073741824, 0, -196582, 1073741824, 0, -196581, 1073741824, 0, -196580, 1073741824, 0, -196579, 1073741824, 0, -196578, 1073741824, 0, -196577, 1073741824, 0, -196576, 1073741824, 0, -196575, 1073741824, 0, -196574, 1073741824, 0, -196573, 1073741824, 0, -196572, 1073741824, 0, -196571, 1073741824, 0, -196570, 1073741824, 0, -196569, 1073741824, 0, -196568, 1073741824, 0, -196567, 1073741824, 0, -196566, 1073741824, 0, -196565, 1073741824, 0, -196564, 1073741824, 0, -196563, 1073741824, 0, -196562, 1073741824, 0, -196561, 1073741824, 0, -196560, 1073741824, 0, -196559, 1073741824, 0, -196558, 1073741824, 0, -196557, 1073741824, 0, -196556, 1073741824, 0, -196555, 1073741824, 0, -196554, 1073741824, 0, -196553, 1073741824, 0, -196552, 1073741824, 0, -196551, 1073741824, 0, -196550, 1073741824, 0, -196549, 1073741824, 0, -196548, 1073741824, 0, -196547, 1073741824, 0, -196546, 1073741824, 0, -196545, 1073741824, 0, -196544, 1073741824, 0, -196543, 1073741826, 0, -196535, 536870915, 0, -196534, 21, 0, -196533, 21, 0, -196532, 21, 0, -196531, 21, 0, -196530, 21, 0, -196529, 21, 0, -65609, 21, 0, -65608, 21, 0, -65607, 21, 0, -65606, 21, 0, -65605, 21, 0, -65604, 21, 0, -130999, 536870915, 0, -130998, 21, 0, -130997, 21, 0, -130996, 21, 0, -130995, 21, 0, -130994, 21, 0, -130993, 21, 0, -73, 21, 0, -72, 21, 0, -71, 21, 0, -70, 21, 0, -69, 21, 0, -68, 21, 0, -65463, 536870915, 0, -65462, 21, 0, -65461, 21, 0, -65460, 21, 0, -65459, 21, 0, -65458, 21, 0, -65457, 21, 0, 65463, 21, 0, 65464, 21, 0, 65465, 21, 0, 65466, 21, 0, 65467, 21, 0, 65468, 21, 0, 73, 536870915, 0, 74, 21, 0, 75, 21, 0, 76, 21, 0, 77, 21, 0, 78, 21, 0, 79, 21, 0, 130999, 21, 0, 131000, 21, 0, 131001, 21, 0, 131002, 21, 0, 131003, 21, 0, 131004, 21, 0, 65609, 536870915, 0, 65610, 21, 0, 65611, 21, 0, 65612, 21, 0, 65613, 21, 0, 65614, 21, 0, 65615, 21, 0, 196535, 21, 0, 196536, 21, 0, 196537, 21, 0, 196538, 21, 0, 196539, 21, 0, 196540, 21, 0, 131145, 536870915, 0, 131146, 21, 0, 131147, 21, 0, 131148, 21, 0, 131149, 21, 0, 131150, 21, 0, 131151, 21, 0, 262071, 21, 0, 262072, 21, 0, 262073, 21, 0, 262074, 21, 0, 262075, 21, 0, 262076, 21, 0, 262077, 1, 0, 262078, 0, 0, 262079, 0, 0, 262080, 0, 0, 262081, 0, 0, 262082, 0, 0, 262083, 0, 0, 262084, 0, 0, 262085, 0, 0, 262086, 0, 0, 262087, 0, 0, 262088, 0, 0, 262089, 0, 0, 262090, 0, 0, 262091, 0, 0, 262092, 0, 0, 262093, 0, 0, 262094, 0, 0, 262095, 0, 0, 262096, 0, 0, 262097, 0, 0, 262098, 0, 0, 262099, 0, 0, 262100, 0, 0, 262101, 0, 0, 262102, 0, 0, 262103, 0, 0, 262104, 0, 0, 262105, 0, 0, 262106, 0, 0, 262107, 0, 0, 262108, 0, 0, 262109, 0, 0, 262110, 0, 0, 262111, 0, 0, 262112, 0, 0, 262113, 0, 0, 262114, 0, 0, 262115, 0, 0, 262116, 0, 0, 262117, 0, 0, 262118, 0, 0, 262119, 0, 0, 262120, 0, 0, 262121, 0, 0, 262122, 0, 0, 262123, 0, 0, 262124, 0, 0, 262125, 0, 0, 262126, 0, 0, 262127, 0, 0, 262128, 0, 0, 262129, 0, 0, 262130, 0, 0, 262131, 0, 0, 262132, 0, 0, 262133, 0, 0, 262134, 0, 0, 262135, 0, 0, 262136, 0, 0, 262137, 0, 0, 262138, 0, 0, 262139, 0, 0, 262140, 0, 0, 262141, 0, 0, 262142, 0, 0, 262143, 0, 0, 196608, 0, 0, 196609, 0, 0, 196610, 0, 0, 196611, 0, 0, 196612, 0, 0, 196613, 0, 0, 196614, 0, 0, 196615, 0, 0, 196616, 0, 0, 196617, 0, 0, 196618, 0, 0, 196619, 0, 0, 196620, 0, 0, 196621, 0, 0, 196622, 0, 0, 196623, 0, 0, 196624, 0, 0, 196625, 0, 0, 196626, 0, 0, 196627, 0, 0, 196628, 0, 0, 196629, 0, 0, 196630, 0, 0, 196631, 0, 0, 196632, 0, 0, 196633, 0, 0, 196634, 0, 0, 196635, 0, 0, 196636, 0, 0, 196637, 0, 0, 196638, 0, 0, 196639, 0, 0, 196640, 0, 0, 196641, 0, 0, 196642, 0, 0, 196643, 0, 0, 196644, 0, 0, 196645, 0, 0, 196646, 0, 0, 196647, 0, 0, 196648, 0, 0, 196649, 0, 0, 196650, 0, 0, 196651, 0, 0, 196652, 0, 0, 196653, 0, 0, 196654, 0, 0, 196655, 0, 0, 196656, 0, 0, 196657, 0, 0, 196658, 0, 0, 196659, 0, 0, 196660, 0, 0, 196661, 0, 0, 196662, 0, 0, 196663, 0, 0, 196664, 0, 0, 196665, 0, 0, 196666, 0, 0, 196667, 0, 0, 196668, 0, 0, 196669, 0, 0, 196670, 0, 0, 196671, 0, 0, 196672, 0, 0, 196673, 0, 0, 196674, 0, 0, 196675, 0, 0, 196676, 0, 0, 196677, 0, 0, 196678, 0, 0, 196679, 0, 0, 196680, 0, 0, 196681, 2, 0, 196682, 21, 0, 196683, 21, 0, 196684, 21, 0, 196685, 21, 0, 196686, 21, 0, 196687, 21, 0, 327607, 21, 0, 327608, 21, 0, 327609, 21, 0, 327610, 21, 0, 327611, 21, 0, 327612, 21, 0, 327613, 536870915, 0, 327614, 12, 0, 327615, 12, 0, 327616, 12, 0, 327617, 12, 0, 327618, 12, 0, 327619, 12, 0, 327620, 12, 0, 327621, 12, 0, 327622, 12, 0, 327623, 12, 0, 327624, 12, 0, 327625, 12, 0, 327626, 12, 0, 327627, 12, 0, 327628, 12, 0, 327629, 12, 0, 327630, 12, 0, 327631, 12, 0, 327632, 12, 0, 327633, 12, 0, 327634, 12, 0, 327635, 12, 0, 327636, 12, 0, 327637, 12, 0, 327638, 12, 0, 327639, 12, 0, 327640, 12, 0, 327641, 12, 0, 327642, 12, 0, 327643, 12, 0, 327644, 12, 0, 327645, 12, 0, 327646, 12, 0, 327647, 12, 0, 327648, 12, 0, 327649, 12, 0, 327650, 12, 0, 327651, 12, 0, 327652, 12, 0, 327653, 12, 0, 327654, 12, 0, 327655, 12, 0, 327656, 12, 0, 327657, 12, 0, 327658, 12, 0, 327659, 12, 0, 327660, 12, 0, 327661, 12, 0, 327662, 12, 0, 327663, 12, 0, 327664, 12, 0, 327665, 12, 0, 327666, 12, 0, 327667, 12, 0, 327668, 12, 0, 327669, 12, 0, 327670, 12, 0, 327671, 12, 0, 327672, 12, 0, 327673, 12, 0, 327674, 12, 0, 327675, 12, 0, 327676, 12, 0, 327677, 12, 0, 327678, 12, 0, 327679, 12, 0, 262144, 12, 0, 262145, 12, 0, 262146, 12, 0, 262147, 12, 0, 262148, 12, 0, 262149, 12, 0, 262150, 12, 0, 262151, 12, 0, 262152, 12, 0, 262153, 12, 0, 262154, 12, 0, 262155, 12, 0, 262156, 12, 0, 262157, 12, 0, 262158, 12, 0, 262159, 12, 0, 262160, 12, 0, 262161, 12, 0, 262162, 12, 0, 262163, 12, 0, 262164, 12, 0, 262165, 12, 0, 262166, 12, 0, 262167, 12, 0, 262168, 12, 0, 262169, 12, 0, 262170, 12, 0, 262171, 12, 0, 262172, 12, 0, 262173, 12, 0, 262174, 12, 0, 262175, 12, 0, 262176, 12, 0, 262177, 12, 0, 262178, 12, 0, 262179, 12, 0, 262180, 12, 0, 262181, 12, 0, 262182, 12, 0, 262183, 12, 0, 262184, 12, 0, 262185, 12, 0, 262186, 12, 0, 262187, 12, 0, 262188, 12, 0, 262189, 12, 0, 262190, 12, 0, 262191, 12, 0, 262192, 12, 0, 262193, 12, 0, 262194, 12, 0, 262195, 12, 0, 262196, 12, 0, 262197, 12, 0, 262198, 12, 0, 262199, 12, 0, 262200, 12, 0, 262201, 12, 0, 262202, 12, 0, 262203, 12, 0, 262204, 12, 0, 262205, 12, 0, 262206, 12, 0, 262207, 12, 0, 262208, 12, 0, 262209, 12, 0, 262210, 12, 0, 262211, 12, 0, 262212, 12, 0, 262213, 12, 0, 262214, 12, 0, 262215, 12, 0, 262216, 12, 0, 262217, 3, 0, 262218, 21, 0, 262219, 21, 0, 262220, 21, 0, 262221, 21, 0, 262222, 21, 0, 262223, 21, 0, 393143, 21, 0, 393144, 21, 0, 393145, 21, 0, 393146, 21, 0, 393147, 21, 0, 393148, 21, 0, 393149, 536870915, 0, 393150, 12, 0, 393151, 12, 0, 393152, 12, 0, 393153, 12, 0, 393154, 12, 0, 393155, 12, 0, 393156, 12, 0, 393157, 12, 0, 393158, 12, 0, 393159, 12, 0, 393160, 12, 0, 393161, 12, 0, 393162, 12, 0, 393163, 12, 0, 393164, 12, 0, 393165, 12, 0, 393166, 12, 0, 393167, 12, 0, 393168, 12, 0, 393169, 12, 0, 393170, 12, 0, 393171, 12, 0, 393172, 12, 0, 393173, 12, 0, 393174, 12, 0, 393175, 12, 0, 393176, 12, 0, 393177, 12, 0, 393178, 12, 0, 393179, 12, 0, 393180, 12, 0, 393181, 12, 0, 393182, 12, 0, 393183, 12, 0, 393184, 12, 0, 393185, 12, 0, 393186, 12, 0, 393187, 12, 0, 393188, 12, 0, 393189, 12, 0, 393190, 12, 0, 393191, 12, 0, 393192, 12, 0, 393193, 12, 0, 393194, 12, 0, 393195, 12, 0, 393196, 12, 0, 393197, 12, 0, 393198, 12, 0, 393199, 12, 0, 393200, 12, 0, 393201, 12, 0, 393202, 12, 0, 393203, 12, 0, 393204, 12, 0, 393205, 12, 0, 393206, 12, 0, 393207, 12, 0, 393208, 12, 0, 393209, 12, 0, 393210, 12, 0, 393211, 12, 0, 393212, 12, 0, 393213, 12, 0, 393214, 12, 0, 393215, 12, 0, 327680, 12, 0, 327681, 12, 0, 327682, 12, 0, 327683, 12, 0, 327684, 12, 0, 327685, 12, 0, 327686, 12, 0, 327687, 12, 0, 327688, 12, 0, 327689, 12, 0, 327690, 12, 0, 327691, 12, 0, 327692, 12, 0, 327693, 12, 0, 327694, 12, 0, 327695, 12, 0, 327696, 12, 0, 327697, 12, 0, 327698, 12, 0, 327699, 12, 0, 327700, 12, 0, 327701, 12, 0, 327702, 12, 0, 327703, 12, 0, 327704, 12, 0, 327705, 12, 0, 327706, 12, 0, 327707, 12, 0, 327708, 12, 0, 327709, 12, 0, 327710, 12, 0, 327711, 12, 0, 327712, 12, 0, 327713, 12, 0, 327714, 12, 0, 327715, 12, 0, 327716, 12, 0, 327717, 12, 0, 327718, 12, 0, 327719, 12, 0, 327720, 12, 0, 327721, 12, 0, 327722, 12, 0, 327723, 12, 0, 327724, 12, 0, 327725, 12, 0, 327726, 12, 0, 327727, 12, 0, 327728, 12, 0, 327729, 12, 0, 327730, 12, 0, 327731, 12, 0, 327732, 12, 0, 327733, 12, 0, 327734, 12, 0, 327735, 12, 0, 327736, 12, 0, 327737, 12, 0, 327738, 12, 0, 327739, 12, 0, 327740, 12, 0, 327741, 12, 0, 327742, 12, 0, 327743, 12, 0, 327744, 12, 0, 327745, 12, 0, 327746, 12, 0, 327747, 12, 0, 327748, 12, 0, 327749, 12, 0, 327750, 12, 0, 327751, 12, 0, 327752, 12, 0, 327753, 3, 0, 327754, 21, 0, 327755, 21, 0, 327756, 21, 0, 327757, 21, 0, 327758, 21, 0, 327759, 21, 0, 458679, 21, 0, 458680, 21, 0, 458681, 21, 0, 458682, 21, 0, 458683, 21, 0, 458684, 21, 0, 458685, 536870915, 0, 458686, 12, 0, 458687, 12, 0, 458688, 12, 0, 458689, 12, 0, 458690, 12, 0, 458691, 12, 0, 458692, 12, 0, 458693, 12, 0, 458694, 12, 0, 458695, 12, 0, 458696, 12, 0, 458697, 12, 0, 458698, 12, 0, 458699, 12, 0, 458700, 12, 0, 458701, 12, 0, 458702, 12, 0, 458703, 12, 0, 458704, 12, 0, 458705, 12, 0, 458706, 12, 0, 458707, 12, 0, 458708, 12, 0, 458709, 12, 0, 458710, 12, 0, 458711, 12, 0, 458712, 12, 0, 458713, 12, 0, 458714, 12, 0, 458715, 12, 0, 458716, 12, 0, 458717, 12, 0, 458718, 12, 0, 458719, 12, 0, 458720, 12, 0, 458721, 12, 0, 458722, 12, 0, 458723, 12, 0, 458724, 12, 0, 458725, 12, 0, 458726, 12, 0, 458727, 12, 0, 458728, 12, 0, 458729, 12, 0, 458730, 12, 0, 458731, 12, 0, 458732, 12, 0, 458733, 12, 0, 458734, 12, 0, 458735, 12, 0, 458736, 12, 0, 458737, 12, 0, 458738, 12, 0, 458739, 12, 0, 458740, 12, 0, 458741, 12, 0, 458742, 12, 0, 458743, 12, 0, 458744, 12, 0, 458745, 12, 0, 458746, 12, 0, 458747, 12, 0, 458748, 12, 0, 458749, 12, 0, 458750, 12, 0, 458751, 12, 0, 393216, 12, 0, 393217, 12, 0, 393218, 12, 0, 393219, 12, 0, 393220, 12, 0, 393221, 12, 0, 393222, 12, 0, 393223, 12, 0, 393224, 12, 0, 393225, 12, 0, 393226, 12, 0, 393227, 12, 0, 393228, 12, 0, 393229, 12, 0, 393230, 12, 0, 393231, 12, 0, 393232, 12, 0, 393233, 12, 0, 393234, 12, 0, 393235, 12, 0, 393236, 12, 0, 393237, 12, 0, 393238, 12, 0, 393239, 12, 0, 393240, 12, 0, 393241, 12, 0, 393242, 12, 0, 393243, 12, 0, 393244, 12, 0, 393245, 12, 0, 393246, 12, 0, 393247, 12, 0, 393248, 12, 0, 393249, 12, 0, 393250, 12, 0, 393251, 12, 0, 393252, 12, 0, 393253, 12, 0, 393254, 12, 0, 393255, 12, 0, 393256, 12, 0, 393257, 12, 0, 393258, 12, 0, 393259, 12, 0, 393260, 12, 0, 393261, 12, 0, 393262, 12, 0, 393263, 12, 0, 393264, 12, 0, 393265, 12, 0, 393266, 12, 0, 393267, 12, 0, 393268, 12, 0, 393269, 12, 0, 393270, 12, 0, 393271, 12, 0, 393272, 12, 0, 393273, 12, 0, 393274, 12, 0, 393275, 12, 0, 393276, 12, 0, 393277, 12, 0, 393278, 12, 0, 393279, 12, 0, 393280, 12, 0, 393281, 12, 0, 393282, 12, 0, 393283, 12, 0, 393284, 12, 0, 393285, 12, 0, 393286, 12, 0, 393287, 12, 0, 393288, 12, 0, 393289, 3, 0, 393290, 21, 0, 393291, 21, 0, 393292, 21, 0, 393293, 21, 0, 393294, 21, 0, 393295, 21, 0, 524215, 21, 0, 524216, 21, 0, 524217, 21, 0, 524218, 21, 0, 524219, 21, 0, 524220, 21, 0, 524221, 21, 0, 524222, 21, 0, 524223, 21, 0, 524224, 21, 0, 524225, 21, 0, 524226, 21, 0, 524227, 21, 0, 524228, 21, 0, 524229, 21, 0, 524230, 21, 0, 524231, 21, 0, 524232, 21, 0, 524233, 21, 0, 524234, 21, 0, 524235, 21, 0, 524236, 21, 0, 524237, 21, 0, 524238, 21, 0, 524239, 21, 0, 524240, 21, 0, 524241, 21, 0, 524242, 21, 0, 524243, 21, 0, 524244, 21, 0, 524245, 21, 0, 524246, 21, 0, 524247, 21, 0, 524248, 21, 0, 524249, 21, 0, 524250, 21, 0, 524251, 21, 0, 524252, 21, 0, 524253, 21, 0, 524254, 21, 0, 524255, 21, 0, 524256, 21, 0, 524257, 21, 0, 524258, 21, 0, 524259, 21, 0, 524260, 21, 0, 524261, 21, 0, 524262, 21, 0, 524263, 21, 0, 524264, 21, 0, 524265, 21, 0, 524266, 21, 0, 524267, 21, 0, 524268, 21, 0, 524269, 21, 0, 524270, 21, 0, 524271, 21, 0, 524272, 21, 0, 524273, 21, 0, 524274, 21, 0, 524275, 21, 0, 524276, 21, 0, 524277, 21, 0, 524278, 21, 0, 524279, 21, 0, 524280, 21, 0, 524281, 21, 0, 524282, 21, 0, 524283, 21, 0, 524284, 21, 0, 524285, 21, 0, 524286, 21, 0, 524287, 21, 0, 458752, 21, 0, 458753, 21, 0, 458754, 21, 0, 458755, 21, 0, 458756, 21, 0, 458757, 21, 0, 458758, 21, 0, 458759, 21, 0, 458760, 21, 0, 458761, 21, 0, 458762, 21, 0, 458763, 21, 0, 458764, 21, 0, 458765, 21, 0, 458766, 21, 0, 458767, 21, 0, 458768, 21, 0, 458769, 21, 0, 458770, 21, 0, 458771, 21, 0, 458772, 21, 0, 458773, 21, 0, 458774, 21, 0, 458775, 21, 0, 458776, 21, 0, 458777, 21, 0, 458778, 21, 0, 458779, 21, 0, 458780, 21, 0, 458781, 21, 0, 458782, 21, 0, 458783, 21, 0, 458784, 21, 0, 458785, 21, 0, 458786, 21, 0, 458787, 21, 0, 458788, 21, 0, 458789, 21, 0, 458790, 21, 0, 458791, 21, 0, 458792, 21, 0, 458793, 21, 0, 458794, 21, 0, 458795, 21, 0, 458796, 21, 0, 458797, 21, 0, 458798, 21, 0, 458799, 21, 0, 458800, 21, 0, 458801, 21, 0, 458802, 21, 0, 458803, 21, 0, 458804, 21, 0, 458805, 21, 0, 458806, 21, 0, 458807, 21, 0, 458808, 21, 0, 458809, 21, 0, 458810, 21, 0, 458811, 21, 0, 458812, 21, 0, 458813, 21, 0, 458814, 21, 0, 458815, 21, 0, 458816, 21, 0, 458817, 21, 0, 458818, 21, 0, 458819, 21, 0, 458820, 21, 0, 458821, 21, 0, 458822, 21, 0, 458823, 21, 0, 458824, 21, 0, 458825, 21, 0, 458826, 21, 0, 458827, 21, 0, 458828, 21, 0, 458829, 21, 0, 458830, 21, 0, 458831, 21, 0, 589751, 21, 0, 589752, 21, 0, 589753, 21, 0, 589754, 21, 0, 589755, 21, 0, 589756, 21, 0, 589757, 21, 0, 589758, 21, 0, 589759, 21, 0, 589760, 21, 0, 589761, 21, 0, 589762, 21, 0, 589763, 21, 0, 589764, 21, 0, 589765, 21, 0, 589766, 21, 0, 589767, 21, 0, 589768, 21, 0, 589769, 21, 0, 589770, 21, 0, 589771, 21, 0, 589772, 21, 0, 589773, 21, 0, 589774, 21, 0, 589775, 21, 0, 589776, 21, 0, 589777, 21, 0, 589778, 21, 0, 589779, 21, 0, 589780, 21, 0, 589781, 21, 0, 589782, 21, 0, 589783, 21, 0, 589784, 21, 0, 589785, 21, 0, 589786, 21, 0, 589787, 21, 0, 589788, 21, 0, 589789, 21, 0, 589790, 21, 0, 589791, 21, 0, 589792, 21, 0, 589793, 21, 0, 589794, 21, 0, 589795, 21, 0, 589796, 21, 0, 589797, 21, 0, 589798, 21, 0, 589799, 21, 0, 589800, 21, 0, 589801, 21, 0, 589802, 21, 0, 589803, 21, 0, 589804, 21, 0, 589805, 21, 0, 589806, 21, 0, 589807, 21, 0, 589808, 21, 0, 589809, 21, 0, 589810, 21, 0, 589811, 21, 0, 589812, 21, 0, 589813, 21, 0, 589814, 21, 0, 589815, 21, 0, 589816, 21, 0, 589817, 21, 0, 589818, 21, 0, 589819, 21, 0, 589820, 21, 0, 589821, 21, 0, 589822, 21, 0, 589823, 21, 0, 524288, 21, 0, 524289, 21, 0, 524290, 21, 0, 524291, 21, 0, 524292, 21, 0, 524293, 21, 0, 524294, 21, 0, 524295, 21, 0, 524296, 21, 0, 524297, 21, 0, 524298, 21, 0, 524299, 21, 0, 524300, 21, 0, 524301, 21, 0, 524302, 21, 0, 524303, 21, 0, 524304, 21, 0, 524305, 21, 0, 524306, 21, 0, 524307, 21, 0, 524308, 21, 0, 524309, 21, 0, 524310, 21, 0, 524311, 21, 0, 524312, 21, 0, 524313, 21, 0, 524314, 21, 0, 524315, 21, 0, 524316, 21, 0, 524317, 21, 0, 524318, 21, 0, 524319, 21, 0, 524320, 21, 0, 524321, 21, 0, 524322, 21, 0, 524323, 21, 0, 524324, 21, 0, 524325, 21, 0, 524326, 21, 0, 524327, 21, 0, 524328, 21, 0, 524329, 21, 0, 524330, 21, 0, 524331, 21, 0, 524332, 21, 0, 524333, 21, 0, 524334, 21, 0, 524335, 21, 0, 524336, 21, 0, 524337, 21, 0, 524338, 21, 0, 524339, 21, 0, 524340, 21, 0, 524341, 21, 0, 524342, 21, 0, 524343, 21, 0, 524344, 21, 0, 524345, 21, 0, 524346, 21, 0, 524347, 21, 0, 524348, 21, 0, 524349, 21, 0, 524350, 21, 0, 524351, 21, 0, 524352, 21, 0, 524353, 21, 0, 524354, 21, 0, 524355, 21, 0, 524356, 21, 0, 524357, 21, 0, 524358, 21, 0, 524359, 21, 0, 524360, 21, 0, 524361, 21, 0, 524362, 21, 0, 524363, 21, 0, 524364, 21, 0, 524365, 21, 0, 524366, 21, 0, 524367, 21, 0, 655287, 21, 0, 655288, 21, 0, 655289, 21, 0, 655290, 21, 0, 655291, 21, 0, 655292, 21, 0, 655293, 21, 0, 655294, 21, 0, 655295, 21, 0, 655296, 21, 0, 655297, 21, 0, 655298, 21, 0, 655299, 21, 0, 655300, 21, 0, 655301, 21, 0, 655302, 21, 0, 655303, 21, 0, 655304, 21, 0, 655305, 21, 0, 655306, 21, 0, 655307, 21, 0, 655308, 21, 0, 655309, 21, 0, 655310, 21, 0, 655311, 21, 0, 655312, 21, 0, 655313, 21, 0, 655314, 21, 0, 655315, 21, 0, 655316, 21, 0, 655317, 21, 0, 655318, 21, 0, 655319, 21, 0, 655320, 21, 0, 655321, 21, 0, 655322, 21, 0, 655323, 21, 0, 655324, 21, 0, 655325, 21, 0, 655326, 21, 0, 655327, 21, 0, 655328, 21, 0, 655329, 21, 0, 655330, 21, 0, 655331, 21, 0, 655332, 21, 0, 655333, 21, 0, 655334, 21, 0, 655335, 21, 0, 655336, 21, 0, 655337, 21, 0, 655338, 21, 0, 655339, 21, 0, 655340, 21, 0, 655341, 21, 0, 655342, 21, 0, 655343, 21, 0, 655344, 21, 0, 655345, 21, 0, 655346, 21, 0, 655347, 21, 0, 655348, 21, 0, 655349, 21, 0, 655350, 21, 0, 655351, 21, 0, 655352, 21, 0, 655353, 21, 0, 655354, 21, 0, 655355, 21, 0, 655356, 21, 0, 655357, 21, 0, 655358, 21, 0, 655359, 21, 0, 589824, 21, 0, 589825, 21, 0, 589826, 21, 0, 589827, 21, 0, 589828, 21, 0, 589829, 21, 0, 589830, 21, 0, 589831, 21, 0, 589832, 21, 0, 589833, 21, 0, 589834, 21, 0, 589835, 21, 0, 589836, 21, 0, 589837, 21, 0, 589838, 21, 0, 589839, 21, 0, 589840, 21, 0, 589841, 21, 0, 589842, 21, 0, 589843, 21, 0, 589844, 21, 0, 589845, 21, 0, 589846, 21, 0, 589847, 21, 0, 589848, 21, 0, 589849, 21, 0, 589850, 21, 0, 589851, 21, 0, 589852, 21, 0, 589853, 21, 0, 589854, 21, 0, 589855, 21, 0, 589856, 21, 0, 589857, 21, 0, 589858, 21, 0, 589859, 21, 0, 589860, 21, 0, 589861, 21, 0, 589862, 21, 0, 589863, 21, 0, 589864, 21, 0, 589865, 21, 0, 589866, 21, 0, 589867, 21, 0, 589868, 21, 0, 589869, 21, 0, 589870, 21, 0, 589871, 21, 0, 589872, 21, 0, 589873, 21, 0, 589874, 21, 0, 589875, 21, 0, 589876, 21, 0, 589877, 21, 0, 589878, 21, 0, 589879, 21, 0, 589880, 21, 0, 589881, 21, 0, 589882, 21, 0, 589883, 21, 0, 589884, 21, 0, 589885, 21, 0, 589886, 21, 0, 589887, 21, 0, 589888, 21, 0, 589889, 21, 0, 589890, 21, 0, 589891, 21, 0, 589892, 21, 0, 589893, 21, 0, 589894, 21, 0, 589895, 21, 0, 589896, 21, 0, 589897, 21, 0, 589898, 21, 0, 589899, 21, 0, 589900, 21, 0, 589901, 21, 0, 589902, 21, 0, 589903, 21, 0, 720823, 21, 0, 720824, 21, 0, 720825, 21, 0, 720826, 21, 0, 720827, 21, 0, 720828, 21, 0, 720829, 21, 0, 720830, 21, 0, 720831, 21, 0, 720832, 21, 0, 720833, 21, 0, 720834, 21, 0, 720835, 21, 0, 720836, 21, 0, 720837, 21, 0, 720838, 21, 0, 720839, 21, 0, 720840, 21, 0, 720841, 21, 0, 720842, 21, 0, 720843, 21, 0, 720844, 21, 0, 720845, 21, 0, 720846, 21, 0, 720847, 21, 0, 720848, 21, 0, 720849, 21, 0, 720850, 21, 0, 720851, 21, 0, 720852, 21, 0, 720853, 21, 0, 720854, 21, 0, 720855, 21, 0, 720856, 21, 0, 720857, 21, 0, 720858, 21, 0, 720859, 21, 0, 720860, 21, 0, 720861, 21, 0, 720862, 21, 0, 720863, 21, 0, 720864, 21, 0, 720865, 21, 0, 720866, 21, 0, 720867, 21, 0, 720868, 21, 0, 720869, 21, 0, 720870, 21, 0, 720871, 21, 0, 720872, 21, 0, 720873, 21, 0, 720874, 21, 0, 720875, 21, 0, 720876, 21, 0, 720877, 21, 0, 720878, 21, 0, 720879, 21, 0, 720880, 21, 0, 720881, 21, 0, 720882, 21, 0, 720883, 21, 0, 720884, 21, 0, 720885, 21, 0, 720886, 21, 0, 720887, 21, 0, 720888, 21, 0, 720889, 21, 0, 720890, 21, 0, 720891, 21, 0, 720892, 21, 0, 720893, 21, 0, 720894, 21, 0, 720895, 21, 0, 655360, 21, 0, 655361, 21, 0, 655362, 21, 0, 655363, 21, 0, 655364, 21, 0, 655365, 21, 0, 655366, 21, 0, 655367, 21, 0, 655368, 21, 0, 655369, 21, 0, 655370, 21, 0, 655371, 21, 0, 655372, 21, 0, 655373, 21, 0, 655374, 21, 0, 655375, 21, 0, 655376, 21, 0, 655377, 21, 0, 655378, 21, 0, 655379, 21, 0, 655380, 21, 0, 655381, 21, 0, 655382, 21, 0, 655383, 21, 0, 655384, 21, 0, 655385, 21, 0, 655386, 21, 0, 655387, 21, 0, 655388, 21, 0, 655389, 21, 0, 655390, 21, 0, 655391, 21, 0, 655392, 21, 0, 655393, 21, 0, 655394, 21, 0, 655395, 21, 0, 655396, 21, 0, 655397, 21, 0, 655398, 21, 0, 655399, 21, 0, 655400, 21, 0, 655401, 21, 0, 655402, 21, 0, 655403, 21, 0, 655404, 21, 0, 655405, 21, 0, 655406, 21, 0, 655407, 21, 0, 655408, 21, 0, 655409, 21, 0, 655410, 21, 0, 655411, 21, 0, 655412, 21, 0, 655413, 21, 0, 655414, 21, 0, 655415, 21, 0, 655416, 21, 0, 655417, 21, 0, 655418, 21, 0, 655419, 21, 0, 655420, 21, 0, 655421, 21, 0, 655422, 21, 0, 655423, 21, 0, 655424, 21, 0, 655425, 21, 0, 655426, 21, 0, 655427, 21, 0, 655428, 21, 0, 655429, 21, 0, 655430, 21, 0, 655431, 21, 0, 655432, 21, 0, 655433, 21, 0, 655434, 21, 0, 655435, 21, 0, 655436, 21, 0, 655437, 21, 0, 655438, 21, 0, 655439, 21, 0, 786359, 21, 0, 786360, 21, 0, 786361, 21, 0, 786362, 21, 0, 786363, 21, 0, 786364, 21, 0, 786365, 21, 0, 786366, 21, 0, 786367, 21, 0, 786368, 21, 0, 786369, 21, 0, 786370, 21, 0, 786371, 21, 0, 786372, 21, 0, 786373, 21, 0, 786374, 21, 0, 786375, 21, 0, 786376, 21, 0, 786377, 21, 0, 786378, 21, 0, 786379, 21, 0, 786380, 21, 0, 786381, 21, 0, 786382, 21, 0, 786383, 21, 0, 786384, 21, 0, 786385, 21, 0, 786386, 21, 0, 786387, 21, 0, 786388, 21, 0, 786389, 21, 0, 786390, 21, 0, 786391, 21, 0, 786392, 21, 0, 786393, 21, 0, 786394, 21, 0, 786395, 21, 0, 786396, 21, 0, 786397, 21, 0, 786398, 21, 0, 786399, 21, 0, 786400, 21, 0, 786401, 21, 0, 786402, 21, 0, 786403, 21, 0, 786404, 21, 0, 786405, 21, 0, 786406, 21, 0, 786407, 21, 0, 786408, 21, 0, 786409, 21, 0, 786410, 21, 0, 786411, 21, 0, 786412, 21, 0, 786413, 21, 0, 786414, 21, 0, 786415, 21, 0, 786416, 21, 0, 786417, 21, 0, 786418, 21, 0, 786419, 21, 0, 786420, 21, 0, 786421, 21, 0, 786422, 21, 0, 786423, 21, 0, 786424, 21, 0, 786425, 21, 0, 786426, 21, 0, 786427, 21, 0, 786428, 21, 0, 786429, 21, 0, 786430, 21, 0, 786431, 21, 0, 720896, 21, 0, 720897, 21, 0, 720898, 21, 0, 720899, 21, 0, 720900, 21, 0, 720901, 21, 0, 720902, 21, 0, 720903, 21, 0, 720904, 21, 0, 720905, 21, 0, 720906, 21, 0, 720907, 21, 0, 720908, 21, 0, 720909, 21, 0, 720910, 21, 0, 720911, 21, 0, 720912, 21, 0, 720913, 21, 0, 720914, 21, 0, 720915, 21, 0, 720916, 21, 0, 720917, 21, 0, 720918, 21, 0, 720919, 21, 0, 720920, 21, 0, 720921, 21, 0, 720922, 21, 0, 720923, 21, 0, 720924, 21, 0, 720925, 21, 0, 720926, 21, 0, 720927, 21, 0, 720928, 21, 0, 720929, 21, 0, 720930, 21, 0, 720931, 21, 0, 720932, 21, 0, 720933, 21, 0, 720934, 21, 0, 720935, 21, 0, 720936, 21, 0, 720937, 21, 0, 720938, 21, 0, 720939, 21, 0, 720940, 21, 0, 720941, 21, 0, 720942, 21, 0, 720943, 21, 0, 720944, 21, 0, 720945, 21, 0, 720946, 21, 0, 720947, 21, 0, 720948, 21, 0, 720949, 21, 0, 720950, 21, 0, 720951, 21, 0, 720952, 21, 0, 720953, 21, 0, 720954, 21, 0, 720955, 21, 0, 720956, 21, 0, 720957, 21, 0, 720958, 21, 0, 720959, 21, 0, 720960, 21, 0, 720961, 21, 0, 720962, 21, 0, 720963, 21, 0, 720964, 21, 0, 720965, 21, 0, 720966, 21, 0, 720967, 21, 0, 720968, 21, 0, 720969, 21, 0, 720970, 21, 0, 720971, 21, 0, 720972, 21, 0, 720973, 21, 0, 720974, 21, 0, 720975, 21, 0 )

[node name="DecoGroup" type="Node2D" parent="tilemap"]

[node name="TileMap" type="TileMap" parent="tilemap/DecoGroup"]
tile_set = ExtResource( 1 )
cell_size = Vector2( 32, 32 )
compatibility_mode = true
format = 1
tile_data = PoolIntArray( -1966144, 16, 0, -1966136, 16, 0, -1966121, 16, 0, -1966113, 16, 0, -1966092, 16, 0, -2031613, 17, 0, -2031600, 16, 0, -2031576, 17, 0, -2031562, 15, 0, -2031550, 17, 0, -1638443, 14, 0, -1638430, 13, 0, -1703926, 14, 0, -1703892, 14, 0, -1703865, 14, 0, -1507374, 17, 0, -1507364, 15, 0, -1507358, 17, 0, -1507343, 16, 0, -1507331, 16, 0, -1572850, 16, 0, -1572834, 15, 0, -1572827, 17, 0, -1572801, 16, 0, -1572798, 16, 0, -1179696, 13, 0, -1179674, 14, 0, -1179659, 14, 0, -1245178, 14, 0, -1245151, 13, 0, -1245136, 13, 0, -1048612, 16, 0, -1048601, 16, 0, -1048589, 17, 0, -1114105, 16, 0, -1114097, 16, 0, -1114089, 17, 0, -1114068, 16, 0, -1114054, 15, 0, -720941, 13, 0, -720915, 13, 0, -786425, 13, 0, -786406, 13, 0, -786373, 13, 0, -589869, 16, 0, -589852, 16, 0, -589834, 15, 0, -655350, 16, 0, -655333, 16, 0, -655326, 17, 0, -655299, 16, 0, -262170, 13, 0, -262151, 13, 0, -327662, 13, 0, -327635, 14, 0, -131117, 16, 0, -131101, 15, 0, -131094, 17, 0, -196608, 17, 0, -196594, 17, 0, -196590, 16, 0, -196571, 16, 0, -196556, 17, 0, -196547, 16, 0, 0, 131143, 0, 196562, 14, 0, 196583, 14, 0, 196594, 13, 0, 131087, 14, 0, 131116, 14, 0, 131132, 14, 0 )

[node name="ClimbableGroup" type="Node2D" parent="tilemap"]

[node name="ClimbableBlock" parent="tilemap/ClimbableGroup" instance=ExtResource( 2 )]
position = Vector2( 144, -336 )
physics_material_override = SubResource( 1 )

[node name="Sprite" parent="tilemap/ClimbableGroup/ClimbableBlock" index="0"]
texture = ExtResource( 3 )

[node name="ClimbableBlock6" parent="tilemap/ClimbableGroup" instance=ExtResource( 2 )]
position = Vector2( 2096, -560 )
physics_material_override = SubResource( 2 )

[node name="Sprite" parent="tilemap/ClimbableGroup/ClimbableBlock6" index="0"]
texture = ExtResource( 4 )

[node name="ClimbableBlock7" parent="tilemap/ClimbableGroup" instance=ExtResource( 2 )]
position = Vector2( 2096, -112 )
physics_material_override = SubResource( 3 )

[node name="Sprite" parent="tilemap/ClimbableGroup/ClimbableBlock7" index="0"]
texture = ExtResource( 4 )

[node name="ClimbableBlock1" parent="tilemap/ClimbableGroup" instance=ExtResource( 2 )]
position = Vector2( -112, -336 )
physics_material_override = SubResource( 4 )

[node name="Sprite" parent="tilemap/ClimbableGroup/ClimbableBlock1" index="0"]
texture = ExtResource( 4 )

[node name="ClimbableBlock2" parent="tilemap/ClimbableGroup" instance=ExtResource( 2 )]
position = Vector2( -1552, -112 )
physics_material_override = SubResource( 5 )

[node name="Sprite" parent="tilemap/ClimbableGroup/ClimbableBlock2" index="0"]
texture = ExtResource( 3 )

[node name="ClimbableBlock3" parent="tilemap/ClimbableGroup" instance=ExtResource( 2 )]
position = Vector2( -1552, -336 )
physics_material_override = SubResource( 6 )

[node name="Sprite" parent="tilemap/ClimbableGroup/ClimbableBlock3" index="0"]
texture = ExtResource( 3 )

[node name="ClimbableBlock4" parent="tilemap/ClimbableGroup" instance=ExtResource( 2 )]
position = Vector2( -1552, -560 )
physics_material_override = SubResource( 7 )

[node name="Sprite" parent="tilemap/ClimbableGroup/ClimbableBlock4" index="0"]
texture = ExtResource( 3 )

[node name="ClimbableBlock5" parent="tilemap/ClimbableGroup" instance=ExtResource( 2 )]
position = Vector2( -1552, -784 )
physics_material_override = SubResource( 8 )

[node name="Sprite" parent="tilemap/ClimbableGroup/ClimbableBlock5" index="0"]
texture = ExtResource( 3 )

[node name="PlatformGroup" type="Node2D" parent="tilemap"]

[node name="StaticBody2D" type="StaticBody2D" parent="tilemap/PlatformGroup"]
position = Vector2( 2080, 16 )

[node name="CollisionShape2D" type="CollisionShape2D" parent="tilemap/PlatformGroup/StaticBody2D"]
shape = SubResource( 9 )

[node name="Sprite" type="Sprite" parent="tilemap/PlatformGroup/StaticBody2D"]
texture = ExtResource( 5 )
offset = Vector2( 16, 0 )
region_enabled = true
region_rect = Rect2( 0, 0, 32, 160 )

[node name="Sprite1" type="Sprite" parent="tilemap/PlatformGroup/StaticBody2D"]
texture = ExtResource( 5 )
offset = Vector2( -16, 0 )
flip_h = true
region_enabled = true
region_rect = Rect2( 0, 0, 32, 160 )

[node name="SwitchGroup" type="Node2D" parent="tilemap"]

[node name="FloorSwitch" parent="tilemap/SwitchGroup" instance=ExtResource( 6 )]
position = Vector2( 2224, 96 )
once = true
is_on = true
target_nodes = [ "PlatformGroup/StaticBody2D" ]

[node name="PotGroup" type="Node2D" parent="tilemap"]

[node name="Pot" parent="tilemap/PotGroup" instance=ExtResource( 7 )]
position = Vector2( 1968, -400 )
type = "ITEM"
reward = "res://scenes/items/gold/gold.tscn"
value = 100

[node name="EnemiesGroup" type="Node2D" parent="tilemap"]

[node name="Orc" parent="tilemap/EnemiesGroup" instance=ExtResource( 8 )]
position = Vector2( 1840, -192 )

[node name="Orc2" parent="tilemap/EnemiesGroup" instance=ExtResource( 8 )]
position = Vector2( 1440, -192 )

[node name="Orc3" parent="tilemap/EnemiesGroup" instance=ExtResource( 8 )]
position = Vector2( 976, -192 )

[node name="Orc4" parent="tilemap/EnemiesGroup" instance=ExtResource( 8 )]
position = Vector2( 1728, -416 )

[node name="Orc5" parent="tilemap/EnemiesGroup" instance=ExtResource( 8 )]
position = Vector2( 1296, -416 )

[node name="Orc6" parent="tilemap/EnemiesGroup" instance=ExtResource( 8 )]
position = Vector2( 912, -416 )

[node name="Orc7" parent="tilemap/EnemiesGroup" instance=ExtResource( 8 )]
position = Vector2( 528, -416 )

[node name="Orc8" parent="tilemap/EnemiesGroup" instance=ExtResource( 8 )]
position = Vector2( 688, -416 )

[node name="Orc9" parent="tilemap/EnemiesGroup" instance=ExtResource( 8 )]
position = Vector2( -80, -192 )

[node name="Orc10" parent="tilemap/EnemiesGroup" instance=ExtResource( 8 )]
position = Vector2( -544, -192 )

[node name="Orc11" parent="tilemap/EnemiesGroup" instance=ExtResource( 8 )]
position = Vector2( -1008, -192 )

[node name="Orc12" parent="tilemap/EnemiesGroup" instance=ExtResource( 8 )]
position = Vector2( -1264, -192 )

[node name="Orc13" parent="tilemap/EnemiesGroup" instance=ExtResource( 8 )]
position = Vector2( -1280, -416 )

[node name="Orc14" parent="tilemap/EnemiesGroup" instance=ExtResource( 8 )]
position = Vector2( -736, -416 )

[node name="Orc15" parent="tilemap/EnemiesGroup" instance=ExtResource( 8 )]
position = Vector2( -512, -416 )

[node name="Lizardman24" parent="tilemap/EnemiesGroup" instance=ExtResource( 9 )]
position = Vector2( -1280, -640 )

[node name="Lizardman25" parent="tilemap/EnemiesGroup" instance=ExtResource( 9 )]
position = Vector2( -976, -640 )

[node name="Lizardman26" parent="tilemap/EnemiesGroup" instance=ExtResource( 9 )]
position = Vector2( -608, -640 )

[node name="Lizardman27" parent="tilemap/EnemiesGroup" instance=ExtResource( 9 )]
position = Vector2( -352, -640 )

[node name="Lizardman28" parent="tilemap/EnemiesGroup" instance=ExtResource( 9 )]
position = Vector2( 64, -640 )

[node name="Lizardman29" parent="tilemap/EnemiesGroup" instance=ExtResource( 9 )]
position = Vector2( 320, -640 )

[node name="Lizardman30" parent="tilemap/EnemiesGroup" instance=ExtResource( 9 )]
position = Vector2( 656, -640 )

[node name="Lizardman31" parent="tilemap/EnemiesGroup" instance=ExtResource( 9 )]
position = Vector2( 992, -640 )

[node name="Lizardman32" parent="tilemap/EnemiesGroup" instance=ExtResource( 9 )]
position = Vector2( 1280, -640 )

[node name="Lizardman33" parent="tilemap/EnemiesGroup" instance=ExtResource( 9 )]
position = Vector2( 1696, -640 )

[node name="MagicGroup" type="Node2D" parent="tilemap"]

[node name="ITEM_THUNDER" parent="tilemap/MagicGroup" instance=ExtResource( 10 )]
position = Vector2( 2224, 48 )

[node name="NPCGroup" type="Node2D" parent="tilemap"]

[node name="NPC" parent="tilemap/NPCGroup" instance=ExtResource( 11 )]
position = Vector2( 2224, -864 )
dialogues = [ [ -1, "CHARACTER_POTIONSMASTER", "DIAG_CAVE0", null, [ [ "KEY_YES", "shop", "SHOP_POTIONSMASTER0", true ], [ "KEY_NO", "end" ] ] ] ]

[node name="Sprite" parent="tilemap/NPCGroup/NPC" index="1"]
scale = Vector2( -1, 1 )

[node name="TeleportGroup" type="Node2D" parent="tilemap"]

[node name="Teleport" parent="tilemap/TeleportGroup" instance=ExtResource( 12 )]
position = Vector2( -2160, 16 )
target_level = "res://levels/cave/0-2.tscn"
teleport_to = Vector2( 684, -2288 )

[node name="teleport" parent="tilemap/TeleportGroup/Teleport" index="0"]
scale = Vector2( 1, 5 )

[node name="boundaries" type="Node2D" parent="tilemap"]

[node name="NW" type="Position2D" parent="tilemap/boundaries"]
position = Vector2( -2160, -1104 )

[node name="SE" type="Position2D" parent="tilemap/boundaries"]
position = Vector2( 2384, 240 )

[node name="Parallax" parent="." instance=ExtResource( 13 )]

[editable path="tilemap/ClimbableGroup/ClimbableBlock"]

[editable path="tilemap/ClimbableGroup/ClimbableBlock6"]

[editable path="tilemap/ClimbableGroup/ClimbableBlock7"]

[editable path="tilemap/ClimbableGroup/ClimbableBlock1"]

[editable path="tilemap/ClimbableGroup/ClimbableBlock2"]

[editable path="tilemap/ClimbableGroup/ClimbableBlock3"]

[editable path="tilemap/ClimbableGroup/ClimbableBlock4"]

[editable path="tilemap/ClimbableGroup/ClimbableBlock5"]

[editable path="tilemap/NPCGroup/NPC"]

[editable path="tilemap/TeleportGroup/Teleport"]
