[gd_scene load_steps=6 format=2]

[ext_resource path="res://scenes/common/switches/FloorSwitch.gd" type="Script" id=1]
[ext_resource path="res://scenes/common/switches/floorswitch.png" type="Texture" id=2]
[ext_resource path="res://scenes/common/switches/on.wav" type="AudioStream" id=3]
[ext_resource path="res://scenes/common/switches/off.wav" type="AudioStream" id=4]

[sub_resource type="RectangleShape2D" id=1]
extents = Vector2( 16, 16 )

[node name="FloorSwitch" type="Node2D"]
script = ExtResource( 1 )
__meta__ = {
"__editor_plugin_screen__": "2D"
}

[node name="enabler" type="VisibilityEnabler2D" parent="."]
scale = Vector2( 3, 3 )

[node name="Sprite" type="Sprite" parent="."]
texture = ExtResource( 2 )
offset = Vector2( 0, -16 )
hframes = 2
frame = 1

[node name="switch" type="Area2D" parent="."]

[node name="CollisionShape2D" type="CollisionShape2D" parent="switch"]
shape = SubResource( 1 )

[node name="sound" type="Node" parent="."]

[node name="on" type="AudioStreamPlayer" parent="sound"]
stream = ExtResource( 3 )

[node name="off" type="AudioStreamPlayer" parent="sound"]
stream = ExtResource( 4 )
