[gd_resource type="TileSet" load_steps=17 format=2]

[ext_resource path="res://scenes/icecave/BGs/floor.png" type="Texture" id=1]
[ext_resource path="res://scenes/icecave/BGs/cornerL.png" type="Texture" id=2]
[ext_resource path="res://scenes/icecave/BGs/wall.png" type="Texture" id=3]
[ext_resource path="res://scenes/icecave/BGs/icicle.png" type="Texture" id=4]
[ext_resource path="res://scenes/icecave/BGs/icicle1.png" type="Texture" id=5]
[ext_resource path="res://scenes/icecave/BGs/icicle2.png" type="Texture" id=6]
[ext_resource path="res://scenes/icecave/BGs/snow.png" type="Texture" id=7]
[ext_resource path="res://scenes/icecave/BGs/snow1.png" type="Texture" id=8]
[ext_resource path="res://scenes/icecave/BGs/snow2.png" type="Texture" id=9]
[ext_resource path="res://scenes/icecave/BGs/cornerR.png" type="Texture" id=10]
[ext_resource path="res://scenes/icecave/BGs/edge.png" type="Texture" id=11]
[ext_resource path="res://scenes/icecave/slopes/slopetile0-15.png" type="Texture" id=12]
[ext_resource path="res://scenes/icecave/slopes/slopetile0-31.png" type="Texture" id=13]
[ext_resource path="res://scenes/icecave/slopes/slopetile0-7.png" type="Texture" id=14]

[sub_resource type="RectangleShape2D" id=1]
extents = Vector2( 16, 16 )

[sub_resource type="ImageTexture" id=2]
size = Vector2( 32, 32 )

[resource]
0/name = "floor"
0/texture = ExtResource( 1 )
0/tex_offset = Vector2( 0, 0 )
0/modulate = Color( 1, 1, 1, 1 )
0/region = Rect2( 0, 0, 32, 32 )
0/tile_mode = 0
0/occluder_offset = Vector2( 16, 16 )
0/navigation_offset = Vector2( 16, 16 )
0/shapes = [ {
"autotile_coord": Vector2( 0, 0 ),
"one_way": false,
"one_way_margin": 1.0,
"shape": SubResource( 1 ),
"shape_transform": Transform2D( 1, 0, 0, 1, 16, 16 )
} ]
0/z_index = 0
1/name = "cornerL"
1/texture = ExtResource( 2 )
1/tex_offset = Vector2( 0, 0 )
1/modulate = Color( 1, 1, 1, 1 )
1/region = Rect2( 0, 0, 32, 32 )
1/tile_mode = 0
1/occluder_offset = Vector2( 16, 16 )
1/navigation_offset = Vector2( 16, 16 )
1/shapes = [ {
"autotile_coord": Vector2( 0, 0 ),
"one_way": false,
"one_way_margin": 1.0,
"shape": SubResource( 1 ),
"shape_transform": Transform2D( 1, 0, 0, 1, 16, 16 )
} ]
1/z_index = 0
2/name = "cornerR"
2/texture = ExtResource( 10 )
2/tex_offset = Vector2( 0, 0 )
2/modulate = Color( 1, 1, 1, 1 )
2/region = Rect2( 0, 0, 32, 32 )
2/tile_mode = 0
2/occluder_offset = Vector2( 16, 16 )
2/navigation_offset = Vector2( 16, 16 )
2/shapes = [ {
"autotile_coord": Vector2( 0, 0 ),
"one_way": false,
"one_way_margin": 1.0,
"shape": SubResource( 1 ),
"shape_transform": Transform2D( 1, 0, 0, 1, 16, 16 )
} ]
2/z_index = 0
3/name = "edge"
3/texture = ExtResource( 11 )
3/tex_offset = Vector2( 0, 0 )
3/modulate = Color( 1, 1, 1, 1 )
3/region = Rect2( 0, 0, 32, 32 )
3/tile_mode = 0
3/occluder_offset = Vector2( 16, 16 )
3/navigation_offset = Vector2( 16, 16 )
3/shapes = [ {
"autotile_coord": Vector2( 0, 0 ),
"one_way": false,
"one_way_margin": 1.0,
"shape": SubResource( 1 ),
"shape_transform": Transform2D( 1, 0, 0, 1, 16, 16 )
} ]
3/z_index = 0
4/name = "slopeAB"
4/texture = ExtResource( 12 )
4/tex_offset = Vector2( 0, 0 )
4/modulate = Color( 1, 1, 1, 1 )
4/region = Rect2( 0, 32, 32, 32 )
4/tile_mode = 0
4/occluder_offset = Vector2( 16, 16 )
4/navigation_offset = Vector2( 16, 16 )
4/shapes = [  ]
4/z_index = 0
5/name = "slopeAB2"
5/texture = ExtResource( 12 )
5/tex_offset = Vector2( 0, 0 )
5/modulate = Color( 1, 1, 1, 1 )
5/region = Rect2( 32, 32, 32, 32 )
5/tile_mode = 0
5/occluder_offset = Vector2( 16, 16 )
5/navigation_offset = Vector2( 16, 16 )
5/shapes = [  ]
5/z_index = 0
6/name = "slopeAB3"
6/texture = ExtResource( 13 )
6/tex_offset = Vector2( 0, 0 )
6/modulate = Color( 1, 1, 1, 1 )
6/region = Rect2( 0, 32, 32, 32 )
6/tile_mode = 0
6/occluder_offset = Vector2( 16, 16 )
6/navigation_offset = Vector2( 16, 16 )
6/shapes = [  ]
6/z_index = 0
7/name = "slopeAB4"
7/texture = ExtResource( 14 )
7/tex_offset = Vector2( 0, 0 )
7/modulate = Color( 1, 1, 1, 1 )
7/region = Rect2( 32, 32, 32, 32 )
7/tile_mode = 0
7/occluder_offset = Vector2( 16, 16 )
7/navigation_offset = Vector2( 16, 16 )
7/shapes = [  ]
7/z_index = 0
8/name = "slopeAB5"
8/texture = ExtResource( 14 )
8/tex_offset = Vector2( 0, 0 )
8/modulate = Color( 1, 1, 1, 1 )
8/region = Rect2( 64, 32, 32, 32 )
8/tile_mode = 0
8/occluder_offset = Vector2( 16, 16 )
8/navigation_offset = Vector2( 16, 16 )
8/shapes = [  ]
8/z_index = 0
9/name = "slopeAB6"
9/texture = ExtResource( 14 )
9/tex_offset = Vector2( 0, 0 )
9/modulate = Color( 1, 1, 1, 1 )
9/region = Rect2( 96, 32, 32, 32 )
9/tile_mode = 0
9/occluder_offset = Vector2( 16, 16 )
9/navigation_offset = Vector2( 16, 16 )
9/shapes = [  ]
9/z_index = 0
10/name = "floor_slope"
10/texture = ExtResource( 1 )
10/tex_offset = Vector2( 0, 0 )
10/modulate = Color( 1, 1, 1, 1 )
10/region = Rect2( 0, 0, 32, 32 )
10/tile_mode = 0
10/occluder_offset = Vector2( 16, 16 )
10/navigation_offset = Vector2( 16, 16 )
10/shapes = [  ]
10/z_index = 0
11/name = "wall"
11/texture = ExtResource( 3 )
11/tex_offset = Vector2( 0, 0 )
11/modulate = Color( 1, 1, 1, 1 )
11/region = Rect2( 0, 0, 32, 32 )
11/tile_mode = 0
11/occluder_offset = Vector2( 16, 16 )
11/navigation_offset = Vector2( 16, 16 )
11/shapes = [  ]
11/z_index = 0
12/name = "block"
12/texture = SubResource( 2 )
12/tex_offset = Vector2( 0, 0 )
12/modulate = Color( 1, 1, 1, 1 )
12/region = Rect2( 0, 0, 32, 32 )
12/tile_mode = 0
12/occluder_offset = Vector2( 16, 16 )
12/navigation_offset = Vector2( 16, 16 )
12/shapes = [ {
"autotile_coord": Vector2( 0, 0 ),
"one_way": false,
"one_way_margin": 1.0,
"shape": SubResource( 1 ),
"shape_transform": Transform2D( 1, 0, 0, 1, 16, 16 )
} ]
12/z_index = 0
13/name = "icicle"
13/texture = ExtResource( 4 )
13/tex_offset = Vector2( 0, 0 )
13/modulate = Color( 1, 1, 1, 1 )
13/region = Rect2( 0, 0, 32, 96 )
13/tile_mode = 0
13/occluder_offset = Vector2( 16, 48 )
13/navigation_offset = Vector2( 16, 48 )
13/shapes = [  ]
13/z_index = 0
14/name = "icicle2"
14/texture = ExtResource( 5 )
14/tex_offset = Vector2( 0, 0 )
14/modulate = Color( 1, 1, 1, 1 )
14/region = Rect2( 0, 0, 32, 96 )
14/tile_mode = 0
14/occluder_offset = Vector2( 16, 48 )
14/navigation_offset = Vector2( 16, 48 )
14/shapes = [  ]
14/z_index = 0
15/name = "icicle3"
15/texture = ExtResource( 6 )
15/tex_offset = Vector2( 0, 0 )
15/modulate = Color( 1, 1, 1, 1 )
15/region = Rect2( 0, 0, 32, 96 )
15/tile_mode = 0
15/occluder_offset = Vector2( 16, 48 )
15/navigation_offset = Vector2( 16, 48 )
15/shapes = [  ]
15/z_index = 0
16/name = "snow"
16/texture = ExtResource( 7 )
16/tex_offset = Vector2( 0, 0 )
16/modulate = Color( 1, 1, 1, 1 )
16/region = Rect2( 0, 0, 32, 64 )
16/tile_mode = 0
16/occluder_offset = Vector2( 16, 32 )
16/navigation_offset = Vector2( 16, 32 )
16/shapes = [  ]
16/z_index = 0
17/name = "snow2"
17/texture = ExtResource( 8 )
17/tex_offset = Vector2( 0, 0 )
17/modulate = Color( 1, 1, 1, 1 )
17/region = Rect2( 0, 0, 64, 64 )
17/tile_mode = 0
17/occluder_offset = Vector2( 32, 32 )
17/navigation_offset = Vector2( 32, 32 )
17/shapes = [  ]
17/z_index = 0
18/name = "snow3"
18/texture = ExtResource( 9 )
18/tex_offset = Vector2( 0, 0 )
18/modulate = Color( 1, 1, 1, 1 )
18/region = Rect2( 0, 0, 128, 64 )
18/tile_mode = 0
18/occluder_offset = Vector2( 64, 32 )
18/navigation_offset = Vector2( 64, 32 )
18/shapes = [  ]
18/z_index = 0
19/name = "icicle4"
19/texture = ExtResource( 4 )
19/tex_offset = Vector2( 0, 0 )
19/modulate = Color( 1, 1, 1, 1 )
19/region = Rect2( 0, 32, 32, 64 )
19/tile_mode = 0
19/occluder_offset = Vector2( 16, 32 )
19/navigation_offset = Vector2( 16, 32 )
19/shapes = [  ]
19/z_index = 0
20/name = "icicle5"
20/texture = ExtResource( 5 )
20/tex_offset = Vector2( 0, 0 )
20/modulate = Color( 1, 1, 1, 1 )
20/region = Rect2( 0, 32, 32, 64 )
20/tile_mode = 0
20/occluder_offset = Vector2( 16, 32 )
20/navigation_offset = Vector2( 16, 32 )
20/shapes = [  ]
20/z_index = 0
21/name = "icicle6"
21/texture = ExtResource( 6 )
21/tex_offset = Vector2( 0, 0 )
21/modulate = Color( 1, 1, 1, 1 )
21/region = Rect2( 0, 32, 32, 64 )
21/tile_mode = 0
21/occluder_offset = Vector2( 16, 32 )
21/navigation_offset = Vector2( 16, 32 )
21/shapes = [  ]
21/z_index = 0
22/name = "void"
22/texture = SubResource( 2 )
22/tex_offset = Vector2( 0, 0 )
22/modulate = Color( 1, 1, 1, 1 )
22/region = Rect2( 0, 0, 32, 32 )
22/tile_mode = 0
22/occluder_offset = Vector2( 16, 16 )
22/navigation_offset = Vector2( 16, 16 )
22/shapes = [  ]
22/z_index = 0
