[gd_scene load_steps=5 format=2]

[ext_resource path="res://gui/achievements/hunter/lizardman.png" type="Texture" id=1]
[ext_resource path="res://gui/achievements/hunter/demon.png" type="Texture" id=2]
[ext_resource path="res://gui/achievements/hunter/plant.png" type="Texture" id=3]
[ext_resource path="res://gui/achievements/hunter/orc.png" type="Texture" id=4]

[node name="contents" type="Control"]
margin_right = 576.0
margin_bottom = 406.0
rect_min_size = Vector2( 576, 336 )
size_flags_horizontal = 0
size_flags_vertical = 0
size_flags_stretch_ratio = 0.0
__meta__ = {
"_edit_use_anchors_": false
}

[node name="Sprite" type="TextureRect" parent="."]
margin_right = 256.0
margin_bottom = 170.0
texture = ExtResource( 1 )
__meta__ = {
"_edit_use_anchors_": false
}

[node name="Sprite2" type="TextureRect" parent="."]
margin_left = 320.0
margin_right = 576.0
margin_bottom = 119.0
texture = ExtResource( 3 )
__meta__ = {
"_edit_use_anchors_": false
}

[node name="Sprite3" type="TextureRect" parent="."]
margin_top = 209.0
margin_right = 256.0
margin_bottom = 386.0
texture = ExtResource( 4 )
__meta__ = {
"_edit_use_anchors_": false
}

[node name="Sprite4" type="TextureRect" parent="."]
margin_left = 320.0
margin_top = 144.0
margin_right = 576.0
margin_bottom = 406.0
texture = ExtResource( 2 )
__meta__ = {
"_edit_use_anchors_": false
}
