[gd_resource type="TileSet" load_steps=8 format=2]

[ext_resource path="res://scenes/catacombs/solids/skulls.png" type="Texture" id=1]
[ext_resource path="res://scenes/catacombs/solids/catacomb-clear.png" type="Texture" id=2]
[ext_resource path="res://scenes/catacombs/solids/web.png" type="Texture" id=3]
[ext_resource path="res://scenes/catacombs/solids/web2.png" type="Texture" id=4]
[ext_resource path="res://scenes/catacombs/solids/web3.png" type="Texture" id=5]
[ext_resource path="res://scenes/catacombs/solids/coffin-closed.png" type="Texture" id=6]
[ext_resource path="res://scenes/catacombs/solids/coffin.png" type="Texture" id=7]

[resource]
0/name = "skull"
0/texture = ExtResource( 1 )
0/tex_offset = Vector2( 0, 0 )
0/modulate = Color( 1, 1, 1, 1 )
0/region = Rect2( 0, 0, 128, 32 )
0/tile_mode = 0
0/occluder_offset = Vector2( 64, 16 )
0/navigation_offset = Vector2( 64, 16 )
0/shapes = [  ]
0/z_index = 0
1/name = "catacomb"
1/texture = ExtResource( 2 )
1/tex_offset = Vector2( 0, 0 )
1/modulate = Color( 1, 1, 1, 1 )
1/region = Rect2( 0, 0, 128, 64 )
1/tile_mode = 0
1/occluder_offset = Vector2( 64, 32 )
1/navigation_offset = Vector2( 64, 32 )
1/shapes = [  ]
1/z_index = 0
2/name = "web"
2/texture = ExtResource( 3 )
2/tex_offset = Vector2( 0, 0 )
2/modulate = Color( 1, 1, 1, 1 )
2/region = Rect2( 0, 0, 64, 32 )
2/tile_mode = 0
2/occluder_offset = Vector2( 32, 16 )
2/navigation_offset = Vector2( 32, 16 )
2/shapes = [  ]
2/z_index = 0
3/name = "web2"
3/texture = ExtResource( 4 )
3/tex_offset = Vector2( 0, 0 )
3/modulate = Color( 1, 1, 1, 1 )
3/region = Rect2( 0, 0, 64, 32 )
3/tile_mode = 0
3/occluder_offset = Vector2( 32, 16 )
3/navigation_offset = Vector2( 32, 16 )
3/shapes = [  ]
3/z_index = 0
4/name = "web3"
4/texture = ExtResource( 5 )
4/tex_offset = Vector2( 0, 0 )
4/modulate = Color( 1, 1, 1, 1 )
4/region = Rect2( 0, 0, 32, 32 )
4/tile_mode = 0
4/occluder_offset = Vector2( 16, 16 )
4/navigation_offset = Vector2( 16, 16 )
4/shapes = [  ]
4/z_index = 0
5/name = "coffin"
5/texture = ExtResource( 6 )
5/tex_offset = Vector2( 0, 0 )
5/modulate = Color( 1, 1, 1, 1 )
5/region = Rect2( 0, 0, 96, 160 )
5/tile_mode = 0
5/occluder_offset = Vector2( 48, 80 )
5/navigation_offset = Vector2( 48, 80 )
5/shapes = [  ]
5/z_index = 0
6/name = "coffin2"
6/texture = ExtResource( 7 )
6/tex_offset = Vector2( 0, 0 )
6/modulate = Color( 1, 1, 1, 1 )
6/region = Rect2( 0, 0, 128, 160 )
6/tile_mode = 0
6/occluder_offset = Vector2( 64, 80 )
6/navigation_offset = Vector2( 64, 80 )
6/shapes = [  ]
6/z_index = 0

