[gd_scene load_steps=3 format=2]

[ext_resource path="res://scenes/common/sunbeam-glow.png" type="Texture" id=1]
[ext_resource path="res://scenes/common/light.gd" type="Script" id=2]

[node name="WindowLight" type="Node2D"]

[node name="Light2D" type="Light2D" parent="."]
position = Vector2( 64, 111 )
scale = Vector2( 4, 5.5 )
texture = ExtResource( 1 )
shadow_enabled = true
script = ExtResource( 2 )
