[gd_scene load_steps=12 format=2]

[ext_resource path="res://scenes/crypt/tileset.tres" type="TileSet" id=1]
[ext_resource path="res://scenes/common/cryptFGtileset.tres" type="TileSet" id=2]
[ext_resource path="res://scenes/common/breakables/torch.tscn" type="PackedScene" id=3]
[ext_resource path="res://scenes/dungeon/ladder/ladder.tscn" type="PackedScene" id=4]
[ext_resource path="res://scenes/dungeon/ladder/laddertop.tscn" type="PackedScene" id=5]
[ext_resource path="res://scenes/common/switches/floorswitch.tscn" type="PackedScene" id=6]
[ext_resource path="res://scenes/common/switches/pullswitch.tscn" type="PackedScene" id=7]
[ext_resource path="res://scenes/common/breakables/pot.tscn" type="PackedScene" id=8]
[ext_resource path="res://scenes/common/damagables/skeleton/blackskeleton.tscn" type="PackedScene" id=9]
[ext_resource path="res://scenes/common/sunbeam.tscn" type="PackedScene" id=10]
[ext_resource path="res://scenes/common/teleport.tscn" type="PackedScene" id=11]

[node name="LVL_NOTITLE" type="Node2D"]
__meta__ = {
"__editor_plugin_screen__": "2D"
}

[node name="tilemap" type="TileMap" parent="."]
tile_set = ExtResource( 1 )
cell_size = Vector2( 32, 32 )
compatibility_mode = true
collision_layer = 524288
format = 1
tile_data = PoolIntArray( -1179666, 1610612737, 0, -1179665, 1073741824, 0, -1179664, 1073741824, 0, -1179663, 1073741824, 0, -1179662, 1073741824, 0, -1179661, 1073741824, 0, -1179660, 1073741824, 0, -1179659, 1073741824, 0, -1179658, 1073741824, 0, -1179657, 1073741824, 0, -1179656, 1073741824, 0, -1179655, 1073741824, 0, -1179654, 1073741824, 0, -1179653, 1073741824, 0, -1179652, 1073741824, 0, -1179651, 1073741824, 0, -1179650, 1073741824, 0, -1179649, 1073741824, 0, -1245184, 1073741824, 0, -1245183, 1073741824, 0, -1245182, 1073741824, 0, -1245181, 1073741824, 0, -1245180, 1073741824, 0, -1245179, 1073741824, 0, -1245178, 1073741824, 0, -1245177, 1073741824, 0, -1245176, 1073741824, 0, -1245175, 1073741824, 0, -1245174, 1073741824, 0, -1245173, 1073741824, 0, -1245172, 1073741824, 0, -1245171, 1073741824, 0, -1245170, 1073741824, 0, -1245169, 1073741824, 0, -1245168, 1073741824, 0, -1245167, 1073741824, 0, -1245166, 1073741824, 0, -1245165, 1073741824, 0, -1245164, 1073741824, 0, -1245163, 1073741824, 0, -1245162, 1073741825, 0, -1114130, 2, 0, -1114129, 3, 0, -1114128, 3, 0, -1114127, 3, 0, -1114126, 3, 0, -1114125, 3, 0, -1114124, 3, 0, -1114123, 3, 0, -1114122, 3, 0, -1114121, 3, 0, -1114120, 3, 0, -1114119, 3, 0, -1114118, 3, 0, -1114117, 3, 0, -1114116, 3, 0, -1114115, 3, 0, -1114114, 3, 0, -1114113, 3, 0, -1179648, 3, 0, -1179647, 3, 0, -1179646, 3, 0, -1179645, 3, 0, -1179644, 3, 0, -1179643, 3, 0, -1179642, 3, 0, -1179641, 3, 0, -1179640, 3, 0, -1179639, 3, 0, -1179638, 3, 0, -1179637, 3, 0, -1179636, 3, 0, -1179635, 3, 0, -1179634, 3, 0, -1179633, 3, 0, -1179632, 3, 0, -1179631, 3, 0, -1179630, 3, 0, -1179629, 3, 0, -1179628, 3, 0, -1179627, 3, 0, -1179626, 536870914, 0, -1048594, 2, 0, -1048593, 3, 0, -1048592, 3, 0, -1048591, 3, 0, -1048590, 3, 0, -1048589, 3, 0, -1048588, 3, 0, -1048587, 3, 0, -1048586, 3, 0, -1048585, 3, 0, -1048584, 3, 0, -1048583, 3, 0, -1048582, 3, 0, -1048581, 3, 0, -1048580, 3, 0, -1048579, 3, 0, -1048578, 3, 0, -1048577, 3, 0, -1114112, 3, 0, -1114111, 3, 0, -1114110, 3, 0, -1114109, 3, 0, -1114108, 3, 0, -1114107, 3, 0, -1114106, 3, 0, -1114105, 3, 0, -1114104, 3, 0, -1114103, 3, 0, -1114102, 3, 0, -1114101, 3, 0, -1114100, 3, 0, -1114099, 3, 0, -1114098, 3, 0, -1114097, 3, 0, -1114096, 3, 0, -1114095, 3, 0, -1114094, 3, 0, -1114093, 3, 0, -1114092, 3, 0, -1114091, 3, 0, -1114090, 536870914, 0, -983058, 2, 0, -983057, 3, 0, -983056, 3, 0, -983055, 3, 0, -983054, 3, 0, -983053, 3, 0, -983052, 3, 0, -983051, 3, 0, -983050, 3, 0, -983049, 3, 0, -983048, 3, 0, -983047, 3, 0, -983046, 3, 0, -983045, 3, 0, -983044, 3, 0, -983043, 3, 0, -983042, 3, 0, -983041, 3, 0, -1048576, 3, 0, -1048575, 3, 0, -1048574, 3, 0, -1048573, 3, 0, -1048572, 3, 0, -1048571, 3, 0, -1048570, 3, 0, -1048569, 3, 0, -1048568, 3, 0, -1048567, 3, 0, -1048566, 3, 0, -1048565, 3, 0, -1048564, 3, 0, -1048563, 3, 0, -1048562, 3, 0, -1048561, 3, 0, -1048560, 3, 0, -1048559, 3, 0, -1048558, 3, 0, -1048557, 3, 0, -1048556, 3, 0, -1048555, 3, 0, -1048554, 536870914, 0, -917522, 2, 0, -917521, 3, 0, -917520, 3, 0, -917519, 3, 0, -917518, 3, 0, -917517, 3, 0, -917516, 3, 0, -917515, 3, 0, -917514, 3, 0, -917513, 3, 0, -917512, 3, 0, -917511, 3, 0, -917510, 3, 0, -917509, 3, 0, -917508, 3, 0, -917507, 3, 0, -917506, 3, 0, -917505, 3, 0, -983040, 3, 0, -983039, 3, 0, -983038, 3, 0, -983037, 3, 0, -983036, 3, 0, -983035, 3, 0, -983034, 3, 0, -983033, 3, 0, -983032, 3, 0, -983031, 3, 0, -983030, 3, 0, -983029, 3, 0, -983028, 3, 0, -983027, 3, 0, -983026, 3, 0, -983025, 3, 0, -983024, 3, 0, -983023, 3, 0, -983022, 3, 0, -983021, 3, 0, -983020, 3, 0, -983019, 3, 0, -983018, 536870914, 0, -851986, 2, 0, -851985, 3, 0, -851984, 3, 0, -851983, 3, 0, -851982, 3, 0, -851981, 3, 0, -851980, 3, 0, -851979, 3, 0, -851978, 3, 0, -851977, 3, 0, -851976, 3, 0, -851975, 3, 0, -851974, 3, 0, -851973, 3, 0, -851972, 3, 0, -851971, 3, 0, -851970, 3, 0, -851969, 3, 0, -917504, 3, 0, -917503, 3, 0, -917502, 3, 0, -917501, 3, 0, -917500, 3, 0, -917499, 3, 0, -917498, 3, 0, -917497, 3, 0, -917496, 3, 0, -917495, 3, 0, -917494, 3, 0, -917493, 3, 0, -917492, 3, 0, -917491, 3, 0, -917490, 3, 0, -917489, 3, 0, -917488, 3, 0, -917487, 3, 0, -917486, 3, 0, -917485, 3, 0, -917484, 3, 0, -917483, 3, 0, -917482, 536870914, 0, -786450, 2, 0, -786449, 3, 0, -786448, 3, 0, -786447, 3, 0, -786446, 3, 0, -786445, 3, 0, -786444, 3, 0, -786443, 3, 0, -786442, 3, 0, -786441, 3, 0, -786440, 3, 0, -786439, 3, 0, -786438, 3, 0, -786437, 3, 0, -786436, 3, 0, -786435, 3, 0, -786434, 3, 0, -786433, 3, 0, -851968, 3, 0, -851967, 3, 0, -851966, 3, 0, -851965, 3, 0, -851964, 3, 0, -851963, 3, 0, -851962, 3, 0, -851961, 3, 0, -851960, 3, 0, -851959, 3, 0, -851958, 3, 0, -851957, 3, 0, -851956, 3, 0, -851955, 3, 0, -851954, 3, 0, -851953, 3, 0, -851952, 3, 0, -851951, 3, 0, -851950, 3, 0, -851949, 3, 0, -851948, 3, 0, -851947, 3, 0, -851946, 536870914, 0, -720914, 2, 0, -720913, 3, 0, -720912, 3, 0, -720911, 3, 0, -720910, 3, 0, -720909, 3, 0, -720908, 3, 0, -720907, 3, 0, -720906, 3, 0, -720905, 3, 0, -720904, 3, 0, -720903, 3, 0, -720902, 3, 0, -720901, 3, 0, -720900, 3, 0, -720899, 3, 0, -720898, 3, 0, -720897, 3, 0, -786432, 3, 0, -786431, 3, 0, -786430, 3, 0, -786429, 3, 0, -786428, 3, 0, -786427, 3, 0, -786426, 3, 0, -786425, 3, 0, -786424, 3, 0, -786423, 3, 0, -786422, 3, 0, -786421, 3, 0, -786420, 3, 0, -786419, 3, 0, -786418, 3, 0, -786417, 3, 0, -786416, 3, 0, -786415, 3, 0, -786414, 3, 0, -786413, 3, 0, -786412, 3, 0, -786411, 3, 0, -786410, 536870914, 0, -655378, 2, 0, -655377, 3, 0, -655376, 3, 0, -655375, 3, 0, -655374, 3, 0, -655373, 3, 0, -655372, 3, 0, -655371, 3, 0, -655370, 3, 0, -655369, 3, 0, -655368, 3, 0, -655367, 3, 0, -655366, 3, 0, -655365, 3, 0, -655364, 3, 0, -655363, 3, 0, -655362, 3, 0, -655361, 3, 0, -720896, 3, 0, -720895, 3, 0, -720894, 3, 0, -720893, 3, 0, -720892, 3, 0, -720891, 3, 0, -720890, 3, 0, -720889, 3, 0, -720888, 3, 0, -720887, 3, 0, -720886, 3, 0, -720885, 3, 0, -720884, 3, 0, -720883, 3, 0, -720882, 3, 0, -720881, 3, 0, -720880, 3, 0, -720879, 3, 0, -720878, 3, 0, -720877, 3, 0, -720876, 3, 0, -720875, 3, 0, -720874, 536870914, 0, -589842, 2, 0, -589841, 3, 0, -589840, 3, 0, -589839, 3, 0, -589838, 3, 0, -589837, 3, 0, -589836, 3, 0, -589835, 3, 0, -589834, 3, 0, -589833, 3, 0, -589832, 3, 0, -589831, 3, 0, -589830, 3, 0, -589829, 3, 0, -589828, 3, 0, -589827, 3, 0, -589826, 3, 0, -589825, 3, 0, -655360, 3, 0, -655359, 3, 0, -655358, 3, 0, -655357, 3, 0, -655356, 3, 0, -655355, 3, 0, -655354, 3, 0, -655353, 3, 0, -655352, 3, 0, -655351, 3, 0, -655350, 3, 0, -655349, 3, 0, -655348, 3, 0, -655347, 3, 0, -655346, 3, 0, -655345, 3, 0, -655344, 3, 0, -655343, 3, 0, -655342, 3, 0, -655341, 3, 0, -655340, 3, 0, -655339, 3, 0, -655338, 536870914, 0, -524306, 2, 0, -524305, 3, 0, -524304, 3, 0, -524303, 3, 0, -524302, 3, 0, -524301, 3, 0, -524300, 3, 0, -524299, 3, 0, -524298, 3, 0, -524297, 3, 0, -524296, 3, 0, -524295, 3, 0, -524294, 3, 0, -524293, 3, 0, -524292, 3, 0, -524291, 3, 0, -524290, 3, 0, -524289, 3, 0, -589824, 3, 0, -589823, 3, 0, -589822, 3, 0, -589821, 3, 0, -589820, 3, 0, -589819, 3, 0, -589818, 3, 0, -589817, 3, 0, -589816, 3, 0, -589815, 3, 0, -589814, 3, 0, -589813, 3, 0, -589812, 3, 0, -589811, 3, 0, -589810, 3, 0, -589809, 3, 0, -589808, 3, 0, -589807, 3, 0, -589806, 3, 0, -589805, 3, 0, -589804, 3, 0, -589803, 3, 0, -589802, 536870914, 0, -458770, 2, 0, -458769, 3, 0, -458768, 3, 0, -458767, 3, 0, -458766, 3, 0, -458765, 3, 0, -458764, 3, 0, -458763, 3, 0, -458762, 3, 0, -458761, 3, 0, -458760, 3, 0, -458759, 3, 0, -458758, 3, 0, -458757, 3, 0, -458756, 3, 0, -458755, 3, 0, -458754, 3, 0, -458753, 3, 0, -524288, 3, 0, -524287, 3, 0, -524286, 3, 0, -524285, 3, 0, -524284, 3, 0, -524283, 3, 0, -524282, 3, 0, -524281, 3, 0, -524280, 3, 0, -524279, 3, 0, -524278, 3, 0, -524277, 3, 0, -524276, 3, 0, -524275, 3, 0, -524274, 3, 0, -524273, 3, 0, -524272, 3, 0, -524271, 3, 0, -524270, 3, 0, -524269, 3, 0, -524268, 3, 0, -524267, 3, 0, -524266, 536870914, 0, -393234, 2, 0, -393233, 3, 0, -393232, 3, 0, -393231, 3, 0, -393230, 3, 0, -393229, 3, 0, -393228, 3, 0, -393227, 3, 0, -393226, 3, 0, -393225, 3, 0, -393224, 3, 0, -393223, 3, 0, -393222, 3, 0, -393221, 3, 0, -393220, 3, 0, -393219, 3, 0, -393218, 3, 0, -393217, 3, 0, -458752, 3, 0, -458751, 3, 0, -458750, 3, 0, -458749, 3, 0, -458748, 3, 0, -458747, 3, 0, -458746, 3, 0, -458745, 3, 0, -458744, 3, 0, -458743, 3, 0, -458742, 3, 0, -458741, 3, 0, -458740, 3, 0, -458739, 3, 0, -458738, 3, 0, -458737, 3, 0, -458736, 3, 0, -458735, 3, 0, -458734, 3, 0, -458733, 3, 0, -458732, 3, 0, -458731, 3, 0, -458730, 536870914, 0, -327698, 2, 0, -327697, 3, 0, -327696, 3, 0, -327695, 3, 0, -327694, 3, 0, -327693, 3, 0, -327692, 3, 0, -327691, 3, 0, -327690, 3, 0, -327689, 3, 0, -327688, 3, 0, -327687, 3, 0, -327686, 3, 0, -327685, 3, 0, -327684, 3, 0, -327683, 3, 0, -327682, 3, 0, -327681, 3, 0, -393216, 3, 0, -393215, 3, 0, -393214, 3, 0, -393213, 3, 0, -393212, 3, 0, -393211, 3, 0, -393210, 3, 0, -393209, 3, 0, -393208, 3, 0, -393207, 3, 0, -393206, 3, 0, -393205, 3, 0, -393204, 3, 0, -393203, 3, 0, -393202, 3, 0, -393201, 3, 0, -393200, 3, 0, -393199, 3, 0, -393198, 3, 0, -393197, 3, 0, -393196, 3, 0, -393195, 3, 0, -393194, 536870914, 0, -262162, 2, 0, -262161, 3, 0, -262160, 3, 0, -262159, 3, 0, -262158, 3, 0, -262157, 3, 0, -262156, 3, 0, -262155, 3, 0, -262154, 3, 0, -262153, 3, 0, -262152, 3, 0, -262151, 3, 0, -262150, 3, 0, -262149, 3, 0, -262148, 3, 0, -262147, 3, 0, -262146, 3, 0, -262145, 3, 0, -327680, 3, 0, -327679, 3, 0, -327678, 3, 0, -327677, 3, 0, -327676, 3, 0, -327675, 3, 0, -327674, 3, 0, -327673, 3, 0, -327672, 3, 0, -327671, 3, 0, -327670, 3, 0, -327669, 3, 0, -327668, 3, 0, -327667, 3, 0, -327666, 3, 0, -327665, 3, 0, -327664, 3, 0, -327663, 3, 0, -327662, 3, 0, -327661, 3, 0, -327660, 3, 0, -327659, 3, 0, -327658, 536870914, 0, -196626, 2, 0, -196625, 3, 0, -196624, 3, 0, -196623, 3, 0, -196622, 3, 0, -196621, 3, 0, -196620, 3, 0, -196619, 3, 0, -196618, 3, 0, -196617, 3, 0, -196616, 3, 0, -196615, 3, 0, -196614, 3, 0, -196613, 3, 0, -196612, 3, 0, -196611, 3, 0, -196610, 3, 0, -196609, 3, 0, -262144, 3, 0, -262143, 3, 0, -262142, 3, 0, -262141, 3, 0, -262140, 3, 0, -262139, 3, 0, -262138, 3, 0, -262137, 3, 0, -262136, 3, 0, -262135, 3, 0, -262134, 3, 0, -262133, 3, 0, -262132, 3, 0, -262131, 3, 0, -262130, 3, 0, -262129, 3, 0, -262128, 3, 0, -262127, 3, 0, -262126, 3, 0, -262125, 3, 0, -262124, 3, 0, -262123, 3, 0, -262122, 536870914, 0, -131090, 1073741825, 0, -131089, 3, 0, -131088, 3, 0, -131087, 3, 0, -131086, 3, 0, -131085, 3, 0, -131084, 3, 0, -131083, 3, 0, -131082, 3, 0, -131081, 3, 0, -131080, 3, 0, -131079, 3, 0, -131078, 3, 0, -131077, 3, 0, -131076, 3, 0, -131075, 3, 0, -131074, 3, 0, -131073, 3, 0, -196608, 3, 0, -196607, 3, 0, -196606, 3, 0, -196605, 3, 0, -196604, 3, 0, -196603, 3, 0, -196602, 3, 0, -196601, 3, 0, -196600, 3, 0, -196599, 3, 0, -196598, 3, 0, -196597, 3, 0, -196596, 3, 0, -196595, 3, 0, -196594, 3, 0, -196593, 3, 0, -196592, 3, 0, -196591, 3, 0, -196590, 3, 0, -196589, 3, 0, -196588, 3, 0, -196587, 3, 0, -196586, 536870914, 0, -65554, 3, 0, -65553, 3, 0, -65552, 3, 0, -65551, 3, 0, -65550, 3, 0, -65549, 3, 0, -65548, 3, 0, -65547, 3, 0, -65546, 3, 0, -65545, 3, 0, -65544, 3, 0, -65543, 3, 0, -65542, 3, 0, -65541, 3, 0, -65540, 3, 0, -65539, 3, 0, -65538, 3, 0, -65537, 3, 0, -131072, 3, 0, -131071, 3, 0, -131070, 3, 0, -131069, 3, 0, -131068, 3, 0, -131067, 3, 0, -131066, 3, 0, -131065, 3, 0, -131064, 3, 0, -131063, 3, 0, -131062, 3, 0, -131061, 3, 0, -131060, 3, 0, -131059, 3, 0, -131058, 3, 0, -131057, 3, 0, -131056, 3, 0, -131055, 3, 0, -131054, 3, 0, -131053, 3, 0, -131052, 3, 0, -131051, 3, 0, -131050, 536870914, 0, -18, 3, 0, -17, 3, 0, -16, 3, 0, -15, 3, 0, -14, 3, 0, -13, 3, 0, -12, 3, 0, -11, 3, 0, -10, 3, 0, -9, 3, 0, -8, 3, 0, -7, 3, 0, -6, 3, 0, -5, 3, 0, -4, 3, 0, -3, 3, 0, -2, 3, 0, -1, 3, 0, -65536, 3, 0, -65535, 3, 0, -65534, 3, 0, -65533, 3, 0, -65532, 3, 0, -65531, 3, 0, -65530, 3, 0, -65529, 3, 0, -65528, 3, 0, -65527, 3, 0, -65526, 3, 0, -65525, 3, 0, -65524, 3, 0, -65523, 3, 0, -65522, 3, 0, -65521, 3, 0, -65520, 3, 0, -65519, 3, 0, -65518, 3, 0, -65517, 3, 0, -65516, 3, 0, -65515, 3, 0, -65514, 536870914, 0, 65518, 3, 0, 65519, 3, 0, 65520, 3, 0, 65521, 3, 0, 65522, 3, 0, 65523, 3, 0, 65524, 3, 0, 65525, 3, 0, 65526, 3, 0, 65527, 3, 0, 65528, 3, 0, 65529, 3, 0, 65530, 3, 0, 65531, 3, 0, 65532, 3, 0, 65533, 3, 0, 65534, 3, 0, 65535, 3, 0, 0, 3, 0, 1, 3, 0, 2, 3, 0, 3, 3, 0, 4, 3, 0, 5, 3, 0, 6, 3, 0, 7, 3, 0, 8, 3, 0, 9, 3, 0, 10, 3, 0, 11, 3, 0, 12, 3, 0, 13, 3, 0, 14, 3, 0, 15, 3, 0, 16, 3, 0, 17, 3, 0, 18, 3, 0, 19, 3, 0, 20, 3, 0, 21, 3, 0, 22, 536870914, 0, 131054, 3, 0, 131055, 3, 0, 131056, 3, 0, 131057, 3, 0, 131058, 3, 0, 131059, 3, 0, 131060, 3, 0, 131061, 3, 0, 131062, 3, 0, 131063, 3, 0, 131064, 3, 0, 131065, 3, 0, 131066, 3, 0, 131067, 3, 0, 131068, 3, 0, 131069, 3, 0, 131070, 3, 0, 131071, 3, 0, 65536, 3, 0, 65537, 3, 0, 65538, 3, 0, 65539, 3, 0, 65540, 3, 0, 65541, 3, 0, 65542, 3, 0, 65543, 3, 0, 65544, 3, 0, 65545, 3, 0, 65546, 3, 0, 65547, 3, 0, 65548, 3, 0, 65549, 3, 0, 65550, 3, 0, 65551, 3, 0, 65552, 3, 0, 65553, 3, 0, 65554, 3, 0, 65555, 3, 0, 65556, 3, 0, 65557, 3, 0, 65558, 536870914, 0, 196590, 3, 0, 196591, 3, 0, 196592, 3, 0, 196593, 3, 0, 196594, 3, 0, 196595, 3, 0, 196596, 3, 0, 196597, 3, 0, 196598, 3, 0, 196599, 3, 0, 196600, 3, 0, 196601, 3, 0, 196602, 3, 0, 196603, 3, 0, 196604, 3, 0, 196605, 3, 0, 196606, 3, 0, 196607, 3, 0, 131072, 3, 0, 131073, 3, 0, 131074, 3, 0, 131075, 3, 0, 131076, 3, 0, 131077, 3, 0, 131078, 3, 0, 131079, 3, 0, 131080, 3, 0, 131081, 3, 0, 131082, 3, 0, 131083, 3, 0, 131084, 3, 0, 131085, 3, 0, 131086, 3, 0, 131087, 3, 0, 131088, 3, 0, 131089, 3, 0, 131090, 3, 0, 131091, 3, 0, 131092, 3, 0, 131093, 3, 0, 131094, 536870914, 0, 262126, 536870913, 0, 262127, 0, 0, 262128, 0, 0, 262129, 0, 0, 262130, 0, 0, 262131, 0, 0, 262132, 0, 0, 262133, 0, 0, 262134, 0, 0, 262135, 0, 0, 262136, 0, 0, 262137, 0, 0, 262138, 0, 0, 262139, 0, 0, 262140, 0, 0, 262141, 0, 0, 262142, 0, 0, 262143, 0, 0, 196608, 0, 0, 196609, 0, 0, 196610, 0, 0, 196611, 0, 0, 196612, 0, 0, 196613, 0, 0, 196614, 0, 0, 196615, 0, 0, 196616, 0, 0, 196617, 0, 0, 196618, 1, 0, 196619, 3, 0, 196620, 3, 0, 196621, 3, 0, 196622, 536870913, 0, 196623, 0, 0, 196624, 0, 0, 196625, 0, 0, 196626, 0, 0, 196627, 0, 0, 196628, 0, 0, 196629, 0, 0, 196630, 1, 0, 327662, 536870914, 0, 327663, 4, 0, 327664, 4, 0, 327665, 4, 0, 327666, 4, 0, 327667, 4, 0, 327668, 4, 0, 327669, 4, 0, 327670, 4, 0, 327671, 4, 0, 327672, 4, 0, 327673, 4, 0, 327674, 4, 0, 327675, 4, 0, 327676, 4, 0, 327677, 4, 0, 327678, 4, 0, 327679, 4, 0, 262144, 4, 0, 262145, 4, 0, 262146, 4, 0, 262147, 4, 0, 262148, 4, 0, 262149, 4, 0, 262150, 4, 0, 262151, 4, 0, 262152, 4, 0, 262153, 4, 0, 262154, 2, 0, 262155, 3, 0, 262156, 3, 0, 262157, 3, 0, 262158, 536870914, 0, 262159, 4, 0, 262160, 4, 0, 262161, 4, 0, 262162, 4, 0, 262163, 4, 0, 262164, 4, 0, 262165, 4, 0, 262166, 2, 0, 393198, 536870914, 0, 393199, 4, 0, 393200, 4, 0, 393201, 4, 0, 393202, 4, 0, 393203, 4, 0, 393204, 4, 0, 393205, 4, 0, 393206, 4, 0, 393207, 4, 0, 393208, 4, 0, 393209, 4, 0, 393210, 4, 0, 393211, 4, 0, 393212, 4, 0, 393213, 4, 0, 393214, 4, 0, 393215, 4, 0, 327680, 4, 0, 327681, 4, 0, 327682, 4, 0, 327683, 4, 0, 327684, 4, 0, 327685, 4, 0, 327686, 4, 0, 327687, 4, 0, 327688, 4, 0, 327689, 4, 0, 327690, 2, 0, 327691, 3, 0, 327692, 3, 0, 327693, 3, 0, 327694, 536870914, 0, 327695, 4, 0, 327696, 4, 0, 327697, 4, 0, 327698, 4, 0, 327699, 4, 0, 327700, 4, 0, 327701, 4, 0, 327702, 2, 0, 458734, 536870914, 0, 458735, 4, 0, 458736, 4, 0, 458737, 4, 0, 458738, 4, 0, 458739, 4, 0, 458740, 4, 0, 458741, 4, 0, 458742, 4, 0, 458743, 4, 0, 458744, 4, 0, 458745, 4, 0, 458746, 4, 0, 458747, 4, 0, 458748, 4, 0, 458749, 4, 0, 458750, 4, 0, 458751, 4, 0, 393216, 4, 0, 393217, 4, 0, 393218, 4, 0, 393219, 4, 0, 393220, 4, 0, 393221, 4, 0, 393222, 4, 0, 393223, 4, 0, 393224, 4, 0, 393225, 4, 0, 393226, 2, 0, 393227, 3, 0, 393228, 3, 0, 393229, 3, 0, 393230, 536870914, 0, 393231, 4, 0, 393232, 4, 0, 393233, 4, 0, 393234, 4, 0, 393235, 4, 0, 393236, 4, 0, 393237, 4, 0, 393238, 2, 0, 524270, 536870914, 0, 524271, 4, 0, 524272, 4, 0, 524273, 4, 0, 524274, 4, 0, 524275, 4, 0, 524276, 4, 0, 524277, 4, 0, 524278, 4, 0, 524279, 4, 0, 524280, 4, 0, 524281, 4, 0, 524282, 4, 0, 524283, 4, 0, 524284, 4, 0, 524285, 4, 0, 524286, 4, 0, 524287, 4, 0, 458752, 4, 0, 458753, 4, 0, 458754, 4, 0, 458755, 4, 0, 458756, 4, 0, 458757, 4, 0, 458758, 4, 0, 458759, 4, 0, 458760, 4, 0, 458761, 4, 0, 458762, 2, 0, 458763, 3, 0, 458764, 3, 0, 458765, 3, 0, 458766, 536870914, 0, 458767, 4, 0, 458768, 4, 0, 458769, 4, 0, 458770, 4, 0, 458771, 4, 0, 458772, 4, 0, 458773, 4, 0, 458774, 2, 0 )

[node name="DecoGroup" type="Node2D" parent="tilemap"]

[node name="TileMap" type="TileMap" parent="tilemap/DecoGroup"]
tile_set = ExtResource( 2 )
cell_size = Vector2( 32, 32 )
compatibility_mode = true
format = 1
tile_data = PoolIntArray( -1114126, 2, 0, -1114120, 3, 0, -1179646, 536870915, 0, -1179640, 4, 0, -1179633, 2, 0, -983055, 1, 0, -1048569, 1, 0, -851961, 1, 0, -720911, 1, 0, -589839, 1, 0, -393231, 1, 0, -327664, 1, 0, -65538, 536870918, 0, 196600, 0, 0, 131076, 536870912, 0, 131086, 0, 0, 536870912, 0, 0, 536870914, 0, 0 )

[node name="TorchGroup" type="Node2D" parent="tilemap"]

[node name="torch" parent="tilemap/TorchGroup" instance=ExtResource( 3 )]
position = Vector2( -416, -32 )

[node name="torch2" parent="tilemap/TorchGroup" instance=ExtResource( 3 )]
position = Vector2( 224, -32 )

[node name="LadderGroup" type="Node2D" parent="tilemap"]

[node name="TestLadder" parent="tilemap/LadderGroup" instance=ExtResource( 4 )]
position = Vector2( 400, 176 )

[node name="Sprite" parent="tilemap/LadderGroup/TestLadder/KinematicBody2D" index="0"]
region_rect = Rect2( 0, 0, 32, 160 )

[node name="ladder" parent="tilemap/LadderGroup/TestLadder/KinematicBody2D" index="1"]
scale = Vector2( 1, 5 )

[node name="TestLadder 2" parent="tilemap/LadderGroup" instance=ExtResource( 5 )]
position = Vector2( 400, 80 )

[node name="SwitchGroup" type="Node2D" parent="tilemap"]

[node name="FloorSwitch" parent="tilemap/SwitchGroup" instance=ExtResource( 6 )]
position = Vector2( 592, 96 )
target_nodes = [ "SunbeamGroup/Sunbeam" ]
enabled = false

[node name="PullSwitch" parent="tilemap/SwitchGroup" instance=ExtResource( 7 )]
position = Vector2( 592, -240 )
once = true
target_nodes = [ "EnemiesGroup/BlackSkeleton1", "EnemiesGroup/BlackSkeleton2", "EnemiesGroup/BlackSkeleton3" ]

[node name="PotGroup" type="Node2D" parent="tilemap"]

[node name="Pot" parent="tilemap/PotGroup" instance=ExtResource( 8 )]
position = Vector2( 592, 48 )
type = "SWITCH"
reward = "SwitchGroup/FloorSwitch"

[node name="Pot1" parent="tilemap/PotGroup" instance=ExtResource( 8 )]
position = Vector2( 128, 48 )

[node name="Pot2" parent="tilemap/PotGroup" instance=ExtResource( 8 )]
position = Vector2( -256, 48 )

[node name="EnemiesGroup" type="Node2D" parent="tilemap"]

[node name="BlackSkeleton" parent="tilemap/EnemiesGroup" instance=ExtResource( 9 )]
position = Vector2( -64, 48 )

[node name="BlackSkeleton1" parent="tilemap/EnemiesGroup" instance=ExtResource( 9 )]
position = Vector2( -256, 48 )

[node name="BlackSkeleton2" parent="tilemap/EnemiesGroup" instance=ExtResource( 9 )]
position = Vector2( 128, 48 )

[node name="BlackSkeleton3" parent="tilemap/EnemiesGroup" instance=ExtResource( 9 )]
position = Vector2( 256, 48 )

[node name="SunbeamGroup" type="Node2D" parent="tilemap"]

[node name="Sunbeam" parent="tilemap/SunbeamGroup" instance=ExtResource( 10 )]
position = Vector2( -64, -256 )

[node name="block" parent="tilemap/SunbeamGroup/Sunbeam" index="0"]
scale = Vector2( 8, 22 )

[node name="sunbeam" parent="tilemap/SunbeamGroup/Sunbeam" index="1"]
scale = Vector2( 8, 22 )

[node name="TeleportGroup" type="Node2D" parent="tilemap"]

[node name="Teleport" parent="tilemap/TeleportGroup" instance=ExtResource( 11 )]
position = Vector2( -592, 16 )
target_level = "res://levels/crypt/0-9.tscn"
teleport_to = Vector2( 812, 80 )

[node name="teleport" parent="tilemap/TeleportGroup/Teleport" index="0"]
scale = Vector2( 1, 5 )

[node name="Teleport1" parent="tilemap/TeleportGroup" instance=ExtResource( 11 )]
position = Vector2( 400, 272 )
is_horizontal = false
target_level = "res://levels/crypt/0-11.tscn"
teleport_to = Vector2( 784, -528 )

[node name="teleport" parent="tilemap/TeleportGroup/Teleport1" index="0"]
scale = Vector2( 3, 1 )

[node name="boundaries" type="Node2D" parent="tilemap"]

[node name="NW" type="Position2D" parent="tilemap/boundaries"]
position = Vector2( -582, -614 )

[node name="SE" type="Position2D" parent="tilemap/boundaries"]
position = Vector2( 746, 266 )

[editable path="tilemap/LadderGroup/TestLadder"]

[editable path="tilemap/SunbeamGroup/Sunbeam"]

[editable path="tilemap/TeleportGroup/Teleport"]

[editable path="tilemap/TeleportGroup/Teleport1"]
