[gd_scene load_steps=10 format=2]

[ext_resource path="res://scenes/crypt/tileset.tres" type="TileSet" id=1]
[ext_resource path="res://scenes/common/cryptFGtileset.tres" type="TileSet" id=2]
[ext_resource path="res://scenes/common/breakables/torch.tscn" type="PackedScene" id=3]
[ext_resource path="res://scenes/dungeon/ladder/ladder.tscn" type="PackedScene" id=4]
[ext_resource path="res://scenes/dungeon/ladder/laddertop.tscn" type="PackedScene" id=5]
[ext_resource path="res://scenes/common/damagables/spiketile.tscn" type="PackedScene" id=6]
[ext_resource path="res://scenes/common/damagables/skeleton/blackskeleton.tscn" type="PackedScene" id=7]
[ext_resource path="res://scenes/common/damagables/statues/statue2.tscn" type="PackedScene" id=8]
[ext_resource path="res://scenes/common/teleport.tscn" type="PackedScene" id=9]

[node name="LVL_NOTITLE" type="Node2D"]
__meta__ = {
"__editor_plugin_screen__": "2D"
}

[node name="tilemap" type="TileMap" parent="."]
tile_set = ExtResource( 1 )
cell_size = Vector2( 32, 32 )
compatibility_mode = true
collision_layer = 524288
format = 1
tile_data = PoolIntArray( -851993, 1610612737, 0, -851992, 1073741824, 0, -851991, 1073741824, 0, -851990, 1073741824, 0, -851989, 1073741824, 0, -851988, 1073741824, 0, -851987, 1073741824, 0, -851986, 1073741824, 0, -851985, 1073741824, 0, -851984, 1073741824, 0, -851983, 1073741824, 0, -851982, 1073741824, 0, -851981, 1073741824, 0, -851980, 1073741824, 0, -851979, 1073741824, 0, -851978, 1073741824, 0, -851977, 1073741824, 0, -851976, 1073741824, 0, -851975, 1073741824, 0, -851974, 1073741824, 0, -851973, 1073741824, 0, -851972, 1073741824, 0, -851971, 1073741824, 0, -851970, 1073741824, 0, -851969, 1073741824, 0, -917504, 1073741824, 0, -917503, 1073741824, 0, -917502, 1073741824, 0, -917501, 1073741824, 0, -917500, 1073741824, 0, -917499, 1073741824, 0, -917498, 1073741824, 0, -917497, 1073741824, 0, -917496, 1073741824, 0, -917495, 1073741824, 0, -917494, 1073741824, 0, -917493, 1073741824, 0, -917492, 1073741824, 0, -917491, 1073741824, 0, -917490, 1073741824, 0, -917489, 1073741824, 0, -917488, 1073741824, 0, -917487, 1073741824, 0, -917486, 1073741824, 0, -917485, 1073741824, 0, -917484, 1073741824, 0, -917483, 1073741824, 0, -917482, 1073741824, 0, -917481, 1073741824, 0, -917480, 1073741824, 0, -917479, 1073741824, 0, -917478, 1073741824, 0, -917477, 1073741824, 0, -917476, 1073741824, 0, -917475, 1073741824, 0, -917474, 1073741824, 0, -917473, 1073741824, 0, -917472, 1073741824, 0, -917471, 1073741824, 0, -917470, 1073741824, 0, -917469, 1073741824, 0, -917468, 1073741824, 0, -917467, 1073741824, 0, -917466, 1073741824, 0, -917465, 1073741824, 0, -917464, 1073741824, 0, -917463, 1073741824, 0, -917462, 1073741824, 0, -917461, 1073741824, 0, -917460, 1073741824, 0, -917459, 1073741824, 0, -917458, 1073741825, 0, -917457, 3, 0, -917456, 3, 0, -917455, 3, 0, -917454, 1610612737, 0, -917453, 1073741824, 0, -917452, 1073741824, 0, -917451, 1073741824, 0, -917450, 1073741824, 0, -917449, 1073741824, 0, -917448, 1073741824, 0, -917447, 1073741825, 0, -786457, 2, 0, -786456, 3, 0, -786455, 3, 0, -786454, 3, 0, -786453, 3, 0, -786452, 3, 0, -786451, 3, 0, -786450, 3, 0, -786449, 3, 0, -786448, 3, 0, -786447, 3, 0, -786446, 3, 0, -786445, 3, 0, -786444, 3, 0, -786443, 3, 0, -786442, 3, 0, -786441, 3, 0, -786440, 3, 0, -786439, 3, 0, -786438, 3, 0, -786437, 3, 0, -786436, 3, 0, -786435, 3, 0, -786434, 3, 0, -786433, 3, 0, -851968, 3, 0, -851967, 3, 0, -851966, 3, 0, -851965, 3, 0, -851964, 3, 0, -851963, 3, 0, -851962, 3, 0, -851961, 3, 0, -851960, 3, 0, -851959, 3, 0, -851958, 3, 0, -851957, 3, 0, -851956, 3, 0, -851955, 3, 0, -851954, 3, 0, -851953, 3, 0, -851952, 3, 0, -851951, 3, 0, -851950, 3, 0, -851949, 3, 0, -851948, 3, 0, -851947, 3, 0, -851946, 3, 0, -851945, 3, 0, -851944, 3, 0, -851943, 3, 0, -851942, 3, 0, -851941, 3, 0, -851940, 3, 0, -851939, 3, 0, -851938, 3, 0, -851937, 3, 0, -851936, 3, 0, -851935, 3, 0, -851934, 3, 0, -851933, 3, 0, -851932, 3, 0, -851931, 3, 0, -851930, 3, 0, -851929, 3, 0, -851928, 3, 0, -851927, 3, 0, -851926, 3, 0, -851925, 3, 0, -851924, 3, 0, -851923, 3, 0, -851922, 3, 0, -851921, 3, 0, -851920, 3, 0, -851919, 3, 0, -851918, 3, 0, -851917, 3, 0, -851916, 3, 0, -851915, 3, 0, -851914, 3, 0, -851913, 3, 0, -851912, 3, 0, -851911, 536870914, 0, -720921, 2, 0, -720920, 3, 0, -720919, 3, 0, -720918, 3, 0, -720917, 3, 0, -720916, 3, 0, -720915, 3, 0, -720914, 3, 0, -720913, 3, 0, -720912, 3, 0, -720911, 3, 0, -720910, 3, 0, -720909, 3, 0, -720908, 3, 0, -720907, 3, 0, -720906, 3, 0, -720905, 3, 0, -720904, 3, 0, -720903, 3, 0, -720902, 3, 0, -720901, 3, 0, -720900, 3, 0, -720899, 3, 0, -720898, 3, 0, -720897, 3, 0, -786432, 3, 0, -786431, 3, 0, -786430, 3, 0, -786429, 3, 0, -786428, 3, 0, -786427, 3, 0, -786426, 3, 0, -786425, 3, 0, -786424, 3, 0, -786423, 3, 0, -786422, 3, 0, -786421, 3, 0, -786420, 3, 0, -786419, 3, 0, -786418, 3, 0, -786417, 3, 0, -786416, 3, 0, -786415, 3, 0, -786414, 3, 0, -786413, 3, 0, -786412, 3, 0, -786411, 3, 0, -786410, 3, 0, -786409, 3, 0, -786408, 3, 0, -786407, 3, 0, -786406, 3, 0, -786405, 3, 0, -786404, 3, 0, -786403, 3, 0, -786402, 3, 0, -786401, 3, 0, -786400, 3, 0, -786399, 3, 0, -786398, 3, 0, -786397, 3, 0, -786396, 3, 0, -786395, 3, 0, -786394, 3, 0, -786393, 3, 0, -786392, 3, 0, -786391, 3, 0, -786390, 3, 0, -786389, 3, 0, -786388, 3, 0, -786387, 3, 0, -786386, 3, 0, -786385, 3, 0, -786384, 3, 0, -786383, 3, 0, -786382, 3, 0, -786381, 3, 0, -786380, 3, 0, -786379, 3, 0, -786378, 3, 0, -786377, 3, 0, -786376, 3, 0, -786375, 536870914, 0, -655385, 2, 0, -655384, 3, 0, -655383, 3, 0, -655382, 3, 0, -655381, 3, 0, -655380, 3, 0, -655379, 3, 0, -655378, 3, 0, -655377, 3, 0, -655376, 3, 0, -655375, 3, 0, -655374, 3, 0, -655373, 3, 0, -655372, 3, 0, -655371, 3, 0, -655370, 3, 0, -655369, 3, 0, -655368, 3, 0, -655367, 3, 0, -655366, 3, 0, -655365, 3, 0, -655364, 3, 0, -655363, 3, 0, -655362, 3, 0, -655361, 3, 0, -720896, 3, 0, -720895, 3, 0, -720894, 3, 0, -720893, 3, 0, -720892, 3, 0, -720891, 3, 0, -720890, 3, 0, -720889, 3, 0, -720888, 3, 0, -720887, 3, 0, -720886, 3, 0, -720885, 3, 0, -720884, 3, 0, -720883, 3, 0, -720882, 3, 0, -720881, 3, 0, -720880, 3, 0, -720879, 3, 0, -720878, 3, 0, -720877, 3, 0, -720876, 3, 0, -720875, 3, 0, -720874, 3, 0, -720873, 3, 0, -720872, 3, 0, -720871, 3, 0, -720870, 3, 0, -720869, 3, 0, -720868, 3, 0, -720867, 3, 0, -720866, 3, 0, -720865, 3, 0, -720864, 3, 0, -720863, 3, 0, -720862, 3, 0, -720861, 3, 0, -720860, 3, 0, -720859, 3, 0, -720858, 3, 0, -720857, 3, 0, -720856, 3, 0, -720855, 3, 0, -720854, 3, 0, -720853, 3, 0, -720852, 3, 0, -720851, 3, 0, -720850, 3, 0, -720849, 3, 0, -720848, 3, 0, -720847, 3, 0, -720846, 3, 0, -720845, 3, 0, -720844, 3, 0, -720843, 3, 0, -720842, 3, 0, -720841, 3, 0, -720840, 3, 0, -720839, 536870914, 0, -589849, 2, 0, -589848, 3, 0, -589847, 3, 0, -589846, 3, 0, -589845, 3, 0, -589844, 3, 0, -589843, 3, 0, -589842, 3, 0, -589841, 3, 0, -589840, 3, 0, -589839, 3, 0, -589838, 3, 0, -589837, 3, 0, -589836, 3, 0, -589835, 3, 0, -589834, 3, 0, -589833, 3, 0, -589832, 3, 0, -589831, 3, 0, -589830, 3, 0, -589829, 3, 0, -589828, 3, 0, -589827, 3, 0, -589826, 3, 0, -589825, 3, 0, -655360, 3, 0, -655359, 3, 0, -655358, 3, 0, -655357, 3, 0, -655356, 3, 0, -655355, 3, 0, -655354, 3, 0, -655353, 3, 0, -655352, 3, 0, -655351, 3, 0, -655350, 3, 0, -655349, 3, 0, -655348, 3, 0, -655347, 3, 0, -655346, 3, 0, -655345, 3, 0, -655344, 3, 0, -655343, 3, 0, -655342, 3, 0, -655341, 3, 0, -655340, 3, 0, -655339, 3, 0, -655338, 3, 0, -655337, 3, 0, -655336, 3, 0, -655335, 3, 0, -655334, 3, 0, -655333, 3, 0, -655332, 3, 0, -655331, 3, 0, -655330, 3, 0, -655329, 3, 0, -655328, 3, 0, -655327, 3, 0, -655326, 3, 0, -655325, 3, 0, -655324, 3, 0, -655323, 3, 0, -655322, 3, 0, -655321, 3, 0, -655320, 3, 0, -655319, 3, 0, -655318, 3, 0, -655317, 3, 0, -655316, 3, 0, -655315, 3, 0, -655314, 3, 0, -655313, 3, 0, -655312, 3, 0, -655311, 3, 0, -655310, 3, 0, -655309, 3, 0, -655308, 3, 0, -655307, 3, 0, -655306, 3, 0, -655305, 3, 0, -655304, 3, 0, -655303, 536870914, 0, -524313, 2, 0, -524312, 3, 0, -524311, 3, 0, -524310, 3, 0, -524309, 3, 0, -524308, 3, 0, -524307, 3, 0, -524306, 3, 0, -524305, 3, 0, -524304, 3, 0, -524303, 3, 0, -524302, 3, 0, -524301, 3, 0, -524300, 3, 0, -524299, 3, 0, -524298, 3, 0, -524297, 3, 0, -524296, 3, 0, -524295, 3, 0, -524294, 3, 0, -524293, 3, 0, -524292, 3, 0, -524291, 3, 0, -524290, 3, 0, -524289, 3, 0, -589824, 3, 0, -589823, 3, 0, -589822, 3, 0, -589821, 3, 0, -589820, 3, 0, -589819, 3, 0, -589818, 3, 0, -589817, 3, 0, -589816, 3, 0, -589815, 3, 0, -589814, 3, 0, -589813, 3, 0, -589812, 3, 0, -589811, 3, 0, -589810, 3, 0, -589809, 3, 0, -589808, 3, 0, -589807, 3, 0, -589806, 3, 0, -589805, 3, 0, -589804, 3, 0, -589803, 3, 0, -589802, 3, 0, -589801, 3, 0, -589800, 3, 0, -589799, 3, 0, -589798, 3, 0, -589797, 3, 0, -589796, 3, 0, -589795, 3, 0, -589794, 3, 0, -589793, 3, 0, -589792, 3, 0, -589791, 3, 0, -589790, 3, 0, -589789, 3, 0, -589788, 3, 0, -589787, 3, 0, -589786, 3, 0, -589785, 3, 0, -589784, 3, 0, -589783, 3, 0, -589782, 3, 0, -589781, 3, 0, -589780, 3, 0, -589779, 3, 0, -589778, 3, 0, -589777, 3, 0, -589776, 3, 0, -589775, 3, 0, -589774, 3, 0, -589773, 3, 0, -589772, 3, 0, -589771, 3, 0, -589770, 3, 0, -589769, 3, 0, -589768, 3, 0, -589767, 536870914, 0, -458777, 2, 0, -458776, 3, 0, -458775, 3, 0, -458774, 3, 0, -458773, 3, 0, -458772, 3, 0, -458771, 3, 0, -458770, 3, 0, -458769, 3, 0, -458768, 3, 0, -458767, 3, 0, -458766, 3, 0, -458765, 3, 0, -458764, 3, 0, -458763, 3, 0, -458762, 3, 0, -458761, 3, 0, -458760, 3, 0, -458759, 3, 0, -458758, 3, 0, -458757, 3, 0, -458756, 3, 0, -458755, 3, 0, -458754, 3, 0, -458753, 3, 0, -524288, 3, 0, -524287, 3, 0, -524286, 3, 0, -524285, 3, 0, -524284, 3, 0, -524283, 3, 0, -524282, 3, 0, -524281, 3, 0, -524280, 3, 0, -524279, 3, 0, -524278, 3, 0, -524277, 3, 0, -524276, 3, 0, -524275, 3, 0, -524274, 3, 0, -524273, 3, 0, -524272, 3, 0, -524271, 3, 0, -524270, 3, 0, -524269, 3, 0, -524268, 3, 0, -524267, 3, 0, -524266, 3, 0, -524265, 3, 0, -524264, 3, 0, -524263, 3, 0, -524262, 3, 0, -524261, 3, 0, -524260, 3, 0, -524259, 3, 0, -524258, 3, 0, -524257, 3, 0, -524256, 3, 0, -524255, 3, 0, -524254, 3, 0, -524253, 3, 0, -524252, 3, 0, -524251, 3, 0, -524250, 3, 0, -524249, 3, 0, -524248, 3, 0, -524247, 3, 0, -524246, 3, 0, -524245, 3, 0, -524244, 3, 0, -524243, 3, 0, -524242, 3, 0, -524241, 3, 0, -524240, 3, 0, -524239, 3, 0, -524238, 3, 0, -524237, 3, 0, -524236, 3, 0, -524235, 3, 0, -524234, 3, 0, -524233, 3, 0, -524232, 3, 0, -524231, 536870914, 0, -393241, 2, 0, -393240, 3, 0, -393239, 3, 0, -393238, 3, 0, -393237, 3, 0, -393236, 3, 0, -393235, 3, 0, -393234, 3, 0, -393233, 3, 0, -393232, 3, 0, -393231, 3, 0, -393230, 3, 0, -393229, 3, 0, -393228, 3, 0, -393227, 3, 0, -393226, 3, 0, -393225, 3, 0, -393224, 3, 0, -393223, 3, 0, -393222, 3, 0, -393221, 3, 0, -393220, 3, 0, -393219, 3, 0, -393218, 3, 0, -393217, 3, 0, -458752, 3, 0, -458751, 3, 0, -458750, 3, 0, -458749, 3, 0, -458748, 3, 0, -458747, 3, 0, -458746, 3, 0, -458745, 3, 0, -458744, 3, 0, -458743, 3, 0, -458742, 3, 0, -458741, 3, 0, -458740, 3, 0, -458739, 3, 0, -458738, 3, 0, -458737, 3, 0, -458736, 3, 0, -458735, 3, 0, -458734, 3, 0, -458733, 3, 0, -458732, 3, 0, -458731, 3, 0, -458730, 3, 0, -458729, 3, 0, -458728, 3, 0, -458727, 3, 0, -458726, 3, 0, -458725, 3, 0, -458724, 3, 0, -458723, 3, 0, -458722, 3, 0, -458721, 3, 0, -458720, 3, 0, -458719, 3, 0, -458718, 3, 0, -458717, 3, 0, -458716, 3, 0, -458715, 3, 0, -458714, 3, 0, -458713, 3, 0, -458712, 3, 0, -458711, 3, 0, -458710, 3, 0, -458709, 3, 0, -458708, 3, 0, -458707, 3, 0, -458706, 3, 0, -458705, 3, 0, -458704, 3, 0, -458703, 3, 0, -458702, 3, 0, -458701, 3, 0, -458700, 3, 0, -458699, 3, 0, -458698, 3, 0, -458697, 3, 0, -458696, 3, 0, -458695, 536870914, 0, -327705, 2, 0, -327704, 3, 0, -327703, 3, 0, -327702, 3, 0, -327701, 3, 0, -327700, 3, 0, -327699, 3, 0, -327698, 3, 0, -327697, 3, 0, -327696, 3, 0, -327695, 3, 0, -327694, 3, 0, -327693, 3, 0, -327692, 3, 0, -327691, 3, 0, -327690, 3, 0, -327689, 3, 0, -327688, 3, 0, -327687, 3, 0, -327686, 3, 0, -327685, 3, 0, -327684, 3, 0, -327683, 3, 0, -327682, 3, 0, -327681, 3, 0, -393216, 3, 0, -393215, 3, 0, -393214, 3, 0, -393213, 3, 0, -393212, 3, 0, -393211, 3, 0, -393210, 3, 0, -393209, 3, 0, -393208, 3, 0, -393207, 3, 0, -393206, 3, 0, -393205, 3, 0, -393204, 3, 0, -393203, 3, 0, -393202, 3, 0, -393201, 3, 0, -393200, 3, 0, -393199, 3, 0, -393198, 3, 0, -393197, 3, 0, -393196, 3, 0, -393195, 3, 0, -393194, 3, 0, -393193, 3, 0, -393192, 3, 0, -393191, 3, 0, -393190, 3, 0, -393189, 3, 0, -393188, 3, 0, -393187, 3, 0, -393186, 3, 0, -393185, 3, 0, -393184, 3, 0, -393183, 3, 0, -393182, 3, 0, -393181, 3, 0, -393180, 3, 0, -393179, 3, 0, -393178, 3, 0, -393177, 3, 0, -393176, 3, 0, -393175, 3, 0, -393174, 3, 0, -393173, 3, 0, -393172, 3, 0, -393171, 3, 0, -393170, 3, 0, -393169, 3, 0, -393168, 3, 0, -393167, 3, 0, -393166, 3, 0, -393165, 3, 0, -393164, 3, 0, -393163, 3, 0, -393162, 3, 0, -393161, 3, 0, -393160, 3, 0, -393159, 536870914, 0, -262169, 2, 0, -262168, 3, 0, -262167, 3, 0, -262166, 3, 0, -262165, 3, 0, -262164, 3, 0, -262163, 3, 0, -262162, 3, 0, -262161, 3, 0, -262160, 3, 0, -262159, 3, 0, -262158, 3, 0, -262157, 3, 0, -262156, 3, 0, -262155, 3, 0, -262154, 3, 0, -262153, 3, 0, -262152, 3, 0, -262151, 3, 0, -262150, 3, 0, -262149, 3, 0, -262148, 3, 0, -262147, 3, 0, -262146, 3, 0, -262145, 3, 0, -327680, 3, 0, -327679, 3, 0, -327678, 3, 0, -327677, 3, 0, -327676, 3, 0, -327675, 3, 0, -327674, 3, 0, -327673, 3, 0, -327672, 3, 0, -327671, 3, 0, -327670, 3, 0, -327669, 3, 0, -327668, 3, 0, -327667, 3, 0, -327666, 3, 0, -327665, 3, 0, -327664, 3, 0, -327663, 3, 0, -327662, 3, 0, -327661, 3, 0, -327660, 3, 0, -327659, 3, 0, -327658, 3, 0, -327657, 3, 0, -327656, 3, 0, -327655, 3, 0, -327654, 3, 0, -327653, 3, 0, -327652, 3, 0, -327651, 3, 0, -327650, 3, 0, -327649, 3, 0, -327648, 3, 0, -327647, 3, 0, -327646, 3, 0, -327645, 3, 0, -327644, 3, 0, -327643, 3, 0, -327642, 3, 0, -327641, 3, 0, -327640, 3, 0, -327639, 3, 0, -327638, 3, 0, -327637, 3, 0, -327636, 3, 0, -327635, 3, 0, -327634, 3, 0, -327633, 3, 0, -327632, 3, 0, -327631, 3, 0, -327630, 3, 0, -327629, 3, 0, -327628, 3, 0, -327627, 3, 0, -327626, 3, 0, -327625, 3, 0, -327624, 3, 0, -327623, 536870914, 0, -196633, 2, 0, -196632, 3, 0, -196631, 3, 0, -196630, 3, 0, -196629, 3, 0, -196628, 3, 0, -196627, 3, 0, -196626, 3, 0, -196625, 3, 0, -196624, 3, 0, -196623, 3, 0, -196622, 3, 0, -196621, 3, 0, -196620, 3, 0, -196619, 3, 0, -196618, 3, 0, -196617, 3, 0, -196616, 3, 0, -196615, 3, 0, -196614, 3, 0, -196613, 3, 0, -196612, 3, 0, -196611, 3, 0, -196610, 3, 0, -196609, 3, 0, -262144, 3, 0, -262143, 3, 0, -262142, 3, 0, -262141, 3, 0, -262140, 3, 0, -262139, 3, 0, -262138, 3, 0, -262137, 3, 0, -262136, 3, 0, -262135, 3, 0, -262134, 3, 0, -262133, 3, 0, -262132, 3, 0, -262131, 3, 0, -262130, 3, 0, -262129, 3, 0, -262128, 3, 0, -262127, 3, 0, -262126, 3, 0, -262125, 3, 0, -262124, 3, 0, -262123, 3, 0, -262122, 3, 0, -262121, 3, 0, -262120, 3, 0, -262119, 3, 0, -262118, 3, 0, -262117, 3, 0, -262116, 3, 0, -262115, 3, 0, -262114, 3, 0, -262113, 3, 0, -262112, 3, 0, -262111, 3, 0, -262110, 3, 0, -262109, 3, 0, -262108, 3, 0, -262107, 3, 0, -262106, 3, 0, -262105, 3, 0, -262104, 3, 0, -262103, 3, 0, -262102, 3, 0, -262101, 3, 0, -262100, 3, 0, -262099, 3, 0, -262098, 3, 0, -262097, 3, 0, -262096, 3, 0, -262095, 3, 0, -262094, 3, 0, -262093, 3, 0, -262092, 3, 0, -262091, 3, 0, -262090, 3, 0, -262089, 3, 0, -262088, 3, 0, -262087, 536870914, 0, -131097, 2, 0, -131096, 3, 0, -131095, 3, 0, -131094, 3, 0, -131093, 3, 0, -131092, 3, 0, -131091, 3, 0, -131090, 3, 0, -131089, 3, 0, -131088, 3, 0, -131087, 3, 0, -131086, 3, 0, -131085, 3, 0, -131084, 3, 0, -131083, 3, 0, -131082, 3, 0, -131081, 3, 0, -131080, 3, 0, -131079, 3, 0, -131078, 3, 0, -131077, 3, 0, -131076, 3, 0, -131075, 3, 0, -131074, 3, 0, -131073, 3, 0, -196608, 3, 0, -196607, 3, 0, -196606, 3, 0, -196605, 3, 0, -196604, 3, 0, -196603, 3, 0, -196602, 3, 0, -196601, 3, 0, -196600, 3, 0, -196599, 3, 0, -196598, 3, 0, -196597, 3, 0, -196596, 3, 0, -196595, 3, 0, -196594, 3, 0, -196593, 3, 0, -196592, 3, 0, -196591, 3, 0, -196590, 3, 0, -196589, 3, 0, -196588, 3, 0, -196587, 3, 0, -196586, 3, 0, -196585, 3, 0, -196584, 3, 0, -196583, 3, 0, -196582, 3, 0, -196581, 3, 0, -196580, 3, 0, -196579, 3, 0, -196578, 3, 0, -196577, 3, 0, -196576, 3, 0, -196575, 3, 0, -196574, 3, 0, -196573, 3, 0, -196572, 3, 0, -196571, 3, 0, -196570, 3, 0, -196569, 3, 0, -196568, 3, 0, -196567, 3, 0, -196566, 3, 0, -196565, 3, 0, -196564, 3, 0, -196563, 3, 0, -196562, 3, 0, -196561, 3, 0, -196560, 3, 0, -196559, 3, 0, -196558, 3, 0, -196557, 3, 0, -196556, 3, 0, -196555, 3, 0, -196554, 3, 0, -196553, 3, 0, -196552, 3, 0, -196551, 536870914, 0, -65561, 2, 0, -65560, 3, 0, -65559, 3, 0, -65558, 3, 0, -65557, 3, 0, -65556, 3, 0, -65555, 3, 0, -65554, 3, 0, -65553, 3, 0, -65552, 3, 0, -65551, 3, 0, -65550, 3, 0, -65549, 3, 0, -65548, 3, 0, -65547, 3, 0, -65546, 3, 0, -65545, 3, 0, -65544, 3, 0, -65543, 3, 0, -65542, 3, 0, -65541, 3, 0, -65540, 3, 0, -65539, 3, 0, -65538, 3, 0, -65537, 3, 0, -131072, 3, 0, -131071, 3, 0, -131070, 3, 0, -131069, 3, 0, -131068, 3, 0, -131067, 3, 0, -131066, 3, 0, -131065, 3, 0, -131064, 3, 0, -131063, 3, 0, -131062, 3, 0, -131061, 3, 0, -131060, 3, 0, -131059, 3, 0, -131058, 3, 0, -131057, 3, 0, -131056, 3, 0, -131055, 3, 0, -131054, 3, 0, -131053, 3, 0, -131052, 3, 0, -131051, 3, 0, -131050, 3, 0, -131049, 3, 0, -131048, 3, 0, -131047, 3, 0, -131046, 3, 0, -131045, 3, 0, -131044, 3, 0, -131043, 3, 0, -131042, 3, 0, -131041, 3, 0, -131040, 3, 0, -131039, 3, 0, -131038, 3, 0, -131037, 3, 0, -131036, 3, 0, -131035, 3, 0, -131034, 3, 0, -131033, 3, 0, -131032, 3, 0, -131031, 3, 0, -131030, 3, 0, -131029, 3, 0, -131028, 3, 0, -131027, 3, 0, -131026, 3, 0, -131025, 3, 0, -131024, 3, 0, -131023, 3, 0, -131022, 3, 0, -131021, 3, 0, -131020, 3, 0, -131019, 3, 0, -131018, 3, 0, -131017, 3, 0, -131016, 3, 0, -131015, 536870914, 0, -25, 2, 0, -24, 3, 0, -23, 3, 0, -22, 3, 0, -21, 3, 0, -20, 3, 0, -19, 3, 0, -18, 3, 0, -17, 3, 0, -16, 3, 0, -15, 3, 0, -14, 3, 0, -13, 3, 0, -12, 3, 0, -11, 3, 0, -10, 3, 0, -9, 3, 0, -8, 3, 0, -7, 3, 0, -6, 3, 0, -5, 3, 0, -4, 3, 0, -3, 3, 0, -2, 3, 0, -1, 3, 0, -65536, 3, 0, -65535, 3, 0, -65534, 3, 0, -65533, 3, 0, -65532, 3, 0, -65531, 3, 0, -65530, 3, 0, -65529, 3, 0, -65528, 3, 0, -65527, 3, 0, -65526, 3, 0, -65525, 3, 0, -65524, 3, 0, -65523, 3, 0, -65522, 3, 0, -65521, 3, 0, -65520, 3, 0, -65519, 3, 0, -65518, 3, 0, -65517, 3, 0, -65516, 3, 0, -65515, 3, 0, -65514, 3, 0, -65513, 3, 0, -65512, 3, 0, -65511, 3, 0, -65510, 3, 0, -65509, 3, 0, -65508, 3, 0, -65507, 3, 0, -65506, 3, 0, -65505, 3, 0, -65504, 3, 0, -65503, 3, 0, -65502, 3, 0, -65501, 3, 0, -65500, 3, 0, -65499, 3, 0, -65498, 3, 0, -65497, 3, 0, -65496, 3, 0, -65495, 3, 0, -65494, 3, 0, -65493, 3, 0, -65492, 3, 0, -65491, 3, 0, -65490, 3, 0, -65489, 3, 0, -65488, 3, 0, -65487, 3, 0, -65486, 3, 0, -65485, 3, 0, -65484, 3, 0, -65483, 3, 0, -65482, 3, 0, -65481, 3, 0, -65480, 3, 0, -65479, 536870914, 0, 65511, 2, 0, 65512, 3, 0, 65513, 3, 0, 65514, 3, 0, 65515, 3, 0, 65516, 3, 0, 65517, 3, 0, 65518, 3, 0, 65519, 3, 0, 65520, 3, 0, 65521, 3, 0, 65522, 3, 0, 65523, 3, 0, 65524, 3, 0, 65525, 3, 0, 65526, 3, 0, 65527, 3, 0, 65528, 3, 0, 65529, 3, 0, 65530, 3, 0, 65531, 3, 0, 65532, 3, 0, 65533, 3, 0, 65534, 3, 0, 65535, 3, 0, 0, 3, 0, 1, 3, 0, 2, 3, 0, 3, 3, 0, 4, 3, 0, 5, 3, 0, 6, 3, 0, 7, 3, 0, 8, 3, 0, 9, 3, 0, 10, 3, 0, 11, 3, 0, 12, 3, 0, 13, 3, 0, 14, 3, 0, 15, 3, 0, 16, 3, 0, 17, 3, 0, 18, 3, 0, 19, 3, 0, 20, 3, 0, 21, 3, 0, 22, 3, 0, 23, 3, 0, 24, 3, 0, 25, 3, 0, 26, 3, 0, 27, 3, 0, 28, 3, 0, 29, 3, 0, 30, 3, 0, 31, 3, 0, 32, 3, 0, 33, 3, 0, 34, 3, 0, 35, 3, 0, 36, 3, 0, 37, 3, 0, 38, 3, 0, 39, 3, 0, 40, 3, 0, 41, 3, 0, 42, 3, 0, 43, 3, 0, 44, 3, 0, 45, 3, 0, 46, 3, 0, 47, 3, 0, 48, 3, 0, 49, 3, 0, 50, 3, 0, 51, 3, 0, 52, 3, 0, 53, 3, 0, 54, 3, 0, 55, 3, 0, 56, 3, 0, 57, 536870914, 0, 131047, 536870913, 0, 131048, 0, 0, 131049, 0, 0, 131050, 0, 0, 131051, 0, 0, 131052, 0, 0, 131053, 0, 0, 131054, 0, 0, 131055, 1, 0, 131056, 3, 0, 131057, 3, 0, 131058, 3, 0, 131059, 0, 0, 131060, 0, 0, 131061, 0, 0, 131062, 0, 0, 131063, 0, 0, 131064, 0, 0, 131065, 0, 0, 131066, 0, 0, 131067, 0, 0, 131068, 0, 0, 131069, 0, 0, 131070, 0, 0, 131071, 0, 0, 65536, 0, 0, 65537, 0, 0, 65538, 0, 0, 65539, 0, 0, 65540, 0, 0, 65541, 0, 0, 65542, 0, 0, 65543, 0, 0, 65544, 0, 0, 65545, 0, 0, 65546, 0, 0, 65547, 0, 0, 65548, 0, 0, 65549, 0, 0, 65550, 0, 0, 65551, 0, 0, 65552, 0, 0, 65553, 0, 0, 65554, 0, 0, 65555, 0, 0, 65556, 0, 0, 65557, 0, 0, 65558, 0, 0, 65559, 0, 0, 65560, 0, 0, 65561, 0, 0, 65562, 0, 0, 65563, 0, 0, 65564, 0, 0, 65565, 1, 0, 65566, 3, 0, 65567, 3, 0, 65568, 3, 0, 65569, 3, 0, 65570, 3, 0, 65571, 3, 0, 65572, 3, 0, 65573, 3, 0, 65574, 3, 0, 65575, 3, 0, 65576, 3, 0, 65577, 3, 0, 65578, 3, 0, 65579, 3, 0, 65580, 3, 0, 65581, 3, 0, 65582, 3, 0, 65583, 3, 0, 65584, 3, 0, 65585, 3, 0, 65586, 3, 0, 65587, 3, 0, 65588, 3, 0, 65589, 3, 0, 65590, 3, 0, 65591, 3, 0, 65592, 3, 0, 65593, 536870914, 0, 196583, 536870914, 0, 196584, 4, 0, 196585, 4, 0, 196586, 4, 0, 196587, 4, 0, 196588, 4, 0, 196589, 4, 0, 196590, 4, 0, 196591, 2, 0, 196592, 3, 0, 196593, 3, 0, 196594, 3, 0, 196595, 536870914, 0, 196596, 4, 0, 196597, 4, 0, 196598, 4, 0, 196599, 4, 0, 196600, 4, 0, 196601, 4, 0, 196602, 4, 0, 196603, 4, 0, 196604, 4, 0, 196605, 4, 0, 196606, 4, 0, 196607, 4, 0, 131072, 4, 0, 131073, 4, 0, 131074, 4, 0, 131075, 4, 0, 131076, 4, 0, 131077, 4, 0, 131078, 4, 0, 131079, 4, 0, 131080, 4, 0, 131081, 4, 0, 131082, 4, 0, 131083, 4, 0, 131084, 4, 0, 131085, 4, 0, 131086, 4, 0, 131087, 4, 0, 131088, 4, 0, 131089, 4, 0, 131090, 4, 0, 131091, 4, 0, 131092, 4, 0, 131093, 4, 0, 131094, 4, 0, 131095, 4, 0, 131096, 4, 0, 131097, 4, 0, 131098, 4, 0, 131099, 4, 0, 131100, 4, 0, 131101, 536870913, 0, 131102, 0, 0, 131103, 0, 0, 131104, 0, 0, 131105, 0, 0, 131106, 0, 0, 131107, 0, 0, 131108, 0, 0, 131109, 0, 0, 131110, 0, 0, 131111, 0, 0, 131112, 0, 0, 131113, 0, 0, 131114, 0, 0, 131115, 0, 0, 131116, 0, 0, 131117, 0, 0, 131118, 0, 0, 131119, 0, 0, 131120, 0, 0, 131121, 0, 0, 131122, 0, 0, 131123, 0, 0, 131124, 0, 0, 131125, 0, 0, 131126, 0, 0, 131127, 0, 0, 131128, 0, 0, 131129, 1, 0, 262119, 536870914, 0, 262120, 4, 0, 262121, 4, 0, 262122, 4, 0, 262123, 4, 0, 262124, 4, 0, 262125, 4, 0, 262126, 4, 0, 262127, 2, 0, 262128, 3, 0, 262129, 3, 0, 262130, 3, 0, 262131, 536870914, 0, 262132, 4, 0, 262133, 4, 0, 262134, 4, 0, 262135, 4, 0, 262136, 4, 0, 262137, 4, 0, 262138, 4, 0, 262139, 4, 0, 262140, 4, 0, 262141, 4, 0, 262142, 4, 0, 262143, 4, 0, 196608, 4, 0, 196609, 4, 0, 196610, 4, 0, 196611, 4, 0, 196612, 4, 0, 196613, 4, 0, 196614, 4, 0, 196615, 4, 0, 196616, 4, 0, 196617, 4, 0, 196618, 4, 0, 196619, 4, 0, 196620, 4, 0, 196621, 4, 0, 196622, 4, 0, 196623, 4, 0, 196624, 4, 0, 196625, 4, 0, 196626, 4, 0, 196627, 4, 0, 196628, 4, 0, 196629, 4, 0, 196630, 4, 0, 196631, 4, 0, 196632, 4, 0, 196633, 4, 0, 196634, 4, 0, 196635, 4, 0, 196636, 4, 0, 196637, 4, 0, 196638, 4, 0, 196639, 4, 0, 196640, 4, 0, 196641, 4, 0, 196642, 4, 0, 196643, 4, 0, 196644, 4, 0, 196645, 4, 0, 196646, 4, 0, 196647, 4, 0, 196648, 4, 0, 196649, 4, 0, 196650, 4, 0, 196651, 4, 0, 196652, 4, 0, 196653, 4, 0, 196654, 4, 0, 196655, 4, 0, 196656, 4, 0, 196657, 4, 0, 196658, 4, 0, 196659, 4, 0, 196660, 4, 0, 196661, 4, 0, 196662, 4, 0, 196663, 4, 0, 196664, 4, 0, 196665, 2, 0, 327655, 536870914, 0, 327656, 4, 0, 327657, 4, 0, 327658, 4, 0, 327659, 4, 0, 327660, 4, 0, 327661, 4, 0, 327662, 4, 0, 327663, 2, 0, 327664, 3, 0, 327665, 3, 0, 327666, 3, 0, 327667, 536870914, 0, 327668, 4, 0, 327669, 4, 0, 327670, 4, 0, 327671, 4, 0, 327672, 4, 0, 327673, 4, 0, 327674, 4, 0, 327675, 4, 0, 327676, 4, 0, 327677, 4, 0, 327678, 4, 0, 327679, 4, 0, 262144, 4, 0, 262145, 4, 0, 262146, 4, 0, 262147, 4, 0, 262148, 4, 0, 262149, 4, 0, 262150, 4, 0, 262151, 4, 0, 262152, 4, 0, 262153, 4, 0, 262154, 4, 0, 262155, 4, 0, 262156, 4, 0, 262157, 4, 0, 262158, 4, 0, 262159, 4, 0, 262160, 4, 0, 262161, 4, 0, 262162, 4, 0, 262163, 4, 0, 262164, 4, 0, 262165, 4, 0, 262166, 4, 0, 262167, 4, 0, 262168, 4, 0, 262169, 4, 0, 262170, 4, 0, 262171, 4, 0, 262172, 4, 0, 262173, 4, 0, 262174, 4, 0, 262175, 4, 0, 262176, 4, 0, 262177, 4, 0, 262178, 4, 0, 262179, 4, 0, 262180, 4, 0, 262181, 4, 0, 262182, 4, 0, 262183, 4, 0, 262184, 4, 0, 262185, 4, 0, 262186, 4, 0, 262187, 4, 0, 262188, 4, 0, 262189, 4, 0, 262190, 4, 0, 262191, 4, 0, 262192, 4, 0, 262193, 4, 0, 262194, 4, 0, 262195, 4, 0, 262196, 4, 0, 262197, 4, 0, 262198, 4, 0, 262199, 4, 0, 262200, 4, 0, 262201, 2, 0 )

[node name="DecoGroup" type="Node2D" parent="tilemap"]

[node name="TileMap" type="TileMap" parent="tilemap/DecoGroup"]
tile_set = ExtResource( 2 )
cell_size = Vector2( 32, 32 )
compatibility_mode = true
format = 1
tile_data = PoolIntArray( -786455, 3, 0, -786446, 3, 0, -851966, 3, 0, -851955, 2, 0, -851948, 3, 0, -851935, 4, 0, -851928, 536870914, 0, -851913, 4, 0, -720890, 1, 0, -720874, 1, 0, -655319, 1, 0, -458754, 1, 0, -458698, 536870913, 0, -196610, 1, 0, -262129, 536870918, 0, -262117, 5, 0, -262092, 1, 0, 65529, 536870912, 0, 4, 0, 0, 10, 536870912, 0, 25, 0, 0, 65575, 536870912, 0, 65589, 0, 0, 536870912, 0, 0, 536870915, 0, 0 )

[node name="TorchGroup" type="Node2D" parent="tilemap"]

[node name="torch" parent="tilemap/TorchGroup" instance=ExtResource( 3 )]
position = Vector2( -256, -96 )
type = "ITEM"
reward = "res://scenes/items/gold/gold.tscn"
value = 200

[node name="torch3" parent="tilemap/TorchGroup" instance=ExtResource( 3 )]
position = Vector2( 256, -96 )
type = "ITEM"
reward = "res://scenes/items/gold/gold.tscn"
value = 100

[node name="torch4" parent="tilemap/TorchGroup" instance=ExtResource( 3 )]
position = Vector2( 768, -96 )
type = "ITEM"
reward = "res://scenes/items/gold/gold.tscn"
value = 300

[node name="torch5" parent="tilemap/TorchGroup" instance=ExtResource( 3 )]
position = Vector2( 1152, -96 )

[node name="torch6" parent="tilemap/TorchGroup" instance=ExtResource( 3 )]
position = Vector2( 1552, -96 )

[node name="torch2" parent="tilemap/TorchGroup" instance=ExtResource( 3 )]
position = Vector2( -672, -96 )

[node name="LadderGroup" type="Node2D" parent="tilemap"]

[node name="TestLadder" parent="tilemap/LadderGroup" instance=ExtResource( 4 )]
position = Vector2( -464, 96 )

[node name="Sprite" parent="tilemap/LadderGroup/TestLadder/KinematicBody2D" index="0"]
region_rect = Rect2( 0, 0, 32, 128 )

[node name="ladder" parent="tilemap/LadderGroup/TestLadder/KinematicBody2D" index="1"]
scale = Vector2( 1, 4 )

[node name="TestLadder 2" parent="tilemap/LadderGroup" instance=ExtResource( 5 )]
position = Vector2( -464, 16 )

[node name="TestLadder1" parent="tilemap/LadderGroup" instance=ExtResource( 4 )]
position = Vector2( 1552, -368 )

[node name="Sprite" parent="tilemap/LadderGroup/TestLadder1/KinematicBody2D" index="0"]
region_rect = Rect2( 0, 0, 32, 160 )

[node name="ladder" parent="tilemap/LadderGroup/TestLadder1/KinematicBody2D" index="1"]
scale = Vector2( 1, 5 )

[node name="SpikeGroup" type="Node2D" parent="tilemap"]

[node name="SpikeTile19" parent="tilemap/SpikeGroup" instance=ExtResource( 6 )]
position = Vector2( 976, 48 )

[node name="SpikeTile20" parent="tilemap/SpikeGroup" instance=ExtResource( 6 )]
position = Vector2( 1008, 48 )

[node name="SpikeTile21" parent="tilemap/SpikeGroup" instance=ExtResource( 6 )]
position = Vector2( 1040, 48 )

[node name="SpikeTile22" parent="tilemap/SpikeGroup" instance=ExtResource( 6 )]
position = Vector2( 1072, 48 )

[node name="SpikeTile23" parent="tilemap/SpikeGroup" instance=ExtResource( 6 )]
position = Vector2( 1104, 48 )

[node name="SpikeTile24" parent="tilemap/SpikeGroup" instance=ExtResource( 6 )]
position = Vector2( 1136, 48 )

[node name="SpikeTile25" parent="tilemap/SpikeGroup" instance=ExtResource( 6 )]
position = Vector2( 1168, 48 )

[node name="SpikeTile26" parent="tilemap/SpikeGroup" instance=ExtResource( 6 )]
position = Vector2( 1200, 48 )

[node name="SpikeTile27" parent="tilemap/SpikeGroup" instance=ExtResource( 6 )]
position = Vector2( 1232, 48 )

[node name="SpikeTile28" parent="tilemap/SpikeGroup" instance=ExtResource( 6 )]
position = Vector2( 1264, 48 )

[node name="SpikeTile29" parent="tilemap/SpikeGroup" instance=ExtResource( 6 )]
position = Vector2( 1296, 48 )

[node name="SpikeTile30" parent="tilemap/SpikeGroup" instance=ExtResource( 6 )]
position = Vector2( 1328, 48 )

[node name="SpikeTile31" parent="tilemap/SpikeGroup" instance=ExtResource( 6 )]
position = Vector2( 1360, 48 )

[node name="SpikeTile32" parent="tilemap/SpikeGroup" instance=ExtResource( 6 )]
position = Vector2( 1392, 48 )

[node name="SpikeTile33" parent="tilemap/SpikeGroup" instance=ExtResource( 6 )]
position = Vector2( 1424, 48 )

[node name="SpikeTile34" parent="tilemap/SpikeGroup" instance=ExtResource( 6 )]
position = Vector2( 1456, 48 )

[node name="SpikeTile35" parent="tilemap/SpikeGroup" instance=ExtResource( 6 )]
position = Vector2( 1488, 48 )

[node name="SpikeTile36" parent="tilemap/SpikeGroup" instance=ExtResource( 6 )]
position = Vector2( 1520, 48 )

[node name="SpikeTile37" parent="tilemap/SpikeGroup" instance=ExtResource( 6 )]
position = Vector2( 1552, 48 )

[node name="SpikeTile38" parent="tilemap/SpikeGroup" instance=ExtResource( 6 )]
position = Vector2( 1584, 48 )

[node name="SpikeTile39" parent="tilemap/SpikeGroup" instance=ExtResource( 6 )]
position = Vector2( 1616, 48 )

[node name="SpikeTile40" parent="tilemap/SpikeGroup" instance=ExtResource( 6 )]
position = Vector2( 1648, 48 )

[node name="SpikeTile41" parent="tilemap/SpikeGroup" instance=ExtResource( 6 )]
position = Vector2( 1680, 48 )

[node name="SpikeTile42" parent="tilemap/SpikeGroup" instance=ExtResource( 6 )]
position = Vector2( 1712, 48 )

[node name="SpikeTile43" parent="tilemap/SpikeGroup" instance=ExtResource( 6 )]
position = Vector2( 1744, 48 )

[node name="SpikeTile44" parent="tilemap/SpikeGroup" instance=ExtResource( 6 )]
position = Vector2( 1776, 48 )

[node name="SpikeTile45" parent="tilemap/SpikeGroup" instance=ExtResource( 6 )]
position = Vector2( 1808, 48 )

[node name="EnemiesGroup" type="Node2D" parent="tilemap"]

[node name="BlackSkeleton" parent="tilemap/EnemiesGroup" instance=ExtResource( 7 )]
position = Vector2( 1696, 16 )

[node name="BlackSkeleton1" parent="tilemap/EnemiesGroup" instance=ExtResource( 7 )]
position = Vector2( 1088, 16 )

[node name="BlackSkeleton2" parent="tilemap/EnemiesGroup" instance=ExtResource( 7 )]
position = Vector2( 1392, 16 )

[node name="Statue2" parent="tilemap/EnemiesGroup" instance=ExtResource( 8 )]
position = Vector2( -16, -80 )

[node name="TeleportGroup" type="Node2D" parent="tilemap"]

[node name="Teleport" parent="tilemap/TeleportGroup" instance=ExtResource( 9 )]
position = Vector2( -464, 176 )
is_horizontal = false
target_level = "res://levels/crypt/0-6.tscn"
teleport_to = Vector2( -240, -1968 )

[node name="teleport" parent="tilemap/TeleportGroup/Teleport" index="0"]
scale = Vector2( 3, 1 )

[node name="Teleport1" parent="tilemap/TeleportGroup" instance=ExtResource( 9 )]
position = Vector2( 1552, -464 )
is_horizontal = false
target_level = "res://levels/crypt/0-8.tscn"
teleport_to = Vector2( 16, 256 )

[node name="teleport" parent="tilemap/TeleportGroup/Teleport1" index="0"]
scale = Vector2( 3, 1 )

[node name="boundaries" type="Node2D" parent="tilemap"]

[node name="NW" type="Position2D" parent="tilemap/boundaries"]
position = Vector2( -806, -454 )

[node name="SE" type="Position2D" parent="tilemap/boundaries"]
position = Vector2( 1866, 170 )

[editable path="tilemap/LadderGroup/TestLadder"]

[editable path="tilemap/LadderGroup/TestLadder1"]

[editable path="tilemap/TeleportGroup/Teleport"]

[editable path="tilemap/TeleportGroup/Teleport1"]
