[gd_scene load_steps=19 format=2]

[ext_resource path="res://scenes/crypt/tileset.tres" type="TileSet" id=1]
[ext_resource path="res://scenes/common/cryptFGtileset.tres" type="TileSet" id=2]
[ext_resource path="res://scenes/crypt/climbableblock.tscn" type="PackedScene" id=3]
[ext_resource path="res://scenes/crypt/BGs/brick.png" type="Texture" id=4]
[ext_resource path="res://scenes/common/breakables/torch.tscn" type="PackedScene" id=5]
[ext_resource path="res://scenes/dungeon/ladder/ladder.tscn" type="PackedScene" id=6]
[ext_resource path="res://scenes/dungeon/ladder/laddertop.tscn" type="PackedScene" id=7]
[ext_resource path="res://scenes/common/switches/pullswitch.tscn" type="PackedScene" id=8]
[ext_resource path="res://scenes/common/damagables/skeleton/blackskeleton.tscn" type="PackedScene" id=9]
[ext_resource path="res://scenes/common/damagables/statues/statue1.tscn" type="PackedScene" id=10]
[ext_resource path="res://scenes/common/damagables/statues/statue2.tscn" type="PackedScene" id=11]
[ext_resource path="res://scenes/common/damagables/spiketile.tscn" type="PackedScene" id=12]
[ext_resource path="res://scenes/common/sunbeam.tscn" type="PackedScene" id=13]
[ext_resource path="res://scenes/common/BaseWatcher.gd" type="Script" id=14]
[ext_resource path="res://scenes/common/teleport.tscn" type="PackedScene" id=15]

[sub_resource type="PhysicsMaterial" id=1]
friction = 0.0

[sub_resource type="ImageTexture" id=2]
flags = 2
flags = 2
size = Vector2( 32, 32 )

[sub_resource type="RectangleShape2D" id=3]
extents = Vector2( 16, 16 )

[node name="LVL_NOTITLE" type="Node2D"]
__meta__ = {
"__editor_plugin_screen__": "2D"
}

[node name="tilemap" type="TileMap" parent="."]
tile_set = ExtResource( 1 )
cell_size = Vector2( 32, 32 )
compatibility_mode = true
collision_layer = 524288
format = 1
tile_data = PoolIntArray( -1245288, 1610612737, 0, -1245287, 1073741824, 0, -1245286, 1073741824, 0, -1245285, 1073741824, 0, -1245284, 1073741824, 0, -1245283, 1073741824, 0, -1245282, 1073741824, 0, -1245281, 1073741824, 0, -1245280, 1073741824, 0, -1245279, 1073741824, 0, -1245278, 1073741824, 0, -1245277, 1073741824, 0, -1245276, 1073741824, 0, -1245275, 1073741824, 0, -1245274, 1073741824, 0, -1245273, 1073741824, 0, -1245272, 1073741824, 0, -1245271, 1073741824, 0, -1245270, 1073741824, 0, -1245269, 1073741824, 0, -1245268, 1073741824, 0, -1245267, 1073741824, 0, -1245266, 1073741824, 0, -1245265, 1073741824, 0, -1245264, 1073741824, 0, -1245263, 1073741824, 0, -1245262, 1073741824, 0, -1245261, 1073741824, 0, -1245260, 1073741824, 0, -1245259, 1073741824, 0, -1245258, 1073741824, 0, -1245257, 1073741824, 0, -1245256, 1073741824, 0, -1245255, 1073741824, 0, -1245254, 1073741824, 0, -1245253, 1073741824, 0, -1245252, 1073741824, 0, -1245251, 1073741824, 0, -1245250, 1073741824, 0, -1245249, 1073741824, 0, -1245248, 1073741824, 0, -1245247, 1073741824, 0, -1245246, 1073741824, 0, -1245245, 1073741824, 0, -1245244, 1073741824, 0, -1245243, 1073741824, 0, -1245242, 1073741824, 0, -1245241, 1073741824, 0, -1245240, 1073741824, 0, -1245239, 1073741824, 0, -1245238, 1073741824, 0, -1245237, 1073741824, 0, -1245236, 1073741824, 0, -1245235, 1073741824, 0, -1245234, 1073741824, 0, -1245233, 1073741824, 0, -1245232, 1073741824, 0, -1245231, 1073741824, 0, -1245230, 1073741824, 0, -1245229, 1073741824, 0, -1245228, 1073741824, 0, -1245227, 1073741824, 0, -1245226, 1073741824, 0, -1245225, 1073741824, 0, -1245224, 1073741824, 0, -1245223, 1073741824, 0, -1245222, 1073741824, 0, -1245221, 1073741824, 0, -1245220, 1073741824, 0, -1245219, 1073741824, 0, -1245218, 1073741824, 0, -1245217, 1073741824, 0, -1245216, 1073741824, 0, -1245215, 1073741824, 0, -1245214, 1073741824, 0, -1245213, 1073741824, 0, -1245212, 1073741824, 0, -1245211, 1073741824, 0, -1245210, 1073741824, 0, -1245209, 1073741824, 0, -1245208, 1073741824, 0, -1245207, 1073741824, 0, -1245206, 1073741824, 0, -1245205, 1073741824, 0, -1245204, 1073741824, 0, -1245203, 1073741824, 0, -1245202, 1073741824, 0, -1245201, 1073741824, 0, -1245200, 1073741824, 0, -1245199, 1073741824, 0, -1245198, 1073741824, 0, -1245197, 1073741824, 0, -1245196, 1073741824, 0, -1245195, 1073741824, 0, -1245194, 1073741824, 0, -1245193, 1073741824, 0, -1245192, 1073741824, 0, -1245191, 1073741824, 0, -1245190, 1073741824, 0, -1245189, 1073741824, 0, -1245188, 1073741824, 0, -1245187, 1073741824, 0, -1245186, 1073741824, 0, -1245185, 1073741824, 0, -1310720, 1073741824, 0, -1310719, 1073741824, 0, -1310718, 1073741824, 0, -1310717, 1073741824, 0, -1310716, 1073741824, 0, -1310715, 1073741824, 0, -1310714, 1073741824, 0, -1310713, 1073741824, 0, -1310712, 1073741824, 0, -1310711, 1073741824, 0, -1310710, 1073741824, 0, -1310709, 1073741825, 0, -1179752, 2, 0, -1179751, 3, 0, -1179750, 3, 0, -1179749, 3, 0, -1179748, 3, 0, -1179747, 3, 0, -1179746, 3, 0, -1179745, 3, 0, -1179744, 3, 0, -1179743, 3, 0, -1179742, 3, 0, -1179741, 3, 0, -1179740, 3, 0, -1179739, 3, 0, -1179738, 3, 0, -1179737, 3, 0, -1179736, 3, 0, -1179735, 3, 0, -1179734, 3, 0, -1179733, 3, 0, -1179732, 3, 0, -1179731, 3, 0, -1179730, 3, 0, -1179729, 3, 0, -1179728, 3, 0, -1179727, 3, 0, -1179726, 3, 0, -1179725, 3, 0, -1179724, 3, 0, -1179723, 3, 0, -1179722, 3, 0, -1179721, 3, 0, -1179720, 3, 0, -1179719, 3, 0, -1179718, 3, 0, -1179717, 3, 0, -1179716, 3, 0, -1179715, 3, 0, -1179714, 3, 0, -1179713, 3, 0, -1179712, 3, 0, -1179711, 3, 0, -1179710, 3, 0, -1179709, 3, 0, -1179708, 3, 0, -1179707, 3, 0, -1179706, 3, 0, -1179705, 3, 0, -1179704, 3, 0, -1179703, 3, 0, -1179702, 3, 0, -1179701, 3, 0, -1179700, 3, 0, -1179699, 3, 0, -1179698, 3, 0, -1179697, 3, 0, -1179696, 3, 0, -1179695, 3, 0, -1179694, 3, 0, -1179693, 3, 0, -1179692, 3, 0, -1179691, 3, 0, -1179690, 3, 0, -1179689, 3, 0, -1179688, 3, 0, -1179687, 3, 0, -1179686, 3, 0, -1179685, 3, 0, -1179684, 3, 0, -1179683, 3, 0, -1179682, 3, 0, -1179681, 3, 0, -1179680, 3, 0, -1179679, 3, 0, -1179678, 3, 0, -1179677, 3, 0, -1179676, 3, 0, -1179675, 3, 0, -1179674, 3, 0, -1179673, 3, 0, -1179672, 3, 0, -1179671, 3, 0, -1179670, 3, 0, -1179669, 3, 0, -1179668, 3, 0, -1179667, 3, 0, -1179666, 3, 0, -1179665, 3, 0, -1179664, 3, 0, -1179663, 3, 0, -1179662, 3, 0, -1179661, 3, 0, -1179660, 3, 0, -1179659, 3, 0, -1179658, 3, 0, -1179657, 3, 0, -1179656, 3, 0, -1179655, 3, 0, -1179654, 3, 0, -1179653, 3, 0, -1179652, 3, 0, -1179651, 3, 0, -1179650, 3, 0, -1179649, 3, 0, -1245184, 3, 0, -1245183, 3, 0, -1245182, 3, 0, -1245181, 3, 0, -1245180, 3, 0, -1245179, 3, 0, -1245178, 3, 0, -1245177, 3, 0, -1245176, 3, 0, -1245175, 3, 0, -1245174, 3, 0, -1245173, 536870914, 0, -1114216, 2, 0, -1114215, 3, 0, -1114214, 3, 0, -1114213, 3, 0, -1114212, 3, 0, -1114211, 3, 0, -1114210, 3, 0, -1114209, 3, 0, -1114208, 3, 0, -1114207, 3, 0, -1114206, 3, 0, -1114205, 3, 0, -1114204, 3, 0, -1114203, 3, 0, -1114202, 3, 0, -1114201, 3, 0, -1114200, 3, 0, -1114199, 3, 0, -1114198, 3, 0, -1114197, 3, 0, -1114196, 3, 0, -1114195, 3, 0, -1114194, 3, 0, -1114193, 3, 0, -1114192, 3, 0, -1114191, 3, 0, -1114190, 3, 0, -1114189, 3, 0, -1114188, 3, 0, -1114187, 3, 0, -1114186, 3, 0, -1114185, 3, 0, -1114184, 3, 0, -1114183, 3, 0, -1114182, 3, 0, -1114181, 3, 0, -1114180, 3, 0, -1114179, 3, 0, -1114178, 3, 0, -1114177, 3, 0, -1114176, 3, 0, -1114175, 3, 0, -1114174, 3, 0, -1114173, 3, 0, -1114172, 3, 0, -1114171, 3, 0, -1114170, 3, 0, -1114169, 3, 0, -1114168, 3, 0, -1114167, 3, 0, -1114166, 3, 0, -1114165, 3, 0, -1114164, 3, 0, -1114163, 3, 0, -1114162, 3, 0, -1114161, 3, 0, -1114160, 3, 0, -1114159, 3, 0, -1114158, 3, 0, -1114157, 3, 0, -1114156, 3, 0, -1114155, 3, 0, -1114154, 3, 0, -1114153, 3, 0, -1114152, 3, 0, -1114151, 3, 0, -1114150, 3, 0, -1114149, 3, 0, -1114148, 3, 0, -1114147, 3, 0, -1114146, 3, 0, -1114145, 3, 0, -1114144, 3, 0, -1114143, 3, 0, -1114142, 3, 0, -1114141, 3, 0, -1114140, 3, 0, -1114139, 3, 0, -1114138, 3, 0, -1114137, 3, 0, -1114136, 3, 0, -1114135, 3, 0, -1114134, 3, 0, -1114133, 3, 0, -1114132, 3, 0, -1114131, 3, 0, -1114130, 3, 0, -1114129, 3, 0, -1114128, 3, 0, -1114127, 3, 0, -1114126, 3, 0, -1114125, 3, 0, -1114124, 3, 0, -1114123, 3, 0, -1114122, 3, 0, -1114121, 3, 0, -1114120, 3, 0, -1114119, 3, 0, -1114118, 3, 0, -1114117, 3, 0, -1114116, 3, 0, -1114115, 3, 0, -1114114, 3, 0, -1114113, 3, 0, -1179648, 3, 0, -1179647, 3, 0, -1179646, 3, 0, -1179645, 3, 0, -1179644, 3, 0, -1179643, 3, 0, -1179642, 3, 0, -1179641, 3, 0, -1179640, 3, 0, -1179639, 3, 0, -1179638, 3, 0, -1179637, 536870914, 0, -1048680, 2, 0, -1048679, 3, 0, -1048678, 3, 0, -1048677, 3, 0, -1048676, 3, 0, -1048675, 3, 0, -1048674, 3, 0, -1048673, 3, 0, -1048672, 3, 0, -1048671, 3, 0, -1048670, 3, 0, -1048669, 3, 0, -1048668, 3, 0, -1048667, 3, 0, -1048666, 3, 0, -1048665, 3, 0, -1048664, 3, 0, -1048663, 3, 0, -1048662, 3, 0, -1048661, 3, 0, -1048660, 3, 0, -1048659, 3, 0, -1048658, 3, 0, -1048657, 3, 0, -1048656, 3, 0, -1048655, 3, 0, -1048654, 3, 0, -1048653, 3, 0, -1048652, 3, 0, -1048651, 3, 0, -1048650, 3, 0, -1048649, 3, 0, -1048648, 3, 0, -1048647, 3, 0, -1048646, 3, 0, -1048645, 3, 0, -1048644, 3, 0, -1048643, 3, 0, -1048642, 3, 0, -1048641, 3, 0, -1048640, 3, 0, -1048639, 3, 0, -1048638, 3, 0, -1048637, 3, 0, -1048636, 3, 0, -1048635, 3, 0, -1048634, 3, 0, -1048633, 3, 0, -1048632, 3, 0, -1048631, 3, 0, -1048630, 3, 0, -1048629, 3, 0, -1048628, 3, 0, -1048627, 3, 0, -1048626, 3, 0, -1048625, 3, 0, -1048624, 3, 0, -1048623, 3, 0, -1048622, 3, 0, -1048621, 3, 0, -1048620, 3, 0, -1048619, 3, 0, -1048618, 3, 0, -1048617, 3, 0, -1048616, 3, 0, -1048615, 3, 0, -1048614, 3, 0, -1048613, 3, 0, -1048612, 3, 0, -1048611, 3, 0, -1048610, 3, 0, -1048609, 3, 0, -1048608, 3, 0, -1048607, 3, 0, -1048606, 3, 0, -1048605, 3, 0, -1048604, 3, 0, -1048603, 3, 0, -1048602, 3, 0, -1048601, 3, 0, -1048600, 3, 0, -1048599, 3, 0, -1048598, 3, 0, -1048597, 3, 0, -1048596, 3, 0, -1048595, 3, 0, -1048594, 3, 0, -1048593, 3, 0, -1048592, 3, 0, -1048591, 3, 0, -1048590, 3, 0, -1048589, 3, 0, -1048588, 3, 0, -1048587, 3, 0, -1048586, 3, 0, -1048585, 3, 0, -1048584, 3, 0, -1048583, 3, 0, -1048582, 3, 0, -1048581, 3, 0, -1048580, 3, 0, -1048579, 3, 0, -1048578, 3, 0, -1048577, 3, 0, -1114112, 3, 0, -1114111, 3, 0, -1114110, 3, 0, -1114109, 3, 0, -1114108, 3, 0, -1114107, 3, 0, -1114106, 3, 0, -1114105, 3, 0, -1114104, 3, 0, -1114103, 3, 0, -1114102, 3, 0, -1114101, 536870914, 0, -983144, 1073741825, 0, -983143, 3, 0, -983142, 3, 0, -983141, 3, 0, -983140, 3, 0, -983139, 3, 0, -983138, 3, 0, -983137, 3, 0, -983136, 3, 0, -983135, 3, 0, -983134, 3, 0, -983133, 3, 0, -983132, 3, 0, -983131, 3, 0, -983130, 3, 0, -983129, 3, 0, -983128, 3, 0, -983127, 3, 0, -983126, 3, 0, -983125, 3, 0, -983124, 3, 0, -983123, 3, 0, -983122, 3, 0, -983121, 3, 0, -983120, 3, 0, -983119, 3, 0, -983118, 3, 0, -983117, 3, 0, -983116, 3, 0, -983115, 3, 0, -983114, 3, 0, -983113, 3, 0, -983112, 3, 0, -983111, 3, 0, -983110, 3, 0, -983109, 3, 0, -983108, 3, 0, -983107, 3, 0, -983106, 3, 0, -983105, 3, 0, -983104, 3, 0, -983103, 3, 0, -983102, 3, 0, -983101, 3, 0, -983100, 3, 0, -983099, 3, 0, -983098, 3, 0, -983097, 3, 0, -983096, 3, 0, -983095, 3, 0, -983094, 3, 0, -983093, 3, 0, -983092, 3, 0, -983091, 3, 0, -983090, 3, 0, -983089, 3, 0, -983088, 3, 0, -983087, 3, 0, -983086, 3, 0, -983085, 3, 0, -983084, 3, 0, -983083, 3, 0, -983082, 3, 0, -983081, 3, 0, -983080, 3, 0, -983079, 3, 0, -983078, 3, 0, -983077, 3, 0, -983076, 3, 0, -983075, 3, 0, -983074, 3, 0, -983073, 3, 0, -983072, 3, 0, -983071, 3, 0, -983070, 3, 0, -983069, 3, 0, -983068, 3, 0, -983067, 3, 0, -983066, 3, 0, -983065, 3, 0, -983064, 3, 0, -983063, 3, 0, -983062, 3, 0, -983061, 3, 0, -983060, 3, 0, -983059, 3, 0, -983058, 3, 0, -983057, 3, 0, -983056, 3, 0, -983055, 3, 0, -983054, 3, 0, -983053, 3, 0, -983052, 3, 0, -983051, 3, 0, -983050, 3, 0, -983049, 3, 0, -983048, 3, 0, -983047, 3, 0, -983046, 3, 0, -983045, 3, 0, -983044, 3, 0, -983043, 3, 0, -983042, 3, 0, -983041, 3, 0, -1048576, 3, 0, -1048575, 3, 0, -1048574, 3, 0, -1048573, 3, 0, -1048572, 3, 0, -1048571, 3, 0, -1048570, 3, 0, -1048569, 3, 0, -1048568, 3, 0, -1048567, 3, 0, -1048566, 3, 0, -1048565, 536870914, 0, -917608, 3, 0, -917607, 3, 0, -917606, 3, 0, -917605, 3, 0, -917604, 3, 0, -917603, 3, 0, -917602, 3, 0, -917601, 3, 0, -917600, 3, 0, -917599, 3, 0, -917598, 3, 0, -917597, 3, 0, -917596, 3, 0, -917595, 3, 0, -917594, 3, 0, -917593, 3, 0, -917592, 3, 0, -917591, 3, 0, -917590, 3, 0, -917589, 3, 0, -917588, 3, 0, -917587, 3, 0, -917586, 3, 0, -917585, 3, 0, -917584, 3, 0, -917583, 3, 0, -917582, 3, 0, -917581, 3, 0, -917580, 3, 0, -917579, 3, 0, -917578, 3, 0, -917577, 3, 0, -917576, 3, 0, -917575, 3, 0, -917574, 3, 0, -917573, 3, 0, -917572, 3, 0, -917571, 3, 0, -917570, 3, 0, -917569, 3, 0, -917568, 3, 0, -917567, 3, 0, -917566, 3, 0, -917565, 3, 0, -917564, 3, 0, -917563, 3, 0, -917562, 3, 0, -917561, 3, 0, -917560, 3, 0, -917559, 3, 0, -917558, 3, 0, -917557, 3, 0, -917556, 3, 0, -917555, 3, 0, -917554, 3, 0, -917553, 3, 0, -917552, 3, 0, -917551, 3, 0, -917550, 3, 0, -917549, 3, 0, -917548, 3, 0, -917547, 3, 0, -917546, 3, 0, -917545, 3, 0, -917544, 3, 0, -917543, 3, 0, -917542, 3, 0, -917541, 3, 0, -917540, 3, 0, -917539, 3, 0, -917538, 3, 0, -917537, 3, 0, -917536, 3, 0, -917535, 3, 0, -917534, 3, 0, -917533, 3, 0, -917532, 3, 0, -917531, 3, 0, -917530, 3, 0, -917529, 3, 0, -917528, 3, 0, -917527, 3, 0, -917526, 3, 0, -917525, 3, 0, -917524, 3, 0, -917523, 3, 0, -917522, 3, 0, -917521, 3, 0, -917520, 3, 0, -917519, 3, 0, -917518, 3, 0, -917517, 3, 0, -917516, 3, 0, -917515, 3, 0, -917514, 3, 0, -917513, 3, 0, -917512, 3, 0, -917511, 3, 0, -917510, 3, 0, -917509, 3, 0, -917508, 3, 0, -917507, 3, 0, -917506, 3, 0, -917505, 3, 0, -983040, 3, 0, -983039, 3, 0, -983038, 3, 0, -983037, 3, 0, -983036, 3, 0, -983035, 3, 0, -983034, 3, 0, -983033, 3, 0, -983032, 3, 0, -983031, 3, 0, -983030, 3, 0, -983029, 536870914, 0, -852072, 3, 0, -852071, 3, 0, -852070, 3, 0, -852069, 3, 0, -852068, 3, 0, -852067, 3, 0, -852066, 3, 0, -852065, 3, 0, -852064, 3, 0, -852063, 3, 0, -852062, 3, 0, -852061, 3, 0, -852060, 3, 0, -852059, 3, 0, -852058, 3, 0, -852057, 3, 0, -852056, 3, 0, -852055, 3, 0, -852054, 3, 0, -852053, 3, 0, -852052, 3, 0, -852051, 3, 0, -852050, 3, 0, -852049, 3, 0, -852048, 3, 0, -852047, 3, 0, -852046, 3, 0, -852045, 3, 0, -852044, 3, 0, -852043, 3, 0, -852042, 3, 0, -852041, 3, 0, -852040, 3, 0, -852039, 3, 0, -852038, 3, 0, -852037, 3, 0, -852036, 3, 0, -852035, 3, 0, -852034, 3, 0, -852033, 3, 0, -852032, 3, 0, -852031, 3, 0, -852030, 3, 0, -852029, 3, 0, -852028, 3, 0, -852027, 3, 0, -852026, 3, 0, -852025, 3, 0, -852024, 3, 0, -852023, 3, 0, -852022, 3, 0, -852021, 3, 0, -852020, 3, 0, -852019, 3, 0, -852018, 3, 0, -852017, 3, 0, -852016, 3, 0, -852015, 3, 0, -852014, 3, 0, -852013, 3, 0, -852012, 3, 0, -852011, 3, 0, -852010, 3, 0, -852009, 3, 0, -852008, 3, 0, -852007, 3, 0, -852006, 3, 0, -852005, 3, 0, -852004, 3, 0, -852003, 3, 0, -852002, 3, 0, -852001, 3, 0, -852000, 3, 0, -851999, 3, 0, -851998, 3, 0, -851997, 3, 0, -851996, 3, 0, -851995, 3, 0, -851994, 3, 0, -851993, 3, 0, -851992, 3, 0, -851991, 3, 0, -851990, 3, 0, -851989, 3, 0, -851988, 3, 0, -851987, 3, 0, -851986, 3, 0, -851985, 3, 0, -851984, 3, 0, -851983, 3, 0, -851982, 3, 0, -851981, 3, 0, -851980, 3, 0, -851979, 3, 0, -851978, 3, 0, -851977, 3, 0, -851976, 3, 0, -851975, 3, 0, -851974, 3, 0, -851973, 3, 0, -851972, 3, 0, -851971, 3, 0, -851970, 3, 0, -851969, 3, 0, -917504, 3, 0, -917503, 3, 0, -917502, 3, 0, -917501, 3, 0, -917500, 3, 0, -917499, 3, 0, -917498, 3, 0, -917497, 3, 0, -917496, 3, 0, -917495, 3, 0, -917494, 3, 0, -917493, 536870914, 0, -786536, 3, 0, -786535, 3, 0, -786534, 3, 0, -786533, 3, 0, -786532, 3, 0, -786531, 3, 0, -786530, 3, 0, -786529, 3, 0, -786528, 3, 0, -786527, 3, 0, -786526, 3, 0, -786525, 3, 0, -786524, 3, 0, -786523, 3, 0, -786522, 3, 0, -786521, 3, 0, -786520, 3, 0, -786519, 3, 0, -786518, 3, 0, -786517, 3, 0, -786516, 3, 0, -786515, 3, 0, -786514, 3, 0, -786513, 3, 0, -786512, 3, 0, -786511, 3, 0, -786510, 3, 0, -786509, 3, 0, -786508, 3, 0, -786507, 3, 0, -786506, 3, 0, -786505, 3, 0, -786504, 3, 0, -786503, 3, 0, -786502, 3, 0, -786501, 3, 0, -786500, 3, 0, -786499, 3, 0, -786498, 3, 0, -786497, 3, 0, -786496, 3, 0, -786495, 3, 0, -786494, 3, 0, -786493, 3, 0, -786492, 3, 0, -786491, 3, 0, -786490, 3, 0, -786489, 3, 0, -786488, 3, 0, -786487, 3, 0, -786486, 3, 0, -786485, 3, 0, -786484, 3, 0, -786483, 3, 0, -786482, 3, 0, -786481, 3, 0, -786480, 3, 0, -786479, 3, 0, -786478, 3, 0, -786477, 3, 0, -786476, 3, 0, -786475, 3, 0, -786474, 3, 0, -786473, 3, 0, -786472, 3, 0, -786471, 3, 0, -786470, 3, 0, -786469, 3, 0, -786468, 3, 0, -786467, 3, 0, -786466, 3, 0, -786465, 3, 0, -786464, 3, 0, -786463, 3, 0, -786462, 3, 0, -786461, 3, 0, -786460, 3, 0, -786459, 3, 0, -786458, 3, 0, -786457, 3, 0, -786456, 3, 0, -786455, 3, 0, -786454, 3, 0, -786453, 3, 0, -786452, 3, 0, -786451, 3, 0, -786450, 3, 0, -786449, 3, 0, -786448, 3, 0, -786447, 3, 0, -786446, 3, 0, -786445, 3, 0, -786444, 3, 0, -786443, 3, 0, -786442, 3, 0, -786441, 3, 0, -786440, 3, 0, -786439, 3, 0, -786438, 3, 0, -786437, 3, 0, -786436, 3, 0, -786435, 3, 0, -786434, 3, 0, -786433, 3, 0, -851968, 3, 0, -851967, 3, 0, -851966, 3, 0, -851965, 3, 0, -851964, 3, 0, -851963, 3, 0, -851962, 3, 0, -851961, 3, 0, -851960, 3, 0, -851959, 3, 0, -851958, 3, 0, -851957, 536870914, 0, -721000, 3, 0, -720999, 3, 0, -720998, 3, 0, -720997, 3, 0, -720996, 3, 0, -720995, 3, 0, -720994, 3, 0, -720993, 3, 0, -720992, 3, 0, -720991, 3, 0, -720990, 3, 0, -720989, 3, 0, -720988, 3, 0, -720987, 3, 0, -720986, 3, 0, -720985, 3, 0, -720984, 3, 0, -720983, 3, 0, -720982, 3, 0, -720981, 3, 0, -720980, 3, 0, -720979, 3, 0, -720978, 3, 0, -720977, 3, 0, -720976, 3, 0, -720975, 3, 0, -720974, 3, 0, -720973, 3, 0, -720972, 3, 0, -720971, 3, 0, -720970, 3, 0, -720969, 3, 0, -720968, 3, 0, -720967, 3, 0, -720966, 3, 0, -720965, 3, 0, -720964, 3, 0, -720963, 3, 0, -720962, 3, 0, -720961, 3, 0, -720960, 3, 0, -720959, 3, 0, -720958, 3, 0, -720957, 3, 0, -720956, 3, 0, -720955, 3, 0, -720954, 3, 0, -720953, 3, 0, -720952, 3, 0, -720951, 3, 0, -720950, 3, 0, -720949, 3, 0, -720948, 3, 0, -720947, 3, 0, -720946, 3, 0, -720945, 3, 0, -720944, 3, 0, -720943, 3, 0, -720942, 3, 0, -720941, 3, 0, -720940, 3, 0, -720939, 3, 0, -720938, 3, 0, -720937, 3, 0, -720936, 3, 0, -720935, 3, 0, -720934, 3, 0, -720933, 3, 0, -720932, 3, 0, -720931, 3, 0, -720930, 3, 0, -720929, 3, 0, -720928, 3, 0, -720927, 3, 0, -720926, 3, 0, -720925, 3, 0, -720924, 3, 0, -720923, 3, 0, -720922, 3, 0, -720921, 3, 0, -720920, 3, 0, -720919, 3, 0, -720918, 3, 0, -720917, 3, 0, -720916, 3, 0, -720915, 3, 0, -720914, 3, 0, -720913, 3, 0, -720912, 3, 0, -720911, 3, 0, -720910, 3, 0, -720909, 3, 0, -720908, 3, 0, -720907, 3, 0, -720906, 3, 0, -720905, 3, 0, -720904, 3, 0, -720903, 3, 0, -720902, 3, 0, -720901, 3, 0, -720900, 3, 0, -720899, 3, 0, -720898, 3, 0, -720897, 3, 0, -786432, 3, 0, -786431, 3, 0, -786430, 3, 0, -786429, 3, 0, -786428, 3, 0, -786427, 3, 0, -786426, 3, 0, -786425, 3, 0, -786424, 3, 0, -786423, 3, 0, -786422, 3, 0, -786421, 536870914, 0, -655464, 3, 0, -655463, 3, 0, -655462, 3, 0, -655461, 3, 0, -655460, 3, 0, -655459, 3, 0, -655458, 3, 0, -655457, 3, 0, -655456, 3, 0, -655455, 3, 0, -655454, 3, 0, -655453, 3, 0, -655452, 3, 0, -655451, 3, 0, -655450, 3, 0, -655449, 3, 0, -655448, 3, 0, -655447, 3, 0, -655446, 3, 0, -655445, 3, 0, -655444, 3, 0, -655443, 3, 0, -655442, 3, 0, -655441, 3, 0, -655440, 3, 0, -655439, 3, 0, -655438, 3, 0, -655437, 3, 0, -655436, 3, 0, -655435, 3, 0, -655434, 3, 0, -655433, 3, 0, -655432, 3, 0, -655431, 3, 0, -655430, 3, 0, -655429, 3, 0, -655428, 3, 0, -655427, 3, 0, -655426, 3, 0, -655425, 3, 0, -655424, 3, 0, -655423, 3, 0, -655422, 3, 0, -655421, 3, 0, -655420, 3, 0, -655419, 3, 0, -655418, 3, 0, -655417, 3, 0, -655416, 3, 0, -655415, 3, 0, -655414, 3, 0, -655413, 3, 0, -655412, 3, 0, -655411, 3, 0, -655410, 3, 0, -655409, 3, 0, -655408, 3, 0, -655407, 3, 0, -655406, 3, 0, -655405, 3, 0, -655404, 3, 0, -655403, 3, 0, -655402, 3, 0, -655401, 3, 0, -655400, 3, 0, -655399, 3, 0, -655398, 3, 0, -655397, 3, 0, -655396, 3, 0, -655395, 3, 0, -655394, 3, 0, -655393, 3, 0, -655392, 3, 0, -655391, 3, 0, -655390, 3, 0, -655389, 3, 0, -655388, 3, 0, -655387, 3, 0, -655386, 3, 0, -655385, 3, 0, -655384, 3, 0, -655383, 3, 0, -655382, 3, 0, -655381, 3, 0, -655380, 3, 0, -655379, 3, 0, -655378, 3, 0, -655377, 3, 0, -655376, 3, 0, -655375, 3, 0, -655374, 3, 0, -655373, 3, 0, -655372, 3, 0, -655371, 3, 0, -655370, 3, 0, -655369, 3, 0, -655368, 3, 0, -655367, 3, 0, -655366, 3, 0, -655365, 3, 0, -655364, 3, 0, -655363, 3, 0, -655362, 3, 0, -655361, 3, 0, -720896, 3, 0, -720895, 3, 0, -720894, 3, 0, -720893, 3, 0, -720892, 3, 0, -720891, 3, 0, -720890, 3, 0, -720889, 3, 0, -720888, 3, 0, -720887, 3, 0, -720886, 3, 0, -720885, 536870914, 0, -589928, 536870913, 0, -589927, 0, 0, -589926, 0, 0, -589925, 0, 0, -589924, 0, 0, -589923, 0, 0, -589922, 0, 0, -589921, 0, 0, -589920, 3, 0, -589919, 3, 0, -589918, 3, 0, -589917, 3, 0, -589916, 3, 0, -589915, 3, 0, -589914, 3, 0, -589913, 3, 0, -589912, 3, 0, -589911, 3, 0, -589910, 3, 0, -589909, 3, 0, -589908, 3, 0, -589907, 3, 0, -589906, 3, 0, -589905, 3, 0, -589904, 3, 0, -589903, 3, 0, -589902, 3, 0, -589901, 3, 0, -589900, 3, 0, -589899, 3, 0, -589898, 3, 0, -589897, 3, 0, -589896, 3, 0, -589895, 3, 0, -589894, 3, 0, -589893, 3, 0, -589892, 3, 0, -589891, 3, 0, -589890, 3, 0, -589889, 3, 0, -589888, 3, 0, -589887, 3, 0, -589886, 3, 0, -589885, 3, 0, -589884, 3, 0, -589883, 3, 0, -589882, 3, 0, -589881, 3, 0, -589880, 3, 0, -589879, 3, 0, -589878, 3, 0, -589877, 3, 0, -589876, 3, 0, -589875, 3, 0, -589874, 3, 0, -589873, 3, 0, -589872, 3, 0, -589871, 3, 0, -589870, 3, 0, -589869, 3, 0, -589868, 3, 0, -589867, 3, 0, -589866, 3, 0, -589865, 3, 0, -589864, 3, 0, -589863, 3, 0, -589862, 3, 0, -589861, 3, 0, -589860, 3, 0, -589859, 3, 0, -589858, 3, 0, -589857, 3, 0, -589856, 3, 0, -589855, 3, 0, -589854, 3, 0, -589853, 3, 0, -589852, 3, 0, -589851, 3, 0, -589850, 3, 0, -589849, 3, 0, -589848, 3, 0, -589847, 3, 0, -589846, 3, 0, -589845, 3, 0, -589844, 3, 0, -589843, 3, 0, -589842, 3, 0, -589841, 3, 0, -589840, 3, 0, -589839, 3, 0, -589838, 3, 0, -589837, 3, 0, -589836, 3, 0, -589835, 3, 0, -589834, 3, 0, -589833, 3, 0, -589832, 3, 0, -589831, 3, 0, -589830, 3, 0, -589829, 3, 0, -589828, 3, 0, -589827, 3, 0, -589826, 3, 0, -589825, 3, 0, -655360, 3, 0, -655359, 3, 0, -655358, 3, 0, -655357, 3, 0, -655356, 3, 0, -655355, 3, 0, -655354, 3, 0, -655353, 3, 0, -655352, 3, 0, -655351, 3, 0, -655350, 3, 0, -655349, 536870914, 0, -524392, 2, 0, -524391, 3, 0, -524390, 3, 0, -524389, 3, 0, -524388, 3, 0, -524387, 3, 0, -524386, 3, 0, -524385, 3, 0, -524384, 3, 0, -524383, 3, 0, -524382, 3, 0, -524381, 3, 0, -524380, 3, 0, -524379, 3, 0, -524378, 3, 0, -524377, 3, 0, -524376, 3, 0, -524375, 3, 0, -524374, 3, 0, -524373, 3, 0, -524372, 3, 0, -524371, 3, 0, -524370, 3, 0, -524369, 3, 0, -524368, 3, 0, -524367, 3, 0, -524366, 3, 0, -524365, 3, 0, -524364, 3, 0, -524363, 3, 0, -524362, 3, 0, -524361, 3, 0, -524360, 3, 0, -524359, 3, 0, -524358, 3, 0, -524357, 3, 0, -524356, 3, 0, -524355, 3, 0, -524354, 3, 0, -524353, 3, 0, -524352, 3, 0, -524351, 3, 0, -524350, 3, 0, -524349, 3, 0, -524348, 3, 0, -524347, 3, 0, -524346, 3, 0, -524345, 3, 0, -524344, 3, 0, -524343, 3, 0, -524342, 3, 0, -524341, 3, 0, -524340, 3, 0, -524339, 3, 0, -524338, 3, 0, -524337, 3, 0, -524336, 3, 0, -524335, 3, 0, -524334, 3, 0, -524333, 3, 0, -524332, 3, 0, -524331, 3, 0, -524330, 3, 0, -524329, 3, 0, -524328, 3, 0, -524327, 3, 0, -524326, 3, 0, -524325, 3, 0, -524324, 3, 0, -524323, 3, 0, -524322, 3, 0, -524321, 3, 0, -524320, 3, 0, -524319, 3, 0, -524318, 3, 0, -524317, 3, 0, -524316, 3, 0, -524315, 3, 0, -524314, 3, 0, -524313, 3, 0, -524312, 3, 0, -524311, 3, 0, -524310, 3, 0, -524309, 3, 0, -524308, 3, 0, -524307, 3, 0, -524306, 3, 0, -524305, 3, 0, -524304, 3, 0, -524303, 3, 0, -524302, 3, 0, -524301, 3, 0, -524300, 3, 0, -524299, 3, 0, -524298, 3, 0, -524297, 3, 0, -524296, 3, 0, -524295, 3, 0, -524294, 3, 0, -524293, 3, 0, -524292, 3, 0, -524291, 3, 0, -524290, 3, 0, -524289, 3, 0, -589824, 3, 0, -589823, 3, 0, -589822, 3, 0, -589821, 3, 0, -589820, 3, 0, -589819, 3, 0, -589818, 3, 0, -589817, 3, 0, -589816, 3, 0, -589815, 3, 0, -589814, 3, 0, -589813, 536870914, 0, -458856, 2, 0, -458855, 3, 0, -458854, 3, 0, -458853, 3, 0, -458852, 3, 0, -458851, 3, 0, -458850, 3, 0, -458849, 3, 0, -458848, 3, 0, -458847, 3, 0, -458846, 3, 0, -458845, 3, 0, -458844, 3, 0, -458843, 3, 0, -458842, 3, 0, -458841, 3, 0, -458840, 3, 0, -458839, 3, 0, -458838, 3, 0, -458837, 3, 0, -458836, 3, 0, -458835, 3, 0, -458834, 3, 0, -458833, 3, 0, -458832, 3, 0, -458831, 3, 0, -458830, 3, 0, -458829, 3, 0, -458828, 3, 0, -458827, 3, 0, -458826, 3, 0, -458825, 3, 0, -458824, 3, 0, -458823, 3, 0, -458822, 3, 0, -458821, 3, 0, -458820, 3, 0, -458819, 3, 0, -458818, 3, 0, -458817, 3, 0, -458816, 3, 0, -458815, 3, 0, -458814, 3, 0, -458813, 3, 0, -458812, 3, 0, -458811, 3, 0, -458810, 3, 0, -458809, 3, 0, -458808, 3, 0, -458807, 3, 0, -458806, 3, 0, -458805, 3, 0, -458804, 3, 0, -458803, 3, 0, -458802, 3, 0, -458801, 3, 0, -458800, 3, 0, -458799, 3, 0, -458798, 3, 0, -458797, 3, 0, -458796, 3, 0, -458795, 3, 0, -458794, 3, 0, -458793, 3, 0, -458792, 3, 0, -458791, 3, 0, -458790, 3, 0, -458789, 3, 0, -458788, 3, 0, -458787, 3, 0, -458786, 3, 0, -458785, 3, 0, -458784, 3, 0, -458783, 3, 0, -458782, 3, 0, -458781, 3, 0, -458780, 3, 0, -458779, 3, 0, -458778, 3, 0, -458777, 3, 0, -458776, 3, 0, -458775, 3, 0, -458774, 3, 0, -458773, 3, 0, -458772, 3, 0, -458771, 3, 0, -458770, 3, 0, -458769, 3, 0, -458768, 3, 0, -458767, 3, 0, -458766, 3, 0, -458765, 3, 0, -458764, 3, 0, -458763, 3, 0, -458762, 3, 0, -458761, 3, 0, -458760, 3, 0, -458759, 3, 0, -458758, 3, 0, -458757, 3, 0, -458756, 3, 0, -458755, 3, 0, -458754, 3, 0, -458753, 3, 0, -524288, 3, 0, -524287, 3, 0, -524286, 3, 0, -524285, 3, 0, -524284, 3, 0, -524283, 3, 0, -524282, 3, 0, -524281, 3, 0, -524280, 3, 0, -524279, 3, 0, -524278, 3, 0, -524277, 536870914, 0, -393320, 2, 0, -393319, 3, 0, -393318, 3, 0, -393317, 3, 0, -393316, 3, 0, -393315, 3, 0, -393314, 3, 0, -393313, 3, 0, -393312, 3, 0, -393311, 3, 0, -393310, 3, 0, -393309, 3, 0, -393308, 3, 0, -393307, 3, 0, -393306, 3, 0, -393305, 3, 0, -393304, 3, 0, -393303, 3, 0, -393302, 3, 0, -393301, 3, 0, -393300, 3, 0, -393299, 3, 0, -393298, 3, 0, -393297, 3, 0, -393296, 3, 0, -393295, 3, 0, -393294, 3, 0, -393293, 3, 0, -393292, 3, 0, -393291, 3, 0, -393290, 3, 0, -393289, 3, 0, -393288, 3, 0, -393287, 3, 0, -393286, 3, 0, -393285, 3, 0, -393284, 3, 0, -393283, 3, 0, -393282, 3, 0, -393281, 3, 0, -393280, 3, 0, -393279, 3, 0, -393278, 3, 0, -393277, 3, 0, -393276, 3, 0, -393275, 3, 0, -393274, 3, 0, -393273, 3, 0, -393272, 3, 0, -393271, 3, 0, -393270, 3, 0, -393269, 3, 0, -393268, 3, 0, -393267, 3, 0, -393266, 3, 0, -393265, 3, 0, -393264, 3, 0, -393263, 3, 0, -393262, 3, 0, -393261, 3, 0, -393260, 3, 0, -393259, 3, 0, -393258, 3, 0, -393257, 3, 0, -393256, 3, 0, -393255, 3, 0, -393254, 3, 0, -393253, 3, 0, -393252, 3, 0, -393251, 3, 0, -393250, 3, 0, -393249, 3, 0, -393248, 3, 0, -393247, 3, 0, -393246, 3, 0, -393245, 3, 0, -393244, 3, 0, -393243, 3, 0, -393242, 3, 0, -393241, 3, 0, -393240, 3, 0, -393239, 3, 0, -393238, 3, 0, -393237, 3, 0, -393236, 3, 0, -393235, 3, 0, -393234, 3, 0, -393233, 3, 0, -393232, 3, 0, -393231, 3, 0, -393230, 3, 0, -393229, 3, 0, -393228, 3, 0, -393227, 3, 0, -393226, 3, 0, -393225, 3, 0, -393224, 3, 0, -393223, 3, 0, -393222, 3, 0, -393221, 3, 0, -393220, 3, 0, -393219, 3, 0, -393218, 3, 0, -393217, 3, 0, -458752, 3, 0, -458751, 3, 0, -458750, 3, 0, -458749, 3, 0, -458748, 3, 0, -458747, 3, 0, -458746, 3, 0, -458745, 3, 0, -458744, 3, 0, -458743, 3, 0, -458742, 3, 0, -458741, 536870914, 0, -327784, 2, 0, -327783, 3, 0, -327782, 3, 0, -327781, 3, 0, -327780, 3, 0, -327779, 3, 0, -327778, 3, 0, -327777, 3, 0, -327776, 3, 0, -327775, 3, 0, -327774, 3, 0, -327773, 3, 0, -327772, 3, 0, -327771, 3, 0, -327770, 3, 0, -327769, 3, 0, -327768, 3, 0, -327767, 3, 0, -327766, 3, 0, -327765, 3, 0, -327764, 3, 0, -327763, 3, 0, -327762, 3, 0, -327761, 3, 0, -327760, 3, 0, -327759, 3, 0, -327758, 3, 0, -327757, 3, 0, -327756, 3, 0, -327755, 3, 0, -327754, 3, 0, -327753, 3, 0, -327752, 3, 0, -327751, 3, 0, -327750, 3, 0, -327749, 3, 0, -327748, 3, 0, -327747, 3, 0, -327746, 3, 0, -327745, 3, 0, -327744, 3, 0, -327743, 3, 0, -327742, 3, 0, -327741, 3, 0, -327740, 3, 0, -327739, 3, 0, -327738, 3, 0, -327737, 3, 0, -327736, 3, 0, -327735, 3, 0, -327734, 3, 0, -327733, 3, 0, -327732, 3, 0, -327731, 3, 0, -327730, 3, 0, -327729, 3, 0, -327728, 3, 0, -327727, 3, 0, -327726, 3, 0, -327725, 3, 0, -327724, 3, 0, -327723, 3, 0, -327722, 3, 0, -327721, 3, 0, -327720, 3, 0, -327719, 3, 0, -327718, 3, 0, -327717, 3, 0, -327716, 3, 0, -327715, 3, 0, -327714, 3, 0, -327713, 3, 0, -327712, 3, 0, -327711, 3, 0, -327710, 3, 0, -327709, 3, 0, -327708, 3, 0, -327707, 3, 0, -327706, 3, 0, -327705, 3, 0, -327704, 3, 0, -327703, 3, 0, -327702, 3, 0, -327701, 3, 0, -327700, 3, 0, -327699, 3, 0, -327698, 3, 0, -327697, 3, 0, -327696, 3, 0, -327695, 3, 0, -327694, 3, 0, -327693, 3, 0, -327692, 3, 0, -327691, 3, 0, -327690, 3, 0, -327689, 3, 0, -327688, 3, 0, -327687, 3, 0, -327686, 3, 0, -327685, 3, 0, -327684, 3, 0, -327683, 3, 0, -327682, 3, 0, -327681, 3, 0, -393216, 3, 0, -393215, 3, 0, -393214, 3, 0, -393213, 3, 0, -393212, 3, 0, -393211, 3, 0, -393210, 3, 0, -393209, 3, 0, -393208, 3, 0, -393207, 3, 0, -393206, 3, 0, -393205, 536870914, 0, -262248, 2, 0, -262247, 3, 0, -262246, 3, 0, -262245, 3, 0, -262244, 3, 0, -262243, 3, 0, -262242, 3, 0, -262241, 3, 0, -262240, 3, 0, -262239, 3, 0, -262238, 3, 0, -262237, 3, 0, -262236, 3, 0, -262235, 3, 0, -262234, 3, 0, -262233, 3, 0, -262232, 3, 0, -262231, 3, 0, -262230, 3, 0, -262229, 3, 0, -262228, 3, 0, -262227, 3, 0, -262226, 3, 0, -262225, 3, 0, -262224, 3, 0, -262223, 3, 0, -262222, 3, 0, -262221, 3, 0, -262220, 3, 0, -262219, 3, 0, -262218, 3, 0, -262217, 3, 0, -262216, 3, 0, -262215, 3, 0, -262214, 3, 0, -262213, 3, 0, -262212, 3, 0, -262211, 3, 0, -262210, 3, 0, -262209, 3, 0, -262208, 3, 0, -262207, 3, 0, -262206, 3, 0, -262205, 3, 0, -262204, 3, 0, -262203, 3, 0, -262202, 3, 0, -262201, 3, 0, -262200, 3, 0, -262199, 3, 0, -262198, 3, 0, -262197, 3, 0, -262196, 3, 0, -262195, 3, 0, -262194, 3, 0, -262193, 3, 0, -262192, 3, 0, -262191, 3, 0, -262190, 3, 0, -262189, 3, 0, -262188, 3, 0, -262187, 3, 0, -262186, 3, 0, -262185, 3, 0, -262184, 3, 0, -262183, 3, 0, -262182, 3, 0, -262181, 3, 0, -262180, 3, 0, -262179, 3, 0, -262178, 3, 0, -262177, 3, 0, -262176, 3, 0, -262175, 3, 0, -262174, 3, 0, -262173, 3, 0, -262172, 3, 0, -262171, 3, 0, -262170, 3, 0, -262169, 3, 0, -262168, 3, 0, -262167, 3, 0, -262166, 3, 0, -262165, 3, 0, -262164, 3, 0, -262163, 3, 0, -262162, 3, 0, -262161, 3, 0, -262160, 3, 0, -262159, 3, 0, -262158, 3, 0, -262157, 3, 0, -262156, 3, 0, -262155, 3, 0, -262154, 3, 0, -262153, 3, 0, -262152, 3, 0, -262151, 3, 0, -262150, 3, 0, -262149, 3, 0, -262148, 3, 0, -262147, 3, 0, -262146, 3, 0, -262145, 3, 0, -327680, 3, 0, -327679, 3, 0, -327678, 3, 0, -327677, 3, 0, -327676, 3, 0, -327675, 3, 0, -327674, 3, 0, -327673, 3, 0, -327672, 3, 0, -327671, 3, 0, -327670, 3, 0, -327669, 536870914, 0, -196712, 2, 0, -196711, 3, 0, -196710, 3, 0, -196709, 3, 0, -196708, 3, 0, -196707, 3, 0, -196706, 3, 0, -196705, 3, 0, -196704, 3, 0, -196703, 3, 0, -196702, 3, 0, -196701, 3, 0, -196700, 3, 0, -196699, 3, 0, -196698, 3, 0, -196697, 3, 0, -196696, 3, 0, -196695, 3, 0, -196694, 3, 0, -196693, 3, 0, -196692, 3, 0, -196691, 3, 0, -196690, 3, 0, -196689, 3, 0, -196688, 3, 0, -196687, 3, 0, -196686, 3, 0, -196685, 3, 0, -196684, 3, 0, -196683, 3, 0, -196682, 3, 0, -196681, 3, 0, -196680, 3, 0, -196679, 3, 0, -196678, 3, 0, -196677, 3, 0, -196676, 3, 0, -196675, 3, 0, -196674, 3, 0, -196673, 3, 0, -196672, 3, 0, -196671, 3, 0, -196670, 3, 0, -196669, 3, 0, -196668, 3, 0, -196667, 3, 0, -196666, 3, 0, -196665, 3, 0, -196664, 3, 0, -196663, 3, 0, -196662, 3, 0, -196661, 3, 0, -196660, 3, 0, -196659, 3, 0, -196658, 3, 0, -196657, 3, 0, -196656, 3, 0, -196655, 3, 0, -196654, 3, 0, -196653, 3, 0, -196652, 3, 0, -196651, 3, 0, -196650, 3, 0, -196649, 3, 0, -196648, 3, 0, -196647, 3, 0, -196646, 3, 0, -196645, 3, 0, -196644, 3, 0, -196643, 3, 0, -196642, 3, 0, -196641, 3, 0, -196640, 3, 0, -196639, 3, 0, -196638, 3, 0, -196637, 3, 0, -196636, 3, 0, -196635, 3, 0, -196634, 3, 0, -196633, 3, 0, -196632, 3, 0, -196631, 3, 0, -196630, 3, 0, -196629, 3, 0, -196628, 3, 0, -196627, 3, 0, -196626, 3, 0, -196625, 3, 0, -196624, 3, 0, -196623, 3, 0, -196622, 3, 0, -196621, 3, 0, -196620, 3, 0, -196619, 3, 0, -196618, 3, 0, -196617, 3, 0, -196616, 3, 0, -196615, 3, 0, -196614, 3, 0, -196613, 3, 0, -196612, 3, 0, -196611, 3, 0, -196610, 3, 0, -196609, 3, 0, -262144, 3, 0, -262143, 3, 0, -262142, 3, 0, -262141, 3, 0, -262140, 3, 0, -262139, 3, 0, -262138, 3, 0, -262137, 3, 0, -262136, 3, 0, -262135, 3, 0, -262134, 3, 0, -262133, 536870914, 0, -131176, 2, 0, -131175, 3, 0, -131174, 3, 0, -131173, 3, 0, -131172, 3, 0, -131171, 3, 0, -131170, 3, 0, -131169, 3, 0, -131168, 3, 0, -131167, 3, 0, -131166, 3, 0, -131165, 3, 0, -131164, 3, 0, -131163, 3, 0, -131162, 3, 0, -131161, 3, 0, -131160, 3, 0, -131159, 3, 0, -131158, 3, 0, -131157, 3, 0, -131156, 3, 0, -131155, 3, 0, -131154, 3, 0, -131153, 3, 0, -131152, 3, 0, -131151, 3, 0, -131150, 3, 0, -131149, 3, 0, -131148, 3, 0, -131147, 3, 0, -131146, 3, 0, -131145, 3, 0, -131144, 3, 0, -131143, 3, 0, -131142, 3, 0, -131141, 3, 0, -131140, 3, 0, -131139, 3, 0, -131138, 3, 0, -131137, 3, 0, -131136, 3, 0, -131135, 3, 0, -131134, 3, 0, -131133, 3, 0, -131132, 3, 0, -131131, 3, 0, -131130, 3, 0, -131129, 3, 0, -131128, 3, 0, -131127, 3, 0, -131126, 3, 0, -131125, 3, 0, -131124, 3, 0, -131123, 3, 0, -131122, 3, 0, -131121, 3, 0, -131120, 3, 0, -131119, 3, 0, -131118, 3, 0, -131117, 3, 0, -131116, 3, 0, -131115, 3, 0, -131114, 3, 0, -131113, 3, 0, -131112, 3, 0, -131111, 3, 0, -131110, 3, 0, -131109, 3, 0, -131108, 3, 0, -131107, 3, 0, -131106, 3, 0, -131105, 3, 0, -131104, 3, 0, -131103, 3, 0, -131102, 3, 0, -131101, 3, 0, -131100, 3, 0, -131099, 3, 0, -131098, 3, 0, -131097, 3, 0, -131096, 3, 0, -131095, 3, 0, -131094, 3, 0, -131093, 3, 0, -131092, 3, 0, -131091, 3, 0, -131090, 3, 0, -131089, 3, 0, -131088, 3, 0, -131087, 3, 0, -131086, 3, 0, -131085, 3, 0, -131084, 3, 0, -131083, 3, 0, -131082, 3, 0, -131081, 3, 0, -131080, 3, 0, -131079, 3, 0, -131078, 3, 0, -131077, 3, 0, -131076, 3, 0, -131075, 3, 0, -131074, 3, 0, -131073, 3, 0, -196608, 3, 0, -196607, 3, 0, -196606, 3, 0, -196605, 3, 0, -196604, 3, 0, -196603, 3, 0, -196602, 3, 0, -196601, 3, 0, -196600, 3, 0, -196599, 3, 0, -196598, 3, 0, -196597, 536870914, 0, -65640, 2, 0, -65639, 3, 0, -65638, 3, 0, -65637, 3, 0, -65636, 3, 0, -65635, 3, 0, -65634, 3, 0, -65633, 3, 0, -65632, 3, 0, -65631, 3, 0, -65630, 3, 0, -65629, 3, 0, -65628, 3, 0, -65627, 3, 0, -65626, 3, 0, -65625, 3, 0, -65624, 3, 0, -65623, 3, 0, -65622, 3, 0, -65621, 3, 0, -65620, 3, 0, -65619, 3, 0, -65618, 3, 0, -65617, 3, 0, -65616, 3, 0, -65615, 3, 0, -65614, 3, 0, -65613, 3, 0, -65612, 3, 0, -65611, 3, 0, -65610, 3, 0, -65609, 3, 0, -65608, 3, 0, -65607, 3, 0, -65606, 3, 0, -65605, 3, 0, -65604, 3, 0, -65603, 3, 0, -65602, 3, 0, -65601, 3, 0, -65600, 3, 0, -65599, 3, 0, -65598, 3, 0, -65597, 3, 0, -65596, 3, 0, -65595, 3, 0, -65594, 3, 0, -65593, 3, 0, -65592, 3, 0, -65591, 3, 0, -65590, 3, 0, -65589, 3, 0, -65588, 3, 0, -65587, 3, 0, -65586, 3, 0, -65585, 3, 0, -65584, 3, 0, -65583, 3, 0, -65582, 3, 0, -65581, 3, 0, -65580, 3, 0, -65579, 3, 0, -65578, 3, 0, -65577, 3, 0, -65576, 3, 0, -65575, 3, 0, -65574, 3, 0, -65573, 3, 0, -65572, 3, 0, -65571, 3, 0, -65570, 3, 0, -65569, 3, 0, -65568, 3, 0, -65567, 3, 0, -65566, 3, 0, -65565, 3, 0, -65564, 3, 0, -65563, 3, 0, -65562, 3, 0, -65561, 3, 0, -65560, 3, 0, -65559, 3, 0, -65558, 3, 0, -65557, 3, 0, -65556, 3, 0, -65555, 3, 0, -65554, 3, 0, -65553, 3, 0, -65552, 3, 0, -65551, 3, 0, -65550, 3, 0, -65549, 3, 0, -65548, 3, 0, -65547, 3, 0, -65546, 3, 0, -65545, 3, 0, -65544, 3, 0, -65543, 3, 0, -65542, 3, 0, -65541, 3, 0, -65540, 3, 0, -65539, 3, 0, -65538, 3, 0, -65537, 3, 0, -131072, 3, 0, -131071, 3, 0, -131070, 3, 0, -131069, 3, 0, -131068, 3, 0, -131067, 3, 0, -131066, 3, 0, -131065, 3, 0, -131064, 3, 0, -131063, 3, 0, -131062, 3, 0, -131061, 536870914, 0, -104, 2, 0, -103, 3, 0, -102, 3, 0, -101, 3, 0, -100, 3, 0, -99, 3, 0, -98, 3, 0, -97, 3, 0, -96, 3, 0, -95, 3, 0, -94, 3, 0, -93, 3, 0, -92, 3, 0, -91, 3, 0, -90, 3, 0, -89, 3, 0, -88, 3, 0, -87, 3, 0, -86, 3, 0, -85, 3, 0, -84, 3, 0, -83, 3, 0, -82, 3, 0, -81, 3, 0, -80, 3, 0, -79, 3, 0, -78, 3, 0, -77, 3, 0, -76, 3, 0, -75, 3, 0, -74, 3, 0, -73, 3, 0, -72, 3, 0, -71, 3, 0, -70, 3, 0, -69, 3, 0, -68, 3, 0, -67, 3, 0, -66, 3, 0, -65, 3, 0, -64, 3, 0, -63, 3, 0, -62, 3, 0, -61, 3, 0, -60, 3, 0, -59, 3, 0, -58, 3, 0, -57, 3, 0, -56, 3, 0, -55, 3, 0, -54, 3, 0, -53, 3, 0, -52, 3, 0, -51, 3, 0, -50, 3, 0, -49, 3, 0, -48, 3, 0, -47, 3, 0, -46, 3, 0, -45, 3, 0, -44, 3, 0, -43, 3, 0, -42, 3, 0, -41, 3, 0, -40, 3, 0, -39, 3, 0, -38, 3, 0, -37, 3, 0, -36, 3, 0, -35, 3, 0, -34, 3, 0, -33, 3, 0, -32, 3, 0, -31, 3, 0, -30, 3, 0, -29, 3, 0, -28, 3, 0, -27, 3, 0, -26, 3, 0, -25, 3, 0, -24, 3, 0, -23, 3, 0, -22, 3, 0, -21, 3, 0, -20, 3, 0, -19, 3, 0, -18, 3, 0, -17, 3, 0, -16, 3, 0, -15, 3, 0, -14, 3, 0, -13, 3, 0, -12, 3, 0, -11, 3, 0, -10, 3, 0, -9, 3, 0, -8, 3, 0, -7, 3, 0, -6, 3, 0, -5, 3, 0, -4, 3, 0, -3, 3, 0, -2, 3, 0, -1, 3, 0, -65536, 3, 0, -65535, 3, 0, -65534, 3, 0, -65533, 3, 0, -65532, 3, 0, -65531, 3, 0, -65530, 3, 0, -65529, 3, 0, -65528, 3, 0, -65527, 3, 0, -65526, 3, 0, -65525, 536870914, 0, 65432, 2, 0, 65433, 3, 0, 65434, 3, 0, 65435, 3, 0, 65436, 3, 0, 65437, 3, 0, 65438, 3, 0, 65439, 3, 0, 65440, 3, 0, 65441, 3, 0, 65442, 3, 0, 65443, 3, 0, 65444, 3, 0, 65445, 3, 0, 65446, 3, 0, 65447, 3, 0, 65448, 3, 0, 65449, 3, 0, 65450, 3, 0, 65451, 3, 0, 65452, 3, 0, 65453, 3, 0, 65454, 3, 0, 65455, 3, 0, 65456, 3, 0, 65457, 3, 0, 65458, 3, 0, 65459, 3, 0, 65460, 3, 0, 65461, 3, 0, 65462, 3, 0, 65463, 3, 0, 65464, 3, 0, 65465, 3, 0, 65466, 3, 0, 65467, 3, 0, 65468, 3, 0, 65469, 3, 0, 65470, 3, 0, 65471, 3, 0, 65472, 3, 0, 65473, 3, 0, 65474, 3, 0, 65475, 3, 0, 65476, 3, 0, 65477, 3, 0, 65478, 3, 0, 65479, 3, 0, 65480, 3, 0, 65481, 3, 0, 65482, 3, 0, 65483, 3, 0, 65484, 3, 0, 65485, 3, 0, 65486, 3, 0, 65487, 3, 0, 65488, 3, 0, 65489, 3, 0, 65490, 3, 0, 65491, 3, 0, 65492, 3, 0, 65493, 3, 0, 65494, 3, 0, 65495, 3, 0, 65496, 3, 0, 65497, 3, 0, 65498, 3, 0, 65499, 3, 0, 65500, 3, 0, 65501, 3, 0, 65502, 3, 0, 65503, 3, 0, 65504, 3, 0, 65505, 3, 0, 65506, 3, 0, 65507, 3, 0, 65508, 3, 0, 65509, 3, 0, 65510, 3, 0, 65511, 3, 0, 65512, 3, 0, 65513, 3, 0, 65514, 3, 0, 65515, 3, 0, 65516, 3, 0, 65517, 3, 0, 65518, 3, 0, 65519, 3, 0, 65520, 3, 0, 65521, 3, 0, 65522, 3, 0, 65523, 3, 0, 65524, 3, 0, 65525, 3, 0, 65526, 3, 0, 65527, 3, 0, 65528, 3, 0, 65529, 3, 0, 65530, 3, 0, 65531, 3, 0, 65532, 3, 0, 65533, 3, 0, 65534, 3, 0, 65535, 3, 0, 0, 3, 0, 1, 3, 0, 2, 3, 0, 3, 3, 0, 4, 3, 0, 5, 3, 0, 6, 3, 0, 7, 3, 0, 8, 3, 0, 9, 3, 0, 10, 3, 0, 11, 536870914, 0, 130968, 2, 0, 130969, 3, 0, 130970, 3, 0, 130971, 3, 0, 130972, 3, 0, 130973, 3, 0, 130974, 3, 0, 130975, 3, 0, 130976, 3, 0, 130977, 3, 0, 130978, 3, 0, 130979, 3, 0, 130980, 3, 0, 130981, 3, 0, 130982, 3, 0, 130983, 3, 0, 130984, 3, 0, 130985, 3, 0, 130986, 3, 0, 130987, 3, 0, 130988, 3, 0, 130989, 3, 0, 130990, 3, 0, 130991, 3, 0, 130992, 3, 0, 130993, 3, 0, 130994, 3, 0, 130995, 3, 0, 130996, 3, 0, 130997, 3, 0, 130998, 3, 0, 130999, 3, 0, 131000, 3, 0, 131001, 3, 0, 131002, 3, 0, 131003, 3, 0, 131004, 3, 0, 131005, 3, 0, 131006, 3, 0, 131007, 3, 0, 131008, 3, 0, 131009, 3, 0, 131010, 3, 0, 131011, 3, 0, 131012, 3, 0, 131013, 3, 0, 131014, 3, 0, 131015, 3, 0, 131016, 3, 0, 131017, 3, 0, 131018, 3, 0, 131019, 3, 0, 131020, 3, 0, 131021, 3, 0, 131022, 3, 0, 131023, 3, 0, 131024, 3, 0, 131025, 3, 0, 131026, 3, 0, 131027, 3, 0, 131028, 3, 0, 131029, 3, 0, 131030, 3, 0, 131031, 3, 0, 131032, 3, 0, 131033, 3, 0, 131034, 3, 0, 131035, 3, 0, 131036, 3, 0, 131037, 3, 0, 131038, 3, 0, 131039, 3, 0, 131040, 3, 0, 131041, 3, 0, 131042, 3, 0, 131043, 3, 0, 131044, 3, 0, 131045, 3, 0, 131046, 3, 0, 131047, 3, 0, 131048, 3, 0, 131049, 3, 0, 131050, 3, 0, 131051, 3, 0, 131052, 3, 0, 131053, 3, 0, 131054, 3, 0, 131055, 3, 0, 131056, 3, 0, 131057, 3, 0, 131058, 3, 0, 131059, 3, 0, 131060, 3, 0, 131061, 3, 0, 131062, 3, 0, 131063, 3, 0, 131064, 3, 0, 131065, 3, 0, 131066, 3, 0, 131067, 3, 0, 131068, 3, 0, 131069, 3, 0, 131070, 3, 0, 131071, 3, 0, 65536, 3, 0, 65537, 3, 0, 65538, 3, 0, 65539, 3, 0, 65540, 3, 0, 65541, 3, 0, 65542, 3, 0, 65543, 3, 0, 65544, 3, 0, 65545, 3, 0, 65546, 3, 0, 65547, 536870914, 0, 196504, 2, 0, 196505, 3, 0, 196506, 3, 0, 196507, 3, 0, 196508, 3, 0, 196509, 3, 0, 196510, 3, 0, 196511, 3, 0, 196512, 3, 0, 196513, 3, 0, 196514, 3, 0, 196515, 3, 0, 196516, 3, 0, 196517, 3, 0, 196518, 3, 0, 196519, 3, 0, 196520, 3, 0, 196521, 3, 0, 196522, 3, 0, 196523, 3, 0, 196524, 3, 0, 196525, 3, 0, 196526, 3, 0, 196527, 3, 0, 196528, 3, 0, 196529, 3, 0, 196530, 3, 0, 196531, 3, 0, 196532, 3, 0, 196533, 3, 0, 196534, 3, 0, 196535, 3, 0, 196536, 3, 0, 196537, 3, 0, 196538, 3, 0, 196539, 3, 0, 196540, 3, 0, 196541, 3, 0, 196542, 3, 0, 196543, 3, 0, 196544, 3, 0, 196545, 3, 0, 196546, 3, 0, 196547, 3, 0, 196548, 3, 0, 196549, 3, 0, 196550, 3, 0, 196551, 3, 0, 196552, 3, 0, 196553, 3, 0, 196554, 3, 0, 196555, 3, 0, 196556, 3, 0, 196557, 3, 0, 196558, 3, 0, 196559, 3, 0, 196560, 3, 0, 196561, 3, 0, 196562, 3, 0, 196563, 3, 0, 196564, 3, 0, 196565, 3, 0, 196566, 3, 0, 196567, 3, 0, 196568, 3, 0, 196569, 3, 0, 196570, 3, 0, 196571, 3, 0, 196572, 3, 0, 196573, 3, 0, 196574, 3, 0, 196575, 3, 0, 196576, 3, 0, 196577, 3, 0, 196578, 3, 0, 196579, 3, 0, 196580, 3, 0, 196581, 3, 0, 196582, 3, 0, 196583, 3, 0, 196584, 3, 0, 196585, 3, 0, 196586, 3, 0, 196587, 3, 0, 196588, 3, 0, 196589, 3, 0, 196590, 3, 0, 196591, 3, 0, 196592, 3, 0, 196593, 3, 0, 196594, 3, 0, 196595, 3, 0, 196596, 3, 0, 196597, 3, 0, 196598, 3, 0, 196599, 3, 0, 196600, 3, 0, 196601, 3, 0, 196602, 3, 0, 196603, 3, 0, 196604, 3, 0, 196605, 3, 0, 196606, 3, 0, 196607, 3, 0, 131072, 3, 0, 131073, 3, 0, 131074, 3, 0, 131075, 3, 0, 131076, 3, 0, 131077, 3, 0, 131078, 3, 0, 131079, 3, 0, 131080, 3, 0, 131081, 3, 0, 131082, 3, 0, 131083, 536870914, 0, 262040, 2, 0, 262041, 3, 0, 262042, 3, 0, 262043, 3, 0, 262044, 3, 0, 262045, 3, 0, 262046, 3, 0, 262047, 3, 0, 262048, 3, 0, 262049, 3, 0, 262050, 3, 0, 262051, 3, 0, 262052, 3, 0, 262053, 3, 0, 262054, 3, 0, 262055, 3, 0, 262056, 3, 0, 262057, 3, 0, 262058, 3, 0, 262059, 3, 0, 262060, 3, 0, 262061, 3, 0, 262062, 3, 0, 262063, 3, 0, 262064, 3, 0, 262065, 3, 0, 262066, 3, 0, 262067, 3, 0, 262068, 3, 0, 262069, 3, 0, 262070, 3, 0, 262071, 3, 0, 262072, 3, 0, 262073, 3, 0, 262074, 3, 0, 262075, 3, 0, 262076, 3, 0, 262077, 3, 0, 262078, 3, 0, 262079, 3, 0, 262080, 3, 0, 262081, 3, 0, 262082, 3, 0, 262083, 3, 0, 262084, 3, 0, 262085, 3, 0, 262086, 3, 0, 262087, 3, 0, 262088, 3, 0, 262089, 3, 0, 262090, 3, 0, 262091, 3, 0, 262092, 3, 0, 262093, 3, 0, 262094, 3, 0, 262095, 3, 0, 262096, 3, 0, 262097, 3, 0, 262098, 3, 0, 262099, 3, 0, 262100, 3, 0, 262101, 3, 0, 262102, 3, 0, 262103, 3, 0, 262104, 3, 0, 262105, 3, 0, 262106, 3, 0, 262107, 3, 0, 262108, 3, 0, 262109, 3, 0, 262110, 3, 0, 262111, 3, 0, 262112, 3, 0, 262113, 3, 0, 262114, 3, 0, 262115, 3, 0, 262116, 3, 0, 262117, 3, 0, 262118, 3, 0, 262119, 3, 0, 262120, 3, 0, 262121, 3, 0, 262122, 3, 0, 262123, 3, 0, 262124, 3, 0, 262125, 3, 0, 262126, 3, 0, 262127, 3, 0, 262128, 3, 0, 262129, 3, 0, 262130, 3, 0, 262131, 3, 0, 262132, 3, 0, 262133, 3, 0, 262134, 3, 0, 262135, 3, 0, 262136, 3, 0, 262137, 3, 0, 262138, 3, 0, 262139, 3, 0, 262140, 3, 0, 262141, 3, 0, 262142, 3, 0, 262143, 3, 0, 196608, 3, 0, 196609, 3, 0, 196610, 3, 0, 196611, 3, 0, 196612, 3, 0, 196613, 3, 0, 196614, 3, 0, 196615, 3, 0, 196616, 3, 0, 196617, 3, 0, 196618, 3, 0, 196619, 536870914, 0, 327576, 2, 0, 327577, 3, 0, 327578, 3, 0, 327579, 3, 0, 327580, 3, 0, 327581, 3, 0, 327582, 3, 0, 327583, 3, 0, 327584, 3, 0, 327585, 3, 0, 327586, 3, 0, 327587, 3, 0, 327588, 3, 0, 327589, 3, 0, 327590, 3, 0, 327591, 3, 0, 327592, 3, 0, 327593, 3, 0, 327594, 3, 0, 327595, 3, 0, 327596, 3, 0, 327597, 3, 0, 327598, 3, 0, 327599, 3, 0, 327600, 3, 0, 327601, 3, 0, 327602, 3, 0, 327603, 3, 0, 327604, 3, 0, 327605, 3, 0, 327606, 3, 0, 327607, 3, 0, 327608, 3, 0, 327609, 3, 0, 327610, 3, 0, 327611, 3, 0, 327612, 3, 0, 327613, 3, 0, 327614, 3, 0, 327615, 3, 0, 327616, 3, 0, 327617, 3, 0, 327618, 3, 0, 327619, 3, 0, 327620, 3, 0, 327621, 3, 0, 327622, 3, 0, 327623, 3, 0, 327624, 3, 0, 327625, 3, 0, 327626, 3, 0, 327627, 3, 0, 327628, 3, 0, 327629, 3, 0, 327630, 3, 0, 327631, 3, 0, 327632, 3, 0, 327633, 3, 0, 327634, 3, 0, 327635, 3, 0, 327636, 3, 0, 327637, 3, 0, 327638, 3, 0, 327639, 3, 0, 327640, 3, 0, 327641, 3, 0, 327642, 3, 0, 327643, 3, 0, 327644, 3, 0, 327645, 3, 0, 327646, 3, 0, 327647, 3, 0, 327648, 3, 0, 327649, 3, 0, 327650, 3, 0, 327651, 3, 0, 327652, 3, 0, 327653, 3, 0, 327654, 3, 0, 327655, 3, 0, 327656, 3, 0, 327657, 3, 0, 327658, 3, 0, 327659, 3, 0, 327660, 3, 0, 327661, 3, 0, 327662, 3, 0, 327663, 3, 0, 327664, 3, 0, 327665, 3, 0, 327666, 3, 0, 327667, 3, 0, 327668, 3, 0, 327669, 3, 0, 327670, 3, 0, 327671, 3, 0, 327672, 3, 0, 327673, 3, 0, 327674, 3, 0, 327675, 3, 0, 327676, 3, 0, 327677, 3, 0, 327678, 3, 0, 327679, 3, 0, 262144, 3, 0, 262145, 3, 0, 262146, 3, 0, 262147, 3, 0, 262148, 3, 0, 262149, 3, 0, 262150, 3, 0, 262151, 3, 0, 262152, 3, 0, 262153, 3, 0, 262154, 3, 0, 262155, 536870914, 0, 393112, 2, 0, 393113, 3, 0, 393114, 3, 0, 393115, 3, 0, 393116, 3, 0, 393117, 3, 0, 393118, 3, 0, 393119, 3, 0, 393120, 3, 0, 393121, 3, 0, 393122, 3, 0, 393123, 3, 0, 393124, 3, 0, 393125, 3, 0, 393126, 3, 0, 393127, 3, 0, 393128, 3, 0, 393129, 3, 0, 393130, 3, 0, 393131, 3, 0, 393132, 3, 0, 393133, 3, 0, 393134, 3, 0, 393135, 3, 0, 393136, 3, 0, 393137, 3, 0, 393138, 3, 0, 393139, 3, 0, 393140, 3, 0, 393141, 3, 0, 393142, 3, 0, 393143, 3, 0, 393144, 3, 0, 393145, 3, 0, 393146, 3, 0, 393147, 3, 0, 393148, 3, 0, 393149, 3, 0, 393150, 3, 0, 393151, 3, 0, 393152, 3, 0, 393153, 3, 0, 393154, 3, 0, 393155, 3, 0, 393156, 3, 0, 393157, 3, 0, 393158, 3, 0, 393159, 3, 0, 393160, 3, 0, 393161, 3, 0, 393162, 3, 0, 393163, 3, 0, 393164, 3, 0, 393165, 3, 0, 393166, 3, 0, 393167, 3, 0, 393168, 3, 0, 393169, 3, 0, 393170, 3, 0, 393171, 3, 0, 393172, 3, 0, 393173, 3, 0, 393174, 3, 0, 393175, 3, 0, 393176, 3, 0, 393177, 3, 0, 393178, 3, 0, 393179, 3, 0, 393180, 3, 0, 393181, 3, 0, 393182, 3, 0, 393183, 3, 0, 393184, 3, 0, 393185, 3, 0, 393186, 3, 0, 393187, 3, 0, 393188, 3, 0, 393189, 3, 0, 393190, 3, 0, 393191, 3, 0, 393192, 3, 0, 393193, 3, 0, 393194, 3, 0, 393195, 3, 0, 393196, 3, 0, 393197, 3, 0, 393198, 3, 0, 393199, 3, 0, 393200, 3, 0, 393201, 3, 0, 393202, 3, 0, 393203, 3, 0, 393204, 3, 0, 393205, 3, 0, 393206, 3, 0, 393207, 3, 0, 393208, 3, 0, 393209, 3, 0, 393210, 3, 0, 393211, 3, 0, 393212, 3, 0, 393213, 3, 0, 393214, 3, 0, 393215, 3, 0, 327680, 3, 0, 327681, 3, 0, 327682, 3, 0, 327683, 3, 0, 327684, 3, 0, 327685, 3, 0, 327686, 3, 0, 327687, 3, 0, 327688, 3, 0, 327689, 3, 0, 327690, 3, 0, 327691, 536870914, 0, 458648, 2, 0, 458649, 3, 0, 458650, 3, 0, 458651, 3, 0, 458652, 3, 0, 458653, 3, 0, 458654, 3, 0, 458655, 3, 0, 458656, 3, 0, 458657, 3, 0, 458658, 3, 0, 458659, 3, 0, 458660, 3, 0, 458661, 3, 0, 458662, 3, 0, 458663, 3, 0, 458664, 3, 0, 458665, 3, 0, 458666, 3, 0, 458667, 3, 0, 458668, 3, 0, 458669, 3, 0, 458670, 3, 0, 458671, 3, 0, 458672, 3, 0, 458673, 3, 0, 458674, 3, 0, 458675, 3, 0, 458676, 3, 0, 458677, 3, 0, 458678, 3, 0, 458679, 3, 0, 458680, 3, 0, 458681, 3, 0, 458682, 3, 0, 458683, 3, 0, 458684, 3, 0, 458685, 3, 0, 458686, 3, 0, 458687, 3, 0, 458688, 3, 0, 458689, 3, 0, 458690, 3, 0, 458691, 3, 0, 458692, 3, 0, 458693, 3, 0, 458694, 3, 0, 458695, 3, 0, 458696, 3, 0, 458697, 3, 0, 458698, 3, 0, 458699, 3, 0, 458700, 3, 0, 458701, 3, 0, 458702, 3, 0, 458703, 3, 0, 458704, 3, 0, 458705, 3, 0, 458706, 3, 0, 458707, 3, 0, 458708, 3, 0, 458709, 3, 0, 458710, 3, 0, 458711, 3, 0, 458712, 3, 0, 458713, 3, 0, 458714, 3, 0, 458715, 3, 0, 458716, 3, 0, 458717, 3, 0, 458718, 3, 0, 458719, 3, 0, 458720, 3, 0, 458721, 3, 0, 458722, 3, 0, 458723, 3, 0, 458724, 3, 0, 458725, 3, 0, 458726, 3, 0, 458727, 3, 0, 458728, 3, 0, 458729, 3, 0, 458730, 3, 0, 458731, 3, 0, 458732, 3, 0, 458733, 3, 0, 458734, 3, 0, 458735, 3, 0, 458736, 3, 0, 458737, 3, 0, 458738, 3, 0, 458739, 3, 0, 458740, 3, 0, 458741, 3, 0, 458742, 3, 0, 458743, 3, 0, 458744, 3, 0, 458745, 3, 0, 458746, 3, 0, 458747, 3, 0, 458748, 3, 0, 458749, 3, 0, 458750, 3, 0, 458751, 3, 0, 393216, 3, 0, 393217, 3, 0, 393218, 3, 0, 393219, 3, 0, 393220, 3, 0, 393221, 3, 0, 393222, 3, 0, 393223, 3, 0, 393224, 3, 0, 393225, 3, 0, 393226, 3, 0, 393227, 536870914, 0, 524184, 2, 0, 524185, 3, 0, 524186, 3, 0, 524187, 3, 0, 524188, 3, 0, 524189, 3, 0, 524190, 3, 0, 524191, 3, 0, 524192, 3, 0, 524193, 3, 0, 524194, 3, 0, 524195, 3, 0, 524196, 3, 0, 524197, 3, 0, 524198, 3, 0, 524199, 3, 0, 524200, 3, 0, 524201, 3, 0, 524202, 3, 0, 524203, 3, 0, 524204, 3, 0, 524205, 3, 0, 524206, 3, 0, 524207, 3, 0, 524208, 3, 0, 524209, 3, 0, 524210, 3, 0, 524211, 3, 0, 524212, 3, 0, 524213, 3, 0, 524214, 3, 0, 524215, 3, 0, 524216, 3, 0, 524217, 3, 0, 524218, 3, 0, 524219, 3, 0, 524220, 3, 0, 524221, 3, 0, 524222, 3, 0, 524223, 3, 0, 524224, 3, 0, 524225, 3, 0, 524226, 3, 0, 524227, 3, 0, 524228, 3, 0, 524229, 3, 0, 524230, 3, 0, 524231, 3, 0, 524232, 3, 0, 524233, 3, 0, 524234, 3, 0, 524235, 3, 0, 524236, 3, 0, 524237, 3, 0, 524238, 3, 0, 524239, 3, 0, 524240, 3, 0, 524241, 3, 0, 524242, 3, 0, 524243, 3, 0, 524244, 3, 0, 524245, 3, 0, 524246, 3, 0, 524247, 3, 0, 524248, 3, 0, 524249, 3, 0, 524250, 3, 0, 524251, 3, 0, 524252, 3, 0, 524253, 3, 0, 524254, 3, 0, 524255, 3, 0, 524256, 3, 0, 524257, 3, 0, 524258, 3, 0, 524259, 3, 0, 524260, 3, 0, 524261, 3, 0, 524262, 3, 0, 524263, 3, 0, 524264, 3, 0, 524265, 3, 0, 524266, 3, 0, 524267, 3, 0, 524268, 3, 0, 524269, 3, 0, 524270, 3, 0, 524271, 3, 0, 524272, 3, 0, 524273, 3, 0, 524274, 3, 0, 524275, 3, 0, 524276, 3, 0, 524277, 3, 0, 524278, 3, 0, 524279, 3, 0, 524280, 3, 0, 524281, 3, 0, 524282, 3, 0, 524283, 3, 0, 524284, 3, 0, 524285, 3, 0, 524286, 3, 0, 524287, 3, 0, 458752, 3, 0, 458753, 3, 0, 458754, 3, 0, 458755, 3, 0, 458756, 3, 0, 458757, 3, 0, 458758, 3, 0, 458759, 3, 0, 458760, 3, 0, 458761, 3, 0, 458762, 3, 0, 458763, 536870914, 0, 589720, 2, 0, 589721, 3, 0, 589722, 3, 0, 589723, 3, 0, 589724, 3, 0, 589725, 3, 0, 589726, 3, 0, 589727, 3, 0, 589728, 3, 0, 589729, 3, 0, 589730, 3, 0, 589731, 3, 0, 589732, 3, 0, 589733, 3, 0, 589734, 3, 0, 589735, 3, 0, 589736, 3, 0, 589737, 3, 0, 589738, 3, 0, 589739, 3, 0, 589740, 3, 0, 589741, 3, 0, 589742, 3, 0, 589743, 3, 0, 589744, 3, 0, 589745, 3, 0, 589746, 3, 0, 589747, 3, 0, 589748, 3, 0, 589749, 3, 0, 589750, 3, 0, 589751, 3, 0, 589752, 3, 0, 589753, 3, 0, 589754, 3, 0, 589755, 3, 0, 589756, 3, 0, 589757, 3, 0, 589758, 3, 0, 589759, 3, 0, 589760, 3, 0, 589761, 3, 0, 589762, 3, 0, 589763, 3, 0, 589764, 3, 0, 589765, 3, 0, 589766, 3, 0, 589767, 3, 0, 589768, 3, 0, 589769, 3, 0, 589770, 3, 0, 589771, 3, 0, 589772, 3, 0, 589773, 3, 0, 589774, 3, 0, 589775, 3, 0, 589776, 3, 0, 589777, 3, 0, 589778, 3, 0, 589779, 3, 0, 589780, 3, 0, 589781, 3, 0, 589782, 3, 0, 589783, 3, 0, 589784, 3, 0, 589785, 3, 0, 589786, 3, 0, 589787, 3, 0, 589788, 3, 0, 589789, 3, 0, 589790, 3, 0, 589791, 3, 0, 589792, 3, 0, 589793, 3, 0, 589794, 3, 0, 589795, 3, 0, 589796, 3, 0, 589797, 3, 0, 589798, 3, 0, 589799, 3, 0, 589800, 3, 0, 589801, 3, 0, 589802, 3, 0, 589803, 3, 0, 589804, 3, 0, 589805, 3, 0, 589806, 3, 0, 589807, 3, 0, 589808, 3, 0, 589809, 3, 0, 589810, 3, 0, 589811, 3, 0, 589812, 3, 0, 589813, 3, 0, 589814, 3, 0, 589815, 3, 0, 589816, 3, 0, 589817, 3, 0, 589818, 3, 0, 589819, 3, 0, 589820, 3, 0, 589821, 3, 0, 589822, 3, 0, 589823, 3, 0, 524288, 3, 0, 524289, 3, 0, 524290, 3, 0, 524291, 3, 0, 524292, 3, 0, 524293, 3, 0, 524294, 3, 0, 524295, 3, 0, 524296, 3, 0, 524297, 3, 0, 524298, 3, 0, 524299, 536870914, 0, 655256, 2, 0, 655257, 3, 0, 655258, 3, 0, 655259, 3, 0, 655260, 3, 0, 655261, 3, 0, 655262, 3, 0, 655263, 3, 0, 655264, 3, 0, 655265, 3, 0, 655266, 3, 0, 655267, 3, 0, 655268, 3, 0, 655269, 3, 0, 655270, 3, 0, 655271, 3, 0, 655272, 3, 0, 655273, 3, 0, 655274, 3, 0, 655275, 3, 0, 655276, 3, 0, 655277, 3, 0, 655278, 3, 0, 655279, 3, 0, 655280, 3, 0, 655281, 3, 0, 655282, 3, 0, 655283, 3, 0, 655284, 3, 0, 655285, 3, 0, 655286, 3, 0, 655287, 3, 0, 655288, 3, 0, 655289, 3, 0, 655290, 3, 0, 655291, 3, 0, 655292, 3, 0, 655293, 3, 0, 655294, 3, 0, 655295, 3, 0, 655296, 3, 0, 655297, 3, 0, 655298, 3, 0, 655299, 3, 0, 655300, 3, 0, 655301, 3, 0, 655302, 3, 0, 655303, 3, 0, 655304, 3, 0, 655305, 3, 0, 655306, 3, 0, 655307, 3, 0, 655308, 3, 0, 655309, 3, 0, 655310, 3, 0, 655311, 3, 0, 655312, 3, 0, 655313, 3, 0, 655314, 3, 0, 655315, 536870913, 0, 655316, 0, 0, 655317, 0, 0, 655318, 0, 0, 655319, 0, 0, 655320, 0, 0, 655321, 0, 0, 655322, 0, 0, 655323, 0, 0, 655324, 0, 0, 655325, 0, 0, 655326, 0, 0, 655327, 0, 0, 655328, 0, 0, 655329, 0, 0, 655330, 0, 0, 655331, 0, 0, 655332, 0, 0, 655333, 0, 0, 655334, 0, 0, 655335, 0, 0, 655336, 0, 0, 655337, 0, 0, 655338, 0, 0, 655339, 0, 0, 655340, 0, 0, 655341, 0, 0, 655342, 0, 0, 655343, 0, 0, 655344, 0, 0, 655345, 0, 0, 655346, 0, 0, 655347, 0, 0, 655348, 0, 0, 655349, 0, 0, 655350, 0, 0, 655351, 0, 0, 655352, 0, 0, 655353, 0, 0, 655354, 0, 0, 655355, 0, 0, 655356, 0, 0, 655357, 0, 0, 655358, 0, 0, 655359, 0, 0, 589824, 0, 0, 589825, 0, 0, 589826, 1, 0, 589827, 3, 0, 589828, 3, 0, 589829, 3, 0, 589830, 536870913, 0, 589831, 0, 0, 589832, 0, 0, 589833, 0, 0, 589834, 0, 0, 589835, 1, 0, 720792, 536870913, 0, 720793, 0, 0, 720794, 0, 0, 720795, 0, 0, 720796, 0, 0, 720797, 0, 0, 720798, 0, 0, 720799, 0, 0, 720800, 0, 0, 720801, 0, 0, 720802, 0, 0, 720803, 0, 0, 720804, 0, 0, 720805, 0, 0, 720806, 0, 0, 720807, 0, 0, 720808, 0, 0, 720809, 0, 0, 720810, 0, 0, 720811, 0, 0, 720812, 0, 0, 720813, 0, 0, 720814, 0, 0, 720815, 0, 0, 720816, 0, 0, 720817, 0, 0, 720818, 0, 0, 720819, 0, 0, 720820, 0, 0, 720821, 0, 0, 720822, 0, 0, 720823, 0, 0, 720824, 0, 0, 720825, 0, 0, 720826, 0, 0, 720827, 0, 0, 720828, 0, 0, 720829, 0, 0, 720830, 0, 0, 720831, 0, 0, 720832, 0, 0, 720833, 0, 0, 720834, 0, 0, 720835, 0, 0, 720836, 0, 0, 720837, 0, 0, 720838, 0, 0, 720839, 0, 0, 720840, 0, 0, 720841, 0, 0, 720842, 0, 0, 720843, 0, 0, 720844, 0, 0, 720845, 0, 0, 720846, 0, 0, 720847, 0, 0, 720848, 0, 0, 720849, 0, 0, 720850, 0, 0, 720851, 1, 0, 720852, 4, 0, 720853, 4, 0, 720854, 4, 0, 720855, 4, 0, 720856, 4, 0, 720857, 4, 0, 720858, 4, 0, 720859, 4, 0, 720860, 4, 0, 720861, 4, 0, 720862, 4, 0, 720863, 4, 0, 720864, 4, 0, 720865, 4, 0, 720866, 4, 0, 720867, 4, 0, 720868, 4, 0, 720869, 4, 0, 720870, 4, 0, 720871, 4, 0, 720872, 4, 0, 720873, 4, 0, 720874, 4, 0, 720875, 4, 0, 720876, 4, 0, 720877, 4, 0, 720878, 4, 0, 720879, 4, 0, 720880, 4, 0, 720881, 4, 0, 720882, 4, 0, 720883, 4, 0, 720884, 4, 0, 720885, 4, 0, 720886, 4, 0, 720887, 4, 0, 720888, 4, 0, 720889, 4, 0, 720890, 4, 0, 720891, 4, 0, 720892, 4, 0, 720893, 4, 0, 720894, 4, 0, 720895, 4, 0, 655360, 4, 0, 655361, 4, 0, 655362, 2, 0, 655363, 3, 0, 655364, 3, 0, 655365, 3, 0, 655366, 536870914, 0, 655371, 2, 0, 786328, 536870914, 0, 786329, 4, 0, 786330, 4, 0, 786331, 4, 0, 786332, 4, 0, 786333, 4, 0, 786334, 4, 0, 786335, 4, 0, 786336, 4, 0, 786337, 4, 0, 786338, 4, 0, 786339, 4, 0, 786340, 4, 0, 786341, 4, 0, 786342, 4, 0, 786343, 4, 0, 786344, 4, 0, 786345, 4, 0, 786346, 4, 0, 786347, 4, 0, 786348, 4, 0, 786349, 4, 0, 786350, 4, 0, 786351, 4, 0, 786352, 4, 0, 786353, 4, 0, 786354, 4, 0, 786355, 4, 0, 786356, 4, 0, 786357, 4, 0, 786358, 4, 0, 786359, 4, 0, 786360, 4, 0, 786361, 4, 0, 786362, 4, 0, 786363, 4, 0, 786364, 4, 0, 786365, 4, 0, 786366, 4, 0, 786367, 4, 0, 786368, 4, 0, 786369, 4, 0, 786370, 4, 0, 786371, 4, 0, 786372, 4, 0, 786373, 4, 0, 786374, 4, 0, 786375, 4, 0, 786376, 4, 0, 786377, 4, 0, 786378, 4, 0, 786379, 4, 0, 786380, 4, 0, 786381, 4, 0, 786382, 4, 0, 786383, 4, 0, 786384, 4, 0, 786385, 4, 0, 786386, 4, 0, 786387, 4, 0, 786388, 4, 0, 786389, 4, 0, 786390, 4, 0, 786391, 4, 0, 786392, 4, 0, 786393, 4, 0, 786394, 4, 0, 786395, 4, 0, 786396, 4, 0, 786397, 4, 0, 786398, 4, 0, 786399, 4, 0, 786400, 4, 0, 786401, 4, 0, 786402, 4, 0, 786403, 4, 0, 786404, 4, 0, 786405, 4, 0, 786406, 4, 0, 786407, 4, 0, 786408, 4, 0, 786409, 4, 0, 786410, 4, 0, 786411, 4, 0, 786412, 4, 0, 786413, 4, 0, 786414, 4, 0, 786415, 4, 0, 786416, 4, 0, 786417, 4, 0, 786418, 4, 0, 786419, 4, 0, 786420, 4, 0, 786421, 4, 0, 786422, 4, 0, 786423, 4, 0, 786424, 4, 0, 786425, 4, 0, 786426, 4, 0, 786427, 4, 0, 786428, 4, 0, 786429, 4, 0, 786430, 4, 0, 786431, 4, 0, 720896, 4, 0, 720897, 4, 0, 720898, 2, 0, 720899, 3, 0, 720900, 3, 0, 720901, 3, 0, 720902, 536870914, 0, 720907, 2, 0, 851864, 536870914, 0, 851865, 4, 0, 851866, 4, 0, 851867, 4, 0, 851868, 4, 0, 851869, 4, 0, 851870, 4, 0, 851871, 4, 0, 851872, 4, 0, 851873, 4, 0, 851874, 4, 0, 851875, 4, 0, 851876, 4, 0, 851877, 4, 0, 851878, 4, 0, 851879, 4, 0, 851880, 4, 0, 851881, 4, 0, 851882, 4, 0, 851883, 4, 0, 851884, 4, 0, 851885, 4, 0, 851886, 4, 0, 851887, 4, 0, 851888, 4, 0, 851889, 4, 0, 851890, 4, 0, 851891, 4, 0, 851892, 4, 0, 851893, 4, 0, 851894, 4, 0, 851895, 4, 0, 851896, 4, 0, 851897, 4, 0, 851898, 4, 0, 851899, 4, 0, 851900, 4, 0, 851901, 4, 0, 851902, 4, 0, 851903, 4, 0, 851904, 4, 0, 851905, 4, 0, 851906, 4, 0, 851907, 4, 0, 851908, 4, 0, 851909, 4, 0, 851910, 4, 0, 851911, 4, 0, 851912, 4, 0, 851913, 4, 0, 851914, 4, 0, 851915, 4, 0, 851916, 4, 0, 851917, 4, 0, 851918, 4, 0, 851919, 4, 0, 851920, 4, 0, 851921, 4, 0, 851922, 4, 0, 851923, 4, 0, 851924, 4, 0, 851925, 4, 0, 851926, 4, 0, 851927, 4, 0, 851928, 4, 0, 851929, 4, 0, 851930, 4, 0, 851931, 4, 0, 851932, 4, 0, 851933, 4, 0, 851934, 4, 0, 851935, 4, 0, 851936, 4, 0, 851937, 4, 0, 851938, 4, 0, 851939, 4, 0, 851940, 4, 0, 851941, 4, 0, 851942, 4, 0, 851943, 4, 0, 851944, 4, 0, 851945, 4, 0, 851946, 4, 0, 851947, 4, 0, 851948, 4, 0, 851949, 4, 0, 851950, 4, 0, 851951, 4, 0, 851952, 4, 0, 851953, 4, 0, 851954, 4, 0, 851955, 4, 0, 851956, 4, 0, 851957, 4, 0, 851958, 4, 0, 851959, 4, 0, 851960, 4, 0, 851961, 4, 0, 851962, 4, 0, 851963, 4, 0, 851964, 4, 0, 851965, 4, 0, 851966, 4, 0, 851967, 4, 0, 786432, 4, 0, 786433, 4, 0, 786434, 2, 0, 786435, 3, 0, 786436, 3, 0, 786437, 3, 0, 786438, 536870914, 0, 786443, 2, 0, 917400, 536870914, 0, 917401, 4, 0, 917402, 4, 0, 917403, 4, 0, 917404, 4, 0, 917405, 4, 0, 917406, 4, 0, 917407, 4, 0, 917408, 4, 0, 917409, 4, 0, 917410, 4, 0, 917411, 4, 0, 917412, 4, 0, 917413, 4, 0, 917414, 4, 0, 917415, 4, 0, 917416, 4, 0, 917417, 4, 0, 917418, 4, 0, 917419, 4, 0, 917420, 4, 0, 917421, 4, 0, 917422, 4, 0, 917423, 4, 0, 917424, 4, 0, 917425, 4, 0, 917426, 4, 0, 917427, 4, 0, 917428, 4, 0, 917429, 4, 0, 917430, 4, 0, 917431, 4, 0, 917432, 4, 0, 917433, 4, 0, 917434, 4, 0, 917435, 4, 0, 917436, 4, 0, 917437, 4, 0, 917438, 4, 0, 917439, 4, 0, 917440, 4, 0, 917441, 4, 0, 917442, 4, 0, 917443, 4, 0, 917444, 4, 0, 917445, 4, 0, 917446, 4, 0, 917447, 4, 0, 917448, 4, 0, 917449, 4, 0, 917450, 4, 0, 917451, 4, 0, 917452, 4, 0, 917453, 4, 0, 917454, 4, 0, 917455, 4, 0, 917456, 4, 0, 917457, 4, 0, 917458, 4, 0, 917459, 4, 0, 917460, 4, 0, 917461, 4, 0, 917462, 4, 0, 917463, 4, 0, 917464, 4, 0, 917465, 4, 0, 917466, 4, 0, 917467, 4, 0, 917468, 4, 0, 917469, 4, 0, 917470, 4, 0, 917471, 4, 0, 917472, 4, 0, 917473, 4, 0, 917474, 4, 0, 917475, 4, 0, 917476, 4, 0, 917477, 4, 0, 917478, 4, 0, 917479, 4, 0, 917480, 4, 0, 917481, 4, 0, 917482, 4, 0, 917483, 4, 0, 917484, 4, 0, 917485, 4, 0, 917486, 4, 0, 917487, 4, 0, 917488, 4, 0, 917489, 4, 0, 917490, 4, 0, 917491, 4, 0, 917492, 4, 0, 917493, 4, 0, 917494, 4, 0, 917495, 4, 0, 917496, 4, 0, 917497, 4, 0, 917498, 4, 0, 917499, 4, 0, 917500, 4, 0, 917501, 4, 0, 917502, 4, 0, 917503, 4, 0, 851968, 4, 0, 851969, 4, 0, 851970, 2, 0, 851971, 3, 0, 851972, 3, 0, 851973, 3, 0, 851974, 536870914, 0, 851975, 4, 0, 851976, 4, 0, 851977, 4, 0, 851978, 4, 0, 851979, 2, 0 )

[node name="DecoGroup" type="Node2D" parent="tilemap"]

[node name="TileMap" type="TileMap" parent="tilemap/DecoGroup"]
tile_set = ExtResource( 2 )
cell_size = Vector2( 32, 32 )
compatibility_mode = true
format = 1
tile_data = PoolIntArray( -1179744, 2, 0, -1179739, 4, 0, -1179732, 3, 0, -1179723, 3, 0, -1179717, 3, 0, -1179707, 4, 0, -1179699, 4, 0, -1179691, 4, 0, -1179684, 4, 0, -1179676, 4, 0, -1179666, 4, 0, -1179658, 4, 0, -1179651, 3, 0, -1245180, 2, 0, -786523, 1, 0, -786503, 1, 0, -786483, 1, 0, -720930, 1, 0, -720906, 1, 0, -589905, 1, 0, -589885, 1, 0, -655356, 536870913, 0, -524385, 4, 0, -393239, 1, 0, -458750, 1, 0, -262142, 1, 0, -65570, 1, 0, -65546, 1, 0, 65538, 1, 0, 327644, 5, 0, 327660, 5, 0, 327672, 5, 0, 393116, 1, 0, 589789, 0, 0, 589803, 0, 0, 589818, 536870912, 0, 655258, 0, 0, 655267, 0, 0, 655278, 0, 0, 655295, 536870912, 0, 655308, 536870912, 0, 536870912, 0, 0, 536870913, 0, 0, 536870914, 0, 0, 536870915, 0, 0 )

[node name="ClimbableGroup" type="Node2D" parent="tilemap"]

[node name="ClimbableBlock" parent="tilemap/ClimbableGroup" instance=ExtResource( 3 )]
position = Vector2( -3056, -304 )
physics_material_override = SubResource( 1 )

[node name="Sprite" parent="tilemap/ClimbableGroup/ClimbableBlock" index="0"]
flip_h = false

[node name="PlatformGroup" type="Node2D" parent="tilemap"]

[node name="platform" type="Node2D" parent="tilemap/PlatformGroup"]
position = Vector2( -3152, -464 )

[node name="Sprite" type="Sprite" parent="tilemap/PlatformGroup/platform"]
position = Vector2( 32, 0 )
texture = ExtResource( 4 )
region_enabled = true
region_rect = Rect2( 0, 0, 32, 288 )

[node name="Sprite2" type="Sprite" parent="tilemap/PlatformGroup/platform"]
texture = SubResource( 2 )
flip_h = true
region_enabled = true
region_rect = Rect2( 0, 0, 32, 288 )

[node name="Sprite1" type="Sprite" parent="tilemap/PlatformGroup/platform"]
position = Vector2( -32, 0 )
texture = ExtResource( 4 )
flip_h = true
region_enabled = true
region_rect = Rect2( 0, 0, 32, 288 )

[node name="StaticBody2D" type="StaticBody2D" parent="tilemap/PlatformGroup/platform"]
scale = Vector2( 3, 9 )
collision_layer = 524288

[node name="CollisionShape2D" type="CollisionShape2D" parent="tilemap/PlatformGroup/platform/StaticBody2D"]
shape = SubResource( 3 )

[node name="TorchGroup" type="Node2D" parent="tilemap"]

[node name="torch" parent="tilemap/TorchGroup" instance=ExtResource( 5 )]
position = Vector2( -96, 160 )
type = "ITEM"
reward = "res://scenes/items/gold/gold.tscn"
value = 100

[node name="torch2" parent="tilemap/TorchGroup" instance=ExtResource( 5 )]
position = Vector2( -480, 160 )
type = "ITEM"
reward = "res://scenes/items/gold/gold.tscn"
value = 100

[node name="torch3" parent="tilemap/TorchGroup" instance=ExtResource( 5 )]
position = Vector2( -864, 160 )
type = "ITEM"
reward = "res://scenes/items/gold/gold.tscn"
value = 100

[node name="torch4" parent="tilemap/TorchGroup" instance=ExtResource( 5 )]
position = Vector2( -1248, 32 )

[node name="LadderGroup" type="Node2D" parent="tilemap"]

[node name="TestLadder" parent="tilemap/LadderGroup" instance=ExtResource( 6 )]
position = Vector2( 144, 368 )

[node name="Sprite" parent="tilemap/LadderGroup/TestLadder/KinematicBody2D" index="0"]
region_rect = Rect2( 0, 0, 32, 160 )

[node name="ladder" parent="tilemap/LadderGroup/TestLadder/KinematicBody2D" index="1"]
scale = Vector2( 1, 5 )

[node name="TestLadder 2" parent="tilemap/LadderGroup" instance=ExtResource( 7 )]
position = Vector2( 144, 272 )

[node name="SwitchGroup" type="Node2D" parent="tilemap"]

[node name="PullSwitch" parent="tilemap/SwitchGroup" instance=ExtResource( 8 )]
position = Vector2( -1584, -128 )
target_nodes = [ "SunbeamGroup/Sunbeam2" ]

[node name="PullSwitch1" parent="tilemap/SwitchGroup" instance=ExtResource( 8 )]
position = Vector2( -1904, -128 )
target_nodes = [ "SunbeamGroup/Sunbeam" ]

[node name="PullSwitch2" parent="tilemap/SwitchGroup" instance=ExtResource( 8 )]
position = Vector2( -2224, -128 )
target_nodes = [ "SunbeamGroup/Sunbeam3" ]

[node name="PullSwitch3" parent="tilemap/SwitchGroup" instance=ExtResource( 8 )]
position = Vector2( -2544, -128 )
target_nodes = [ "SunbeamGroup/Sunbeam4" ]

[node name="PullSwitch4" parent="tilemap/SwitchGroup" instance=ExtResource( 8 )]
position = Vector2( -2864, -128 )
target_nodes = [ "SunbeamGroup/Sunbeam1" ]

[node name="EnemiesGroup" type="Node2D" parent="tilemap"]

[node name="BlackSkeleton" parent="tilemap/EnemiesGroup" instance=ExtResource( 9 )]
position = Vector2( -2720, 272 )

[node name="BlackSkeleton2" parent="tilemap/EnemiesGroup" instance=ExtResource( 9 )]
position = Vector2( -2384, 272 )

[node name="BlackSkeleton3" parent="tilemap/EnemiesGroup" instance=ExtResource( 9 )]
position = Vector2( -2048, 272 )

[node name="BlackSkeleton4" parent="tilemap/EnemiesGroup" instance=ExtResource( 9 )]
position = Vector2( -1744, 272 )

[node name="Statue1" parent="tilemap/EnemiesGroup" instance=ExtResource( 10 )]
position = Vector2( -272, 192 )

[node name="Statue2" parent="tilemap/EnemiesGroup" instance=ExtResource( 10 )]
position = Vector2( -656, 192 )

[node name="Statue3" parent="tilemap/EnemiesGroup" instance=ExtResource( 11 )]
position = Vector2( -1040, 176 )

[node name="SpikeGroup" type="Node2D" parent="tilemap"]

[node name="SpikeTile" parent="tilemap/SpikeGroup" instance=ExtResource( 12 )]
position = Vector2( -1456, 304 )

[node name="SpikeTile1" parent="tilemap/SpikeGroup" instance=ExtResource( 12 )]
position = Vector2( -1488, 304 )

[node name="SpikeTile2" parent="tilemap/SpikeGroup" instance=ExtResource( 12 )]
position = Vector2( -1520, 304 )

[node name="SpikeTile3" parent="tilemap/SpikeGroup" instance=ExtResource( 12 )]
position = Vector2( -1552, 304 )

[node name="SpikeTile4" parent="tilemap/SpikeGroup" instance=ExtResource( 12 )]
position = Vector2( -1584, 304 )

[node name="SpikeTile5" parent="tilemap/SpikeGroup" instance=ExtResource( 12 )]
position = Vector2( -1616, 304 )

[node name="SpikeTile6" parent="tilemap/SpikeGroup" instance=ExtResource( 12 )]
position = Vector2( -1648, 304 )

[node name="SpikeTile7" parent="tilemap/SpikeGroup" instance=ExtResource( 12 )]
position = Vector2( -1680, 304 )

[node name="SpikeTile8" parent="tilemap/SpikeGroup" instance=ExtResource( 12 )]
position = Vector2( -1712, 304 )

[node name="SpikeTile9" parent="tilemap/SpikeGroup" instance=ExtResource( 12 )]
position = Vector2( -1744, 304 )

[node name="SpikeTile10" parent="tilemap/SpikeGroup" instance=ExtResource( 12 )]
position = Vector2( -1776, 304 )

[node name="SpikeTile11" parent="tilemap/SpikeGroup" instance=ExtResource( 12 )]
position = Vector2( -1808, 304 )

[node name="SpikeTile12" parent="tilemap/SpikeGroup" instance=ExtResource( 12 )]
position = Vector2( -1840, 304 )

[node name="SpikeTile13" parent="tilemap/SpikeGroup" instance=ExtResource( 12 )]
position = Vector2( -1872, 304 )

[node name="SpikeTile14" parent="tilemap/SpikeGroup" instance=ExtResource( 12 )]
position = Vector2( -1904, 304 )

[node name="SpikeTile15" parent="tilemap/SpikeGroup" instance=ExtResource( 12 )]
position = Vector2( -1936, 304 )

[node name="SpikeTile16" parent="tilemap/SpikeGroup" instance=ExtResource( 12 )]
position = Vector2( -1968, 304 )

[node name="SpikeTile17" parent="tilemap/SpikeGroup" instance=ExtResource( 12 )]
position = Vector2( -2000, 304 )

[node name="SpikeTile18" parent="tilemap/SpikeGroup" instance=ExtResource( 12 )]
position = Vector2( -2032, 304 )

[node name="SpikeTile19" parent="tilemap/SpikeGroup" instance=ExtResource( 12 )]
position = Vector2( -2064, 304 )

[node name="SpikeTile20" parent="tilemap/SpikeGroup" instance=ExtResource( 12 )]
position = Vector2( -2096, 304 )

[node name="SpikeTile21" parent="tilemap/SpikeGroup" instance=ExtResource( 12 )]
position = Vector2( -2128, 304 )

[node name="SpikeTile22" parent="tilemap/SpikeGroup" instance=ExtResource( 12 )]
position = Vector2( -2160, 304 )

[node name="SpikeTile23" parent="tilemap/SpikeGroup" instance=ExtResource( 12 )]
position = Vector2( -2192, 304 )

[node name="SpikeTile24" parent="tilemap/SpikeGroup" instance=ExtResource( 12 )]
position = Vector2( -2224, 304 )

[node name="SpikeTile25" parent="tilemap/SpikeGroup" instance=ExtResource( 12 )]
position = Vector2( -2256, 304 )

[node name="SpikeTile26" parent="tilemap/SpikeGroup" instance=ExtResource( 12 )]
position = Vector2( -2288, 304 )

[node name="SpikeTile27" parent="tilemap/SpikeGroup" instance=ExtResource( 12 )]
position = Vector2( -2320, 304 )

[node name="SpikeTile28" parent="tilemap/SpikeGroup" instance=ExtResource( 12 )]
position = Vector2( -2352, 304 )

[node name="SpikeTile29" parent="tilemap/SpikeGroup" instance=ExtResource( 12 )]
position = Vector2( -2384, 304 )

[node name="SpikeTile30" parent="tilemap/SpikeGroup" instance=ExtResource( 12 )]
position = Vector2( -2416, 304 )

[node name="SpikeTile31" parent="tilemap/SpikeGroup" instance=ExtResource( 12 )]
position = Vector2( -2448, 304 )

[node name="SpikeTile32" parent="tilemap/SpikeGroup" instance=ExtResource( 12 )]
position = Vector2( -2480, 304 )

[node name="SpikeTile33" parent="tilemap/SpikeGroup" instance=ExtResource( 12 )]
position = Vector2( -2512, 304 )

[node name="SpikeTile34" parent="tilemap/SpikeGroup" instance=ExtResource( 12 )]
position = Vector2( -2544, 304 )

[node name="SpikeTile35" parent="tilemap/SpikeGroup" instance=ExtResource( 12 )]
position = Vector2( -2576, 304 )

[node name="SpikeTile36" parent="tilemap/SpikeGroup" instance=ExtResource( 12 )]
position = Vector2( -2608, 304 )

[node name="SpikeTile37" parent="tilemap/SpikeGroup" instance=ExtResource( 12 )]
position = Vector2( -2640, 304 )

[node name="SpikeTile38" parent="tilemap/SpikeGroup" instance=ExtResource( 12 )]
position = Vector2( -2672, 304 )

[node name="SpikeTile39" parent="tilemap/SpikeGroup" instance=ExtResource( 12 )]
position = Vector2( -2704, 304 )

[node name="SpikeTile40" parent="tilemap/SpikeGroup" instance=ExtResource( 12 )]
position = Vector2( -2736, 304 )

[node name="SpikeTile41" parent="tilemap/SpikeGroup" instance=ExtResource( 12 )]
position = Vector2( -2768, 304 )

[node name="SpikeTile42" parent="tilemap/SpikeGroup" instance=ExtResource( 12 )]
position = Vector2( -2800, 304 )

[node name="SpikeTile43" parent="tilemap/SpikeGroup" instance=ExtResource( 12 )]
position = Vector2( -2832, 304 )

[node name="SpikeTile44" parent="tilemap/SpikeGroup" instance=ExtResource( 12 )]
position = Vector2( -2864, 304 )

[node name="SpikeTile45" parent="tilemap/SpikeGroup" instance=ExtResource( 12 )]
position = Vector2( -2896, 304 )

[node name="SpikeTile46" parent="tilemap/SpikeGroup" instance=ExtResource( 12 )]
position = Vector2( -2928, 304 )

[node name="SpikeTile47" parent="tilemap/SpikeGroup" instance=ExtResource( 12 )]
position = Vector2( -2960, 304 )

[node name="SpikeTile48" parent="tilemap/SpikeGroup" instance=ExtResource( 12 )]
position = Vector2( -2992, 304 )

[node name="SpikeTile49" parent="tilemap/SpikeGroup" instance=ExtResource( 12 )]
position = Vector2( -3024, 304 )

[node name="SpikeTile50" parent="tilemap/SpikeGroup" instance=ExtResource( 12 )]
position = Vector2( -3056, 304 )

[node name="SpikeTile51" parent="tilemap/SpikeGroup" instance=ExtResource( 12 )]
position = Vector2( -3088, 304 )

[node name="SpikeTile52" parent="tilemap/SpikeGroup" instance=ExtResource( 12 )]
position = Vector2( -3120, 304 )

[node name="SpikeTile53" parent="tilemap/SpikeGroup" instance=ExtResource( 12 )]
position = Vector2( -3152, 304 )

[node name="SpikeTile54" parent="tilemap/SpikeGroup" instance=ExtResource( 12 )]
position = Vector2( -3184, 304 )

[node name="SpikeTile55" parent="tilemap/SpikeGroup" instance=ExtResource( 12 )]
position = Vector2( -3216, 304 )

[node name="SpikeTile56" parent="tilemap/SpikeGroup" instance=ExtResource( 12 )]
position = Vector2( -3248, 304 )

[node name="SpikeTile57" parent="tilemap/SpikeGroup" instance=ExtResource( 12 )]
position = Vector2( -3280, 304 )

[node name="SunbeamGroup" type="Node2D" parent="tilemap"]

[node name="Sunbeam" parent="tilemap/SunbeamGroup" instance=ExtResource( 13 )]
position = Vector2( -2864, -160 )

[node name="block" parent="tilemap/SunbeamGroup/Sunbeam" index="0"]
scale = Vector2( 6, 30 )

[node name="sunbeam" parent="tilemap/SunbeamGroup/Sunbeam" index="1"]
scale = Vector2( 6, 30 )

[node name="Sunbeam1" parent="tilemap/SunbeamGroup" instance=ExtResource( 13 )]
position = Vector2( -2544, -160 )

[node name="block" parent="tilemap/SunbeamGroup/Sunbeam1" index="0"]
scale = Vector2( 6, 30 )

[node name="sunbeam" parent="tilemap/SunbeamGroup/Sunbeam1" index="1"]
scale = Vector2( 6, 30 )

[node name="Sunbeam2" parent="tilemap/SunbeamGroup" instance=ExtResource( 13 )]
position = Vector2( -2224, -160 )

[node name="block" parent="tilemap/SunbeamGroup/Sunbeam2" index="0"]
scale = Vector2( 6, 30 )

[node name="sunbeam" parent="tilemap/SunbeamGroup/Sunbeam2" index="1"]
scale = Vector2( 6, 30 )

[node name="Sunbeam3" parent="tilemap/SunbeamGroup" instance=ExtResource( 13 )]
position = Vector2( -1904, -160 )

[node name="block" parent="tilemap/SunbeamGroup/Sunbeam3" index="0"]
scale = Vector2( 6, 30 )

[node name="sunbeam" parent="tilemap/SunbeamGroup/Sunbeam3" index="1"]
scale = Vector2( 6, 30 )

[node name="Sunbeam4" parent="tilemap/SunbeamGroup" instance=ExtResource( 13 )]
position = Vector2( -1584, -160 )

[node name="block" parent="tilemap/SunbeamGroup/Sunbeam4" index="0"]
scale = Vector2( 6, 30 )

[node name="sunbeam" parent="tilemap/SunbeamGroup/Sunbeam4" index="1"]
scale = Vector2( 6, 30 )

[node name="Watcher" type="Node2D" parent="tilemap"]
script = ExtResource( 14 )
reward = "PlatformGroup/platform"
target_container = "EnemiesGroup"
watch_class = "res://scenes/common/damagables/BaseEnemy.gd"
invert = true
show_target = true
target_pos = Vector2( -3334, -646 )

[node name="TeleportGroup" type="Node2D" parent="tilemap"]

[node name="Teleport" parent="tilemap/TeleportGroup" instance=ExtResource( 15 )]
position = Vector2( -3344, -400 )
target_level = "res://levels/crypt/1-2.tscn"
teleport_to = Vector2( 588, 176 )

[node name="teleport" parent="tilemap/TeleportGroup/Teleport" index="0"]
scale = Vector2( 1, 5 )

[node name="Teleport1" parent="tilemap/TeleportGroup" instance=ExtResource( 15 )]
position = Vector2( 144, 464 )
is_horizontal = false
target_level = "res://levels/crypt/1-0.tscn"
teleport_to = Vector2( 496, -2192 )

[node name="teleport" parent="tilemap/TeleportGroup/Teleport1" index="0"]
scale = Vector2( 3, 1 )

[node name="boundaries" type="Node2D" parent="tilemap"]

[node name="NW" type="Position2D" parent="tilemap/boundaries"]
position = Vector2( -3334, -646 )

[node name="SE" type="Position2D" parent="tilemap/boundaries"]
position = Vector2( 394, 458 )

[editable path="tilemap/ClimbableGroup/ClimbableBlock"]

[editable path="tilemap/LadderGroup/TestLadder"]

[editable path="tilemap/SunbeamGroup/Sunbeam"]

[editable path="tilemap/SunbeamGroup/Sunbeam1"]

[editable path="tilemap/SunbeamGroup/Sunbeam2"]

[editable path="tilemap/SunbeamGroup/Sunbeam3"]

[editable path="tilemap/SunbeamGroup/Sunbeam4"]

[editable path="tilemap/TeleportGroup/Teleport"]

[editable path="tilemap/TeleportGroup/Teleport1"]
