[gd_scene load_steps=40 format=2]

[ext_resource path="res://levels/forest/bonus.gd" type="Script" id=1]
[ext_resource path="res://scenes/forest/laketiles.tres" type="TileSet" id=2]
[ext_resource path="res://scenes/forest/laketrees.tres" type="TileSet" id=3]
[ext_resource path="res://scenes/cave/climbableblock.tscn" type="PackedScene" id=4]
[ext_resource path="res://scenes/cave/BGs/cornerR.png" type="Texture" id=5]
[ext_resource path="res://scenes/forest/log.tscn" type="PackedScene" id=6]
[ext_resource path="res://scenes/dungeon/ladder/ladder.tscn" type="PackedScene" id=7]
[ext_resource path="res://scenes/dungeon/ladder/laddertop.tscn" type="PackedScene" id=8]
[ext_resource path="res://scenes/common/damagables/sorcerer/sorcerer.tscn" type="PackedScene" id=9]
[ext_resource path="res://scenes/common/damagables/human/priest.tscn" type="PackedScene" id=10]
[ext_resource path="res://scenes/items/gold/gold.tscn" type="PackedScene" id=11]
[ext_resource path="res://scenes/common/fake.tscn" type="PackedScene" id=12]
[ext_resource path="res://scenes/forest/BGs/stump.png" type="Texture" id=13]
[ext_resource path="res://scenes/forest/BGs/treebark.png" type="Texture" id=14]
[ext_resource path="res://scenes/forest/BGs/treetop.png" type="Texture" id=15]
[ext_resource path="res://scenes/forest/BGs/grass.png" type="Texture" id=16]
[ext_resource path="res://scenes/common/teleport.tscn" type="PackedScene" id=17]

[sub_resource type="PhysicsMaterial" id=1]
friction = 0.0

[sub_resource type="PhysicsMaterial" id=2]
friction = 0.0

[sub_resource type="PhysicsMaterial" id=3]
friction = 0.0

[sub_resource type="PhysicsMaterial" id=4]
friction = 0.0

[sub_resource type="PhysicsMaterial" id=5]
friction = 0.0

[sub_resource type="PhysicsMaterial" id=6]
friction = 0.0

[sub_resource type="PhysicsMaterial" id=7]
friction = 0.0

[sub_resource type="PhysicsMaterial" id=8]
friction = 0.0

[sub_resource type="PhysicsMaterial" id=9]
friction = 0.0

[sub_resource type="PhysicsMaterial" id=10]
friction = 0.0

[sub_resource type="PhysicsMaterial" id=11]
friction = 0.0

[sub_resource type="PhysicsMaterial" id=12]
friction = 0.0

[sub_resource type="PhysicsMaterial" id=13]
friction = 0.0

[sub_resource type="PhysicsMaterial" id=14]
friction = 0.0

[sub_resource type="PhysicsMaterial" id=15]
friction = 0.0

[sub_resource type="PhysicsMaterial" id=16]
friction = 0.0

[sub_resource type="PhysicsMaterial" id=17]
friction = 0.0

[sub_resource type="PhysicsMaterial" id=18]
friction = 0.0

[sub_resource type="PhysicsMaterial" id=19]
friction = 0.0

[sub_resource type="Shader" id=20]
code = "shader_type canvas_item;

uniform vec4 start:hint_color;
uniform vec4 stop:hint_color;

void fragment() {
COLOR = mix(start, stop, UV.y);

COLOR.a = texture(TEXTURE,UV).a*COLOR.a;
}"

[sub_resource type="ShaderMaterial" id=21]
shader = SubResource( 20 )
shader_param/start = Color( 0.298416, 0.318583, 0.621094, 1 )
shader_param/stop = Color( 0.382812, 0.183929, 0.295801, 1 )

[sub_resource type="ImageTexture" id=22]
flags = 2
flags = 2
size = Vector2( 32, 32 )

[node name="LVL_LAKEFOREST" type="Node2D"]
script = ExtResource( 1 )
__meta__ = {
"__editor_plugin_screen__": "2D"
}
night = Color( 0.172549, 0.388235, 0.6, 1 )

[node name="CanvasModulate" type="CanvasModulate" parent="."]
color = Color( 0.172549, 0.388235, 0.6, 1 )

[node name="bg" type="TileMap" parent="."]
z_index = -2
tile_set = ExtResource( 2 )
cell_size = Vector2( 32, 32 )
compatibility_mode = true
format = 1
tile_data = PoolIntArray( -8061015, 9, 0, -7405656, 7, 0, -6946884, 8, 0, -6160452, 8, 0, -5701720, 7, 0, -4980804, 8, 0, -4063320, 7, 0, -3473476, 8, 0, -2359364, 8, 0, -1966168, 7, 0, -917576, 536870928, 0, -589922, 3, 0, -589921, 3, 0, -589920, 3, 0, -589919, 3, 0, -589918, 3, 0, -589917, 3, 0, -589916, 3, 0, -589915, 3, 0, -589914, 3, 0, -589913, 3, 0, -589912, 3, 0, -589911, 3, 0, -589910, 3, 0, -589909, 3, 0, -589908, 3, 0, -589907, 3, 0, -589889, 3, 0, -589888, 3, 0, -589887, 3, 0, -589886, 3, 0, -589885, 3, 0, -589884, 3, 0, -589883, 3, 0, -589882, 3, 0, -589881, 3, 0, -589880, 3, 0, -589879, 3, 0, -589878, 3, 0, -589877, 3, 0, -589876, 3, 0, -589875, 3, 0, -589874, 3, 0, -589873, 3, 0, -589872, 3, 0, -589871, 3, 0, -589870, 3, 0, -589869, 3, 0, -589868, 3, 0, -589867, 3, 0, -589866, 3, 0, -589865, 3, 0, -589864, 3, 0, -589863, 3, 0, -589862, 3, 0, -589861, 3, 0, -589860, 3, 0, -589859, 3, 0, -589858, 3, 0, -589857, 3, 0, -589856, 3, 0, -589855, 3, 0, -589854, 3, 0, -589853, 3, 0, -589852, 3, 0, -589851, 3, 0, -589850, 3, 0, -589849, 3, 0, -589848, 3, 0, -589847, 3, 0, -589846, 3, 0, -589845, 3, 0, -589844, 3, 0, -589843, 3, 0, -589842, 3, 0, -589841, 3, 0, -589840, 3, 0, -589839, 3, 0, -589838, 3, 0, -589837, 3, 0, -589836, 3, 0, -589835, 3, 0, -589834, 3, 0, -589833, 3, 0, -589832, 3, 0, -589831, 3, 0, -589830, 3, 0, -589829, 3, 0, -589828, 3, 0, -589827, 3, 0, -589826, 3, 0, -589825, 3, 0, -655360, 3, 0, -655359, 3, 0, -655358, 3, 0, -655357, 3, 0, -655356, 3, 0, -655355, 3, 0, -655354, 3, 0, -655353, 3, 0, -655352, 3, 0, -655351, 3, 0, -655350, 3, 0, -655349, 3, 0, -655348, 3, 0, -655347, 3, 0, -655346, 3, 0, -655345, 3, 0, -655344, 3, 0, -655343, 3, 0, -655342, 3, 0, -655341, 3, 0, -655340, 3, 0, -655339, 3, 0, -655338, 3, 0, -655337, 3, 0, -655336, 3, 0, -655335, 3, 0, -655334, 3, 0, -655333, 3, 0, -655332, 3, 0, -655331, 3, 0, -655330, 3, 0, -655329, 3, 0, -655328, 3, 0, -655327, 3, 0, -655326, 3, 0, -655325, 3, 0, -655324, 3, 0, -655323, 3, 0, -655322, 3, 0, -655321, 3, 0, -655320, 3, 0, -655319, 3, 0, -655318, 3, 0, -655317, 3, 0, -655316, 3, 0, -655315, 3, 0, -655314, 3, 0, -655313, 3, 0, -655312, 3, 0, -655311, 3, 0, -655310, 3, 0, -655309, 3, 0, -655308, 3, 0, -655307, 3, 0, -655306, 3, 0, -655305, 3, 0, -655304, 3, 0, -655303, 3, 0, -655302, 3, 0, -655301, 3, 0, -655300, 3, 0, -655299, 3, 0, -655298, 3, 0, -655297, 3, 0, -655296, 3, 0, -655295, 3, 0, -655294, 3, 0, -655293, 3, 0, -655292, 3, 0, -655291, 3, 0, -655290, 3, 0, -655289, 3, 0, -655288, 3, 0, -655287, 3, 0, -655286, 3, 0, -655285, 3, 0, -655284, 3, 0, -655283, 3, 0, -655282, 3, 0, -655281, 3, 0, -655280, 3, 0, -655279, 3, 0, -655278, 3, 0, -655277, 3, 0, -655276, 3, 0, -655275, 3, 0, -655274, 3, 0, -655273, 3, 0, -655272, 3, 0, -655271, 3, 0, -655270, 3, 0, -655269, 3, 0, -655268, 3, 0, -655267, 3, 0, -655266, 3, 0, -655265, 3, 0, -655264, 3, 0, -655263, 3, 0, -655262, 3, 0, -655261, 3, 0 )

[node name="trees" type="TileMap" parent="."]
tile_set = ExtResource( 3 )
cell_size = Vector2( 32, 32 )
compatibility_mode = true
format = 1
tile_data = PoolIntArray( -2555964, 2, 0, -2490423, 18, 0, -2555829, 8, 0, -2555823, 18, 0, -2293812, 6, 0, -2359270, 10, 0, -2359265, 20, 0, -2359241, 10, 0, -2359236, 20, 0, -2359212, 6, 0, -2293725, 6, 0, -2293695, 0, 0, -1966144, 4, 0, -1966131, 0, 0, -2031609, 2, 0, -2031591, 2, 0, -2031562, 2, 0, -2031544, 4, 0, -2031531, 0, 0, -1966045, 12, 0, -1966016, 12, 0, -1835027, 0, 0, -1769576, 2, 0, -1769569, 14, 0, -1769493, 14, 0, -1835002, 10, 0, -1834992, 0, 0, -1834968, 2, 0, -1834961, 14, 0, -1703997, 2, 0, -1703980, 16, 0, -1703978, 6, 0, -1769459, 16, 0, -1703861, 2, 0, -1572958, 0, 0, -1572917, 4, 0, -1572883, 6, 0, -1638350, 0, 0, -1507389, 8, 0, -1507369, 0, 0, -1507358, 4, 0, -1572842, 4, 0, -1572829, 0, 0, -1572801, 6, 0, -1507304, 8, 0, -1507275, 8, 0, -1441706, 0, 0, -1310770, 2, 0, -1310749, 2, 0, -1376252, 4, 0, -1376240, 6, 0, -1376208, 6, 0, -1245225, 12, 0, -1114219, 4, 0, -1179611, 4, 0 )

[node name="tilemap" type="TileMap" parent="."]
tile_set = ExtResource( 2 )
cell_size = Vector2( 32, 32 )
compatibility_mode = true
collision_layer = 524304
format = 1
tile_data = PoolIntArray( -8126563, 1073741836, 0, -8126562, 1073741838, 0, -8126561, 1073741838, 0, -8126560, 1073741838, 0, -8126559, 1073741838, 0, -8126558, 1073741838, 0, -8126557, 1073741838, 0, -8126556, 1073741838, 0, -8126555, 1073741838, 0, -8126554, 1073741838, 0, -8126553, 1073741838, 0, -8126552, 1073741838, 0, -8126551, 1073741838, 0, -8126550, 1073741838, 0, -8126549, 1073741838, 0, -8126548, 1073741838, 0, -8126547, 1073741838, 0, -8126546, 1073741838, 0, -8126545, 1073741838, 0, -8126544, 1073741838, 0, -8126543, 1073741838, 0, -8126542, 1073741838, 0, -8126541, 1073741838, 0, -8126540, 1073741838, 0, -8126539, 1073741838, 0, -8126538, 1073741838, 0, -8126537, 1073741838, 0, -8126536, 1073741838, 0, -8126535, 1073741838, 0, -8126534, 1073741838, 0, -8126533, 1073741838, 0, -8126532, 1073741838, 0, -8126531, 1073741838, 0, -8126530, 1073741838, 0, -8126529, 1073741838, 0, -8126528, 1073741838, 0, -8126527, 1073741838, 0, -8126526, 1073741838, 0, -8126525, 1073741838, 0, -8126524, 1073741838, 0, -8126523, 1073741838, 0, -8126522, 1073741838, 0, -8126521, 1073741838, 0, -8126520, 1073741838, 0, -8126519, 1073741838, 0, -8126518, 1073741838, 0, -8126517, 1073741838, 0, -8126516, 1073741838, 0, -8126515, 1073741838, 0, -8126514, 1073741838, 0, -8126513, 1073741838, 0, -8126512, 1073741838, 0, -8126511, 1073741838, 0, -8126510, 1073741838, 0, -8126509, 1073741838, 0, -8126508, 1073741838, 0, -8126507, 1073741838, 0, -8126506, 1073741838, 0, -8126505, 1073741838, 0, -8126504, 1073741838, 0, -8126503, 1073741838, 0, -8126502, 1073741838, 0, -8126501, 1073741838, 0, -8126500, 1073741838, 0, -8126499, 1073741838, 0, -8126498, 1073741838, 0, -8126497, 1073741838, 0, -8126496, 1073741838, 0, -8126495, 1073741838, 0, -8126494, 1073741838, 0, -8126493, 1073741838, 0, -8126492, 1073741838, 0, -8126491, 1073741838, 0, -8126490, 1073741838, 0, -8126489, 1073741838, 0, -8126488, 1073741838, 0, -8126487, 1073741838, 0, -8126486, 1073741838, 0, -8126485, 1073741838, 0, -8126484, 1073741838, 0, -8126483, 1073741838, 0, -8126482, 1073741838, 0, -8126481, 1073741838, 0, -8126480, 1073741838, 0, -8126479, 1073741838, 0, -8126478, 1073741838, 0, -8126477, 1073741838, 0, -8126476, 1073741838, 0, -8126475, 1073741838, 0, -8126474, 1073741838, 0, -8126473, 1073741838, 0, -8126472, 1073741838, 0, -8126471, 1073741838, 0, -8126470, 1073741838, 0, -8126469, 1073741838, 0, -8126468, 1073741838, 0, -8126467, 1073741838, 0, -8126466, 1073741838, 0, -8126465, 1073741838, 0, -8192000, 1073741838, 0, -8191999, 1073741838, 0, -8191998, 1073741838, 0, -8191997, 1073741838, 0, -8191996, 1073741838, 0, -8191995, 1073741838, 0, -8191994, 1073741838, 0, -8191993, 1073741838, 0, -8191992, 1073741838, 0, -8191991, 1073741838, 0, -8191990, 1073741838, 0, -8191989, 1073741838, 0, -8191988, 1073741838, 0, -8191987, 1073741838, 0, -8191986, 1073741838, 0, -8191985, 1073741838, 0, -8191984, 1073741838, 0, -8191983, 1073741838, 0, -8191982, 1073741838, 0, -8191981, 1073741838, 0, -8191980, 1073741838, 0, -8191979, 1073741838, 0, -8191978, 1073741838, 0, -8191977, 1073741838, 0, -8191976, 1073741838, 0, -8191975, 1073741838, 0, -8191974, 1073741838, 0, -8191973, 1073741838, 0, -8191972, 1073741838, 0, -8191971, 1073741838, 0, -8191970, 1073741838, 0, -8191969, 1073741838, 0, -8191968, 1073741838, 0, -8191967, 1073741838, 0, -8191966, 1073741838, 0, -8191965, 1073741838, 0, -8191964, 1073741838, 0, -8191963, 1073741838, 0, -8191962, 1073741838, 0, -8191961, 1073741838, 0, -8191960, 1073741838, 0, -8191959, 1073741838, 0, -8191958, 1073741838, 0, -8191957, 1073741838, 0, -8191956, 1073741838, 0, -8191955, 1073741838, 0, -8191954, 1073741838, 0, -8191953, 1073741838, 0, -8191952, 1073741838, 0, -8191951, 1073741838, 0, -8191950, 1073741838, 0, -8191949, 1073741838, 0, -8191948, 1073741838, 0, -8191947, 1073741838, 0, -8191946, 1073741838, 0, -8191945, 1073741838, 0, -8191944, 1073741838, 0, -8191943, 1073741838, 0, -8191942, 1073741838, 0, -8191941, 1073741838, 0, -8191940, 1073741838, 0, -8191939, 1073741838, 0, -8191938, 1073741838, 0, -8191937, 1073741838, 0, -8191936, 1073741838, 0, -8191935, 1073741838, 0, -8191934, 1073741838, 0, -8191933, 1073741838, 0, -8191932, 1073741838, 0, -8191931, 1073741838, 0, -8191930, 1073741838, 0, -8191929, 1073741838, 0, -8191928, 1073741838, 0, -8191927, 1073741838, 0, -8191926, 1073741838, 0, -8191925, 1073741838, 0, -8191924, 1073741838, 0, -8191923, 1073741838, 0, -8191922, 1073741838, 0, -8191921, 1073741838, 0, -8191920, 1073741838, 0, -8191919, 1073741838, 0, -8191918, 1073741838, 0, -8191917, 1073741838, 0, -8191916, 1073741838, 0, -8191915, 1073741838, 0, -8191914, 1073741838, 0, -8191913, 1073741838, 0, -8191912, 1073741838, 0, -8191911, 1073741838, 0, -8191910, 1073741838, 0, -8191909, 1073741838, 0, -8191908, 1073741838, 0, -8191907, 1073741838, 0, -8191906, 1073741838, 0, -8191905, 1073741838, 0, -8191904, 1073741838, 0, -8191903, 1073741838, 0, -8191902, 1073741838, 0, -8191901, 1073741838, 0, -8191900, 1073741835, 0, -8061027, 10, 0, -8061010, 4, 0, -8061009, 5, 0, -8060996, 536870917, 0, -8060995, 536870916, 0, -8126364, 536870922, 0, -7995491, 10, 0, -7995474, 4, 0, -7995473, 5, 0, -7995460, 536870917, 0, -7995459, 536870916, 0, -8060828, 536870922, 0, -7929955, 10, 0, -7929938, 4, 0, -7929937, 5, 0, -7929924, 536870917, 0, -7929923, 536870916, 0, -7995292, 536870922, 0, -7864419, 10, 0, -7864402, 4, 0, -7864401, 5, 0, -7864388, 536870917, 0, -7864387, 536870916, 0, -7929756, 536870922, 0, -7798883, 10, 0, -7798866, 4, 0, -7798865, 5, 0, -7798852, 536870917, 0, -7798851, 536870916, 0, -7864220, 536870922, 0, -7733347, 10, 0, -7733330, 4, 0, -7733329, 5, 0, -7733316, 536870917, 0, -7733315, 536870916, 0, -7798684, 536870922, 0, -7667811, 10, 0, -7667794, 4, 0, -7667793, 5, 0, -7667780, 536870917, 0, -7667779, 536870916, 0, -7733148, 536870922, 0, -7602275, 10, 0, -7602258, 4, 0, -7602257, 5, 0, -7602244, 536870917, 0, -7602243, 536870916, 0, -7667612, 536870922, 0, -7536739, 10, 0, -7536722, 4, 0, -7536721, 5, 0, -7536708, 536870917, 0, -7536707, 536870916, 0, -7602076, 536870922, 0, -7471203, 10, 0, -7471186, 4, 0, -7471185, 5, 0, -7471172, 536870917, 0, -7471171, 536870916, 0, -7536540, 536870922, 0, -7405667, 10, 0, -7405650, 4, 0, -7405649, 5, 0, -7405636, 536870917, 0, -7405635, 536870916, 0, -7471004, 536870922, 0, -7340131, 10, 0, -7340114, 4, 0, -7340113, 5, 0, -7340100, 536870917, 0, -7340099, 536870916, 0, -7405468, 536870922, 0, -7274595, 10, 0, -7274578, 4, 0, -7274577, 5, 0, -7274564, 536870917, 0, -7274563, 536870916, 0, -7339932, 536870922, 0, -7209059, 10, 0, -7209042, 4, 0, -7209041, 5, 0, -7209028, 536870917, 0, -7209027, 536870916, 0, -7274396, 536870922, 0, -7143523, 10, 0, -7143506, 4, 0, -7143505, 5, 0, -7143492, 536870917, 0, -7143491, 536870916, 0, -7208860, 536870922, 0, -7077987, 10, 0, -7077970, 4, 0, -7077969, 5, 0, -7077956, 536870917, 0, -7077955, 536870916, 0, -7143324, 536870922, 0, -7012451, 10, 0, -7012434, 4, 0, -7012433, 5, 0, -7012420, 536870917, 0, -7012419, 536870916, 0, -7077788, 536870922, 0, -6946915, 10, 0, -6946898, 4, 0, -6946897, 5, 0, -6946884, 536870917, 0, -6946883, 536870916, 0, -7012252, 536870922, 0, -6881379, 10, 0, -6881362, 4, 0, -6881361, 5, 0, -6881348, 536870917, 0, -6881347, 536870916, 0, -6946716, 536870922, 0, -6815843, 10, 0, -6815826, 4, 0, -6815825, 5, 0, -6815812, 536870917, 0, -6815811, 536870916, 0, -6881180, 536870922, 0, -6750307, 10, 0, -6750290, 4, 0, -6750289, 5, 0, -6750276, 536870917, 0, -6750275, 536870916, 0, -6815644, 536870922, 0, -6684771, 10, 0, -6684754, 4, 0, -6684753, 5, 0, -6684740, 536870917, 0, -6684739, 536870916, 0, -6750108, 536870922, 0, -6619235, 10, 0, -6619218, 4, 0, -6619217, 5, 0, -6619204, 536870917, 0, -6619203, 536870916, 0, -6684572, 536870922, 0, -6553699, 10, 0, -6553682, 4, 0, -6553681, 5, 0, -6553668, 536870917, 0, -6553667, 536870916, 0, -6619036, 536870922, 0, -6488163, 10, 0, -6488146, 4, 0, -6488145, 5, 0, -6488132, 536870917, 0, -6488131, 536870916, 0, -6553500, 536870922, 0, -6422627, 10, 0, -6422610, 4, 0, -6422609, 5, 0, -6422596, 536870917, 0, -6422595, 536870916, 0, -6487964, 536870922, 0, -6357091, 10, 0, -6357074, 4, 0, -6357073, 5, 0, -6357060, 536870917, 0, -6357059, 536870916, 0, -6422428, 536870922, 0, -6291555, 10, 0, -6291538, 4, 0, -6291537, 5, 0, -6291524, 536870917, 0, -6291523, 536870916, 0, -6356892, 536870922, 0, -6226019, 10, 0, -6226002, 4, 0, -6226001, 5, 0, -6225988, 536870917, 0, -6225987, 536870916, 0, -6291356, 536870922, 0, -6160483, 10, 0, -6160466, 4, 0, -6160465, 5, 0, -6160452, 536870917, 0, -6160451, 536870916, 0, -6225820, 536870922, 0, -6094947, 10, 0, -6094930, 4, 0, -6094929, 5, 0, -6094916, 536870917, 0, -6094915, 536870916, 0, -6160284, 536870922, 0, -6029411, 10, 0, -6029394, 4, 0, -6029393, 5, 0, -6029380, 536870917, 0, -6029379, 536870916, 0, -6094748, 536870922, 0, -5963875, 10, 0, -5963858, 4, 0, -5963857, 5, 0, -5963844, 536870917, 0, -5963843, 536870916, 0, -6029212, 536870922, 0, -5898339, 10, 0, -5898322, 4, 0, -5898321, 5, 0, -5898308, 536870917, 0, -5898307, 536870916, 0, -5963676, 536870922, 0, -5832803, 10, 0, -5832786, 4, 0, -5832785, 5, 0, -5832772, 536870917, 0, -5832771, 536870916, 0, -5898140, 536870922, 0, -5767267, 10, 0, -5767250, 4, 0, -5767249, 5, 0, -5767236, 536870917, 0, -5767235, 536870916, 0, -5832604, 536870922, 0, -5701731, 10, 0, -5701714, 4, 0, -5701713, 5, 0, -5701700, 536870917, 0, -5701699, 536870916, 0, -5767068, 536870922, 0, -5636195, 10, 0, -5636178, 4, 0, -5636177, 5, 0, -5636164, 536870917, 0, -5636163, 536870916, 0, -5701532, 536870922, 0, -5570659, 10, 0, -5570642, 4, 0, -5570641, 5, 0, -5570628, 536870917, 0, -5570627, 536870916, 0, -5635996, 536870922, 0, -5505123, 10, 0, -5505106, 4, 0, -5505105, 5, 0, -5505092, 536870917, 0, -5505091, 536870916, 0, -5570460, 536870922, 0, -5439587, 10, 0, -5439570, 4, 0, -5439569, 5, 0, -5439556, 536870917, 0, -5439555, 536870916, 0, -5504924, 536870922, 0, -5374051, 10, 0, -5374034, 4, 0, -5374033, 5, 0, -5374020, 536870917, 0, -5374019, 536870916, 0, -5439388, 536870922, 0, -5308515, 10, 0, -5308498, 4, 0, -5308497, 5, 0, -5308484, 536870917, 0, -5308483, 536870916, 0, -5373852, 536870922, 0, -5242979, 10, 0, -5242962, 4, 0, -5242961, 5, 0, -5242948, 536870917, 0, -5242947, 536870916, 0, -5308316, 536870922, 0, -5177443, 10, 0, -5177426, 4, 0, -5177425, 5, 0, -5177412, 536870917, 0, -5177411, 536870916, 0, -5242780, 536870922, 0, -5111907, 10, 0, -5111890, 4, 0, -5111889, 5, 0, -5111876, 536870917, 0, -5111875, 536870916, 0, -5177244, 536870922, 0, -5046371, 10, 0, -5046354, 4, 0, -5046353, 5, 0, -5046340, 536870917, 0, -5046339, 536870916, 0, -5111708, 536870922, 0, -4980835, 10, 0, -4980818, 4, 0, -4980817, 5, 0, -4980804, 536870917, 0, -4980803, 536870916, 0, -5046172, 536870922, 0, -4915299, 10, 0, -4915282, 4, 0, -4915281, 5, 0, -4915268, 536870917, 0, -4915267, 536870916, 0, -4980636, 536870922, 0, -4849763, 10, 0, -4849746, 4, 0, -4849745, 5, 0, -4849732, 536870917, 0, -4849731, 536870916, 0, -4915100, 536870922, 0, -4784227, 10, 0, -4784210, 4, 0, -4784209, 5, 0, -4784196, 536870917, 0, -4784195, 536870916, 0, -4849564, 536870922, 0, -4718691, 10, 0, -4718674, 4, 0, -4718673, 5, 0, -4718660, 536870917, 0, -4718659, 536870916, 0, -4784028, 536870922, 0, -4653155, 10, 0, -4653138, 4, 0, -4653137, 5, 0, -4653124, 536870917, 0, -4653123, 536870916, 0, -4718492, 536870922, 0, -4587619, 10, 0, -4587602, 4, 0, -4587601, 5, 0, -4587588, 536870917, 0, -4587587, 536870916, 0, -4652956, 536870922, 0, -4522083, 10, 0, -4522066, 4, 0, -4522065, 5, 0, -4522052, 536870917, 0, -4522051, 536870916, 0, -4587420, 536870922, 0, -4456547, 10, 0, -4456530, 4, 0, -4456529, 5, 0, -4456516, 536870917, 0, -4456515, 536870916, 0, -4521884, 536870922, 0, -4391011, 10, 0, -4390994, 4, 0, -4390993, 5, 0, -4390980, 536870917, 0, -4390979, 536870916, 0, -4456348, 536870922, 0, -4325475, 10, 0, -4325458, 4, 0, -4325457, 5, 0, -4325444, 536870917, 0, -4325443, 536870916, 0, -4390812, 536870922, 0, -4259939, 10, 0, -4259922, 4, 0, -4259921, 5, 0, -4259908, 536870917, 0, -4259907, 536870916, 0, -4325276, 536870922, 0, -4194403, 10, 0, -4194386, 4, 0, -4194385, 5, 0, -4194372, 536870917, 0, -4194371, 536870916, 0, -4259740, 536870922, 0, -4128867, 10, 0, -4128850, 4, 0, -4128849, 5, 0, -4128836, 536870917, 0, -4128835, 536870916, 0, -4194204, 536870922, 0, -4063331, 10, 0, -4063314, 4, 0, -4063313, 5, 0, -4063300, 536870917, 0, -4063299, 536870916, 0, -4128668, 536870922, 0, -3997795, 10, 0, -3997778, 4, 0, -3997777, 5, 0, -3997764, 536870917, 0, -3997763, 536870916, 0, -4063132, 536870922, 0, -3932259, 10, 0, -3932242, 4, 0, -3932241, 5, 0, -3932228, 536870917, 0, -3932227, 536870916, 0, -3997596, 536870922, 0, -3866723, 10, 0, -3866706, 4, 0, -3866705, 5, 0, -3866692, 536870917, 0, -3866691, 536870916, 0, -3932060, 536870922, 0, -3801187, 10, 0, -3801170, 4, 0, -3801169, 5, 0, -3801156, 536870917, 0, -3801155, 536870916, 0, -3866524, 536870922, 0, -3735651, 10, 0, -3735634, 4, 0, -3735633, 5, 0, -3735620, 536870917, 0, -3735619, 536870916, 0, -3800988, 536870922, 0, -3670115, 10, 0, -3670098, 4, 0, -3670097, 5, 0, -3670084, 536870917, 0, -3670083, 536870916, 0, -3735452, 536870922, 0, -3604579, 10, 0, -3604562, 4, 0, -3604561, 5, 0, -3604548, 536870917, 0, -3604547, 536870916, 0, -3669916, 536870922, 0, -3539043, 10, 0, -3539026, 4, 0, -3539025, 5, 0, -3539012, 536870917, 0, -3539011, 536870916, 0, -3604380, 536870922, 0, -3473507, 10, 0, -3473490, 4, 0, -3473489, 5, 0, -3473476, 536870917, 0, -3473475, 536870916, 0, -3538844, 536870922, 0, -3407971, 10, 0, -3407954, 4, 0, -3407953, 5, 0, -3407940, 536870917, 0, -3407939, 536870916, 0, -3473308, 536870922, 0, -3342435, 10, 0, -3342418, 4, 0, -3342417, 5, 0, -3342404, 536870917, 0, -3342403, 536870916, 0, -3407772, 536870922, 0, -3276899, 10, 0, -3276882, 4, 0, -3276881, 5, 0, -3276868, 536870917, 0, -3276867, 536870916, 0, -3342236, 536870922, 0, -3211363, 10, 0, -3211346, 4, 0, -3211345, 5, 0, -3211332, 536870917, 0, -3211331, 536870916, 0, -3276700, 536870922, 0, -3145827, 10, 0, -3145810, 4, 0, -3145809, 5, 0, -3145796, 536870917, 0, -3145795, 536870916, 0, -3211164, 536870922, 0, -3080291, 10, 0, -3080274, 4, 0, -3080273, 5, 0, -3080260, 536870917, 0, -3080259, 536870916, 0, -3145628, 536870922, 0, -3014755, 10, 0, -3014738, 4, 0, -3014737, 5, 0, -3014724, 536870917, 0, -3014723, 536870916, 0, -3080092, 536870922, 0, -2949219, 10, 0, -2949202, 4, 0, -2949201, 5, 0, -2949188, 536870917, 0, -2949187, 536870916, 0, -3014556, 536870922, 0, -2883683, 10, 0, -2883666, 4, 0, -2883665, 5, 0, -2883652, 536870917, 0, -2883651, 536870916, 0, -2949020, 536870922, 0, -2818147, 10, 0, -2818130, 4, 0, -2818129, 5, 0, -2818116, 536870917, 0, -2818115, 536870916, 0, -2883484, 536870922, 0, -2752611, 10, 0, -2752594, 4, 0, -2752593, 5, 0, -2752580, 536870917, 0, -2752579, 536870916, 0, -2817948, 536870922, 0, -2687075, 10, 0, -2687058, 4, 0, -2687057, 5, 0, -2687044, 536870917, 0, -2687043, 536870916, 0, -2752412, 536870922, 0, -2621539, 10, 0, -2621522, 4, 0, -2621521, 5, 0, -2621508, 536870917, 0, -2621507, 536870916, 0, -2686876, 536870922, 0, -2556003, 10, 0, -2555986, 4, 0, -2555985, 5, 0, -2555972, 536870917, 0, -2555971, 536870916, 0, -2621340, 536870922, 0, -2490467, 10, 0, -2490450, 4, 0, -2490449, 5, 0, -2490436, 536870917, 0, -2490435, 536870916, 0, -2555804, 536870922, 0, -2424931, 10, 0, -2424914, 4, 0, -2424913, 5, 0, -2424900, 536870917, 0, -2424899, 536870916, 0, -2490268, 536870922, 0, -2359395, 10, 0, -2359378, 4, 0, -2359377, 5, 0, -2359364, 536870917, 0, -2359363, 536870916, 0, -2424732, 536870922, 0, -2293859, 10, 0, -2293842, 4, 0, -2293841, 5, 0, -2293828, 536870917, 0, -2293827, 536870916, 0, -2359196, 536870922, 0, -2228323, 10, 0, -2228306, 4, 0, -2228305, 5, 0, -2228292, 536870917, 0, -2228291, 536870916, 0, -2293660, 536870922, 0, -2162787, 10, 0, -2162770, 4, 0, -2162769, 5, 0, -2162756, 536870917, 0, -2162755, 536870916, 0, -2228124, 536870922, 0, -2097251, 10, 0, -2097234, 4, 0, -2097233, 5, 0, -2097220, 536870917, 0, -2097219, 536870916, 0, -2162588, 536870922, 0, -2031715, 10, 0, -2031698, 4, 0, -2031697, 5, 0, -2031684, 536870917, 0, -2031683, 536870916, 0, -2097052, 536870922, 0, -1966179, 10, 0, -1966162, 4, 0, -1966161, 5, 0, -1966148, 536870917, 0, -1966147, 536870916, 0, -2031516, 536870922, 0, -1900643, 10, 0, -1900626, 4, 0, -1900625, 5, 0, -1900612, 536870917, 0, -1900611, 536870916, 0, -1965980, 536870922, 0, -1835107, 10, 0, -1835090, 4, 0, -1835089, 5, 0, -1835076, 536870917, 0, -1835075, 536870916, 0, -1900444, 536870922, 0, -1769571, 10, 0, -1769554, 4, 0, -1769553, 5, 0, -1769540, 536870917, 0, -1769539, 536870916, 0, -1834908, 536870922, 0, -1704035, 10, 0, -1704018, 4, 0, -1704017, 5, 0, -1704004, 536870917, 0, -1704003, 536870916, 0, -1769372, 536870922, 0, -1638499, 10, 0, -1638482, 4, 0, -1638481, 5, 0, -1638468, 536870917, 0, -1638467, 536870916, 0, -1703836, 536870922, 0, -1572963, 10, 0, -1572946, 4, 0, -1572945, 5, 0, -1572932, 536870917, 0, -1572931, 536870916, 0, -1638300, 536870922, 0, -1507427, 10, 0, -1507410, 4, 0, -1507409, 5, 0, -1507396, 536870917, 0, -1507395, 536870916, 0, -1572764, 536870922, 0, -1441891, 10, 0, -1441874, 4, 0, -1441873, 5, 0, -1441860, 536870917, 0, -1441859, 536870916, 0, -1507228, 536870922, 0, -1376355, 10, 0, -1376338, 4, 0, -1376337, 5, 0, -1376324, 536870917, 0, -1376323, 536870916, 0, -1441692, 536870922, 0, -1310819, 10, 0, -1310802, 4, 0, -1310801, 5, 0, -1310788, 536870917, 0, -1310787, 536870916, 0, -1376156, 536870922, 0, -1245283, 10, 0, -1245266, 4, 0, -1245265, 5, 0, -1245252, 536870917, 0, -1245251, 536870916, 0, -1310620, 536870922, 0, -1179747, 10, 0, -1179730, 4, 0, -1179729, 5, 0, -1179716, 536870917, 0, -1179715, 536870916, 0, -1245084, 536870922, 0, -1114211, 10, 0, -1114194, 4, 0, -1114193, 5, 0, -1114180, 536870917, 0, -1114179, 536870916, 0, -1179548, 536870922, 0, -1048675, 10, 0, -1048658, 4, 0, -1048657, 5, 0, -1048644, 536870917, 0, -1048643, 536870916, 0, -1114012, 536870922, 0, -983139, 10, 0, -983122, 4, 0, -983121, 5, 0, -983108, 536870917, 0, -983107, 536870916, 0, -1048476, 536870922, 0, -917603, 10, 0, -917586, 4, 0, -917585, 5, 0, -917572, 536870917, 0, -917571, 536870916, 0, -982940, 536870922, 0, -852067, 10, 0, -852050, 4, 0, -852049, 5, 0, -852036, 536870917, 0, -852035, 536870916, 0, -917404, 536870922, 0, -786531, 10, 0, -786514, 4, 0, -786513, 5, 0, -786500, 536870917, 0, -786499, 536870916, 0, -851868, 536870922, 0, -720995, 10, 0, -720978, 4, 0, -720977, 5, 0, -720964, 536870917, 0, -786332, 536870922, 0, -655459, 10, 0, -655442, 4, 0, -655441, 5, 0, -655428, 536870917, 0, -720796, 536870922, 0, -589923, 10, 0, -589906, 4, 0, -589905, 5, 0, -589904, 0, 0, -589898, 0, 0, -589897, 0, 0, -589896, 0, 0, -589895, 0, 0, -589894, 0, 0, -589893, 0, 0, -589892, 536870917, 0, -655260, 536870922, 0, -524387, 10, 0, -524370, 4, 0, -524369, 5, 0, -524356, 536870917, 0, -589724, 536870922, 0, -458851, 10, 0, -458834, 4, 0, -458833, 5, 0, -458820, 536870917, 0, -524188, 536870922, 0, -393315, 12, 0, -393314, 14, 0, -393313, 14, 0, -393312, 14, 0, -393311, 14, 0, -393310, 14, 0, -393309, 14, 0, -393308, 14, 0, -393307, 14, 0, -393306, 14, 0, -393305, 14, 0, -393304, 14, 0, -393303, 14, 0, -393302, 14, 0, -393301, 14, 0, -393300, 14, 0, -393299, 14, 0, -393298, 14, 0, -393297, 14, 0, -393296, 14, 0, -393295, 14, 0, -393294, 14, 0, -393293, 14, 0, -393292, 14, 0, -393291, 14, 0, -393290, 14, 0, -393289, 14, 0, -393288, 14, 0, -393287, 14, 0, -393286, 14, 0, -393285, 14, 0, -393284, 14, 0, -393283, 14, 0, -393282, 14, 0, -393281, 14, 0, -393280, 14, 0, -393279, 14, 0, -393278, 14, 0, -393277, 14, 0, -393276, 14, 0, -393275, 14, 0, -393274, 14, 0, -393273, 14, 0, -393272, 14, 0, -393271, 14, 0, -393270, 14, 0, -393269, 14, 0, -393268, 14, 0, -393267, 14, 0, -393266, 14, 0, -393265, 14, 0, -393264, 14, 0, -393263, 14, 0, -393262, 14, 0, -393261, 14, 0, -393260, 14, 0, -393259, 14, 0, -393258, 14, 0, -393257, 14, 0, -393256, 14, 0, -393255, 14, 0, -393254, 14, 0, -393253, 14, 0, -393252, 14, 0, -393251, 14, 0, -393250, 14, 0, -393249, 14, 0, -393248, 14, 0, -393247, 14, 0, -393246, 14, 0, -393245, 14, 0, -393244, 14, 0, -393243, 14, 0, -393242, 14, 0, -393241, 14, 0, -393240, 14, 0, -393239, 14, 0, -393238, 14, 0, -393237, 14, 0, -393236, 14, 0, -393235, 14, 0, -393234, 14, 0, -393233, 14, 0, -393232, 14, 0, -393231, 14, 0, -393230, 14, 0, -393229, 14, 0, -393228, 14, 0, -393227, 14, 0, -393226, 14, 0, -393225, 14, 0, -393224, 14, 0, -393223, 14, 0, -393222, 14, 0, -393221, 14, 0, -393220, 14, 0, -393219, 14, 0, -393217, 13, 0, -458752, 13, 0, -458751, 13, 0, -458749, 14, 0, -458748, 14, 0, -458747, 14, 0, -458746, 14, 0, -458745, 14, 0, -458744, 14, 0, -458743, 14, 0, -458742, 14, 0, -458741, 14, 0, -458740, 14, 0, -458739, 14, 0, -458738, 14, 0, -458737, 14, 0, -458736, 14, 0, -458735, 14, 0, -458734, 14, 0, -458733, 14, 0, -458732, 14, 0, -458731, 14, 0, -458730, 14, 0, -458729, 14, 0, -458728, 14, 0, -458727, 14, 0, -458726, 14, 0, -458725, 14, 0, -458724, 14, 0, -458723, 14, 0, -458722, 14, 0, -458721, 14, 0, -458720, 14, 0, -458719, 14, 0, -458718, 14, 0, -458717, 14, 0, -458716, 14, 0, -458715, 14, 0, -458714, 14, 0, -458713, 14, 0, -458712, 14, 0, -458711, 14, 0, -458710, 14, 0, -458709, 14, 0, -458708, 14, 0, -458707, 14, 0, -458706, 14, 0, -458705, 14, 0, -458704, 14, 0, -458703, 14, 0, -458702, 14, 0, -458701, 14, 0, -458700, 14, 0, -458699, 14, 0, -458698, 14, 0, -458697, 14, 0, -458696, 14, 0, -458695, 14, 0, -458694, 14, 0, -458693, 14, 0, -458692, 14, 0, -458691, 14, 0, -458690, 14, 0, -458689, 14, 0, -458688, 14, 0, -458687, 14, 0, -458686, 14, 0, -458685, 14, 0, -458684, 14, 0, -458683, 14, 0, -458682, 14, 0, -458681, 14, 0, -458680, 14, 0, -458679, 14, 0, -458678, 14, 0, -458677, 14, 0, -458676, 14, 0, -458675, 14, 0, -458674, 14, 0, -458673, 14, 0, -458672, 14, 0, -458671, 14, 0, -458670, 14, 0, -458669, 14, 0, -458668, 14, 0, -458667, 14, 0, -458666, 14, 0, -458665, 14, 0, -458664, 14, 0, -458663, 14, 0, -458662, 14, 0, -458661, 14, 0, -458660, 14, 0, -458659, 14, 0, -458658, 14, 0, -458657, 14, 0, -458656, 14, 0, -458655, 14, 0, -458654, 14, 0, -458653, 14, 0, -458652, 11, 0, -327779, 536870922, 0, -327778, 17, 0, -327777, 17, 0, -327776, 17, 0, -327775, 17, 0, -327774, 17, 0, -327773, 17, 0, -327772, 17, 0, -327771, 17, 0, -327770, 17, 0, -327769, 17, 0, -327768, 17, 0, -327767, 17, 0, -327766, 17, 0, -327765, 17, 0, -327764, 17, 0, -327763, 17, 0, -327762, 17, 0, -327761, 17, 0, -327760, 17, 0, -327759, 17, 0, -327758, 17, 0, -327757, 17, 0, -327756, 17, 0, -327755, 17, 0, -327754, 17, 0, -327753, 17, 0, -327752, 17, 0, -327751, 17, 0, -327750, 17, 0, -327749, 17, 0, -327748, 17, 0, -327747, 17, 0, -327746, 17, 0, -327745, 17, 0, -327744, 17, 0, -327743, 17, 0, -327742, 17, 0, -327741, 17, 0, -327740, 17, 0, -327739, 17, 0, -327738, 17, 0, -327737, 17, 0, -327736, 17, 0, -327735, 17, 0, -327734, 17, 0, -327733, 17, 0, -327732, 17, 0, -327731, 17, 0, -327730, 17, 0, -327729, 17, 0, -327728, 17, 0, -327727, 17, 0, -327726, 17, 0, -327725, 17, 0, -327724, 17, 0, -327723, 17, 0, -327722, 17, 0, -327721, 17, 0, -327720, 17, 0, -327719, 17, 0, -327718, 17, 0, -327717, 17, 0, -327716, 17, 0, -327715, 17, 0, -327714, 17, 0, -327713, 17, 0, -327712, 17, 0, -327711, 17, 0, -327710, 17, 0, -327709, 17, 0, -327708, 17, 0, -327707, 17, 0, -327706, 17, 0, -327705, 17, 0, -327704, 17, 0, -327703, 17, 0, -327702, 17, 0, -327701, 17, 0, -327700, 17, 0, -327699, 17, 0, -327698, 17, 0, -327697, 17, 0, -327696, 17, 0, -327695, 17, 0, -327694, 17, 0, -327693, 17, 0, -327692, 17, 0, -327691, 17, 0, -327690, 17, 0, -327689, 17, 0, -327688, 17, 0, -327687, 17, 0, -327686, 17, 0, -327685, 17, 0, -327684, 17, 0, -327683, 17, 0, -327682, 10, 0, -327681, 13, 0, -393216, 13, 0, -393215, 13, 0, -393214, 536870922, 0, -393213, 17, 0, -393212, 17, 0, -393211, 17, 0, -393210, 17, 0, -393209, 17, 0, -393208, 17, 0, -393207, 17, 0, -393206, 17, 0, -393205, 17, 0, -393204, 17, 0, -393203, 17, 0, -393202, 17, 0, -393201, 17, 0, -393200, 17, 0, -393199, 17, 0, -393198, 17, 0, -393197, 17, 0, -393196, 17, 0, -393195, 17, 0, -393194, 17, 0, -393193, 17, 0, -393192, 17, 0, -393191, 17, 0, -393190, 17, 0, -393189, 17, 0, -393188, 17, 0, -393187, 17, 0, -393186, 17, 0, -393185, 17, 0, -393184, 17, 0, -393183, 17, 0, -393182, 17, 0, -393181, 17, 0, -393180, 17, 0, -393179, 17, 0, -393178, 17, 0, -393177, 17, 0, -393176, 17, 0, -393175, 17, 0, -393174, 17, 0, -393173, 17, 0, -393172, 17, 0, -393171, 17, 0, -393170, 17, 0, -393169, 17, 0, -393168, 17, 0, -393167, 17, 0, -393166, 17, 0, -393165, 17, 0, -393164, 17, 0, -393163, 17, 0, -393162, 17, 0, -393161, 17, 0, -393160, 17, 0, -393159, 17, 0, -393158, 17, 0, -393157, 17, 0, -393156, 17, 0, -393155, 17, 0, -393154, 17, 0, -393153, 17, 0, -393152, 17, 0, -393151, 17, 0, -393150, 17, 0, -393149, 17, 0, -393148, 17, 0, -393147, 17, 0, -393146, 17, 0, -393145, 17, 0, -393144, 17, 0, -393143, 17, 0, -393142, 17, 0, -393141, 17, 0, -393140, 17, 0, -393139, 17, 0, -393138, 17, 0, -393137, 17, 0, -393136, 17, 0, -393135, 17, 0, -393134, 17, 0, -393133, 17, 0, -393132, 17, 0, -393131, 17, 0, -393130, 17, 0, -393129, 17, 0, -393128, 17, 0, -393127, 17, 0, -393126, 17, 0, -393125, 17, 0, -393124, 17, 0, -393123, 17, 0, -393122, 17, 0, -393121, 17, 0, -393120, 17, 0, -393119, 17, 0, -393118, 17, 0, -393117, 17, 0, -393116, 10, 0, -262243, 536870922, 0, -262242, 17, 0, -262241, 17, 0, -262240, 17, 0, -262239, 17, 0, -262238, 17, 0, -262237, 17, 0, -262236, 17, 0, -262235, 17, 0, -262234, 17, 0, -262233, 17, 0, -262232, 17, 0, -262231, 17, 0, -262230, 17, 0, -262229, 17, 0, -262228, 17, 0, -262227, 17, 0, -262226, 17, 0, -262225, 17, 0, -262224, 17, 0, -262223, 17, 0, -262222, 17, 0, -262221, 17, 0, -262220, 17, 0, -262219, 17, 0, -262218, 17, 0, -262217, 17, 0, -262216, 17, 0, -262215, 17, 0, -262214, 17, 0, -262213, 17, 0, -262212, 17, 0, -262211, 17, 0, -262210, 17, 0, -262209, 17, 0, -262208, 17, 0, -262207, 17, 0, -262206, 17, 0, -262205, 17, 0, -262204, 17, 0, -262203, 17, 0, -262202, 17, 0, -262201, 17, 0, -262200, 17, 0, -262199, 17, 0, -262198, 17, 0, -262197, 17, 0, -262196, 17, 0, -262195, 17, 0, -262194, 17, 0, -262193, 17, 0, -262192, 17, 0, -262191, 17, 0, -262190, 17, 0, -262189, 17, 0, -262188, 17, 0, -262187, 17, 0, -262186, 17, 0, -262185, 17, 0, -262184, 17, 0, -262183, 17, 0, -262182, 17, 0, -262181, 17, 0, -262180, 17, 0, -262179, 17, 0, -262178, 17, 0, -262177, 17, 0, -262176, 17, 0, -262175, 17, 0, -262174, 17, 0, -262173, 17, 0, -262172, 17, 0, -262171, 17, 0, -262170, 17, 0, -262169, 17, 0, -262168, 17, 0, -262167, 17, 0, -262166, 17, 0, -262165, 17, 0, -262164, 17, 0, -262163, 17, 0, -262162, 17, 0, -262161, 17, 0, -262160, 17, 0, -262159, 17, 0, -262158, 17, 0, -262157, 17, 0, -262156, 17, 0, -262155, 17, 0, -262154, 17, 0, -262153, 17, 0, -262152, 17, 0, -262151, 17, 0, -262150, 17, 0, -262149, 17, 0, -262148, 17, 0, -262147, 17, 0, -262146, 10, 0, -262145, 13, 0, -327680, 13, 0, -327679, 13, 0, -327678, 536870922, 0, -327677, 17, 0, -327676, 17, 0, -327675, 17, 0, -327674, 17, 0, -327673, 17, 0, -327672, 17, 0, -327671, 17, 0, -327670, 17, 0, -327669, 17, 0, -327668, 17, 0, -327667, 17, 0, -327666, 17, 0, -327665, 17, 0, -327664, 17, 0, -327663, 17, 0, -327662, 17, 0, -327661, 17, 0, -327660, 17, 0, -327659, 17, 0, -327658, 17, 0, -327657, 17, 0, -327656, 17, 0, -327655, 17, 0, -327654, 17, 0, -327653, 17, 0, -327652, 17, 0, -327651, 17, 0, -327650, 17, 0, -327649, 17, 0, -327648, 17, 0, -327647, 17, 0, -327646, 17, 0, -327645, 17, 0, -327644, 17, 0, -327643, 17, 0, -327642, 17, 0, -327641, 17, 0, -327640, 17, 0, -327639, 17, 0, -327638, 17, 0, -327637, 17, 0, -327636, 17, 0, -327635, 17, 0, -327634, 17, 0, -327633, 17, 0, -327632, 17, 0, -327631, 17, 0, -327630, 17, 0, -327629, 17, 0, -327628, 17, 0, -327627, 17, 0, -327626, 17, 0, -327625, 17, 0, -327624, 17, 0, -327623, 17, 0, -327622, 17, 0, -327621, 17, 0, -327620, 17, 0, -327619, 17, 0, -327618, 17, 0, -327617, 17, 0, -327616, 17, 0, -327615, 17, 0, -327614, 17, 0, -327613, 17, 0, -327612, 17, 0, -327611, 17, 0, -327610, 17, 0, -327609, 17, 0, -327608, 17, 0, -327607, 17, 0, -327606, 17, 0, -327605, 17, 0, -327604, 17, 0, -327603, 17, 0, -327602, 17, 0, -327601, 17, 0, -327600, 17, 0, -327599, 17, 0, -327598, 17, 0, -327597, 17, 0, -327596, 17, 0, -327595, 17, 0, -327594, 17, 0, -327593, 17, 0, -327592, 17, 0, -327591, 17, 0, -327590, 17, 0, -327589, 17, 0, -327588, 17, 0, -327587, 17, 0, -327586, 17, 0, -327585, 17, 0, -327584, 17, 0, -327583, 17, 0, -327582, 17, 0, -327581, 17, 0, -327580, 10, 0, -196707, 536870922, 0, -196706, 17, 0, -196705, 17, 0, -196704, 17, 0, -196703, 17, 0, -196702, 17, 0, -196701, 17, 0, -196700, 17, 0, -196699, 17, 0, -196698, 17, 0, -196697, 17, 0, -196696, 17, 0, -196695, 17, 0, -196694, 17, 0, -196693, 17, 0, -196692, 17, 0, -196691, 17, 0, -196690, 17, 0, -196689, 17, 0, -196688, 17, 0, -196687, 17, 0, -196686, 17, 0, -196685, 17, 0, -196684, 17, 0, -196683, 17, 0, -196682, 17, 0, -196681, 17, 0, -196680, 17, 0, -196679, 17, 0, -196678, 17, 0, -196677, 17, 0, -196676, 17, 0, -196675, 17, 0, -196674, 17, 0, -196673, 17, 0, -196672, 17, 0, -196671, 17, 0, -196670, 17, 0, -196669, 17, 0, -196668, 17, 0, -196667, 17, 0, -196666, 17, 0, -196665, 17, 0, -196664, 17, 0, -196663, 17, 0, -196662, 17, 0, -196661, 17, 0, -196660, 17, 0, -196659, 17, 0, -196658, 17, 0, -196657, 17, 0, -196656, 17, 0, -196655, 17, 0, -196654, 17, 0, -196653, 17, 0, -196652, 17, 0, -196651, 17, 0, -196650, 17, 0, -196649, 17, 0, -196648, 17, 0, -196647, 17, 0, -196646, 17, 0, -196645, 17, 0, -196644, 17, 0, -196643, 17, 0, -196642, 17, 0, -196641, 17, 0, -196640, 17, 0, -196639, 17, 0, -196638, 17, 0, -196637, 17, 0, -196636, 17, 0, -196635, 17, 0, -196634, 17, 0, -196633, 17, 0, -196632, 17, 0, -196631, 17, 0, -196630, 17, 0, -196629, 17, 0, -196628, 17, 0, -196627, 17, 0, -196626, 17, 0, -196625, 17, 0, -196624, 17, 0, -196623, 17, 0, -196622, 17, 0, -196621, 17, 0, -196620, 17, 0, -196619, 17, 0, -196618, 17, 0, -196617, 17, 0, -196616, 17, 0, -196615, 17, 0, -196614, 17, 0, -196613, 17, 0, -196612, 17, 0, -196611, 17, 0, -196610, 10, 0, -196609, 13, 0, -262144, 13, 0, -262143, 13, 0, -262142, 536870922, 0, -262141, 17, 0, -262140, 17, 0, -262139, 17, 0, -262138, 17, 0, -262137, 17, 0, -262136, 17, 0, -262135, 17, 0, -262134, 17, 0, -262133, 17, 0, -262132, 17, 0, -262131, 17, 0, -262130, 17, 0, -262129, 17, 0, -262128, 17, 0, -262127, 17, 0, -262126, 17, 0, -262125, 17, 0, -262124, 17, 0, -262123, 17, 0, -262122, 17, 0, -262121, 17, 0, -262120, 17, 0, -262119, 17, 0, -262118, 17, 0, -262117, 17, 0, -262116, 17, 0, -262115, 17, 0, -262114, 17, 0, -262113, 17, 0, -262112, 17, 0, -262111, 17, 0, -262110, 17, 0, -262109, 17, 0, -262108, 17, 0, -262107, 17, 0, -262106, 17, 0, -262105, 17, 0, -262104, 17, 0, -262103, 17, 0, -262102, 17, 0, -262101, 17, 0, -262100, 17, 0, -262099, 17, 0, -262098, 17, 0, -262097, 17, 0, -262096, 17, 0, -262095, 17, 0, -262094, 17, 0, -262093, 17, 0, -262092, 17, 0, -262091, 17, 0, -262090, 17, 0, -262089, 17, 0, -262088, 17, 0, -262087, 17, 0, -262086, 17, 0, -262085, 17, 0, -262084, 17, 0, -262083, 17, 0, -262082, 17, 0, -262081, 17, 0, -262080, 17, 0, -262079, 17, 0, -262078, 17, 0, -262077, 17, 0, -262076, 17, 0, -262075, 17, 0, -262074, 17, 0, -262073, 17, 0, -262072, 17, 0, -262071, 17, 0, -262070, 17, 0, -262069, 17, 0, -262068, 17, 0, -262067, 17, 0, -262066, 17, 0, -262065, 17, 0, -262064, 17, 0, -262063, 17, 0, -262062, 17, 0, -262061, 17, 0, -262060, 17, 0, -262059, 17, 0, -262058, 17, 0, -262057, 17, 0, -262056, 17, 0, -262055, 17, 0, -262054, 17, 0, -262053, 17, 0, -262052, 17, 0, -262051, 17, 0, -262050, 17, 0, -262049, 17, 0, -262048, 17, 0, -262047, 17, 0, -262046, 17, 0, -262045, 17, 0, -262044, 10, 0, -131171, 536870922, 0, -131170, 17, 0, -131169, 17, 0, -131168, 17, 0, -131167, 17, 0, -131166, 17, 0, -131165, 17, 0, -131164, 17, 0, -131163, 17, 0, -131162, 17, 0, -131161, 17, 0, -131160, 17, 0, -131159, 17, 0, -131158, 17, 0, -131157, 17, 0, -131156, 17, 0, -131155, 17, 0, -131154, 17, 0, -131153, 17, 0, -131152, 17, 0, -131151, 17, 0, -131150, 17, 0, -131149, 17, 0, -131148, 17, 0, -131147, 17, 0, -131146, 17, 0, -131145, 17, 0, -131144, 17, 0, -131143, 17, 0, -131142, 17, 0, -131141, 17, 0, -131140, 17, 0, -131139, 17, 0, -131138, 17, 0, -131137, 17, 0, -131136, 17, 0, -131135, 17, 0, -131134, 17, 0, -131133, 17, 0, -131132, 17, 0, -131131, 17, 0, -131130, 17, 0, -131129, 17, 0, -131128, 17, 0, -131127, 17, 0, -131126, 17, 0, -131125, 17, 0, -131124, 17, 0, -131123, 17, 0, -131122, 17, 0, -131121, 17, 0, -131120, 17, 0, -131119, 17, 0, -131118, 17, 0, -131117, 17, 0, -131116, 17, 0, -131115, 17, 0, -131114, 17, 0, -131113, 17, 0, -131112, 17, 0, -131111, 17, 0, -131110, 17, 0, -131109, 17, 0, -131108, 17, 0, -131107, 17, 0, -131106, 17, 0, -131105, 17, 0, -131104, 17, 0, -131103, 17, 0, -131102, 17, 0, -131101, 17, 0, -131100, 17, 0, -131099, 17, 0, -131098, 17, 0, -131097, 17, 0, -131096, 17, 0, -131095, 17, 0, -131094, 17, 0, -131093, 17, 0, -131092, 17, 0, -131091, 17, 0, -131090, 17, 0, -131089, 17, 0, -131088, 17, 0, -131087, 17, 0, -131086, 17, 0, -131085, 17, 0, -131084, 17, 0, -131083, 17, 0, -131082, 17, 0, -131081, 17, 0, -131080, 17, 0, -131079, 17, 0, -131078, 17, 0, -131077, 17, 0, -131076, 17, 0, -131075, 17, 0, -131074, 10, 0, -131073, 13, 0, -196608, 13, 0, -196607, 13, 0, -196606, 536870922, 0, -196605, 17, 0, -196604, 17, 0, -196603, 17, 0, -196602, 17, 0, -196601, 17, 0, -196600, 17, 0, -196599, 17, 0, -196598, 17, 0, -196597, 17, 0, -196596, 17, 0, -196595, 17, 0, -196594, 17, 0, -196593, 17, 0, -196592, 17, 0, -196591, 17, 0, -196590, 17, 0, -196589, 17, 0, -196588, 17, 0, -196587, 17, 0, -196586, 17, 0, -196585, 17, 0, -196584, 17, 0, -196583, 17, 0, -196582, 17, 0, -196581, 17, 0, -196580, 17, 0, -196579, 17, 0, -196578, 17, 0, -196577, 17, 0, -196576, 17, 0, -196575, 17, 0, -196574, 17, 0, -196573, 17, 0, -196572, 17, 0, -196571, 17, 0, -196570, 17, 0, -196569, 17, 0, -196568, 17, 0, -196567, 17, 0, -196566, 17, 0, -196565, 17, 0, -196564, 17, 0, -196563, 17, 0, -196562, 17, 0, -196561, 17, 0, -196560, 17, 0, -196559, 17, 0, -196558, 17, 0, -196557, 17, 0, -196556, 17, 0, -196555, 17, 0, -196554, 17, 0, -196553, 17, 0, -196552, 17, 0, -196551, 17, 0, -196550, 17, 0, -196549, 17, 0, -196548, 17, 0, -196547, 17, 0, -196546, 17, 0, -196545, 17, 0, -196544, 17, 0, -196543, 17, 0, -196542, 17, 0, -196541, 17, 0, -196540, 17, 0, -196539, 17, 0, -196538, 17, 0, -196537, 17, 0, -196536, 17, 0, -196535, 17, 0, -196534, 17, 0, -196533, 17, 0, -196532, 17, 0, -196531, 17, 0, -196530, 17, 0, -196529, 17, 0, -196528, 17, 0, -196527, 17, 0, -196526, 17, 0, -196525, 17, 0, -196524, 17, 0, -196523, 17, 0, -196522, 17, 0, -196521, 17, 0, -196520, 17, 0, -196519, 17, 0, -196518, 17, 0, -196517, 17, 0, -196516, 17, 0, -196515, 17, 0, -196514, 17, 0, -196513, 17, 0, -196512, 17, 0, -196511, 17, 0, -196510, 17, 0, -196509, 17, 0, -196508, 10, 0, -65635, 536870922, 0, -65634, 17, 0, -65633, 17, 0, -65632, 17, 0, -65631, 17, 0, -65630, 17, 0, -65629, 17, 0, -65628, 17, 0, -65627, 17, 0, -65626, 17, 0, -65625, 17, 0, -65624, 17, 0, -65623, 17, 0, -65622, 17, 0, -65621, 17, 0, -65620, 17, 0, -65619, 17, 0, -65618, 17, 0, -65617, 17, 0, -65616, 17, 0, -65615, 17, 0, -65614, 17, 0, -65613, 17, 0, -65612, 17, 0, -65611, 17, 0, -65610, 17, 0, -65609, 17, 0, -65608, 17, 0, -65607, 17, 0, -65606, 17, 0, -65605, 17, 0, -65604, 17, 0, -65603, 17, 0, -65602, 17, 0, -65601, 17, 0, -65600, 17, 0, -65599, 17, 0, -65598, 17, 0, -65597, 17, 0, -65596, 17, 0, -65595, 17, 0, -65594, 17, 0, -65593, 17, 0, -65592, 17, 0, -65591, 17, 0, -65590, 17, 0, -65589, 17, 0, -65588, 17, 0, -65587, 17, 0, -65586, 17, 0, -65585, 17, 0, -65584, 17, 0, -65583, 17, 0, -65582, 17, 0, -65581, 17, 0, -65580, 17, 0, -65579, 17, 0, -65578, 17, 0, -65577, 17, 0, -65576, 17, 0, -65575, 17, 0, -65574, 17, 0, -65573, 17, 0, -65572, 17, 0, -65571, 17, 0, -65570, 17, 0, -65569, 17, 0, -65568, 17, 0, -65567, 17, 0, -65566, 17, 0, -65565, 17, 0, -65564, 17, 0, -65563, 17, 0, -65562, 17, 0, -65561, 17, 0, -65560, 17, 0, -65559, 17, 0, -65558, 17, 0, -65557, 17, 0, -65556, 17, 0, -65555, 17, 0, -65554, 17, 0, -65553, 17, 0, -65552, 17, 0, -65551, 17, 0, -65550, 17, 0, -65549, 17, 0, -65548, 17, 0, -65547, 17, 0, -65546, 17, 0, -65545, 17, 0, -65544, 17, 0, -65543, 17, 0, -65542, 17, 0, -65541, 17, 0, -65540, 17, 0, -65539, 17, 0, -65538, 10, 0, -65537, 13, 0, -131072, 13, 0, -131071, 13, 0, -131070, 536870922, 0, -131069, 17, 0, -131068, 17, 0, -131067, 17, 0, -131066, 17, 0, -131065, 17, 0, -131064, 17, 0, -131063, 17, 0, -131062, 17, 0, -131061, 17, 0, -131060, 17, 0, -131059, 17, 0, -131058, 17, 0, -131057, 17, 0, -131056, 17, 0, -131055, 17, 0, -131054, 17, 0, -131053, 17, 0, -131052, 17, 0, -131051, 17, 0, -131050, 17, 0, -131049, 17, 0, -131048, 17, 0, -131047, 17, 0, -131046, 17, 0, -131045, 17, 0, -131044, 17, 0, -131043, 17, 0, -131042, 17, 0, -131041, 17, 0, -131040, 17, 0, -131039, 17, 0, -131038, 17, 0, -131037, 17, 0, -131036, 17, 0, -131035, 17, 0, -131034, 17, 0, -131033, 17, 0, -131032, 17, 0, -131031, 17, 0, -131030, 17, 0, -131029, 17, 0, -131028, 17, 0, -131027, 17, 0, -131026, 17, 0, -131025, 17, 0, -131024, 17, 0, -131023, 17, 0, -131022, 17, 0, -131021, 17, 0, -131020, 17, 0, -131019, 17, 0, -131018, 17, 0, -131017, 17, 0, -131016, 17, 0, -131015, 17, 0, -131014, 17, 0, -131013, 17, 0, -131012, 17, 0, -131011, 17, 0, -131010, 17, 0, -131009, 17, 0, -131008, 17, 0, -131007, 17, 0, -131006, 17, 0, -131005, 17, 0, -131004, 17, 0, -131003, 17, 0, -131002, 17, 0, -131001, 17, 0, -131000, 17, 0, -130999, 17, 0, -130998, 17, 0, -130997, 17, 0, -130996, 17, 0, -130995, 17, 0, -130994, 17, 0, -130993, 17, 0, -130992, 17, 0, -130991, 17, 0, -130990, 17, 0, -130989, 17, 0, -130988, 17, 0, -130987, 17, 0, -130986, 17, 0, -130985, 17, 0, -130984, 17, 0, -130983, 17, 0, -130982, 17, 0, -130981, 17, 0, -130980, 17, 0, -130979, 17, 0, -130978, 17, 0, -130977, 17, 0, -130976, 17, 0, -130975, 17, 0, -130974, 17, 0, -130973, 17, 0, -130972, 10, 0, -99, 536870922, 0, -98, 17, 0, -97, 17, 0, -96, 17, 0, -95, 17, 0, -94, 17, 0, -93, 17, 0, -92, 17, 0, -91, 17, 0, -90, 17, 0, -89, 17, 0, -88, 17, 0, -87, 17, 0, -86, 17, 0, -85, 17, 0, -84, 17, 0, -83, 17, 0, -82, 17, 0, -81, 17, 0, -80, 17, 0, -79, 17, 0, -78, 17, 0, -77, 17, 0, -76, 17, 0, -75, 17, 0, -74, 17, 0, -73, 17, 0, -72, 17, 0, -71, 17, 0, -70, 17, 0, -69, 17, 0, -68, 17, 0, -67, 17, 0, -66, 17, 0, -65, 17, 0, -64, 17, 0, -63, 17, 0, -62, 17, 0, -61, 17, 0, -60, 17, 0, -59, 17, 0, -58, 17, 0, -57, 17, 0, -56, 17, 0, -55, 17, 0, -54, 17, 0, -53, 17, 0, -52, 17, 0, -51, 17, 0, -50, 17, 0, -49, 17, 0, -48, 17, 0, -47, 17, 0, -46, 17, 0, -45, 17, 0, -44, 17, 0, -43, 17, 0, -42, 17, 0, -41, 17, 0, -40, 17, 0, -39, 17, 0, -38, 17, 0, -37, 17, 0, -36, 17, 0, -35, 17, 0, -34, 17, 0, -33, 17, 0, -32, 17, 0, -31, 17, 0, -30, 17, 0, -29, 17, 0, -28, 17, 0, -27, 17, 0, -26, 17, 0, -25, 17, 0, -24, 17, 0, -23, 17, 0, -22, 17, 0, -21, 17, 0, -20, 17, 0, -19, 17, 0, -18, 17, 0, -17, 17, 0, -16, 17, 0, -15, 17, 0, -14, 17, 0, -13, 17, 0, -12, 17, 0, -11, 17, 0, -10, 17, 0, -9, 17, 0, -8, 17, 0, -7, 17, 0, -6, 17, 0, -5, 17, 0, -4, 17, 0, -3, 17, 0, -2, 10, 0, -1, 13, 0, -65536, 13, 0, -65535, 13, 0, -65534, 536870922, 0, -65533, 17, 0, -65532, 17, 0, -65531, 17, 0, -65530, 17, 0, -65529, 17, 0, -65528, 17, 0, -65527, 17, 0, -65526, 17, 0, -65525, 17, 0, -65524, 17, 0, -65523, 17, 0, -65522, 17, 0, -65521, 17, 0, -65520, 17, 0, -65519, 17, 0, -65518, 17, 0, -65517, 17, 0, -65516, 17, 0, -65515, 17, 0, -65514, 17, 0, -65513, 17, 0, -65512, 17, 0, -65511, 17, 0, -65510, 17, 0, -65509, 17, 0, -65508, 17, 0, -65507, 17, 0, -65506, 17, 0, -65505, 17, 0, -65504, 17, 0, -65503, 17, 0, -65502, 17, 0, -65501, 17, 0, -65500, 17, 0, -65499, 17, 0, -65498, 17, 0, -65497, 17, 0, -65496, 17, 0, -65495, 17, 0, -65494, 17, 0, -65493, 17, 0, -65492, 17, 0, -65491, 17, 0, -65490, 17, 0, -65489, 17, 0, -65488, 17, 0, -65487, 17, 0, -65486, 17, 0, -65485, 17, 0, -65484, 17, 0, -65483, 17, 0, -65482, 17, 0, -65481, 17, 0, -65480, 17, 0, -65479, 17, 0, -65478, 17, 0, -65477, 17, 0, -65476, 17, 0, -65475, 17, 0, -65474, 17, 0, -65473, 17, 0, -65472, 17, 0, -65471, 17, 0, -65470, 17, 0, -65469, 17, 0, -65468, 17, 0, -65467, 17, 0, -65466, 17, 0, -65465, 17, 0, -65464, 17, 0, -65463, 17, 0, -65462, 17, 0, -65461, 17, 0, -65460, 17, 0, -65459, 17, 0, -65458, 17, 0, -65457, 17, 0, -65456, 17, 0, -65455, 17, 0, -65454, 17, 0, -65453, 17, 0, -65452, 17, 0, -65451, 17, 0, -65450, 17, 0, -65449, 17, 0, -65448, 17, 0, -65447, 17, 0, -65446, 17, 0, -65445, 17, 0, -65444, 17, 0, -65443, 17, 0, -65442, 17, 0, -65441, 17, 0, -65440, 17, 0, -65439, 17, 0, -65438, 17, 0, -65437, 17, 0, -65436, 10, 0, 65437, 536870922, 0, 65438, 17, 0, 65439, 17, 0, 65440, 17, 0, 65441, 17, 0, 65442, 17, 0, 65443, 17, 0, 65444, 17, 0, 65445, 17, 0, 65446, 17, 0, 65447, 17, 0, 65448, 17, 0, 65449, 17, 0, 65450, 17, 0, 65451, 17, 0, 65452, 17, 0, 65453, 17, 0, 65454, 17, 0, 65455, 17, 0, 65456, 17, 0, 65457, 17, 0, 65458, 17, 0, 65459, 17, 0, 65460, 17, 0, 65461, 17, 0, 65462, 17, 0, 65463, 17, 0, 65464, 17, 0, 65465, 17, 0, 65466, 17, 0, 65467, 17, 0, 65468, 17, 0, 65469, 17, 0, 65470, 17, 0, 65471, 17, 0, 65472, 17, 0, 65473, 17, 0, 65474, 17, 0, 65475, 17, 0, 65476, 17, 0, 65477, 17, 0, 65478, 17, 0, 65479, 17, 0, 65480, 17, 0, 65481, 17, 0, 65482, 17, 0, 65483, 17, 0, 65484, 17, 0, 65485, 17, 0, 65486, 17, 0, 65487, 17, 0, 65488, 17, 0, 65489, 17, 0, 65490, 17, 0, 65491, 17, 0, 65492, 17, 0, 65493, 17, 0, 65494, 17, 0, 65495, 17, 0, 65496, 17, 0, 65497, 17, 0, 65498, 17, 0, 65499, 17, 0, 65500, 17, 0, 65501, 17, 0, 65502, 17, 0, 65503, 17, 0, 65504, 17, 0, 65505, 17, 0, 65506, 17, 0, 65507, 17, 0, 65508, 17, 0, 65509, 17, 0, 65510, 17, 0, 65511, 17, 0, 65512, 17, 0, 65513, 17, 0, 65514, 17, 0, 65515, 17, 0, 65516, 17, 0, 65517, 17, 0, 65518, 17, 0, 65519, 17, 0, 65520, 17, 0, 65521, 17, 0, 65522, 17, 0, 65523, 17, 0, 65524, 17, 0, 65525, 17, 0, 65526, 17, 0, 65527, 17, 0, 65528, 17, 0, 65529, 17, 0, 65530, 17, 0, 65531, 17, 0, 65532, 17, 0, 65533, 17, 0, 65534, 10, 0, 65535, 13, 0, 0, 13, 0, 1, 13, 0, 2, 536870922, 0, 3, 17, 0, 4, 17, 0, 5, 17, 0, 6, 17, 0, 7, 17, 0, 8, 17, 0, 9, 17, 0, 10, 17, 0, 11, 17, 0, 12, 17, 0, 13, 17, 0, 14, 17, 0, 15, 17, 0, 16, 17, 0, 17, 17, 0, 18, 17, 0, 19, 17, 0, 20, 17, 0, 21, 17, 0, 22, 17, 0, 23, 17, 0, 24, 17, 0, 25, 17, 0, 26, 17, 0, 27, 17, 0, 28, 17, 0, 29, 17, 0, 30, 17, 0, 31, 17, 0, 32, 17, 0, 33, 17, 0, 34, 17, 0, 35, 17, 0, 36, 17, 0, 37, 17, 0, 38, 17, 0, 39, 17, 0, 40, 17, 0, 41, 17, 0, 42, 17, 0, 43, 17, 0, 44, 17, 0, 45, 17, 0, 46, 17, 0, 47, 17, 0, 48, 17, 0, 49, 17, 0, 50, 17, 0, 51, 17, 0, 52, 17, 0, 53, 17, 0, 54, 17, 0, 55, 17, 0, 56, 17, 0, 57, 17, 0, 58, 17, 0, 59, 17, 0, 60, 17, 0, 61, 17, 0, 62, 17, 0, 63, 17, 0, 64, 17, 0, 65, 17, 0, 66, 17, 0, 67, 17, 0, 68, 17, 0, 69, 17, 0, 70, 17, 0, 71, 17, 0, 72, 17, 0, 73, 17, 0, 74, 17, 0, 75, 17, 0, 76, 17, 0, 77, 17, 0, 78, 17, 0, 79, 17, 0, 80, 17, 0, 81, 17, 0, 82, 17, 0, 83, 17, 0, 84, 17, 0, 85, 17, 0, 86, 17, 0, 87, 17, 0, 88, 17, 0, 89, 17, 0, 90, 17, 0, 91, 17, 0, 92, 17, 0, 93, 17, 0, 94, 17, 0, 95, 17, 0, 96, 17, 0, 97, 17, 0, 98, 17, 0, 99, 17, 0, 100, 10, 0, 130973, 536870922, 0, 130974, 17, 0, 130975, 17, 0, 130976, 17, 0, 130977, 17, 0, 130978, 17, 0, 130979, 17, 0, 130980, 17, 0, 130981, 17, 0, 130982, 17, 0, 130983, 17, 0, 130984, 17, 0, 130985, 17, 0, 130986, 17, 0, 130987, 17, 0, 130988, 17, 0, 130989, 17, 0, 130990, 17, 0, 130991, 17, 0, 130992, 17, 0, 130993, 17, 0, 130994, 17, 0, 130995, 17, 0, 130996, 17, 0, 130997, 17, 0, 130998, 17, 0, 130999, 17, 0, 131000, 17, 0, 131001, 17, 0, 131002, 17, 0, 131003, 17, 0, 131004, 17, 0, 131005, 17, 0, 131006, 17, 0, 131007, 17, 0, 131008, 17, 0, 131009, 17, 0, 131010, 17, 0, 131011, 17, 0, 131012, 17, 0, 131013, 17, 0, 131014, 17, 0, 131015, 17, 0, 131016, 17, 0, 131017, 17, 0, 131018, 17, 0, 131019, 17, 0, 131020, 17, 0, 131021, 17, 0, 131022, 17, 0, 131023, 17, 0, 131024, 17, 0, 131025, 17, 0, 131026, 17, 0, 131027, 17, 0, 131028, 17, 0, 131029, 17, 0, 131030, 17, 0, 131031, 17, 0, 131032, 17, 0, 131033, 17, 0, 131034, 17, 0, 131035, 17, 0, 131036, 17, 0, 131037, 17, 0, 131038, 17, 0, 131039, 17, 0, 131040, 17, 0, 131041, 17, 0, 131042, 17, 0, 131043, 17, 0, 131044, 17, 0, 131045, 17, 0, 131046, 17, 0, 131047, 17, 0, 131048, 17, 0, 131049, 17, 0, 131050, 17, 0, 131051, 17, 0, 131052, 17, 0, 131053, 17, 0, 131054, 17, 0, 131055, 17, 0, 131056, 17, 0, 131057, 17, 0, 131058, 17, 0, 131059, 17, 0, 131060, 17, 0, 131061, 17, 0, 131062, 17, 0, 131063, 17, 0, 131064, 17, 0, 131065, 17, 0, 131066, 17, 0, 131067, 17, 0, 131068, 17, 0, 131069, 17, 0, 131070, 10, 0, 131071, 13, 0, 65536, 13, 0, 65537, 13, 0, 65538, 536870922, 0, 65539, 17, 0, 65540, 17, 0, 65541, 17, 0, 65542, 17, 0, 65543, 17, 0, 65544, 17, 0, 65545, 17, 0, 65546, 17, 0, 65547, 17, 0, 65548, 17, 0, 65549, 17, 0, 65550, 17, 0, 65551, 17, 0, 65552, 17, 0, 65553, 17, 0, 65554, 17, 0, 65555, 17, 0, 65556, 17, 0, 65557, 17, 0, 65558, 17, 0, 65559, 17, 0, 65560, 17, 0, 65561, 17, 0, 65562, 17, 0, 65563, 17, 0, 65564, 17, 0, 65565, 17, 0, 65566, 17, 0, 65567, 17, 0, 65568, 17, 0, 65569, 17, 0, 65570, 17, 0, 65571, 17, 0, 65572, 17, 0, 65573, 17, 0, 65574, 17, 0, 65575, 17, 0, 65576, 17, 0, 65577, 17, 0, 65578, 17, 0, 65579, 17, 0, 65580, 17, 0, 65581, 17, 0, 65582, 17, 0, 65583, 17, 0, 65584, 17, 0, 65585, 17, 0, 65586, 17, 0, 65587, 17, 0, 65588, 17, 0, 65589, 17, 0, 65590, 17, 0, 65591, 17, 0, 65592, 17, 0, 65593, 17, 0, 65594, 17, 0, 65595, 17, 0, 65596, 17, 0, 65597, 17, 0, 65598, 17, 0, 65599, 17, 0, 65600, 17, 0, 65601, 17, 0, 65602, 17, 0, 65603, 17, 0, 65604, 17, 0, 65605, 17, 0, 65606, 17, 0, 65607, 17, 0, 65608, 17, 0, 65609, 17, 0, 65610, 17, 0, 65611, 17, 0, 65612, 17, 0, 65613, 17, 0, 65614, 17, 0, 65615, 17, 0, 65616, 17, 0, 65617, 17, 0, 65618, 17, 0, 65619, 17, 0, 65620, 17, 0, 65621, 17, 0, 65622, 17, 0, 65623, 17, 0, 65624, 17, 0, 65625, 17, 0, 65626, 17, 0, 65627, 17, 0, 65628, 17, 0, 65629, 17, 0, 65630, 17, 0, 65631, 17, 0, 65632, 17, 0, 65633, 17, 0, 65634, 17, 0, 65635, 17, 0, 65636, 10, 0, 196509, 536870922, 0, 196510, 17, 0, 196511, 17, 0, 196512, 17, 0, 196513, 17, 0, 196514, 17, 0, 196515, 17, 0, 196516, 17, 0, 196517, 17, 0, 196518, 17, 0, 196519, 17, 0, 196520, 17, 0, 196521, 17, 0, 196522, 17, 0, 196523, 17, 0, 196524, 17, 0, 196525, 17, 0, 196526, 17, 0, 196527, 17, 0, 196528, 17, 0, 196529, 17, 0, 196530, 17, 0, 196531, 17, 0, 196532, 17, 0, 196533, 17, 0, 196534, 17, 0, 196535, 17, 0, 196536, 17, 0, 196537, 17, 0, 196538, 17, 0, 196539, 17, 0, 196540, 17, 0, 196541, 17, 0, 196542, 17, 0, 196543, 17, 0, 196544, 17, 0, 196545, 17, 0, 196546, 17, 0, 196547, 17, 0, 196548, 17, 0, 196549, 17, 0, 196550, 17, 0, 196551, 17, 0, 196552, 17, 0, 196553, 17, 0, 196554, 17, 0, 196555, 17, 0, 196556, 17, 0, 196557, 17, 0, 196558, 17, 0, 196559, 17, 0, 196560, 17, 0, 196561, 17, 0, 196562, 17, 0, 196563, 17, 0, 196564, 17, 0, 196565, 17, 0, 196566, 17, 0, 196567, 17, 0, 196568, 17, 0, 196569, 17, 0, 196570, 17, 0, 196571, 17, 0, 196572, 17, 0, 196573, 17, 0, 196574, 17, 0, 196575, 17, 0, 196576, 17, 0, 196577, 17, 0, 196578, 17, 0, 196579, 17, 0, 196580, 17, 0, 196581, 17, 0, 196582, 17, 0, 196583, 17, 0, 196584, 17, 0, 196585, 17, 0, 196586, 17, 0, 196587, 17, 0, 196588, 17, 0, 196589, 17, 0, 196590, 17, 0, 196591, 17, 0, 196592, 17, 0, 196593, 17, 0, 196594, 17, 0, 196595, 17, 0, 196596, 17, 0, 196597, 17, 0, 196598, 17, 0, 196599, 17, 0, 196600, 17, 0, 196601, 17, 0, 196602, 17, 0, 196603, 17, 0, 196604, 17, 0, 196605, 17, 0, 196606, 10, 0, 196607, 13, 0, 131072, 13, 0, 131073, 13, 0, 131074, 536870922, 0, 131075, 17, 0, 131076, 17, 0, 131077, 17, 0, 131078, 17, 0, 131079, 17, 0, 131080, 17, 0, 131081, 17, 0, 131082, 17, 0, 131083, 17, 0, 131084, 17, 0, 131085, 17, 0, 131086, 17, 0, 131087, 17, 0, 131088, 17, 0, 131089, 17, 0, 131090, 17, 0, 131091, 17, 0, 131092, 17, 0, 131093, 17, 0, 131094, 17, 0, 131095, 17, 0, 131096, 17, 0, 131097, 17, 0, 131098, 17, 0, 131099, 17, 0, 131100, 17, 0, 131101, 17, 0, 131102, 17, 0, 131103, 17, 0, 131104, 17, 0, 131105, 17, 0, 131106, 17, 0, 131107, 17, 0, 131108, 17, 0, 131109, 17, 0, 131110, 17, 0, 131111, 17, 0, 131112, 17, 0, 131113, 17, 0, 131114, 17, 0, 131115, 17, 0, 131116, 17, 0, 131117, 17, 0, 131118, 17, 0, 131119, 17, 0, 131120, 17, 0, 131121, 17, 0, 131122, 17, 0, 131123, 17, 0, 131124, 17, 0, 131125, 17, 0, 131126, 17, 0, 131127, 17, 0, 131128, 17, 0, 131129, 17, 0, 131130, 17, 0, 131131, 17, 0, 131132, 17, 0, 131133, 17, 0, 131134, 17, 0, 131135, 17, 0, 131136, 17, 0, 131137, 17, 0, 131138, 17, 0, 131139, 17, 0, 131140, 17, 0, 131141, 17, 0, 131142, 17, 0, 131143, 17, 0, 131144, 17, 0, 131145, 17, 0, 131146, 17, 0, 131147, 17, 0, 131148, 17, 0, 131149, 17, 0, 131150, 17, 0, 131151, 17, 0, 131152, 17, 0, 131153, 17, 0, 131154, 17, 0, 131155, 17, 0, 131156, 17, 0, 131157, 17, 0, 131158, 17, 0, 131159, 17, 0, 131160, 17, 0, 131161, 17, 0, 131162, 17, 0, 131163, 17, 0, 131164, 17, 0, 131165, 17, 0, 131166, 17, 0, 131167, 17, 0, 131168, 17, 0, 131169, 17, 0, 131170, 17, 0, 131171, 17, 0, 131172, 10, 0, 262045, 536870922, 0, 262046, 17, 0, 262047, 17, 0, 262048, 17, 0, 262049, 17, 0, 262050, 17, 0, 262051, 17, 0, 262052, 17, 0, 262053, 17, 0, 262054, 17, 0, 262055, 17, 0, 262056, 17, 0, 262057, 17, 0, 262058, 17, 0, 262059, 17, 0, 262060, 17, 0, 262061, 17, 0, 262062, 17, 0, 262063, 17, 0, 262064, 17, 0, 262065, 17, 0, 262066, 17, 0, 262067, 17, 0, 262068, 17, 0, 262069, 17, 0, 262070, 17, 0, 262071, 17, 0, 262072, 17, 0, 262073, 17, 0, 262074, 17, 0, 262075, 17, 0, 262076, 17, 0, 262077, 17, 0, 262078, 17, 0, 262079, 17, 0, 262080, 17, 0, 262081, 17, 0, 262082, 17, 0, 262083, 17, 0, 262084, 17, 0, 262085, 17, 0, 262086, 17, 0, 262087, 17, 0, 262088, 17, 0, 262089, 17, 0, 262090, 17, 0, 262091, 17, 0, 262092, 17, 0, 262093, 17, 0, 262094, 17, 0, 262095, 17, 0, 262096, 17, 0, 262097, 17, 0, 262098, 17, 0, 262099, 17, 0, 262100, 17, 0, 262101, 17, 0, 262102, 17, 0, 262103, 17, 0, 262104, 17, 0, 262105, 17, 0, 262106, 17, 0, 262107, 17, 0, 262108, 17, 0, 262109, 17, 0, 262110, 17, 0, 262111, 17, 0, 262112, 17, 0, 262113, 17, 0, 262114, 17, 0, 262115, 17, 0, 262116, 17, 0, 262117, 17, 0, 262118, 17, 0, 262119, 17, 0, 262120, 17, 0, 262121, 17, 0, 262122, 17, 0, 262123, 17, 0, 262124, 17, 0, 262125, 17, 0, 262126, 17, 0, 262127, 17, 0, 262128, 17, 0, 262129, 17, 0, 262130, 17, 0, 262131, 17, 0, 262132, 17, 0, 262133, 17, 0, 262134, 17, 0, 262135, 17, 0, 262136, 17, 0, 262137, 17, 0, 262138, 17, 0, 262139, 17, 0, 262140, 17, 0, 262141, 17, 0, 262142, 10, 0, 262143, 13, 0, 196608, 13, 0, 196609, 13, 0, 196610, 536870922, 0, 196611, 17, 0, 196612, 17, 0, 196613, 17, 0, 196614, 17, 0, 196615, 17, 0, 196616, 17, 0, 196617, 17, 0, 196618, 17, 0, 196619, 17, 0, 196620, 17, 0, 196621, 17, 0, 196622, 17, 0, 196623, 17, 0, 196624, 17, 0, 196625, 17, 0, 196626, 17, 0, 196627, 17, 0, 196628, 17, 0, 196629, 17, 0, 196630, 17, 0, 196631, 17, 0, 196632, 17, 0, 196633, 17, 0, 196634, 17, 0, 196635, 17, 0, 196636, 17, 0, 196637, 17, 0, 196638, 17, 0, 196639, 17, 0, 196640, 17, 0, 196641, 17, 0, 196642, 17, 0, 196643, 17, 0, 196644, 17, 0, 196645, 17, 0, 196646, 17, 0, 196647, 17, 0, 196648, 17, 0, 196649, 17, 0, 196650, 17, 0, 196651, 17, 0, 196652, 17, 0, 196653, 17, 0, 196654, 17, 0, 196655, 17, 0, 196656, 17, 0, 196657, 17, 0, 196658, 17, 0, 196659, 17, 0, 196660, 17, 0, 196661, 17, 0, 196662, 17, 0, 196663, 17, 0, 196664, 17, 0, 196665, 17, 0, 196666, 17, 0, 196667, 17, 0, 196668, 17, 0, 196669, 17, 0, 196670, 17, 0, 196671, 17, 0, 196672, 17, 0, 196673, 17, 0, 196674, 17, 0, 196675, 17, 0, 196676, 17, 0, 196677, 17, 0, 196678, 17, 0, 196679, 17, 0, 196680, 17, 0, 196681, 17, 0, 196682, 17, 0, 196683, 17, 0, 196684, 17, 0, 196685, 17, 0, 196686, 17, 0, 196687, 17, 0, 196688, 17, 0, 196689, 17, 0, 196690, 17, 0, 196691, 17, 0, 196692, 17, 0, 196693, 17, 0, 196694, 17, 0, 196695, 17, 0, 196696, 17, 0, 196697, 17, 0, 196698, 17, 0, 196699, 17, 0, 196700, 17, 0, 196701, 17, 0, 196702, 17, 0, 196703, 17, 0, 196704, 17, 0, 196705, 17, 0, 196706, 17, 0, 196707, 17, 0, 196708, 10, 0 )

[node name="ClimbableGroup" type="Node2D" parent="tilemap"]

[node name="ClimbableBlock" parent="tilemap/ClimbableGroup" instance=ExtResource( 4 )]
position = Vector2( 80, -208 )
physics_material_override = SubResource( 1 )

[node name="ClimbableBlock2" parent="tilemap/ClimbableGroup" instance=ExtResource( 4 )]
position = Vector2( -48, -208 )
physics_material_override = SubResource( 2 )

[node name="Sprite" parent="tilemap/ClimbableGroup/ClimbableBlock2" index="0"]
texture = ExtResource( 5 )

[node name="ClimbableBlock3" parent="tilemap/ClimbableGroup" instance=ExtResource( 6 )]
position = Vector2( -2448, -464 )
physics_material_override = SubResource( 3 )

[node name="ClimbableBlock4" parent="tilemap/ClimbableGroup" instance=ExtResource( 6 )]
position = Vector2( -2320, -656 )
physics_material_override = SubResource( 4 )

[node name="ClimbableBlock5" parent="tilemap/ClimbableGroup" instance=ExtResource( 6 )]
position = Vector2( -2416, -880 )
physics_material_override = SubResource( 5 )

[node name="ClimbableBlock6" parent="tilemap/ClimbableGroup" instance=ExtResource( 6 )]
position = Vector2( -2480, -1200 )
physics_material_override = SubResource( 6 )

[node name="ClimbableBlock7" parent="tilemap/ClimbableGroup" instance=ExtResource( 6 )]
position = Vector2( -2256, -1200 )
physics_material_override = SubResource( 7 )

[node name="ClimbableBlock8" parent="tilemap/ClimbableGroup" instance=ExtResource( 6 )]
position = Vector2( -2256, -1488 )
physics_material_override = SubResource( 8 )

[node name="ClimbableBlock9" parent="tilemap/ClimbableGroup" instance=ExtResource( 6 )]
position = Vector2( -2480, -1488 )
physics_material_override = SubResource( 9 )

[node name="ClimbableBlock10" parent="tilemap/ClimbableGroup" instance=ExtResource( 6 )]
position = Vector2( -2320, -1808 )
physics_material_override = SubResource( 10 )

[node name="ClimbableBlock11" parent="tilemap/ClimbableGroup" instance=ExtResource( 6 )]
position = Vector2( -2416, -2064 )
physics_material_override = SubResource( 11 )

[node name="ClimbableBlock12" parent="tilemap/ClimbableGroup" instance=ExtResource( 6 )]
position = Vector2( -2416, -2320 )
physics_material_override = SubResource( 12 )

[node name="ClimbableBlock13" parent="tilemap/ClimbableGroup" instance=ExtResource( 6 )]
position = Vector2( -2224, -2320 )
physics_material_override = SubResource( 13 )

[node name="ClimbableBlock14" parent="tilemap/ClimbableGroup" instance=ExtResource( 6 )]
position = Vector2( -2416, -2544 )
physics_material_override = SubResource( 14 )

[node name="ClimbableBlock15" parent="tilemap/ClimbableGroup" instance=ExtResource( 6 )]
position = Vector2( -2288, -2736 )
physics_material_override = SubResource( 15 )

[node name="ClimbableBlock16" parent="tilemap/ClimbableGroup" instance=ExtResource( 6 )]
position = Vector2( -2384, -3024 )
physics_material_override = SubResource( 16 )

[node name="ClimbableBlock17" parent="tilemap/ClimbableGroup" instance=ExtResource( 6 )]
position = Vector2( -2480, -3248 )
physics_material_override = SubResource( 17 )

[node name="ClimbableBlock18" parent="tilemap/ClimbableGroup" instance=ExtResource( 6 )]
position = Vector2( -2288, -3248 )
physics_material_override = SubResource( 18 )

[node name="ClimbableBlock19" parent="tilemap/ClimbableGroup" instance=ExtResource( 6 )]
position = Vector2( -2352, -3536 )
physics_material_override = SubResource( 19 )

[node name="LadderGroup" type="Node2D" parent="tilemap"]

[node name="TestLadder" parent="tilemap/LadderGroup" instance=ExtResource( 7 )]
position = Vector2( 16, -32 )

[node name="Sprite" parent="tilemap/LadderGroup/TestLadder/KinematicBody2D" index="0"]
region_rect = Rect2( 0, 0, 32, 320 )

[node name="ladder" parent="tilemap/LadderGroup/TestLadder/KinematicBody2D" index="1"]
scale = Vector2( 1, 10 )

[node name="TestLadder2" parent="tilemap/LadderGroup" instance=ExtResource( 8 )]
position = Vector2( 16, -208 )

[node name="EnemiesGroup" type="Node2D" parent="tilemap"]

[node name="Sorcerer" parent="tilemap/EnemiesGroup" instance=ExtResource( 9 )]
position = Vector2( 512, -304 )

[node name="Sorcerer5" parent="tilemap/EnemiesGroup" instance=ExtResource( 9 )]
position = Vector2( -768, -304 )

[node name="Sorcerer6" parent="tilemap/EnemiesGroup" instance=ExtResource( 9 )]
position = Vector2( -2512, -560 )

[node name="Sorcerer7" parent="tilemap/EnemiesGroup" instance=ExtResource( 9 )]
position = Vector2( -2224, -1888 )

[node name="Sorcerer8" parent="tilemap/EnemiesGroup" instance=ExtResource( 9 )]
position = Vector2( -2368, -3808 )

[node name="Sorcerer2" parent="tilemap/EnemiesGroup" instance=ExtResource( 9 )]
position = Vector2( 896, -304 )

[node name="Sorcerer3" parent="tilemap/EnemiesGroup" instance=ExtResource( 9 )]
position = Vector2( 1728, -304 )

[node name="Sorcerer4" parent="tilemap/EnemiesGroup" instance=ExtResource( 9 )]
position = Vector2( 2496, -304 )

[node name="Priest" parent="tilemap/EnemiesGroup" instance=ExtResource( 10 )]
position = Vector2( -2240, -736 )

[node name="Priest2" parent="tilemap/EnemiesGroup" instance=ExtResource( 10 )]
position = Vector2( -2368, -1280 )

[node name="Priest3" parent="tilemap/EnemiesGroup" instance=ExtResource( 10 )]
position = Vector2( -2496, -2144 )

[node name="Priest4" parent="tilemap/EnemiesGroup" instance=ExtResource( 10 )]
position = Vector2( -2496, -3104 )

[node name="ItemGroup" type="Node2D" parent="tilemap"]

[node name="Gold" parent="tilemap/ItemGroup" instance=ExtResource( 11 )]
position = Vector2( -1984, -3840 )
value = 500

[node name="Gold2" parent="tilemap/ItemGroup" instance=ExtResource( 11 )]
position = Vector2( -1984, -2560 )
value = 250

[node name="Gold3" parent="tilemap/ItemGroup" instance=ExtResource( 11 )]
position = Vector2( -1984, -1280 )
value = 100

[node name="FakeGroup" type="Node2D" parent="tilemap"]

[node name="Fake" parent="tilemap/FakeGroup" instance=ExtResource( 12 )]
position = Vector2( -2368, -2096 )
overlay = "../overlay"

[node name="fake" parent="tilemap/FakeGroup/Fake" index="0"]
scale = Vector2( 16, 117 )

[node name="overlay" type="Node2D" parent="tilemap/FakeGroup"]
visible = false
z_index = 3

[node name="Sprite" type="Sprite" parent="tilemap/FakeGroup/overlay"]
light_mask = 2
position = Vector2( -2368, -352 )
scale = Vector2( -1, 1 )
texture = ExtResource( 13 )

[node name="Sprite3" type="Sprite" parent="tilemap/FakeGroup/overlay"]
light_mask = 2
position = Vector2( -2240, -2096 )
scale = Vector2( -1, 1 )
texture = ExtResource( 14 )
region_enabled = true
region_rect = Rect2( 0, 0, 256, 3232 )

[node name="Sprite5" type="Sprite" parent="tilemap/FakeGroup/overlay"]
light_mask = 2
position = Vector2( -2496, -2096 )
texture = ExtResource( 14 )
region_enabled = true
region_rect = Rect2( 0, 0, 256, 3232 )

[node name="Sprite4" type="Sprite" parent="tilemap/FakeGroup/overlay"]
light_mask = 2
position = Vector2( -2368, -3840 )
scale = Vector2( -1, 1 )
texture = ExtResource( 15 )
region_rect = Rect2( 0, 0, 256, 3200 )

[node name="Sprite2" type="Sprite" parent="tilemap/FakeGroup/overlay"]
light_mask = 2
position = Vector2( -2368, -256 )
texture = ExtResource( 16 )
region_enabled = true
region_rect = Rect2( 0, 0, 640, 128 )

[node name="TeleportGroup" type="Node2D" parent="tilemap"]

[node name="Teleport" parent="tilemap/TeleportGroup" instance=ExtResource( 17 )]
position = Vector2( 16, 144 )
is_horizontal = false
target_level = "res://levels/common/catacombs.tscn"
teleport_to = Vector2( -16, -272 )

[node name="teleport" parent="tilemap/TeleportGroup/Teleport" index="0"]
scale = Vector2( 3, 1 )

[node name="boundaries" type="Node2D" parent="tilemap"]

[node name="NW" type="Position2D" parent="tilemap/boundaries"]
position = Vector2( -3104, -3904 )

[node name="SE" type="Position2D" parent="tilemap/boundaries"]
position = Vector2( 3184, 128 )

[node name="bushes" type="TileMap" parent="."]
tile_set = ExtResource( 3 )
cell_size = Vector2( 32, 32 )
format = 1
tile_data = PoolIntArray( -2883503, 19, 0, -2687031, 19, 0, -2686947, 21, 0, -2686918, 21, 0, -2555964, 3, 0, -2555829, 9, 0, -2293812, 7, 0, -2359270, 11, 0, -2359241, 11, 0, -2359212, 7, 0, -2293725, 7, 0, -2293695, 1, 0, -1966181, 15, 0, -1966144, 5, 0, -1966131, 1, 0, -1966105, 15, 0, -2031609, 3, 0, -2031591, 3, 0, -2031573, 15, 0, -2031562, 3, 0, -2031544, 5, 0, -2031531, 1, 0, -1900588, 17, 0, -1966067, 17, 0, -1966045, 13, 0, -1966016, 13, 0, -1835027, 1, 0, -1769576, 3, 0, -1835002, 11, 0, -1834992, 1, 0, -1834968, 3, 0, -1703997, 3, 0, -1703978, 7, 0, -1703861, 3, 0, -1572958, 1, 0, -1572917, 5, 0, -1572883, 7, 0, -1638350, 1, 0, -1507389, 9, 0, -1507369, 1, 0, -1507358, 5, 0, -1572842, 5, 0, -1572829, 1, 0, -1572801, 7, 0, -1507304, 9, 0, -1507275, 9, 0, -1441706, 1, 0, -1310770, 3, 0, -1310749, 3, 0, -1376252, 5, 0, -1376240, 7, 0, -1376208, 7, 0, -1245225, 13, 0, -1114219, 5, 0, -1179611, 5, 0 )

[node name="foreground" type="TileMap" parent="."]
z_index = 2
tile_set = ExtResource( 2 )
cell_size = Vector2( 32, 32 )
collision_layer = 524288
format = 1
tile_data = PoolIntArray( -7209033, 6, 0, -7209032, 6, 0, -7209031, 6, 0, -7209030, 6, 0, -7209029, 6, 0, -7209028, 6, 0, -6619213, 6, 0, -6619212, 6, 0, -6619211, 6, 0, -6619210, 6, 0, -6619209, 6, 0, -6160465, 6, 0, -6160464, 6, 0, -6160463, 6, 0, -6160462, 6, 0, -6160461, 6, 0, -6160460, 6, 0, -5570631, 6, 0, -5570630, 6, 0, -5570629, 6, 0, -5570628, 6, 0, -5177425, 6, 0, -5177424, 6, 0, -5177423, 6, 0, -5177422, 6, 0, -5177421, 6, 0, -4718667, 6, 0, -4718666, 6, 0, -4718665, 6, 0, -4718664, 6, 0, -4718663, 6, 0, -4194385, 6, 0, -4194384, 6, 0, -4194383, 6, 0, -4194382, 6, 0, -4194381, 6, 0, -3670088, 6, 0, -3670087, 6, 0, -3670086, 6, 0, -3670085, 6, 0, -3670084, 6, 0, -3014733, 6, 0, -3014732, 6, 0, -3014731, 6, 0, -3014730, 6, 0, -3014729, 6, 0, -3014728, 6, 0, -2424909, 6, 0, -2424908, 6, 0, -2424907, 6, 0, -2424906, 6, 0, -2424905, 6, 0, -2424904, 6, 0, -1769553, 6, 0, -1769552, 6, 0, -1769551, 6, 0, -1769550, 6, 0, -1769549, 6, 0, -1310792, 6, 0, -1310791, 6, 0, -1310790, 6, 0, -1310789, 6, 0, -1310788, 6, 0, -917585, 6, 0, -917584, 6, 0, -917583, 6, 0, -917582, 6, 0, -589922, 1, 0, -589921, 1, 0, -589920, 0, 0, -589919, 0, 0, -589918, 1, 0, -589917, 1, 0, -589916, 1, 0, -589915, 0, 0, -589914, 0, 0, -589913, 0, 0, -589912, 0, 0, -589911, 2, 0, -589910, 2, 0, -589909, 0, 0, -589908, 0, 0, -589907, 0, 0, -589890, 0, 0, -589889, 2, 0, -589888, 0, 0, -589887, 0, 0, -589886, 0, 0, -589885, 2, 0, -589884, 0, 0, -589883, 0, 0, -589882, 0, 0, -589881, 2, 0, -589880, 0, 0, -589879, 0, 0, -589878, 0, 0, -589877, 0, 0, -589876, 0, 0, -589875, 1, 0, -589874, 0, 0, -589873, 0, 0, -589872, 0, 0, -589871, 0, 0, -589870, 0, 0, -589869, 0, 0, -589868, 0, 0, -589867, 0, 0, -589866, 0, 0, -589865, 0, 0, -589864, 0, 0, -589863, 0, 0, -589862, 0, 0, -589861, 0, 0, -589860, 0, 0, -589859, 0, 0, -589858, 0, 0, -589857, 0, 0, -589856, 0, 0, -589855, 0, 0, -589854, 1, 0, -589853, 0, 0, -589852, 0, 0, -589851, 1, 0, -589850, 1, 0, -589849, 0, 0, -589848, 0, 0, -589847, 0, 0, -589846, 0, 0, -589845, 0, 0, -589844, 0, 0, -589843, 0, 0, -589842, 0, 0, -589841, 0, 0, -589840, 0, 0, -589839, 0, 0, -589838, 0, 0, -589837, 0, 0, -589836, 0, 0, -589835, 0, 0, -589834, 0, 0, -589833, 0, 0, -589832, 0, 0, -589831, 0, 0, -589830, 0, 0, -589829, 0, 0, -589828, 0, 0, -589827, 0, 0, -655357, 0, 0, -655356, 0, 0, -655355, 0, 0, -655354, 0, 0, -655353, 0, 0, -655352, 0, 0, -655351, 0, 0, -655350, 0, 0, -655349, 0, 0, -655348, 0, 0, -655347, 0, 0, -655346, 0, 0, -655345, 0, 0, -655344, 0, 0, -655343, 0, 0, -655342, 0, 0, -655341, 0, 0, -655340, 0, 0, -655339, 0, 0, -655338, 0, 0, -655337, 0, 0, -655336, 0, 0, -655335, 0, 0, -655334, 0, 0, -655333, 0, 0, -655332, 0, 0, -655331, 0, 0, -655330, 0, 0, -655329, 0, 0, -655328, 0, 0, -655327, 0, 0, -655326, 0, 0, -655325, 0, 0, -655324, 0, 0, -655323, 0, 0, -655322, 0, 0, -655321, 0, 0, -655320, 0, 0, -655319, 0, 0, -655318, 0, 0, -655317, 0, 0, -655316, 0, 0, -655315, 0, 0, -655314, 0, 0, -655313, 0, 0, -655312, 0, 0, -655311, 0, 0, -655310, 0, 0, -655309, 0, 0, -655308, 0, 0, -655307, 0, 0, -655306, 0, 0, -655305, 0, 0, -655304, 0, 0, -655303, 0, 0, -655302, 0, 0, -655301, 0, 0, -655300, 0, 0, -655299, 0, 0, -655298, 0, 0, -655297, 0, 0, -655296, 0, 0, -655295, 0, 0, -655294, 0, 0, -655293, 0, 0, -655292, 0, 0, -655291, 0, 0, -655290, 0, 0, -655289, 0, 0, -655288, 0, 0, -655287, 0, 0, -655286, 0, 0, -655285, 0, 0, -655284, 0, 0, -655283, 0, 0, -655282, 0, 0, -655281, 0, 0, -655280, 0, 0, -655279, 0, 0, -655278, 0, 0, -655277, 0, 0, -655276, 0, 0, -655275, 0, 0, -655274, 0, 0, -655273, 0, 0, -655272, 0, 0, -655271, 0, 0, -655270, 0, 0, -655269, 0, 0, -655268, 0, 0, -655267, 0, 0, -655266, 0, 0, -655265, 0, 0, -655264, 0, 0, -655263, 0, 0, -655262, 0, 0, -655261, 0, 0 )
__meta__ = {
"_edit_lock_": true
}

[node name="ParallaxBackground" type="ParallaxBackground" parent="."]
scroll_ignore_camera_zoom = true

[node name="CanvasModulate" type="CanvasModulate" parent="ParallaxBackground"]
color = Color( 0.172549, 0.388235, 0.6, 1 )

[node name="ParallaxLayer" type="ParallaxLayer" parent="ParallaxBackground"]
motion_mirroring = Vector2( 1200, 0 )

[node name="sky" type="Sprite" parent="ParallaxBackground/ParallaxLayer"]
material = SubResource( 21 )
position = Vector2( -400, -3968 )
scale = Vector2( 38, 117 )
texture = SubResource( 22 )
centered = false
region_rect = Rect2( 0, 0, 1200, 1744 )

[node name="ParallaxLayer2" type="ParallaxLayer" parent="ParallaxBackground"]
motion_scale = Vector2( 0.6, 1 )
motion_mirroring = Vector2( 1408, 0 )

[node name="treeBG" type="TileMap" parent="ParallaxBackground/ParallaxLayer2"]
modulate = Color( 1, 1, 1, 0.596078 )
tile_set = ExtResource( 3 )
cell_size = Vector2( 32, 32 )
format = 1
tile_data = PoolIntArray( -2490377, 18, 0, -2555892, 18, 0, -2359311, 2, 0, -2359295, 20, 0, -2359290, 0, 0, -2359273, 20, 0, -2293742, 2, 0, -2228220, 4, 0, -2097168, 8, 0, -2097158, 6, 0, -1900549, 0, 0, -1966074, 2, 0, -1966065, 6, 0, -1966053, 0, 0, -1769468, 6, 0, -1703930, 8, 0, -1572869, 2, 0, -1638383, 0, 0, -1572850, 4, 0, -1507312, 8, 0, -1507302, 6, 0, -1376273, 4, 0 )

[node name="bushBG" type="TileMap" parent="ParallaxBackground/ParallaxLayer2"]
modulate = Color( 1, 1, 1, 0.596078 )
tile_set = ExtResource( 3 )
cell_size = Vector2( 32, 32 )
format = 1
tile_data = PoolIntArray( -2686985, 19, 0, -2752500, 19, 0, -2621441, 21, 0, -2686955, 21, 0, -2359311, 3, 0, -2359290, 1, 0, -2293742, 3, 0, -2097168, 9, 0, -2097158, 7, 0, -1900549, 1, 0, -1966074, 3, 0, -1966065, 7, 0, -1966053, 1, 0, -1769468, 7, 0, -1703930, 9, 0, -1572869, 3, 0, -1638383, 1, 0, -1572850, 5, 0, -1507312, 9, 0, -1507302, 7, 0, -1376273, 5, 0 )

[editable path="tilemap/ClimbableGroup/ClimbableBlock2"]
[editable path="tilemap/LadderGroup/TestLadder"]
[editable path="tilemap/FakeGroup/Fake"]
[editable path="tilemap/TeleportGroup/Teleport"]
