[gd_scene load_steps=3 format=2]

[ext_resource path="res://scenes/waterway/slopes/slopetile0-7.png" type="Texture" id=1]

[sub_resource type="RectangleShape2D" id=1]

custom_solver_bias = 0.0
extents = Vector2( 16, 16 )

[node name="TestSlope7-0" type="Node2D" index="0"]

__meta__ = {
"__editor_plugin_screen__": "2D"
}

[node name="KinematicBody2D" type="KinematicBody2D" parent="." index="0"]

input_pickable = false
collision_layer = 1
collision_mask = 1
collision/safe_margin = 0.08

[node name="Sprite" type="Sprite" parent="KinematicBody2D" index="0"]

texture = ExtResource( 1 )
flip_h = true
vframes = 2
hframes = 4

[node name="slope7-0" type="Area2D" parent="KinematicBody2D" index="1"]

input_pickable = true
gravity_vec = Vector2( 0, 1 )
gravity = 98.0
linear_damp = 0.1
angular_damp = 1.0
collision_layer = 3
audio_bus_override = false
audio_bus_name = "Master"
_sections_unfolded = [ "Collision" ]

[node name="CollisionShape2D" type="CollisionShape2D" parent="KinematicBody2D/slope7-0" index="0"]

shape = SubResource( 1 )


