[gd_scene load_steps=3 format=2]

[ext_resource path="res://scenes/springislandcastle/tileset.tres" type="TileSet" id=1]
[ext_resource path="res://players/magic/shield/fill.png" type="Texture" id=2]

[node name="ParallaxBackground" type="ParallaxBackground"]
scroll_ignore_camera_zoom = true

[node name="ParallaxLayer" type="ParallaxLayer" parent="."]
motion_scale = Vector2( 0.5, 0.5 )
motion_offset = Vector2( 1152, 384 )
motion_mirroring = Vector2( 922, 921 )

[node name="tilemap2" type="TileMap" parent="ParallaxLayer"]
position = Vector2( 896, 0 )
scale = Vector2( 0.6, 0.6 )
tile_set = ExtResource( 1 )
cell_size = Vector2( 32, 32 )
collision_layer = 524288
format = 1
tile_data = PoolIntArray( -2162742, 28, 0, -2162738, 6, 0, -2162734, 27, 0, -2162730, 6, 0, -2162726, 26, 0, -2162722, 6, 0, -2162718, 27, 0, -2162714, 6, 0, -2162710, 29, 0, -2162702, 536870941, 0, -1638454, 26, 0, -1638450, 6, 0, -1638446, 27, 0, -1638442, 6, 0, -1638438, 25, 0, -1638434, 6, 0, -1638430, 28, 0, -1638426, 6, 0, -1638422, 29, 0, -1638414, 536870941, 0, -1114166, 536870937, 0, -1114162, 536870918, 0, -1114158, 536870938, 0, -1114154, 536870918, 0, -1114150, 27, 0, -1114146, 536870918, 0, -1114142, 536870937, 0, -1114138, 536870918, 0, -1114134, 29, 0, -1114126, 536870941, 0, -589878, 28, 0, -589874, 6, 0, -589870, 27, 0, -589866, 6, 0, -589862, 26, 0, -589858, 6, 0, -589854, 27, 0, -589850, 12, 0, -589846, 29, 0, -589838, 536870941, 0, -65590, 27, 0, -65586, 6, 0, -65582, 25, 0, -65578, 6, 0, -65574, 28, 0, -65570, 6, 0, -65566, 26, 0, -65562, 6, 0, -65558, 29, 0, -65550, 536870941, 0, 458698, 25, 0, 458702, 6, 0, 458706, 25, 0, 458710, 6, 0, 458714, 12, 0, 458718, 28, 0, 458722, 27, 0, 458726, 27, 0, 458730, 29, 0, 458738, 536870941, 0 )

[node name="Sprite" type="Sprite" parent="ParallaxLayer/tilemap2"]
modulate = Color( 0.0980392, 0.152941, 0.0980392, 0.780392 )
position = Vector2( -960, -320 )
texture = ExtResource( 2 )
region_enabled = true
region_rect = Rect2( 0, 0, 1536, 1536 )
