[gd_scene load_steps=11 format=2]

[ext_resource path="res://scenes/holyruins/tileset.tres" type="TileSet" id=1]
[ext_resource path="res://scenes/holyruins/climbableblock.tscn" type="PackedScene" id=2]
[ext_resource path="res://scenes/dungeon/movingplatform/movingplatform.tscn" type="PackedScene" id=3]
[ext_resource path="res://scenes/holyruins/movingspikeplatform.tscn" type="PackedScene" id=4]
[ext_resource path="res://scenes/common/breakables/torch.tscn" type="PackedScene" id=5]
[ext_resource path="res://scenes/dungeon/ladder/ladder.tscn" type="PackedScene" id=6]
[ext_resource path="res://scenes/dungeon/ladder/laddertop.tscn" type="PackedScene" id=7]
[ext_resource path="res://scenes/common/damagables/spiketile.tscn" type="PackedScene" id=8]
[ext_resource path="res://scenes/common/teleport.tscn" type="PackedScene" id=9]

[sub_resource type="PhysicsMaterial" id=1]
friction = 0.0

[node name="LVL_NOTITLE" type="Node2D"]
__meta__ = {
"__editor_plugin_screen__": "2D"
}

[node name="tilemap" type="TileMap" parent="."]
tile_set = ExtResource( 1 )
cell_size = Vector2( 32, 32 )
compatibility_mode = true
collision_layer = 524288
format = 1
tile_data = PoolIntArray( -327683, 1610612737, 0, -327682, 1073741824, 0, -327681, 1073741824, 0, -393216, 1073741824, 0, -393215, 1073741824, 0, -393214, 1073741824, 0, -393213, 1073741824, 0, -393212, 1073741824, 0, -393211, 1073741824, 0, -393210, 1073741824, 0, -393209, 1073741824, 0, -393208, 1073741824, 0, -393207, 1073741824, 0, -393206, 1073741824, 0, -393205, 1073741824, 0, -393204, 1073741824, 0, -393203, 1073741824, 0, -393202, 1073741824, 0, -393201, 1073741824, 0, -393200, 1073741824, 0, -393199, 1073741824, 0, -393198, 1073741824, 0, -393197, 1073741824, 0, -393196, 1073741824, 0, -393195, 1073741824, 0, -393194, 1073741824, 0, -393193, 1073741824, 0, -393192, 1073741824, 0, -393191, 1073741824, 0, -393190, 1073741824, 0, -393189, 1073741824, 0, -393188, 1073741824, 0, -393187, 1073741824, 0, -393186, 1073741825, 0, -262147, 4, 0, -262146, 5, 0, -262145, 5, 0, -327680, 5, 0, -327679, 5, 0, -327678, 5, 0, -327677, 5, 0, -327676, 5, 0, -327675, 5, 0, -327674, 5, 0, -327673, 5, 0, -327672, 5, 0, -327671, 5, 0, -327670, 5, 0, -327669, 5, 0, -327668, 5, 0, -327667, 5, 0, -327666, 5, 0, -327665, 5, 0, -327664, 5, 0, -327663, 5, 0, -327662, 5, 0, -327661, 5, 0, -327660, 5, 0, -327659, 5, 0, -327658, 5, 0, -327657, 5, 0, -327656, 5, 0, -327655, 5, 0, -327654, 5, 0, -327653, 5, 0, -327652, 5, 0, -327651, 5, 0, -327650, 4, 0, -196611, 4, 0, -196610, 5, 0, -196609, 5, 0, -262144, 5, 0, -262143, 5, 0, -262142, 5, 0, -262141, 5, 0, -262140, 5, 0, -262139, 5, 0, -262138, 5, 0, -262137, 5, 0, -262136, 5, 0, -262135, 5, 0, -262134, 5, 0, -262133, 5, 0, -262132, 5, 0, -262131, 5, 0, -262130, 5, 0, -262129, 5, 0, -262128, 5, 0, -262127, 5, 0, -262126, 5, 0, -262125, 5, 0, -262124, 5, 0, -262123, 5, 0, -262122, 5, 0, -262121, 5, 0, -262120, 5, 0, -262119, 5, 0, -262118, 5, 0, -262117, 5, 0, -262116, 5, 0, -262115, 5, 0, -262114, 4, 0, -131075, 4, 0, -131074, 5, 0, -131073, 5, 0, -196608, 5, 0, -196607, 5, 0, -196606, 5, 0, -196605, 5, 0, -196604, 5, 0, -196603, 5, 0, -196602, 5, 0, -196601, 5, 0, -196600, 5, 0, -196599, 5, 0, -196598, 5, 0, -196597, 5, 0, -196596, 5, 0, -196595, 5, 0, -196594, 5, 0, -196593, 5, 0, -196592, 5, 0, -196591, 5, 0, -196590, 5, 0, -196589, 5, 0, -196588, 5, 0, -196587, 5, 0, -196586, 5, 0, -196585, 5, 0, -196584, 5, 0, -196583, 5, 0, -196582, 5, 0, -196581, 5, 0, -196580, 5, 0, -196579, 5, 0, -196578, 4, 0, -65539, 4, 0, -65538, 5, 0, -65537, 5, 0, -131072, 23, 0, -131068, 5, 0, -131067, 5, 0, -131066, 5, 0, -131065, 22, 0, -131061, 5, 0, -131060, 5, 0, -131059, 5, 0, -131058, 5, 0, -131057, 5, 0, -131056, 5, 0, -131055, 5, 0, -131054, 22, 0, -131050, 5, 0, -131049, 5, 0, -131048, 5, 0, -131047, 5, 0, -131046, 5, 0, -131045, 5, 0, -131044, 5, 0, -131043, 5, 0, -131042, 4, 0, -3, 4, 0, -2, 5, 0, -1, 5, 0, -65532, 5, 0, -65531, 5, 0, -65530, 5, 0, -65525, 5, 0, -65524, 5, 0, -65523, 5, 0, -65522, 5, 0, -65521, 5, 0, -65520, 5, 0, -65519, 5, 0, -65514, 5, 0, -65513, 5, 0, -65512, 5, 0, -65511, 5, 0, -65510, 5, 0, -65509, 5, 0, -65508, 5, 0, -65507, 5, 0, -65506, 1610612737, 0, 65533, 4, 0, 65534, 5, 0, 65535, 5, 0, 4, 5, 0, 5, 5, 0, 6, 5, 0, 11, 5, 0, 12, 5, 0, 13, 5, 0, 14, 5, 0, 15, 5, 0, 16, 5, 0, 17, 5, 0, 22, 5, 0, 23, 5, 0, 24, 5, 0, 25, 5, 0, 26, 5, 0, 27, 5, 0, 28, 5, 0, 29, 5, 0, 30, 5, 0, 131069, 4, 0, 131070, 5, 0, 131071, 5, 0, 65540, 5, 0, 65541, 5, 0, 65542, 5, 0, 65547, 5, 0, 65548, 5, 0, 65549, 5, 0, 65550, 5, 0, 65551, 5, 0, 65552, 5, 0, 65553, 5, 0, 65558, 5, 0, 65559, 5, 0, 65560, 5, 0, 65561, 5, 0, 65562, 5, 0, 65563, 5, 0, 65564, 5, 0, 65565, 5, 0, 65566, 5, 0, 196605, 4, 0, 196606, 5, 0, 196607, 5, 0, 131076, 5, 0, 131077, 5, 0, 131078, 5, 0, 131083, 5, 0, 131084, 5, 0, 131085, 5, 0, 131086, 5, 0, 131087, 5, 0, 131088, 5, 0, 131089, 5, 0, 131094, 5, 0, 131095, 5, 0, 131096, 5, 0, 131097, 5, 0, 131098, 5, 0, 131099, 5, 0, 131100, 5, 0, 131101, 5, 0, 131102, 5, 0, 262141, 4, 0, 262142, 5, 0, 262143, 5, 0, 196612, 5, 0, 196613, 5, 0, 196614, 5, 0, 196619, 5, 0, 196620, 5, 0, 196621, 5, 0, 196622, 5, 0, 196623, 5, 0, 196624, 5, 0, 196625, 5, 0, 196630, 5, 0, 196631, 5, 0, 196632, 5, 0, 196633, 5, 0, 196634, 5, 0, 196635, 5, 0, 196636, 5, 0, 196637, 5, 0, 196638, 5, 0, 327677, 4, 0, 327678, 5, 0, 327679, 5, 0, 262148, 5, 0, 262149, 5, 0, 262150, 5, 0, 262155, 5, 0, 262156, 5, 0, 262157, 5, 0, 262158, 5, 0, 262159, 5, 0, 262160, 5, 0, 262161, 5, 0, 262166, 5, 0, 262167, 5, 0, 262168, 5, 0, 262169, 5, 0, 262170, 5, 0, 262171, 5, 0, 262172, 5, 0, 262173, 5, 0, 262174, 5, 0, 393213, 4, 0, 393214, 5, 0, 393215, 5, 0, 327684, 5, 0, 327685, 5, 0, 327686, 5, 0, 327691, 5, 0, 327692, 5, 0, 327693, 5, 0, 327694, 5, 0, 327695, 5, 0, 327696, 5, 0, 327697, 5, 0, 327702, 5, 0, 327703, 5, 0, 327704, 5, 0, 327705, 5, 0, 327706, 2, 0, 327707, 2, 0, 327708, 2, 0, 327709, 2, 0, 327710, 3, 0, 458749, 4, 0, 458750, 5, 0, 458751, 5, 0, 393216, 5, 0, 393217, 5, 0, 393218, 5, 0, 393219, 5, 0, 393220, 5, 0, 393221, 5, 0, 393222, 5, 0, 393223, 5, 0, 393224, 5, 0, 393225, 5, 0, 393226, 5, 0, 393227, 5, 0, 393228, 5, 0, 393229, 5, 0, 393230, 5, 0, 393231, 5, 0, 393232, 5, 0, 393233, 5, 0, 393234, 5, 0, 393235, 5, 0, 393236, 5, 0, 393237, 5, 0, 393238, 5, 0, 393239, 5, 0, 393240, 5, 0, 393241, 5, 0, 393242, 5, 0, 393243, 5, 0, 393244, 5, 0, 393245, 5, 0, 393246, 4, 0, 524285, 4, 0, 524286, 5, 0, 524287, 5, 0, 458752, 5, 0, 458753, 5, 0, 458754, 5, 0, 458755, 5, 0, 458756, 5, 0, 458757, 5, 0, 458758, 5, 0, 458759, 5, 0, 458760, 5, 0, 458761, 5, 0, 458762, 5, 0, 458763, 5, 0, 458764, 5, 0, 458765, 5, 0, 458766, 5, 0, 458767, 5, 0, 458768, 5, 0, 458769, 5, 0, 458770, 5, 0, 458771, 5, 0, 458772, 5, 0, 458773, 5, 0, 458774, 5, 0, 458775, 5, 0, 458776, 5, 0, 458777, 5, 0, 458778, 5, 0, 458779, 5, 0, 458780, 5, 0, 458781, 5, 0, 458782, 4, 0, 589821, 4, 0, 589822, 5, 0, 589823, 5, 0, 524288, 18, 0, 524292, 5, 0, 524293, 5, 0, 524294, 5, 0, 524295, 17, 0, 524299, 5, 0, 524300, 5, 0, 524301, 5, 0, 524302, 5, 0, 524303, 5, 0, 524304, 5, 0, 524305, 5, 0, 524306, 16, 0, 524310, 5, 0, 524311, 5, 0, 524312, 5, 0, 524313, 20, 0, 524317, 5, 0, 524318, 4, 0, 655357, 4, 0, 655358, 5, 0, 655359, 5, 0, 589828, 5, 0, 589829, 5, 0, 589830, 5, 0, 589835, 5, 0, 589836, 5, 0, 589837, 5, 0, 589838, 5, 0, 589839, 5, 0, 589840, 5, 0, 589841, 5, 0, 589846, 5, 0, 589847, 5, 0, 589848, 5, 0, 589853, 5, 0, 589854, 4, 0, 720893, 4, 0, 720894, 5, 0, 720895, 5, 0, 655364, 5, 0, 655365, 5, 0, 655366, 5, 0, 655371, 5, 0, 655372, 5, 0, 655373, 5, 0, 655374, 5, 0, 655375, 5, 0, 655376, 5, 0, 655377, 5, 0, 655382, 5, 0, 655383, 5, 0, 655384, 5, 0, 655389, 5, 0, 655390, 4, 0, 786429, 4, 0, 786430, 5, 0, 786431, 5, 0, 720900, 5, 0, 720901, 5, 0, 720902, 5, 0, 720907, 5, 0, 720908, 5, 0, 720909, 5, 0, 720910, 5, 0, 720911, 5, 0, 720912, 5, 0, 720913, 5, 0, 720918, 5, 0, 720919, 5, 0, 720920, 5, 0, 720925, 5, 0, 720926, 4, 0, 851965, 4, 0, 851966, 5, 0, 851967, 5, 0, 786436, 5, 0, 786437, 5, 0, 786438, 5, 0, 786443, 5, 0, 786444, 5, 0, 786445, 5, 0, 786446, 5, 0, 786447, 5, 0, 786448, 5, 0, 786449, 5, 0, 786454, 5, 0, 786455, 5, 0, 786456, 5, 0, 786461, 5, 0, 786462, 4, 0, 917501, 4, 0, 917502, 5, 0, 917503, 5, 0, 851972, 5, 0, 851973, 5, 0, 851974, 5, 0, 851979, 5, 0, 851980, 5, 0, 851981, 5, 0, 851982, 5, 0, 851983, 5, 0, 851984, 5, 0, 851985, 5, 0, 851990, 5, 0, 851991, 5, 0, 851992, 5, 0, 851997, 5, 0, 851998, 4, 0, 983037, 4, 0, 983038, 5, 0, 983039, 5, 0, 917508, 5, 0, 917509, 5, 0, 917510, 5, 0, 917515, 5, 0, 917516, 5, 0, 917517, 5, 0, 917518, 5, 0, 917519, 5, 0, 917520, 5, 0, 917521, 5, 0, 917526, 5, 0, 917527, 5, 0, 917528, 5, 0, 917533, 5, 0, 917534, 4, 0, 1048573, 4, 0, 1048574, 5, 0, 1048575, 5, 0, 983044, 5, 0, 983045, 5, 0, 983046, 5, 0, 983051, 5, 0, 983052, 5, 0, 983053, 5, 0, 983054, 5, 0, 983055, 5, 0, 983056, 5, 0, 983057, 5, 0, 983062, 5, 0, 983063, 5, 0, 983064, 5, 0, 983069, 5, 0, 983070, 4, 0, 1114109, 4, 0, 1114110, 5, 0, 1114111, 5, 0, 1048576, 5, 0, 1048577, 5, 0, 1048578, 5, 0, 1048579, 5, 0, 1048580, 5, 0, 1048581, 5, 0, 1048582, 5, 0, 1048583, 5, 0, 1048584, 5, 0, 1048585, 5, 0, 1048586, 5, 0, 1048587, 5, 0, 1048588, 5, 0, 1048589, 5, 0, 1048590, 5, 0, 1048591, 5, 0, 1048592, 5, 0, 1048593, 5, 0, 1048594, 5, 0, 1048595, 5, 0, 1048596, 5, 0, 1048597, 5, 0, 1048598, 5, 0, 1048599, 5, 0, 1048600, 5, 0, 1048601, 5, 0, 1048602, 5, 0, 1048603, 5, 0, 1048604, 5, 0, 1048605, 5, 0, 1048606, 4, 0, 1179645, 4, 0, 1179646, 5, 0, 1179647, 5, 0, 1114112, 5, 0, 1114113, 5, 0, 1114114, 5, 0, 1114115, 5, 0, 1114116, 5, 0, 1114117, 5, 0, 1114118, 5, 0, 1114119, 5, 0, 1114120, 5, 0, 1114121, 5, 0, 1114122, 5, 0, 1114123, 5, 0, 1114124, 5, 0, 1114125, 5, 0, 1114126, 5, 0, 1114127, 5, 0, 1114128, 5, 0, 1114129, 5, 0, 1114130, 5, 0, 1114131, 5, 0, 1114132, 5, 0, 1114133, 5, 0, 1114134, 5, 0, 1114135, 5, 0, 1114136, 5, 0, 1114137, 5, 0, 1114138, 5, 0, 1114139, 5, 0, 1114140, 5, 0, 1114141, 5, 0, 1114142, 4, 0, 1245181, 4, 0, 1245182, 5, 0, 1245183, 5, 0, 1179648, 5, 0, 1179649, 5, 0, 1179650, 5, 0, 1179651, 5, 0, 1179652, 5, 0, 1179653, 5, 0, 1179654, 5, 0, 1179655, 5, 0, 1179656, 5, 0, 1179657, 5, 0, 1179658, 5, 0, 1179659, 5, 0, 1179660, 5, 0, 1179661, 5, 0, 1179662, 5, 0, 1179663, 5, 0, 1179664, 5, 0, 1179665, 5, 0, 1179666, 5, 0, 1179667, 5, 0, 1179668, 5, 0, 1179669, 5, 0, 1179670, 5, 0, 1179671, 5, 0, 1179672, 5, 0, 1179673, 5, 0, 1179674, 5, 0, 1179675, 5, 0, 1179676, 5, 0, 1179677, 5, 0, 1179678, 4, 0, 1310717, 4, 0, 1310718, 5, 0, 1310719, 5, 0, 1245184, 22, 0, 1245188, 5, 0, 1245189, 5, 0, 1245190, 5, 0, 1245191, 5, 0, 1245192, 5, 0, 1245193, 5, 0, 1245194, 5, 0, 1245195, 5, 0, 1245196, 5, 0, 1245197, 5, 0, 1245198, 5, 0, 1245199, 5, 0, 1245200, 5, 0, 1245201, 5, 0, 1245202, 5, 0, 1245203, 5, 0, 1245204, 5, 0, 1245205, 5, 0, 1245206, 5, 0, 1245207, 5, 0, 1245208, 5, 0, 1245209, 22, 0, 1245213, 5, 0, 1245214, 4, 0, 1376253, 4, 0, 1376254, 5, 0, 1376255, 5, 0, 1310724, 5, 0, 1310725, 5, 0, 1310726, 5, 0, 1310727, 5, 0, 1310728, 5, 0, 1310729, 5, 0, 1310730, 5, 0, 1310731, 5, 0, 1310732, 5, 0, 1310733, 5, 0, 1310734, 5, 0, 1310735, 5, 0, 1310736, 5, 0, 1310737, 5, 0, 1310738, 5, 0, 1310739, 5, 0, 1310740, 5, 0, 1310741, 5, 0, 1310742, 5, 0, 1310743, 5, 0, 1310744, 5, 0, 1310749, 5, 0, 1310750, 4, 0, 1441789, 4, 0, 1441790, 5, 0, 1441791, 5, 0, 1376260, 5, 0, 1376261, 5, 0, 1376262, 5, 0, 1376263, 5, 0, 1376264, 5, 0, 1376265, 5, 0, 1376266, 5, 0, 1376267, 5, 0, 1376268, 5, 0, 1376269, 5, 0, 1376270, 5, 0, 1376271, 5, 0, 1376272, 5, 0, 1376273, 5, 0, 1376274, 5, 0, 1376275, 5, 0, 1376276, 5, 0, 1376277, 5, 0, 1376278, 5, 0, 1376279, 5, 0, 1376280, 5, 0, 1376285, 5, 0, 1376286, 4, 0, 1507325, 4, 0, 1507326, 5, 0, 1507327, 5, 0, 1441796, 5, 0, 1441797, 5, 0, 1441798, 5, 0, 1441799, 5, 0, 1441800, 5, 0, 1441801, 5, 0, 1441802, 5, 0, 1441803, 5, 0, 1441804, 5, 0, 1441805, 5, 0, 1441806, 5, 0, 1441807, 5, 0, 1441808, 5, 0, 1441809, 5, 0, 1441810, 5, 0, 1441811, 5, 0, 1441812, 5, 0, 1441813, 5, 0, 1441814, 5, 0, 1441815, 5, 0, 1441816, 5, 0, 1441821, 5, 0, 1441822, 4, 0, 1572861, 4, 0, 1572862, 5, 0, 1572863, 5, 0, 1507332, 5, 0, 1507333, 5, 0, 1507334, 5, 0, 1507335, 5, 0, 1507336, 5, 0, 1507337, 5, 0, 1507338, 5, 0, 1507339, 5, 0, 1507340, 5, 0, 1507341, 5, 0, 1507342, 5, 0, 1507343, 5, 0, 1507344, 5, 0, 1507345, 5, 0, 1507346, 5, 0, 1507347, 5, 0, 1507348, 5, 0, 1507349, 5, 0, 1507350, 5, 0, 1507351, 5, 0, 1507352, 5, 0, 1507357, 5, 0, 1507358, 4, 0, 1638397, 4, 0, 1638398, 5, 0, 1638399, 5, 0, 1572868, 5, 0, 1572869, 5, 0, 1572870, 5, 0, 1572871, 5, 0, 1572872, 5, 0, 1572873, 5, 0, 1572874, 5, 0, 1572875, 5, 0, 1572876, 5, 0, 1572877, 5, 0, 1572878, 5, 0, 1572879, 5, 0, 1572880, 5, 0, 1572881, 5, 0, 1572882, 5, 0, 1572883, 5, 0, 1572884, 5, 0, 1572885, 5, 0, 1572886, 5, 0, 1572887, 5, 0, 1572888, 5, 0, 1572893, 5, 0, 1572894, 4, 0, 1703933, 4, 0, 1703934, 5, 0, 1703935, 5, 0, 1638404, 5, 0, 1638405, 5, 0, 1638406, 20, 0, 1638410, 5, 0, 1638411, 5, 0, 1638412, 5, 0, 1638413, 5, 0, 1638414, 5, 0, 1638415, 5, 0, 1638416, 5, 0, 1638417, 5, 0, 1638418, 5, 0, 1638419, 20, 0, 1638423, 5, 0, 1638424, 5, 0, 1638429, 5, 0, 1638430, 4, 0, 1769469, 4, 0, 1769470, 5, 0, 1769471, 5, 0, 1703940, 5, 0, 1703941, 5, 0, 1703946, 5, 0, 1703947, 5, 0, 1703948, 5, 0, 1703949, 5, 0, 1703950, 5, 0, 1703951, 5, 0, 1703952, 5, 0, 1703953, 5, 0, 1703954, 5, 0, 1703959, 5, 0, 1703960, 5, 0, 1703965, 5, 0, 1703966, 4, 0, 1835005, 4, 0, 1835006, 5, 0, 1835007, 5, 0, 1769472, 5, 0, 1769473, 5, 0, 1769474, 5, 0, 1769475, 5, 0, 1769476, 5, 0, 1769477, 5, 0, 1769482, 5, 0, 1769483, 5, 0, 1769484, 5, 0, 1769485, 5, 0, 1769486, 5, 0, 1769487, 5, 0, 1769488, 5, 0, 1769489, 5, 0, 1769490, 5, 0, 1769495, 5, 0, 1769496, 5, 0, 1769497, 5, 0, 1769498, 5, 0, 1769499, 5, 0, 1769500, 5, 0, 1769501, 5, 0, 1769502, 4, 0, 1900541, 4, 0, 1900542, 5, 0, 1900543, 5, 0, 1835008, 5, 0, 1835009, 5, 0, 1835010, 5, 0, 1835011, 5, 0, 1835012, 5, 0, 1835013, 5, 0, 1835018, 5, 0, 1835019, 5, 0, 1835020, 5, 0, 1835021, 5, 0, 1835022, 5, 0, 1835023, 5, 0, 1835024, 5, 0, 1835025, 5, 0, 1835026, 5, 0, 1835031, 5, 0, 1835032, 5, 0, 1835033, 5, 0, 1835034, 5, 0, 1835035, 5, 0, 1835036, 5, 0, 1835037, 5, 0, 1835038, 4, 0, 1966077, 4, 0, 1966078, 5, 0, 1966079, 5, 0, 1900544, 5, 0, 1900545, 5, 0, 1900546, 5, 0, 1900547, 5, 0, 1900548, 5, 0, 1900549, 5, 0, 1900554, 5, 0, 1900555, 5, 0, 1900556, 5, 0, 1900557, 5, 0, 1900558, 5, 0, 1900559, 5, 0, 1900560, 5, 0, 1900561, 5, 0, 1900562, 5, 0, 1900567, 5, 0, 1900568, 5, 0, 1900569, 5, 0, 1900570, 5, 0, 1900571, 5, 0, 1900572, 5, 0, 1900573, 5, 0, 1900574, 4, 0, 2031613, 4, 0, 2031614, 5, 0, 2031615, 5, 0, 1966080, 5, 0, 1966081, 5, 0, 1966082, 5, 0, 1966083, 5, 0, 1966084, 5, 0, 1966085, 5, 0, 1966090, 5, 0, 1966091, 5, 0, 1966092, 5, 0, 1966093, 5, 0, 1966094, 5, 0, 1966095, 5, 0, 1966096, 5, 0, 1966097, 5, 0, 1966098, 5, 0, 1966103, 5, 0, 1966104, 5, 0, 1966105, 5, 0, 1966106, 5, 0, 1966107, 5, 0, 1966108, 5, 0, 1966109, 5, 0, 1966110, 4, 0, 2097149, 4, 0, 2097150, 5, 0, 2097151, 5, 0, 2031616, 5, 0, 2031617, 5, 0, 2031618, 5, 0, 2031619, 5, 0, 2031620, 5, 0, 2031621, 5, 0, 2031626, 5, 0, 2031627, 5, 0, 2031628, 5, 0, 2031629, 5, 0, 2031630, 5, 0, 2031631, 5, 0, 2031632, 5, 0, 2031633, 5, 0, 2031634, 5, 0, 2031639, 5, 0, 2031640, 5, 0, 2031641, 5, 0, 2031642, 5, 0, 2031643, 5, 0, 2031644, 5, 0, 2031645, 5, 0, 2031646, 4, 0, 2162685, 4, 0, 2162686, 5, 0, 2162687, 5, 0, 2097152, 5, 0, 2097153, 5, 0, 2097154, 5, 0, 2097155, 5, 0, 2097156, 5, 0, 2097157, 5, 0, 2097162, 5, 0, 2097163, 5, 0, 2097164, 5, 0, 2097165, 5, 0, 2097166, 5, 0, 2097167, 5, 0, 2097168, 5, 0, 2097169, 5, 0, 2097170, 5, 0, 2097175, 5, 0, 2097176, 5, 0, 2097177, 5, 0, 2097178, 5, 0, 2097179, 5, 0, 2097180, 5, 0, 2097181, 5, 0, 2097182, 4, 0, 2228221, 4, 0, 2228222, 5, 0, 2228223, 5, 0, 2162688, 5, 0, 2162689, 5, 0, 2162690, 5, 0, 2162691, 5, 0, 2162692, 5, 0, 2162693, 5, 0, 2162694, 5, 0, 2162695, 5, 0, 2162696, 5, 0, 2162697, 5, 0, 2162698, 5, 0, 2162699, 5, 0, 2162700, 5, 0, 2162701, 5, 0, 2162702, 5, 0, 2162703, 5, 0, 2162704, 5, 0, 2162705, 5, 0, 2162706, 5, 0, 2162707, 5, 0, 2162708, 5, 0, 2162709, 5, 0, 2162710, 5, 0, 2162711, 5, 0, 2162712, 5, 0, 2162713, 5, 0, 2162714, 5, 0, 2162715, 5, 0, 2162716, 5, 0, 2162717, 5, 0, 2162718, 4, 0, 2293757, 536870913, 0, 2293758, 0, 0, 2293759, 0, 0, 2228224, 0, 0, 2228225, 0, 0, 2228226, 0, 0, 2228227, 0, 0, 2228228, 0, 0, 2228229, 0, 0, 2228230, 0, 0, 2228231, 0, 0, 2228232, 0, 0, 2228233, 0, 0, 2228234, 0, 0, 2228235, 0, 0, 2228236, 1, 0, 2228237, 5, 0, 2228238, 5, 0, 2228239, 5, 0, 2228240, 536870913, 0, 2228241, 0, 0, 2228242, 0, 0, 2228243, 0, 0, 2228244, 0, 0, 2228245, 0, 0, 2228246, 0, 0, 2228247, 0, 0, 2228248, 0, 0, 2228249, 0, 0, 2228250, 0, 0, 2228251, 0, 0, 2228252, 0, 0, 2228253, 0, 0, 2228254, 1, 0, 2359293, 4, 0, 2359294, 11, 0, 2359295, 11, 0, 2293760, 11, 0, 2293761, 11, 0, 2293762, 11, 0, 2293763, 11, 0, 2293764, 11, 0, 2293765, 11, 0, 2293766, 11, 0, 2293767, 11, 0, 2293768, 11, 0, 2293769, 11, 0, 2293770, 11, 0, 2293771, 11, 0, 2293772, 4, 0, 2293773, 5, 0, 2293774, 5, 0, 2293775, 5, 0, 2293776, 4, 0, 2293777, 11, 0, 2293778, 11, 0, 2293779, 11, 0, 2293780, 11, 0, 2293781, 11, 0, 2293782, 11, 0, 2293783, 11, 0, 2293784, 11, 0, 2293785, 11, 0, 2293786, 11, 0, 2293787, 11, 0, 2293788, 11, 0, 2293789, 11, 0, 2293790, 4, 0, 2424829, 4, 0, 2424830, 11, 0, 2424831, 11, 0, 2359296, 11, 0, 2359297, 11, 0, 2359298, 11, 0, 2359299, 11, 0, 2359300, 11, 0, 2359301, 11, 0, 2359302, 11, 0, 2359303, 11, 0, 2359304, 11, 0, 2359305, 11, 0, 2359306, 11, 0, 2359307, 11, 0, 2359308, 4, 0, 2359309, 5, 0, 2359310, 5, 0, 2359311, 5, 0, 2359312, 4, 0, 2359313, 11, 0, 2359314, 11, 0, 2359315, 11, 0, 2359316, 11, 0, 2359317, 11, 0, 2359318, 11, 0, 2359319, 11, 0, 2359320, 11, 0, 2359321, 11, 0, 2359322, 11, 0, 2359323, 11, 0, 2359324, 11, 0, 2359325, 11, 0, 2359326, 4, 0, 2490365, 4, 0, 2490366, 11, 0, 2490367, 11, 0, 2424832, 11, 0, 2424833, 11, 0, 2424834, 11, 0, 2424835, 11, 0, 2424836, 11, 0, 2424837, 11, 0, 2424838, 11, 0, 2424839, 11, 0, 2424840, 11, 0, 2424841, 11, 0, 2424842, 11, 0, 2424843, 11, 0, 2424844, 4, 0, 2424845, 5, 0, 2424846, 5, 0, 2424847, 5, 0, 2424848, 4, 0, 2424849, 11, 0, 2424850, 11, 0, 2424851, 11, 0, 2424852, 11, 0, 2424853, 11, 0, 2424854, 11, 0, 2424855, 11, 0, 2424856, 11, 0, 2424857, 11, 0, 2424858, 11, 0, 2424859, 11, 0, 2424860, 11, 0, 2424861, 11, 0, 2424862, 4, 0, 2555901, 4, 0, 2555902, 11, 0, 2555903, 11, 0, 2490368, 11, 0, 2490369, 11, 0, 2490370, 11, 0, 2490371, 11, 0, 2490372, 11, 0, 2490373, 11, 0, 2490374, 11, 0, 2490375, 11, 0, 2490376, 11, 0, 2490377, 11, 0, 2490378, 11, 0, 2490379, 11, 0, 2490380, 4, 0, 2490381, 5, 0, 2490382, 5, 0, 2490383, 5, 0, 2490384, 4, 0, 2490385, 11, 0, 2490386, 11, 0, 2490387, 11, 0, 2490388, 11, 0, 2490389, 11, 0, 2490390, 11, 0, 2490391, 11, 0, 2490392, 11, 0, 2490393, 11, 0, 2490394, 11, 0, 2490395, 11, 0, 2490396, 11, 0, 2490397, 11, 0, 2490398, 4, 0 )

[node name="ClimbableGroup" type="Node2D" parent="tilemap"]

[node name="ClimbableBlock" parent="tilemap/ClimbableGroup" instance=ExtResource( 2 )]
position = Vector2( 816, 176 )
physics_material_override = SubResource( 1 )

[node name="MovingPlatformGroup" type="Node2D" parent="tilemap"]

[node name="MovingPlatform" parent="tilemap/MovingPlatformGroup" instance=ExtResource( 3 )]
position = Vector2( 464, 816 )
motion = Vector2( 256, 0 )
cycle = 12.0

[node name="MovingPlatform1" parent="tilemap/MovingPlatformGroup" instance=ExtResource( 3 )]
position = Vector2( 464, 464 )
motion = Vector2( 256, 0 )
cycle = 10.0

[node name="MovingPlatform2" parent="tilemap/MovingPlatformGroup" instance=ExtResource( 3 )]
position = Vector2( 464, 176 )
motion = Vector2( 256, 0 )
cycle = 12.0

[node name="MovingSpikePlatform2" parent="tilemap/MovingPlatformGroup" instance=ExtResource( 4 )]
position = Vector2( 464, 656 )

[node name="TorchGroup" type="Node2D" parent="tilemap"]

[node name="torch" parent="tilemap/TorchGroup" instance=ExtResource( 5 )]
position = Vector2( 256, 752 )

[node name="torch2" parent="tilemap/TorchGroup" instance=ExtResource( 5 )]
position = Vector2( 672, 752 )

[node name="torch3" parent="tilemap/TorchGroup" instance=ExtResource( 5 )]
position = Vector2( 464, 352 )

[node name="torch4" parent="tilemap/TorchGroup" instance=ExtResource( 5 )]
position = Vector2( 848, 32 )

[node name="LadderGroup" type="Node2D" parent="tilemap"]

[node name="TestLadder" parent="tilemap/LadderGroup" instance=ExtResource( 6 )]
position = Vector2( 464, 1168 )

[node name="Sprite" parent="tilemap/LadderGroup/TestLadder/KinematicBody2D" index="0"]
region_rect = Rect2( 0, 0, 32, 160 )

[node name="ladder" parent="tilemap/LadderGroup/TestLadder/KinematicBody2D" index="1"]
scale = Vector2( 1, 5 )

[node name="TestLadder 2" parent="tilemap/LadderGroup" instance=ExtResource( 7 )]
position = Vector2( 464, 1072 )

[node name="SpikeGroup" type="Node2D" parent="tilemap"]

[node name="SpikeTile" parent="tilemap/SpikeGroup" instance=ExtResource( 8 )]
position = Vector2( -48, 1072 )

[node name="SpikeTile3" parent="tilemap/SpikeGroup" instance=ExtResource( 8 )]
position = Vector2( 80, 1072 )

[node name="SpikeTile4" parent="tilemap/SpikeGroup" instance=ExtResource( 8 )]
position = Vector2( 208, 1072 )

[node name="SpikeTile5" parent="tilemap/SpikeGroup" instance=ExtResource( 8 )]
position = Vector2( 336, 1072 )

[node name="SpikeTile6" parent="tilemap/SpikeGroup" instance=ExtResource( 8 )]
position = Vector2( 528, 1072 )

[node name="SpikeTile7" parent="tilemap/SpikeGroup" instance=ExtResource( 8 )]
position = Vector2( 656, 1072 )

[node name="SpikeTile8" parent="tilemap/SpikeGroup" instance=ExtResource( 8 )]
position = Vector2( 784, 1072 )

[node name="SpikeTile2" parent="tilemap/SpikeGroup" instance=ExtResource( 8 )]
position = Vector2( 16, 1072 )

[node name="SpikeTile3 3" parent="tilemap/SpikeGroup" instance=ExtResource( 8 )]
position = Vector2( 144, 1072 )

[node name="SpikeTile34" parent="tilemap/SpikeGroup" instance=ExtResource( 8 )]
position = Vector2( 272, 1072 )

[node name="SpikeTile35" parent="tilemap/SpikeGroup" instance=ExtResource( 8 )]
position = Vector2( 400, 1072 )

[node name="SpikeTile36" parent="tilemap/SpikeGroup" instance=ExtResource( 8 )]
position = Vector2( 592, 1072 )

[node name="SpikeTile37" parent="tilemap/SpikeGroup" instance=ExtResource( 8 )]
position = Vector2( 720, 1072 )

[node name="SpikeTile38" parent="tilemap/SpikeGroup" instance=ExtResource( 8 )]
position = Vector2( 848, 1072 )

[node name="SpikeTile1" parent="tilemap/SpikeGroup" instance=ExtResource( 8 )]
position = Vector2( -16, 1072 )

[node name="SpikeTile3 2" parent="tilemap/SpikeGroup" instance=ExtResource( 8 )]
position = Vector2( 112, 1072 )

[node name="SpikeTile33" parent="tilemap/SpikeGroup" instance=ExtResource( 8 )]
position = Vector2( 240, 1072 )

[node name="SpikeTile35 2" parent="tilemap/SpikeGroup" instance=ExtResource( 8 )]
position = Vector2( 368, 1072 )

[node name="SpikeTile353" parent="tilemap/SpikeGroup" instance=ExtResource( 8 )]
position = Vector2( 560, 1072 )

[node name="SpikeTile354" parent="tilemap/SpikeGroup" instance=ExtResource( 8 )]
position = Vector2( 688, 1072 )

[node name="SpikeTile355" parent="tilemap/SpikeGroup" instance=ExtResource( 8 )]
position = Vector2( 816, 1072 )

[node name="SpikeTile2 2" parent="tilemap/SpikeGroup" instance=ExtResource( 8 )]
position = Vector2( 48, 1072 )

[node name="SpikeTile23" parent="tilemap/SpikeGroup" instance=ExtResource( 8 )]
position = Vector2( 176, 1072 )

[node name="SpikeTile24" parent="tilemap/SpikeGroup" instance=ExtResource( 8 )]
position = Vector2( 304, 1072 )

[node name="SpikeTile25" parent="tilemap/SpikeGroup" instance=ExtResource( 8 )]
position = Vector2( 944, 1072 )

[node name="SpikeTile26" parent="tilemap/SpikeGroup" instance=ExtResource( 8 )]
position = Vector2( 624, 1072 )

[node name="SpikeTile27" parent="tilemap/SpikeGroup" instance=ExtResource( 8 )]
position = Vector2( 752, 1072 )

[node name="SpikeTile28" parent="tilemap/SpikeGroup" instance=ExtResource( 8 )]
position = Vector2( 880, 1072 )

[node name="SpikeTile29" parent="tilemap/SpikeGroup" instance=ExtResource( 8 )]
position = Vector2( 912, 1072 )

[node name="TeleportGroup" type="Node2D" parent="tilemap"]

[node name="Teleport" parent="tilemap/TeleportGroup" instance=ExtResource( 9 )]
position = Vector2( 1008, 80 )
target_level = "res://levels/holyruins/0-10.tscn"
teleport_to = Vector2( -300, 1296 )

[node name="teleport" parent="tilemap/TeleportGroup/Teleport" index="0"]
scale = Vector2( 1, 5 )

[node name="Teleport1" parent="tilemap/TeleportGroup" instance=ExtResource( 9 )]
position = Vector2( 464, 1264 )
is_horizontal = false
target_level = "res://levels/holyruins/0-12.tscn"
teleport_to = Vector2( 16, -176 )

[node name="teleport" parent="tilemap/TeleportGroup/Teleport1" index="0"]
scale = Vector2( 3, 1 )

[node name="boundaries" type="Node2D" parent="tilemap"]

[node name="NW" type="Position2D" parent="tilemap/boundaries"]
position = Vector2( -112, -208 )

[node name="SE" type="Position2D" parent="tilemap/boundaries"]
position = Vector2( 1008, 1264 )

[editable path="tilemap/LadderGroup/TestLadder"]

[editable path="tilemap/TeleportGroup/Teleport"]

[editable path="tilemap/TeleportGroup/Teleport1"]
