[gd_scene load_steps=6 format=2]

[ext_resource path="res://scenes/holyruins/tileset.tres" type="TileSet" id=1]
[ext_resource path="res://scenes/common/breakables/torch.tscn" type="PackedScene" id=2]
[ext_resource path="res://scenes/dungeon/ladder/ladder.tscn" type="PackedScene" id=3]
[ext_resource path="res://scenes/savepoint/savepoint.tscn" type="PackedScene" id=4]
[ext_resource path="res://scenes/common/teleport.tscn" type="PackedScene" id=5]

[node name="LVL_NOTITLE" type="Node2D"]
__meta__ = {
"__editor_plugin_screen__": "2D"
}

[node name="tilemap" type="TileMap" parent="."]
tile_set = ExtResource( 1 )
cell_size = Vector2( 32, 32 )
compatibility_mode = true
collision_layer = 524288
format = 1
tile_data = PoolIntArray( -393227, 1610612737, 0, -393226, 1073741824, 0, -393225, 1073741824, 0, -393224, 1073741824, 0, -393223, 1073741824, 0, -393222, 1073741824, 0, -393221, 1073741824, 0, -393220, 1073741824, 0, -393219, 1073741824, 0, -393218, 1073741824, 0, -393217, 1073741824, 0, -458752, 1073741825, 0, -458751, 5, 0, -458750, 5, 0, -458749, 5, 0, -458748, 1610612737, 0, -458747, 1073741824, 0, -458746, 1073741824, 0, -458745, 1073741824, 0, -458744, 1073741824, 0, -458743, 1073741824, 0, -458742, 1073741824, 0, -458741, 1073741824, 0, -458740, 1073741824, 0, -458739, 1073741824, 0, -458738, 1073741825, 0, -327691, 4, 0, -327690, 5, 0, -327689, 5, 0, -327688, 5, 0, -327687, 5, 0, -327686, 5, 0, -327685, 5, 0, -327684, 5, 0, -327683, 5, 0, -327682, 5, 0, -327681, 5, 0, -393216, 5, 0, -393215, 5, 0, -393214, 5, 0, -393213, 5, 0, -393212, 5, 0, -393211, 5, 0, -393210, 5, 0, -393209, 5, 0, -393208, 5, 0, -393207, 5, 0, -393206, 5, 0, -393205, 5, 0, -393204, 5, 0, -393203, 5, 0, -393202, 4, 0, -262155, 4, 0, -262154, 5, 0, -262153, 5, 0, -262152, 5, 0, -262151, 5, 0, -262150, 5, 0, -262149, 5, 0, -262148, 5, 0, -262147, 5, 0, -262146, 5, 0, -262145, 5, 0, -327680, 5, 0, -327679, 5, 0, -327678, 5, 0, -327677, 5, 0, -327676, 5, 0, -327675, 5, 0, -327674, 5, 0, -327673, 5, 0, -327672, 5, 0, -327671, 5, 0, -327670, 5, 0, -327669, 5, 0, -327668, 5, 0, -327667, 5, 0, -327666, 4, 0, -196619, 4, 0, -196618, 5, 0, -196617, 5, 0, -196616, 5, 0, -196615, 5, 0, -196614, 23, 0, -196610, 5, 0, -196609, 5, 0, -262144, 5, 0, -262143, 5, 0, -262142, 5, 0, -262141, 5, 0, -262140, 5, 0, -262139, 5, 0, -262138, 5, 0, -262137, 23, 0, -262133, 5, 0, -262132, 5, 0, -262131, 5, 0, -262130, 4, 0, -131083, 4, 0, -131082, 5, 0, -131081, 5, 0, -131080, 5, 0, -131079, 5, 0, -131074, 5, 0, -131073, 5, 0, -196608, 5, 0, -196607, 5, 0, -196606, 5, 0, -196605, 5, 0, -196604, 5, 0, -196603, 5, 0, -196602, 5, 0, -196597, 5, 0, -196596, 5, 0, -196595, 5, 0, -196594, 4, 0, -65547, 4, 0, -65546, 5, 0, -65545, 5, 0, -65544, 5, 0, -65543, 5, 0, -65538, 5, 0, -65537, 5, 0, -131072, 5, 0, -131071, 5, 0, -131070, 5, 0, -131069, 5, 0, -131068, 5, 0, -131067, 5, 0, -131066, 5, 0, -131061, 5, 0, -131060, 5, 0, -131059, 5, 0, -131058, 4, 0, -11, 4, 0, -10, 5, 0, -9, 5, 0, -8, 5, 0, -7, 5, 0, -2, 5, 0, -1, 5, 0, -65536, 5, 0, -65535, 5, 0, -65534, 5, 0, -65533, 5, 0, -65532, 5, 0, -65531, 5, 0, -65530, 5, 0, -65525, 5, 0, -65524, 5, 0, -65523, 5, 0, -65522, 4, 0, 65525, 4, 0, 65526, 5, 0, 65527, 5, 0, 65528, 5, 0, 65529, 5, 0, 65534, 5, 0, 65535, 5, 0, 0, 5, 0, 1, 5, 0, 2, 5, 0, 3, 5, 0, 4, 5, 0, 5, 5, 0, 6, 5, 0, 11, 5, 0, 12, 5, 0, 13, 5, 0, 14, 4, 0, 131061, 4, 0, 131062, 5, 0, 131063, 5, 0, 131064, 5, 0, 131065, 5, 0, 131070, 5, 0, 131071, 5, 0, 65536, 5, 0, 65537, 5, 0, 65538, 5, 0, 65539, 5, 0, 65540, 5, 0, 65541, 5, 0, 65542, 5, 0, 65547, 5, 0, 65548, 5, 0, 65549, 5, 0, 65550, 4, 0, 196597, 4, 0, 196598, 5, 0, 196599, 5, 0, 196600, 5, 0, 196601, 5, 0, 196606, 5, 0, 196607, 5, 0, 131072, 5, 0, 131073, 5, 0, 131074, 5, 0, 131075, 5, 0, 131076, 5, 0, 131077, 5, 0, 131078, 5, 0, 131083, 5, 0, 131084, 5, 0, 131085, 5, 0, 131086, 4, 0, 262133, 4, 0, 262134, 5, 0, 262135, 5, 0, 262136, 5, 0, 262137, 5, 0, 262142, 5, 0, 262143, 5, 0, 196608, 5, 0, 196609, 5, 0, 196610, 5, 0, 196611, 5, 0, 196612, 5, 0, 196613, 5, 0, 196614, 5, 0, 196619, 5, 0, 196620, 5, 0, 196621, 5, 0, 196622, 4, 0, 327669, 4, 0, 327670, 5, 0, 327671, 5, 0, 327672, 5, 0, 327673, 5, 0, 327674, 5, 0, 327675, 5, 0, 327676, 5, 0, 327677, 5, 0, 327678, 5, 0, 327679, 5, 0, 262144, 5, 0, 262145, 5, 0, 262146, 5, 0, 262147, 5, 0, 262148, 5, 0, 262149, 5, 0, 262150, 5, 0, 262151, 5, 0, 262152, 5, 0, 262153, 5, 0, 262154, 5, 0, 262155, 5, 0, 262156, 5, 0, 262157, 5, 0, 262158, 4, 0, 393205, 4, 0, 393206, 5, 0, 393207, 5, 0, 393208, 5, 0, 393209, 5, 0, 393210, 5, 0, 393211, 5, 0, 393212, 5, 0, 393213, 5, 0, 393214, 5, 0, 393215, 5, 0, 327680, 5, 0, 327681, 5, 0, 327682, 5, 0, 327683, 5, 0, 327684, 5, 0, 327685, 5, 0, 327686, 5, 0, 327687, 5, 0, 327688, 5, 0, 327689, 5, 0, 327690, 5, 0, 327691, 5, 0, 327692, 5, 0, 327693, 5, 0, 327694, 4, 0, 458741, 4, 0, 458742, 5, 0, 458743, 5, 0, 458744, 5, 0, 458745, 5, 0, 458746, 5, 0, 458747, 5, 0, 458748, 5, 0, 458749, 5, 0, 458750, 5, 0, 458751, 5, 0, 393216, 5, 0, 393217, 5, 0, 393218, 5, 0, 393219, 5, 0, 393220, 5, 0, 393221, 5, 0, 393222, 5, 0, 393223, 5, 0, 393224, 5, 0, 393225, 5, 0, 393226, 5, 0, 393227, 5, 0, 393228, 5, 0, 393229, 5, 0, 393230, 4, 0, 524277, 4, 0, 524278, 5, 0, 524279, 5, 0, 524280, 5, 0, 524281, 5, 0, 524282, 5, 0, 524283, 5, 0, 524284, 5, 0, 524285, 5, 0, 524286, 5, 0, 524287, 5, 0, 458752, 5, 0, 458753, 5, 0, 458754, 5, 0, 458755, 5, 0, 458756, 5, 0, 458757, 5, 0, 458758, 5, 0, 458759, 5, 0, 458760, 5, 0, 458761, 5, 0, 458762, 5, 0, 458763, 5, 0, 458764, 5, 0, 458765, 5, 0, 458766, 4, 0, 589813, 4, 0, 589814, 5, 0, 589815, 5, 0, 589816, 5, 0, 589817, 5, 0, 589818, 5, 0, 589819, 5, 0, 589820, 5, 0, 589821, 5, 0, 589822, 5, 0, 589823, 5, 0, 524288, 5, 0, 524289, 5, 0, 524290, 5, 0, 524291, 5, 0, 524292, 5, 0, 524293, 5, 0, 524294, 5, 0, 524295, 5, 0, 524296, 5, 0, 524297, 5, 0, 524298, 5, 0, 524299, 5, 0, 524300, 5, 0, 524301, 5, 0, 524302, 4, 0, 655349, 4, 0, 655350, 5, 0, 655351, 5, 0, 655352, 5, 0, 655353, 5, 0, 655354, 5, 0, 655355, 5, 0, 655356, 5, 0, 655357, 5, 0, 655358, 5, 0, 655359, 5, 0, 589824, 5, 0, 589825, 5, 0, 589826, 5, 0, 589827, 5, 0, 589828, 5, 0, 589829, 5, 0, 589830, 5, 0, 589831, 5, 0, 589832, 5, 0, 589833, 5, 0, 589834, 5, 0, 589835, 5, 0, 589836, 5, 0, 589837, 5, 0, 589838, 4, 0, 720885, 4, 0, 720886, 5, 0, 720887, 5, 0, 720888, 5, 0, 720889, 5, 0, 720890, 5, 0, 720891, 5, 0, 720892, 5, 0, 720893, 5, 0, 720894, 5, 0, 720895, 5, 0, 655360, 5, 0, 655361, 5, 0, 655362, 5, 0, 655363, 5, 0, 655364, 5, 0, 655365, 5, 0, 655366, 5, 0, 655367, 5, 0, 655368, 5, 0, 655369, 5, 0, 655370, 5, 0, 655371, 5, 0, 655372, 5, 0, 655373, 5, 0, 655374, 4, 0, 786421, 4, 0, 786422, 5, 0, 786423, 5, 0, 786424, 5, 0, 786425, 5, 0, 786426, 5, 0, 786427, 5, 0, 786428, 5, 0, 786429, 5, 0, 786430, 5, 0, 786431, 5, 0, 720896, 5, 0, 720897, 5, 0, 720898, 5, 0, 720899, 5, 0, 720900, 5, 0, 720901, 5, 0, 720902, 5, 0, 720903, 5, 0, 720904, 5, 0, 720905, 5, 0, 720906, 5, 0, 720907, 5, 0, 720908, 5, 0, 720909, 5, 0, 720910, 4, 0, 851957, 4, 0, 851958, 5, 0, 851959, 5, 0, 851960, 5, 0, 851961, 5, 0, 851962, 5, 0, 851963, 5, 0, 851964, 5, 0, 851965, 5, 0, 851966, 5, 0, 851967, 5, 0, 786432, 5, 0, 786433, 5, 0, 786434, 5, 0, 786435, 5, 0, 786436, 5, 0, 786437, 5, 0, 786438, 5, 0, 786439, 5, 0, 786440, 5, 0, 786441, 5, 0, 786442, 5, 0, 786443, 5, 0, 786444, 5, 0, 786445, 5, 0, 786446, 4, 0, 917493, 536870913, 0, 917494, 0, 0, 917495, 0, 0, 917496, 0, 0, 917497, 0, 0, 917498, 0, 0, 917499, 0, 0, 917500, 0, 0, 917501, 0, 0, 917502, 0, 0, 917503, 0, 0, 851968, 0, 0, 851969, 0, 0, 851970, 0, 0, 851971, 0, 0, 851972, 0, 0, 851973, 0, 0, 851974, 0, 0, 851975, 0, 0, 851976, 1, 0, 851977, 5, 0, 851978, 5, 0, 851979, 5, 0, 851980, 536870913, 0, 851981, 0, 0, 851982, 1, 0, 983029, 4, 0, 983030, 11, 0, 983031, 11, 0, 983032, 11, 0, 983033, 11, 0, 983034, 11, 0, 983035, 11, 0, 983036, 11, 0, 983037, 11, 0, 983038, 11, 0, 983039, 11, 0, 917504, 11, 0, 917505, 11, 0, 917506, 11, 0, 917507, 11, 0, 917508, 11, 0, 917509, 11, 0, 917510, 11, 0, 917511, 11, 0, 917512, 536870916, 0, 917513, 5, 0, 917514, 5, 0, 917515, 5, 0, 917516, 536870916, 0, 917517, 11, 0, 917518, 4, 0, 1048565, 4, 0, 1048566, 11, 0, 1048567, 11, 0, 1048568, 11, 0, 1048569, 11, 0, 1048570, 11, 0, 1048571, 11, 0, 1048572, 11, 0, 1048573, 11, 0, 1048574, 11, 0, 1048575, 11, 0, 983040, 11, 0, 983041, 11, 0, 983042, 11, 0, 983043, 11, 0, 983044, 11, 0, 983045, 11, 0, 983046, 11, 0, 983047, 11, 0, 983048, 536870916, 0, 983049, 5, 0, 983050, 5, 0, 983051, 5, 0, 983052, 536870916, 0, 983053, 11, 0, 983054, 4, 0, 1114101, 4, 0, 1114102, 11, 0, 1114103, 11, 0, 1114104, 11, 0, 1114105, 11, 0, 1114106, 11, 0, 1114107, 11, 0, 1114108, 11, 0, 1114109, 11, 0, 1114110, 11, 0, 1114111, 11, 0, 1048576, 11, 0, 1048577, 11, 0, 1048578, 11, 0, 1048579, 11, 0, 1048580, 11, 0, 1048581, 11, 0, 1048582, 11, 0, 1048583, 11, 0, 1048584, 536870916, 0, 1048585, 5, 0, 1048586, 5, 0, 1048587, 5, 0, 1048588, 536870916, 0, 1048589, 11, 0, 1048590, 4, 0 )

[node name="TorchGroup" type="Node2D" parent="tilemap"]

[node name="torch" parent="tilemap/TorchGroup" instance=ExtResource( 2 )]
position = Vector2( -128, 288 )

[node name="torch2" parent="tilemap/TorchGroup" instance=ExtResource( 2 )]
position = Vector2( 272, 288 )

[node name="LadderGroup" type="Node2D" parent="tilemap"]

[node name="TestLadder" parent="tilemap/LadderGroup" instance=ExtResource( 3 )]
position = Vector2( 80, -64 )

[node name="Sprite" parent="tilemap/LadderGroup/TestLadder/KinematicBody2D" index="0"]
region_rect = Rect2( 0, 0, 32, 320 )

[node name="ladder" parent="tilemap/LadderGroup/TestLadder/KinematicBody2D" index="1"]
scale = Vector2( 1, 10 )

[node name="SaveGroup" type="Node2D" parent="tilemap"]

[node name="savepoint" parent="tilemap/SaveGroup" instance=ExtResource( 4 )]
position = Vector2( 80, 384 )
savelocation = "LVL_HOLYRUINS"

[node name="TeleportGroup" type="Node2D" parent="tilemap"]

[node name="Teleport" parent="tilemap/TeleportGroup" instance=ExtResource( 5 )]
position = Vector2( 336, 560 )
is_horizontal = false
target_level = "res://levels/holyruins/0-16.tscn"
teleport_to = Vector2( 48, -64 )

[node name="teleport" parent="tilemap/TeleportGroup/Teleport" index="0"]
scale = Vector2( 3, 1 )

[node name="Teleport1" parent="tilemap/TeleportGroup" instance=ExtResource( 5 )]
position = Vector2( 80, -240 )
is_horizontal = false
target_level = "res://levels/holyruins/0-14.tscn"
teleport_to = Vector2( 240, 512 )

[node name="teleport" parent="tilemap/TeleportGroup/Teleport1" index="0"]
scale = Vector2( 3, 1 )

[node name="boundaries" type="Node2D" parent="tilemap"]

[node name="NW" type="Position2D" parent="tilemap/boundaries"]
position = Vector2( -358, -230 )

[node name="SE" type="Position2D" parent="tilemap/boundaries"]
position = Vector2( 490, 554 )

[editable path="tilemap/LadderGroup/TestLadder"]

[editable path="tilemap/TeleportGroup/Teleport"]

[editable path="tilemap/TeleportGroup/Teleport1"]
