[gd_scene load_steps=2 format=2]

[ext_resource path="res://gui/achievements/sparklepire/sparklepirebreakfast.png" type="Texture" id=1]

[node name="contents" type="Control"]
margin_right = 576.0
margin_bottom = 495.0
rect_min_size = Vector2( 576, 336 )
size_flags_horizontal = 0
size_flags_vertical = 0
size_flags_stretch_ratio = 0.0
__meta__ = {
"_edit_use_anchors_": false
}

[node name="Sprite2" type="TextureRect" parent="."]
margin_left = 320.0
margin_right = 576.0
margin_bottom = 218.0
texture = ExtResource( 1 )
__meta__ = {
"_edit_use_anchors_": false
}
