[gd_scene load_steps=4 format=2]

[ext_resource path="res://scenes/dungeon/movingplatform/MovingPlatform.gd" type="Script" id=1]
[ext_resource path="res://scenes/dungeon/climbableblock.tscn" type="PackedScene" id=2]
[ext_resource path="res://scenes/cave/BGs/movingplatform.png" type="Texture" id=3]

[node name="MovingPlatform" type="Node2D"]
script = ExtResource( 1 )
__meta__ = {
"__editor_plugin_screen__": "Script"
}

[node name="blockR" parent="." instance=ExtResource( 2 )]
position = Vector2( 16, 0 )

[node name="Sprite" parent="blockR" index="0"]
texture = ExtResource( 3 )
offset = Vector2( 0, 16 )

[node name="blockL" parent="." instance=ExtResource( 2 )]
position = Vector2( -16, 0 )

[node name="Sprite" parent="blockL" index="0"]
texture = ExtResource( 3 )
offset = Vector2( 0, 16 )
flip_h = false

[editable path="blockR"]

[editable path="blockL"]
