[gd_scene load_steps=6 format=2]

[ext_resource path="res://scenes/dungeon/debugtiles.tres" type="TileSet" id=1]
[ext_resource path="res://scenes/dungeon/deco.tres" type="TileSet" id=2]
[ext_resource path="res://scenes/common/breakables/torch.tscn" type="PackedScene" id=3]
[ext_resource path="res://scenes/common/breakables/pot.tscn" type="PackedScene" id=4]
[ext_resource path="res://scenes/common/teleport.tscn" type="PackedScene" id=5]

[node name="LVL_NOTITLE" type="Node2D"]
__meta__ = {
"__editor_plugin_screen__": "2D"
}

[node name="tilemap" type="TileMap" parent="."]
tile_set = ExtResource( 1 )
cell_size = Vector2( 32, 32 )
compatibility_mode = true
collision_layer = 524288
format = 1
tile_data = PoolIntArray( -589854, 1610612749, 0, -589853, 1073741862, 0, -589852, 1073741862, 0, -589851, 1073741862, 0, -589850, 1073741862, 0, -589849, 1073741862, 0, -589848, 1073741862, 0, -589847, 1073741862, 0, -589846, 1073741862, 0, -589845, 1073741862, 0, -589844, 1073741862, 0, -589843, 1073741862, 0, -589842, 1073741862, 0, -589841, 1073741862, 0, -589840, 1073741862, 0, -589839, 1073741862, 0, -589838, 1073741862, 0, -589837, 1073741862, 0, -589836, 1073741862, 0, -589835, 1073741862, 0, -589834, 1073741862, 0, -589833, 1073741862, 0, -589832, 1073741862, 0, -589831, 1073741862, 0, -589830, 1073741862, 0, -589829, 1073741862, 0, -589828, 1073741862, 0, -589827, 1073741862, 0, -589826, 1073741862, 0, -589825, 1073741862, 0, -655360, 1073741862, 0, -655359, 1073741862, 0, -655358, 1073741862, 0, -655357, 1073741862, 0, -655356, 1073741862, 0, -655355, 1073741862, 0, -655354, 1073741862, 0, -655353, 1073741837, 0, -524318, 1073741838, 0, -524317, 1073741854, 0, -524316, 1073741854, 0, -524315, 1073741854, 0, -524314, 1073741854, 0, -524313, 1073741854, 0, -524312, 1073741854, 0, -524311, 1073741854, 0, -524310, 1073741854, 0, -524309, 1073741854, 0, -524308, 1073741854, 0, -524307, 1073741854, 0, -524306, 1073741854, 0, -524305, 1073741854, 0, -524304, 1073741854, 0, -524303, 1073741854, 0, -524302, 1073741854, 0, -524301, 1073741854, 0, -524300, 1073741854, 0, -524299, 1073741854, 0, -524298, 1073741854, 0, -524297, 1073741854, 0, -524296, 1073741854, 0, -524295, 1073741854, 0, -524294, 1073741854, 0, -524293, 1073741854, 0, -524292, 1073741854, 0, -524291, 1073741854, 0, -524290, 1073741854, 0, -524289, 1073741854, 0, -589824, 1073741854, 0, -589823, 1073741854, 0, -589822, 1073741854, 0, -589821, 1073741854, 0, -589820, 1073741854, 0, -589819, 1073741854, 0, -589818, 30, 0, -589817, 1073741838, 0, -458782, 1073741838, 0, -458781, 1073741854, 0, -458780, 1073741854, 0, -458779, 1073741854, 0, -458778, 1073741854, 0, -458777, 1073741854, 0, -458776, 1073741854, 0, -458775, 1073741854, 0, -458774, 1073741854, 0, -458773, 1073741854, 0, -458772, 1073741854, 0, -458771, 1073741854, 0, -458770, 1073741854, 0, -458769, 1073741854, 0, -458768, 1073741854, 0, -458767, 1073741854, 0, -458766, 1073741854, 0, -458765, 1073741854, 0, -458764, 1073741854, 0, -458763, 1073741854, 0, -458762, 1073741854, 0, -458761, 1073741854, 0, -458760, 1073741854, 0, -458759, 1073741854, 0, -458758, 1073741854, 0, -458757, 1073741854, 0, -458756, 1073741854, 0, -458755, 1073741854, 0, -458754, 1073741854, 0, -458753, 1073741854, 0, -524288, 1073741854, 0, -524287, 1073741854, 0, -524286, 1073741854, 0, -524285, 1073741854, 0, -524284, 1073741854, 0, -524283, 1073741854, 0, -524282, 30, 0, -524281, 1073741838, 0, -393246, 1073741838, 0, -393245, 1073741854, 0, -393244, 1073741854, 0, -393243, 1073741854, 0, -393242, 1073741854, 0, -393241, 1073741854, 0, -393240, 1073741854, 0, -393239, 1073741854, 0, -393238, 1073741854, 0, -393237, 1073741854, 0, -393236, 1073741854, 0, -393235, 1073741854, 0, -393234, 1073741854, 0, -393233, 1073741854, 0, -393232, 1073741854, 0, -393231, 1073741854, 0, -393230, 1073741854, 0, -393229, 1073741854, 0, -393228, 1073741854, 0, -393227, 1073741854, 0, -393226, 1073741854, 0, -393225, 1073741854, 0, -393224, 1073741854, 0, -393223, 1073741854, 0, -393222, 1073741854, 0, -393221, 1073741854, 0, -393220, 1073741854, 0, -393219, 1073741854, 0, -393218, 1073741854, 0, -393217, 1073741854, 0, -458752, 1073741854, 0, -458751, 1073741854, 0, -458750, 1073741854, 0, -458749, 1073741854, 0, -458748, 1073741854, 0, -458747, 1073741854, 0, -458746, 30, 0, -458745, 1073741838, 0, -327710, 1073741837, 0, -327709, 1073741854, 0, -327708, 1073741854, 0, -327707, 1073741854, 0, -327706, 1073741854, 0, -327705, 1073741854, 0, -327704, 1073741854, 0, -327703, 1073741854, 0, -327702, 1073741854, 0, -327701, 1073741854, 0, -327700, 1073741854, 0, -327699, 1073741854, 0, -327698, 1073741854, 0, -327697, 1073741854, 0, -327696, 1073741854, 0, -327695, 1073741854, 0, -327694, 1073741854, 0, -327693, 1073741854, 0, -327692, 1073741854, 0, -327691, 1073741854, 0, -327690, 1073741854, 0, -327689, 1073741854, 0, -327688, 1073741854, 0, -327687, 1073741854, 0, -327686, 1073741854, 0, -327685, 1073741854, 0, -327684, 1073741854, 0, -327683, 1073741854, 0, -327682, 1073741854, 0, -327681, 1073741854, 0, -393216, 1073741854, 0, -393215, 1073741854, 0, -393214, 1073741854, 0, -393213, 1073741854, 0, -393212, 1073741854, 0, -393211, 1073741854, 0, -393210, 30, 0, -393209, 1610612749, 0, -262174, 1073741854, 0, -262173, 1073741854, 0, -262172, 1073741854, 0, -262171, 1073741854, 0, -262170, 1073741854, 0, -262169, 1073741854, 0, -262168, 1073741854, 0, -262167, 1073741854, 0, -262166, 1073741854, 0, -262165, 1073741854, 0, -262164, 1073741854, 0, -262163, 1073741854, 0, -262162, 1073741854, 0, -262161, 1073741854, 0, -262160, 1073741854, 0, -262159, 1073741854, 0, -262158, 1073741854, 0, -262157, 1073741854, 0, -262156, 1073741854, 0, -262155, 1073741854, 0, -262154, 1073741854, 0, -262153, 1073741854, 0, -262152, 1073741854, 0, -262151, 1073741854, 0, -262150, 1073741854, 0, -262149, 1073741854, 0, -262148, 1073741854, 0, -262147, 1073741854, 0, -262146, 1073741854, 0, -262145, 1073741854, 0, -327680, 1073741854, 0, -327679, 1073741854, 0, -327678, 1073741854, 0, -327677, 1073741854, 0, -327676, 1073741854, 0, -327675, 1073741854, 0, -327674, 1073741854, 0, -327673, 30, 0, -196638, 1073741854, 0, -196637, 1073741854, 0, -196636, 1073741854, 0, -196635, 1073741854, 0, -196634, 1073741854, 0, -196633, 1073741854, 0, -196632, 1073741854, 0, -196631, 1073741854, 0, -196630, 1073741854, 0, -196629, 1073741854, 0, -196628, 1073741854, 0, -196627, 1073741854, 0, -196626, 1073741854, 0, -196625, 1073741854, 0, -196624, 1073741854, 0, -196623, 1073741854, 0, -196622, 1073741854, 0, -196621, 1073741854, 0, -196620, 1073741854, 0, -196619, 1073741854, 0, -196618, 1073741854, 0, -196617, 1073741854, 0, -196616, 1073741854, 0, -196615, 1073741854, 0, -196614, 1073741854, 0, -196613, 1073741854, 0, -196612, 1073741854, 0, -196611, 1073741854, 0, -196610, 1073741854, 0, -196609, 1073741854, 0, -262144, 1073741854, 0, -262143, 1073741854, 0, -262142, 1073741854, 0, -262141, 1073741854, 0, -262140, 1073741854, 0, -262139, 1073741854, 0, -262138, 1073741854, 0, -262137, 30, 0, -131102, 1073741854, 0, -131101, 1073741854, 0, -131100, 1073741854, 0, -131099, 1073741854, 0, -131098, 1073741854, 0, -131097, 1073741854, 0, -131096, 1073741854, 0, -131095, 1073741854, 0, -131094, 1073741854, 0, -131093, 1073741854, 0, -131092, 1073741854, 0, -131091, 1073741854, 0, -131090, 1073741854, 0, -131089, 1073741854, 0, -131088, 1073741854, 0, -131087, 1073741854, 0, -131086, 1073741854, 0, -131085, 1073741854, 0, -131084, 1073741854, 0, -131083, 1073741854, 0, -131082, 1073741854, 0, -131081, 1073741854, 0, -131080, 1073741854, 0, -131079, 1073741854, 0, -131078, 1073741854, 0, -131077, 1073741854, 0, -131076, 1073741854, 0, -131075, 1073741854, 0, -131074, 1073741854, 0, -131073, 1073741854, 0, -196608, 1073741854, 0, -196607, 1073741854, 0, -196606, 1073741854, 0, -196605, 1073741854, 0, -196604, 1073741854, 0, -196603, 1073741854, 0, -196602, 1073741854, 0, -196601, 30, 0, -65566, 1073741854, 0, -65565, 1073741854, 0, -65564, 1073741854, 0, -65563, 1073741854, 0, -65562, 1073741854, 0, -65561, 1073741854, 0, -65560, 1073741854, 0, -65559, 1073741854, 0, -65558, 1073741854, 0, -65557, 1073741854, 0, -65556, 1073741854, 0, -65555, 1073741854, 0, -65554, 1073741854, 0, -65553, 1073741854, 0, -65552, 1073741854, 0, -65551, 1073741854, 0, -65550, 1073741854, 0, -65549, 1073741854, 0, -65548, 1073741854, 0, -65547, 1073741854, 0, -65546, 1073741854, 0, -65545, 1073741854, 0, -65544, 1073741854, 0, -65543, 1073741854, 0, -65542, 1073741854, 0, -65541, 1073741854, 0, -65540, 1073741854, 0, -65539, 1073741854, 0, -65538, 1073741854, 0, -65537, 1073741854, 0, -131072, 1073741854, 0, -131071, 1073741854, 0, -131070, 1073741854, 0, -131069, 1073741854, 0, -131068, 1073741854, 0, -131067, 1073741854, 0, -131066, 1073741854, 0, -131065, 30, 0, -30, 1073741854, 0, -29, 1073741854, 0, -28, 1073741854, 0, -27, 1073741854, 0, -26, 1073741854, 0, -25, 1073741854, 0, -24, 1073741854, 0, -23, 1073741854, 0, -22, 1073741854, 0, -21, 1073741854, 0, -20, 1073741854, 0, -19, 1073741854, 0, -18, 1073741854, 0, -17, 1073741854, 0, -16, 1073741854, 0, -15, 1073741854, 0, -14, 1073741854, 0, -13, 1073741854, 0, -12, 1073741854, 0, -11, 1073741854, 0, -10, 1073741854, 0, -9, 1073741854, 0, -8, 1073741854, 0, -7, 1073741854, 0, -6, 1073741854, 0, -5, 1073741854, 0, -4, 1073741854, 0, -3, 1073741854, 0, -2, 1073741854, 0, -1, 1073741854, 0, -65536, 1073741854, 0, -65535, 1073741854, 0, -65534, 1073741854, 0, -65533, 1073741854, 0, -65532, 1073741854, 0, -65531, 1073741854, 0, -65530, 1073741854, 0, -65529, 30, 0, 65506, 536870925, 0, 65507, 38, 0, 65508, 38, 0, 65509, 38, 0, 65510, 38, 0, 65511, 38, 0, 65512, 38, 0, 65513, 38, 0, 65514, 38, 0, 65515, 38, 0, 65516, 38, 0, 65517, 38, 0, 65518, 38, 0, 65519, 38, 0, 65520, 38, 0, 65521, 38, 0, 65522, 38, 0, 65523, 38, 0, 65524, 38, 0, 65525, 38, 0, 65526, 38, 0, 65527, 38, 0, 65528, 38, 0, 65529, 38, 0, 65530, 38, 0, 65531, 38, 0, 65532, 38, 0, 65533, 38, 0, 65534, 38, 0, 65535, 38, 0, 0, 38, 0, 1, 38, 0, 2, 38, 0, 3, 38, 0, 4, 38, 0, 5, 38, 0, 6, 38, 0, 7, 13, 0 )

[node name="DecoGroup" type="Node2D" parent="tilemap"]

[node name="TileMap" type="TileMap" parent="tilemap/DecoGroup"]
tile_set = ExtResource( 2 )
cell_size = Vector2( 32, 32 )
compatibility_mode = true
format = 1
tile_data = PoolIntArray( -327693, 3, 0, -327692, 4, 0, -327691, 4, 0, -327690, 536870915, 0, -262171, 0, 0, -262157, 5, 0, -262156, 6, 0, -262155, 6, 0, -262154, 536870917, 0, -327680, 0, 0, -327677, 0, 0, -196635, 1, 0, -196621, 5, 0, -196620, 6, 0, -196619, 6, 0, -196618, 536870917, 0, -262144, 1, 0, -262141, 1, 0, -131099, 2, 0, -131085, 5, 0, -131084, 6, 0, -131083, 6, 0, -131082, 536870917, 0, -196608, 2, 0, -196605, 1, 0, -65549, 5, 0, -65548, 6, 0, -65547, 6, 0, -65546, 536870917, 0, -131069, 2, 0, -13, 5, 0, -12, 6, 0, -11, 6, 0, -10, 536870917, 0 )

[node name="TorchGroup" type="Node2D" parent="tilemap"]

[node name="torch" parent="tilemap/TorchGroup" instance=ExtResource( 3 )]
position = Vector2( -192, -160 )
type = "ITEM"
reward = "res://scenes/items/gold/gold.tscn"
value = 50

[node name="torch2" parent="tilemap/TorchGroup" instance=ExtResource( 3 )]
position = Vector2( -528, -160 )
type = "ITEM"
reward = "res://scenes/items/gold/gold.tscn"
value = 50

[node name="PotGroup" type="Node2D" parent="tilemap"]

[node name="Pot" parent="tilemap/PotGroup" instance=ExtResource( 4 )]
position = Vector2( -32, -48 )

[node name="Pot1" parent="tilemap/PotGroup" instance=ExtResource( 4 )]
position = Vector2( -352, -48 )
type = "ITEM"
reward = "res://scenes/items/gold/gold.tscn"
value = 100

[node name="Pot2" parent="tilemap/PotGroup" instance=ExtResource( 4 )]
position = Vector2( -688, -48 )

[node name="TeleportGroup" type="Node2D" parent="tilemap"]

[node name="Teleport" parent="tilemap/TeleportGroup" instance=ExtResource( 5 )]
position = Vector2( 272, -80 )
target_level = "res://levels/dungeon/0-4.tscn"
teleport_to = Vector2( -556, -80 )

[node name="teleport" parent="tilemap/TeleportGroup/Teleport" index="0"]
scale = Vector2( 1, 5 )

[node name="Teleport1" parent="tilemap/TeleportGroup" instance=ExtResource( 5 )]
position = Vector2( -976, -80 )
target_level = "res://levels/dungeon/0-7.tscn"
teleport_to = Vector2( 364, 1392 )

[node name="teleport" parent="tilemap/TeleportGroup/Teleport1" index="0"]
scale = Vector2( 1, 5 )

[node name="boundaries" type="Node2D" parent="tilemap"]

[node name="NW" type="Position2D" parent="tilemap/boundaries"]
position = Vector2( -966, -326 )

[node name="SE" type="Position2D" parent="tilemap/boundaries"]
position = Vector2( 266, 42 )

[editable path="tilemap/TeleportGroup/Teleport"]

[editable path="tilemap/TeleportGroup/Teleport1"]
