[gd_scene load_steps=14 format=2]

[ext_resource path="res://scenes/springislandcastle/tileset.tres" type="TileSet" id=1]
[ext_resource path="res://scenes/common/breakables/lamp.tscn" type="PackedScene" id=2]
[ext_resource path="res://scenes/common/switches/pullswitch.tscn" type="PackedScene" id=3]
[ext_resource path="res://scenes/common/switches/floorswitch.tscn" type="PackedScene" id=4]
[ext_resource path="res://scenes/springislandcastle/climbableblock.tscn" type="PackedScene" id=5]
[ext_resource path="res://scenes/dungeon/onewayplatform.tscn" type="PackedScene" id=6]
[ext_resource path="res://scenes/dungeon/platforms/flooredge2.png" type="Texture" id=7]
[ext_resource path="res://scenes/common/hangable.tscn" type="PackedScene" id=8]
[ext_resource path="res://scenes/common/hangblockend.png" type="Texture" id=9]
[ext_resource path="res://scenes/common/damagables/spiketile.tscn" type="PackedScene" id=10]
[ext_resource path="res://scenes/common/damagables/enchantedarmor/enchantedarmor.tscn" type="PackedScene" id=11]
[ext_resource path="res://scenes/common/teleport.tscn" type="PackedScene" id=12]

[sub_resource type="PhysicsMaterial" id=1]
friction = 0.0

[node name="LVL_NOTITLE" type="Node2D"]
__meta__ = {
"__editor_plugin_screen__": "2D"
}

[node name="tilemap" type="TileMap" parent="."]
tile_set = ExtResource( 1 )
cell_size = Vector2( 32, 32 )
compatibility_mode = true
collision_layer = 524288
format = 1
tile_data = PoolIntArray( -3342343, 23, 0, -3342342, 23, 0, -3342341, 23, 0, -3342340, 23, 0, -3342339, 23, 0, -3342338, 23, 0, -3342337, 23, 0, -3407872, 23, 0, -3407871, 23, 0, -3407870, 23, 0, -3407869, 23, 0, -3407868, 23, 0, -3407867, 23, 0, -3407866, 23, 0, -3407865, 23, 0, -3407864, 23, 0, -3407863, 23, 0, -3407862, 23, 0, -3407861, 23, 0, -3407860, 23, 0, -3276807, 23, 0, -3276806, 23, 0, -3276805, 23, 0, -3276804, 23, 0, -3276803, 23, 0, -3276802, 23, 0, -3276801, 23, 0, -3342336, 23, 0, -3342335, 23, 0, -3342334, 23, 0, -3342333, 23, 0, -3342332, 23, 0, -3342331, 23, 0, -3342330, 23, 0, -3342329, 23, 0, -3342328, 23, 0, -3342327, 23, 0, -3342326, 23, 0, -3342325, 23, 0, -3342324, 23, 0, -3211271, 23, 0, -3211270, 23, 0, -3211269, 23, 0, -3211268, 23, 0, -3211267, 23, 0, -3211266, 23, 0, -3211265, 23, 0, -3276800, 23, 0, -3276799, 23, 0, -3276798, 23, 0, -3276797, 23, 0, -3276796, 23, 0, -3276795, 23, 0, -3276794, 23, 0, -3276793, 23, 0, -3276792, 23, 0, -3276791, 23, 0, -3276790, 23, 0, -3276789, 23, 0, -3276788, 23, 0, -3145735, 23, 0, -3145734, 23, 0, -3145733, 23, 0, -3145732, 23, 0, -3145731, 23, 0, -3145730, 23, 0, -3145729, 23, 0, -3211264, 23, 0, -3211263, 23, 0, -3211262, 23, 0, -3211261, 23, 0, -3211260, 23, 0, -3211259, 23, 0, -3211258, 23, 0, -3211257, 23, 0, -3211256, 23, 0, -3211255, 23, 0, -3211254, 23, 0, -3211253, 23, 0, -3211252, 23, 0, -3080199, 23, 0, -3080198, 23, 0, -3080197, 23, 0, -3080196, 23, 0, -3080195, 23, 0, -3080194, 23, 0, -3080193, 23, 0, -3145728, 23, 0, -3145727, 23, 0, -3145726, 23, 0, -3145725, 23, 0, -3145724, 23, 0, -3145723, 23, 0, -3145722, 23, 0, -3145721, 23, 0, -3145720, 23, 0, -3145719, 23, 0, -3145718, 23, 0, -3145717, 23, 0, -3145716, 23, 0, -3014663, 23, 0, -3014662, 23, 0, -3014661, 23, 0, -3014660, 23, 0, -3014659, 23, 0, -3014658, 23, 0, -3014657, 23, 0, -3080192, 23, 0, -3080191, 23, 0, -3080190, 23, 0, -3080189, 23, 0, -3080188, 23, 0, -3080187, 23, 0, -3080186, 23, 0, -3080185, 23, 0, -3080184, 23, 0, -3080183, 23, 0, -3080182, 23, 0, -3080181, 23, 0, -3080180, 23, 0, -2949127, 23, 0, -2949126, 23, 0, -2949125, 23, 0, -2949124, 23, 0, -2949123, 23, 0, -2949122, 23, 0, -2949121, 23, 0, -3014656, 23, 0, -3014655, 23, 0, -3014654, 23, 0, -3014653, 23, 0, -3014652, 23, 0, -3014651, 23, 0, -3014650, 23, 0, -3014649, 23, 0, -3014648, 23, 0, -3014647, 23, 0, -3014646, 23, 0, -3014645, 23, 0, -3014644, 23, 0, -2883591, 23, 0, -2883590, 23, 0, -2883589, 23, 0, -2883588, 23, 0, -2883587, 23, 0, -2883586, 23, 0, -2883585, 23, 0, -2949120, 23, 0, -2949119, 23, 0, -2949118, 23, 0, -2949117, 23, 0, -2949116, 23, 0, -2949115, 23, 0, -2949114, 23, 0, -2949113, 23, 0, -2949112, 23, 0, -2949111, 23, 0, -2949110, 23, 0, -2949109, 23, 0, -2949108, 23, 0, -2818058, 1610612737, 0, -2818057, 1073741824, 0, -2818056, 1073741824, 0, -2818055, 1073741824, 0, -2818054, 1073741824, 0, -2818053, 1073741824, 0, -2818052, 1073741824, 0, -2818051, 1073741824, 0, -2818050, 1073741824, 0, -2818049, 1073741824, 0, -2883584, 1073741824, 0, -2883583, 1073741824, 0, -2883582, 1073741824, 0, -2883581, 1073741824, 0, -2883580, 1073741824, 0, -2883579, 1073741824, 0, -2883578, 1073741824, 0, -2883577, 1073741824, 0, -2883576, 1073741824, 0, -2883575, 1073741824, 0, -2883574, 1073741824, 0, -2883573, 1073741824, 0, -2883572, 1073741824, 0, -2883571, 1073741824, 0, -2883570, 1073741824, 0, -2883569, 1073741825, 0, -2752522, 2, 0, -2752521, 10, 0, -2818037, 10, 0, -2818033, 2, 0, -2686986, 2, 0, -2752497, 2, 0, -2621450, 2, 0, -2621449, 9, 0, -2621448, 8, 0, -2621447, 8, 0, -2621446, 9, 0, -2686965, 9, 0, -2686964, 8, 0, -2686963, 8, 0, -2686962, 9, 0, -2686961, 2, 0, -2555914, 2, 0, -2555913, 6, 0, -2621429, 536870939, 0, -2621425, 2, 0, -2490378, 2, 0, -2555889, 2, 0, -2424842, 2, 0, -2490353, 1073741825, 0, -2359306, 2, 0, -2424817, 7, 0, -2293770, 2, 0, -2359281, 7, 0, -2228234, 2, 0, -2293745, 7, 0, -2162698, 2, 0, -2228209, 7, 0, -2097162, 2, 0, -2162673, 7, 0, -2031626, 2, 0, -2031625, 536870937, 0, -2097141, 6, 0, -2097140, 0, 0, -2097139, 0, 0, -2097138, 0, 0, -2097137, 1, 0, -1966090, 2, 0, -2031601, 2, 0, -1900554, 2, 0, -1966065, 2, 0, -1835018, 2, 0, -1900529, 2, 0, -1769482, 2, 0, -1834993, 2, 0, -1703946, 2, 0, -1769457, 2, 0, -1638410, 2, 0, -1703921, 2, 0, -1572874, 2, 0, -1638385, 2, 0, -1507338, 2, 0, -1507337, 6, 0, -1572853, 536870939, 0, -1572849, 2, 0, -1441802, 2, 0, -1507313, 2, 0, -1376266, 2, 0, -1441777, 2, 0, -1310730, 2, 0, -1376241, 2, 0, -1245194, 2, 0, -1310705, 2, 0, -1179658, 2, 0, -1245169, 2, 0, -1114122, 2, 0, -1179633, 2, 0, -1048586, 2, 0, -1114097, 2, 0, -983050, 2, 0, -983049, 536870937, 0, -1048565, 6, 0, -1048561, 2, 0, -917514, 2, 0, -983025, 2, 0, -851978, 2, 0, -917489, 2, 0, -786442, 2, 0, -851953, 2, 0, -720906, 2, 0, -786417, 2, 0, -655370, 2, 0, -720881, 2, 0, -589834, 2, 0, -655345, 2, 0, -524298, 2, 0, -589809, 2, 0, -458762, 2, 0, -458761, 6, 0, -524277, 536870939, 0, -524273, 2, 0, -393226, 2, 0, -458737, 2, 0, -327690, 2, 0, -393201, 2, 0, -262154, 2, 0, -327665, 2, 0, -196618, 2, 0, -262129, 2, 0, -131082, 2, 0, -196593, 2, 0, -65546, 2, 0, -131057, 2, 0, -10, 2, 0, -65521, 2, 0, 65526, 2, 0, 65527, 13, 0, 11, 6, 0, 15, 2, 0, 131062, 2, 0, 65551, 2, 0, 196598, 1073741825, 0, 131087, 1610612737, 0, 262134, 7, 0, 196623, 7, 0, 327670, 7, 0, 262159, 7, 0, 393206, 7, 0, 327695, 7, 0, 458742, 7, 0, 393231, 7, 0, 524278, 7, 0, 458767, 7, 0, 589814, 536870913, 0, 589815, 0, 0, 589816, 0, 0, 589817, 0, 0, 589818, 0, 0, 589819, 0, 0, 589820, 0, 0, 589821, 0, 0, 589822, 0, 0, 589823, 0, 0, 524288, 0, 0, 524289, 0, 0, 524290, 0, 0, 524291, 0, 0, 524292, 0, 0, 524293, 0, 0, 524294, 0, 0, 524295, 0, 0, 524296, 0, 0, 524297, 0, 0, 524298, 0, 0, 524299, 0, 0, 524300, 0, 0, 524301, 0, 0, 524302, 0, 0, 524303, 1, 0, 655350, 2, 0, 655351, 3, 0, 655352, -1610612732, 0, 655353, -1610612732, 0, 655354, -1610612732, 0, 655355, -1610612732, 0, 655356, -1610612732, 0, 655357, -1610612732, 0, 655358, -1610612732, 0, 655359, -1610612732, 0, 589824, -1610612732, 0, 589825, -1610612732, 0, 589826, -1610612732, 0, 589827, -1610612732, 0, 589828, -1610612732, 0, 589829, -1610612732, 0, 589830, -1610612732, 0, 589831, -1610612732, 0, 589832, -1610612732, 0, 589833, -1610612732, 0, 589834, -1610612732, 0, 589835, -1610612732, 0, 589836, -1610612732, 0, 589837, -1610612732, 0, 589838, 536870915, 0, 589839, 2, 0, 720886, 2, 0, 720887, 4, 0, 720888, 5, 0, 720889, 5, 0, 720890, 5, 0, 720891, 5, 0, 720892, 5, 0, 720893, 5, 0, 720894, 5, 0, 720895, 5, 0, 655360, 5, 0, 655361, 5, 0, 655362, 5, 0, 655363, 5, 0, 655364, 5, 0, 655365, 5, 0, 655366, 5, 0, 655367, 5, 0, 655368, 5, 0, 655369, 5, 0, 655370, 5, 0, 655371, 5, 0, 655372, 5, 0, 655373, 5, 0, 655374, 4, 0, 655375, 2, 0, 786422, 2, 0, 786423, 1073741827, 0, 786424, -1610612732, 0, 786425, -1610612732, 0, 786426, -1610612732, 0, 786427, -1610612732, 0, 786428, -1610612732, 0, 786429, -1610612732, 0, 786430, -1610612732, 0, 786431, -1610612732, 0, 720896, -1610612732, 0, 720897, -1610612732, 0, 720898, -1610612732, 0, 720899, -1610612732, 0, 720900, -1610612732, 0, 720901, -1610612732, 0, 720902, -1610612732, 0, 720903, -1610612732, 0, 720904, -1610612732, 0, 720905, -1610612732, 0, 720906, -1610612732, 0, 720907, -1610612732, 0, 720908, -1610612732, 0, 720909, -1610612732, 0, 720910, 1610612739, 0, 720911, 2, 0, 851961, 23, 0, 851962, 23, 0, 851963, 23, 0, 851964, 23, 0, 851965, 23, 0, 851966, 23, 0, 851967, 23, 0, 786432, 23, 0, 786433, 23, 0, 786434, 23, 0, 786435, 23, 0, 786436, 23, 0, 786437, 23, 0, 786438, 23, 0, 786439, 23, 0, 786440, 23, 0, 786441, 23, 0, 786442, 23, 0, 786443, 23, 0, 786444, 23, 0, 917497, 23, 0, 917498, 23, 0, 917499, 23, 0, 917500, 23, 0, 917501, 23, 0, 917502, 23, 0, 917503, 23, 0, 851968, 23, 0, 851969, 23, 0, 851970, 23, 0, 851971, 23, 0, 851972, 23, 0, 851973, 23, 0, 851974, 23, 0, 851975, 23, 0, 851976, 23, 0, 851977, 23, 0, 851978, 23, 0, 851979, 23, 0, 851980, 23, 0, 983033, 23, 0, 983034, 23, 0, 983035, 23, 0, 983036, 23, 0, 983037, 23, 0, 983038, 23, 0, 983039, 23, 0, 917504, 23, 0, 917505, 23, 0, 917506, 23, 0, 917507, 23, 0, 917508, 23, 0, 917509, 23, 0, 917510, 23, 0, 917511, 23, 0, 917512, 23, 0, 917513, 23, 0, 917514, 23, 0, 917515, 23, 0, 917516, 23, 0, 1048569, 23, 0, 1048570, 23, 0, 1048571, 23, 0, 1048572, 23, 0, 1048573, 23, 0, 1048574, 23, 0, 1048575, 23, 0, 983040, 23, 0, 983041, 23, 0, 983042, 23, 0, 983043, 23, 0, 983044, 23, 0, 983045, 23, 0, 983046, 23, 0, 983047, 23, 0, 983048, 23, 0, 983049, 23, 0, 983050, 23, 0, 983051, 23, 0, 983052, 23, 0, 1114105, 23, 0, 1114106, 23, 0, 1114107, 23, 0, 1114108, 23, 0, 1114109, 23, 0, 1114110, 23, 0, 1114111, 23, 0, 1048576, 23, 0, 1048577, 23, 0, 1048578, 23, 0, 1048579, 23, 0, 1048580, 23, 0, 1048581, 23, 0, 1048582, 23, 0, 1048583, 23, 0, 1048584, 23, 0, 1048585, 23, 0, 1048586, 23, 0, 1048587, 23, 0, 1048588, 23, 0, 1179641, 23, 0, 1179642, 23, 0, 1179643, 23, 0, 1179644, 23, 0, 1179645, 23, 0, 1179646, 23, 0, 1179647, 23, 0, 1114112, 23, 0, 1114113, 23, 0, 1114114, 23, 0, 1114115, 23, 0, 1114116, 23, 0, 1114117, 23, 0, 1114118, 23, 0, 1114119, 23, 0, 1114120, 23, 0, 1114121, 23, 0, 1114122, 23, 0, 1114123, 23, 0, 1114124, 23, 0, 1245177, 23, 0, 1245178, 23, 0, 1245179, 23, 0, 1245180, 23, 0, 1245181, 23, 0, 1245182, 23, 0, 1245183, 23, 0, 1179648, 23, 0, 1179649, 23, 0, 1179650, 23, 0, 1179651, 23, 0, 1179652, 23, 0, 1179653, 23, 0, 1179654, 23, 0, 1179655, 23, 0, 1179656, 23, 0, 1179657, 23, 0, 1179658, 23, 0, 1179659, 23, 0, 1179660, 23, 0, 1310713, 23, 0, 1310714, 23, 0, 1310715, 23, 0, 1310716, 23, 0, 1310717, 23, 0, 1310718, 23, 0, 1310719, 23, 0, 1245184, 23, 0, 1245185, 23, 0, 1245186, 23, 0, 1245187, 23, 0, 1245188, 23, 0, 1245189, 23, 0, 1245190, 23, 0, 1245191, 23, 0, 1245192, 23, 0, 1245193, 23, 0, 1245194, 23, 0, 1245195, 23, 0, 1245196, 23, 0, 1376249, 23, 0, 1376250, 23, 0, 1376251, 23, 0, 1376252, 23, 0, 1376253, 23, 0, 1376254, 23, 0, 1376255, 23, 0, 1310720, 23, 0, 1310721, 23, 0, 1310722, 23, 0, 1310723, 23, 0, 1310724, 23, 0, 1310725, 23, 0, 1310726, 23, 0, 1310727, 23, 0, 1310728, 23, 0, 1310729, 23, 0, 1310730, 23, 0, 1310731, 23, 0, 1310732, 23, 0, 1441785, 23, 0, 1441786, 23, 0, 1441787, 23, 0, 1441788, 23, 0, 1441789, 23, 0, 1441790, 23, 0, 1441791, 23, 0, 1376256, 23, 0, 1376257, 23, 0, 1376258, 23, 0, 1376259, 23, 0, 1376260, 23, 0, 1376261, 23, 0, 1376262, 23, 0, 1376263, 23, 0, 1376264, 23, 0, 1376265, 23, 0, 1376266, 23, 0, 1376267, 23, 0, 1376268, 23, 0 )

[node name="LampGroup" type="Node2D" parent="tilemap"]

[node name="lamp" parent="tilemap/LampGroup" instance=ExtResource( 2 )]
position = Vector2( -224, -144 )

[node name="lamp2" parent="tilemap/LampGroup" instance=ExtResource( 2 )]
position = Vector2( -224, -656 )

[node name="lamp3" parent="tilemap/LampGroup" instance=ExtResource( 2 )]
position = Vector2( -224, -1168 )

[node name="SwitchGroup" type="Node2D" parent="tilemap"]

[node name="PullSwitch" parent="tilemap/SwitchGroup" instance=ExtResource( 3 )]
position = Vector2( -96, -144 )
target_nodes = [ "One-WayPlatformGroup/One-WayPlatform", "One-WayPlatformGroup/One-WayPlatform1", "One-WayPlatformGroup/One-WayPlatform2", "HangableGroup/HangBlock", "HangableGroup/HangBlock1", "HangableGroup/HangBlock2", "HangableGroup/HangBlock3", "HangableGroup/HangBlock4" ]
related_switches = [ "SwitchGroup/PullSwitch1", "SwitchGroup/PullSwitch2", "SwitchGroup/PullSwitch3", "SwitchGroup/PullSwitch4" ]

[node name="PullSwitch1" parent="tilemap/SwitchGroup" instance=ExtResource( 3 )]
position = Vector2( 144, -336 )
target_nodes = [ "One-WayPlatformGroup/One-WayPlatform", "One-WayPlatformGroup/One-WayPlatform1", "One-WayPlatformGroup/One-WayPlatform2", "HangableGroup/HangBlock", "HangableGroup/HangBlock1", "HangableGroup/HangBlock2", "HangableGroup/HangBlock3", "HangableGroup/HangBlock4" ]
related_switches = [ "SwitchGroup/PullSwitch", "SwitchGroup/PullSwitch2", "SwitchGroup/PullSwitch3", "SwitchGroup/PullSwitch4" ]

[node name="PullSwitch2" parent="tilemap/SwitchGroup" instance=ExtResource( 3 )]
position = Vector2( -96, -528 )
target_nodes = [ "One-WayPlatformGroup/One-WayPlatform", "One-WayPlatformGroup/One-WayPlatform1", "One-WayPlatformGroup/One-WayPlatform2", "HangableGroup/HangBlock", "HangableGroup/HangBlock1", "HangableGroup/HangBlock2", "HangableGroup/HangBlock3", "HangableGroup/HangBlock4" ]
related_switches = [ "SwitchGroup/PullSwitch1", "SwitchGroup/PullSwitch", "SwitchGroup/PullSwitch3", "SwitchGroup/PullSwitch4" ]

[node name="PullSwitch3" parent="tilemap/SwitchGroup" instance=ExtResource( 3 )]
position = Vector2( 144, -720 )
target_nodes = [ "One-WayPlatformGroup/One-WayPlatform", "One-WayPlatformGroup/One-WayPlatform1", "One-WayPlatformGroup/One-WayPlatform2", "HangableGroup/HangBlock", "HangableGroup/HangBlock1", "HangableGroup/HangBlock2", "HangableGroup/HangBlock3", "HangableGroup/HangBlock4" ]
related_switches = [ "SwitchGroup/PullSwitch1", "SwitchGroup/PullSwitch2", "SwitchGroup/PullSwitch", "SwitchGroup/PullSwitch4" ]

[node name="PullSwitch4" parent="tilemap/SwitchGroup" instance=ExtResource( 3 )]
position = Vector2( -96, -912 )
target_nodes = [ "One-WayPlatformGroup/One-WayPlatform", "One-WayPlatformGroup/One-WayPlatform1", "One-WayPlatformGroup/One-WayPlatform2", "HangableGroup/HangBlock", "HangableGroup/HangBlock1", "HangableGroup/HangBlock2", "HangableGroup/HangBlock3", "HangableGroup/HangBlock4" ]
related_switches = [ "SwitchGroup/PullSwitch1", "SwitchGroup/PullSwitch2", "SwitchGroup/PullSwitch3", "SwitchGroup/PullSwitch" ]

[node name="FloorSwitch" parent="tilemap/SwitchGroup" instance=ExtResource( 4 )]
position = Vector2( -96, 256 )
target_nodes = [ "SwitchGroup/PullSwitch" ]
is_toggle = true

[node name="ClimbableGroup" type="Node2D" parent="tilemap"]

[node name="ClimbableBlock" parent="tilemap/ClimbableGroup" instance=ExtResource( 5 )]
position = Vector2( 368, -1008 )
physics_material_override = SubResource( 1 )

[node name="One-WayPlatformGroup" type="Node2D" parent="tilemap"]

[node name="One-WayPlatform" parent="tilemap/One-WayPlatformGroup" instance=ExtResource( 6 )]
position = Vector2( 144, -1008 )

[node name="Sprite" parent="tilemap/One-WayPlatformGroup/One-WayPlatform/KinematicBody2D" index="0"]
region_enabled = true
region_rect = Rect2( 0, 0, 96, 32 )

[node name="oneway" parent="tilemap/One-WayPlatformGroup/One-WayPlatform/KinematicBody2D" index="1"]
scale = Vector2( 3, 1 )

[node name="One-WayPlatform1" parent="tilemap/One-WayPlatformGroup" instance=ExtResource( 6 )]
position = Vector2( 208, -1008 )

[node name="Sprite" parent="tilemap/One-WayPlatformGroup/One-WayPlatform1/KinematicBody2D" index="0"]
texture = ExtResource( 7 )
offset = Vector2( 3, 0 )

[node name="One-WayPlatform2" parent="tilemap/One-WayPlatformGroup" instance=ExtResource( 6 )]
position = Vector2( 80, -1008 )

[node name="Sprite" parent="tilemap/One-WayPlatformGroup/One-WayPlatform2/KinematicBody2D" index="0"]
texture = ExtResource( 7 )
offset = Vector2( -3, 0 )
flip_h = true

[node name="HangableGroup" type="Node2D" parent="tilemap"]

[node name="HangBlock" parent="tilemap/HangableGroup" instance=ExtResource( 8 )]
position = Vector2( 144, -976 )

[node name="HangBlock1" parent="tilemap/HangableGroup" instance=ExtResource( 8 )]
position = Vector2( 176, -976 )

[node name="HangBlock2" parent="tilemap/HangableGroup" instance=ExtResource( 8 )]
position = Vector2( 112, -976 )

[node name="HangBlock3" parent="tilemap/HangableGroup" instance=ExtResource( 8 )]
position = Vector2( 80, -976 )

[node name="Sprite" parent="tilemap/HangableGroup/HangBlock3" index="0"]
texture = ExtResource( 9 )

[node name="HangBlock4" parent="tilemap/HangableGroup" instance=ExtResource( 8 )]
position = Vector2( 208, -976 )

[node name="Sprite" parent="tilemap/HangableGroup/HangBlock4" index="0"]
texture = ExtResource( 9 )
flip_h = true

[node name="SpikeGroup" type="Node2D" parent="tilemap"]

[node name="SpikeTile" parent="tilemap/SpikeGroup" instance=ExtResource( 10 )]
position = Vector2( 80, -1360 )

[node name="Sprite" parent="tilemap/SpikeGroup/SpikeTile" index="0"]
flip_v = true

[node name="SpikeTile1" parent="tilemap/SpikeGroup" instance=ExtResource( 10 )]
position = Vector2( 112, -1360 )

[node name="Sprite" parent="tilemap/SpikeGroup/SpikeTile1" index="0"]
flip_v = true

[node name="SpikeTile2" parent="tilemap/SpikeGroup" instance=ExtResource( 10 )]
position = Vector2( 144, -1360 )

[node name="Sprite" parent="tilemap/SpikeGroup/SpikeTile2" index="0"]
flip_v = true

[node name="SpikeTile3" parent="tilemap/SpikeGroup" instance=ExtResource( 10 )]
position = Vector2( 176, -1360 )

[node name="Sprite" parent="tilemap/SpikeGroup/SpikeTile3" index="0"]
flip_v = true

[node name="SpikeTile4" parent="tilemap/SpikeGroup" instance=ExtResource( 10 )]
position = Vector2( 208, -1360 )

[node name="Sprite" parent="tilemap/SpikeGroup/SpikeTile4" index="0"]
flip_v = true

[node name="EnemiesGroup" type="Node2D" parent="tilemap"]

[node name="EnchantedArmor" parent="tilemap/EnemiesGroup" instance=ExtResource( 11 )]
position = Vector2( 96, 192 )

[node name="TeleportGroup" type="Node2D" parent="tilemap"]

[node name="Teleport" parent="tilemap/TeleportGroup" instance=ExtResource( 12 )]
position = Vector2( 528, 176 )
target_level = "res://levels/springislandcastle/0-0.tscn"
teleport_to = Vector2( -972, -336 )

[node name="teleport" parent="tilemap/TeleportGroup/Teleport" index="0"]
scale = Vector2( 1, 5 )

[node name="Teleport1" parent="tilemap/TeleportGroup" instance=ExtResource( 12 )]
position = Vector2( -336, 176 )
target_level = "res://levels/springislandcastle/2-0.tscn"
teleport_to = Vector2( 460, -48 )

[node name="teleport" parent="tilemap/TeleportGroup/Teleport1" index="0"]
scale = Vector2( 1, 5 )

[node name="Teleport2" parent="tilemap/TeleportGroup" instance=ExtResource( 12 )]
position = Vector2( 528, -1104 )
target_level = "res://levels/springislandcastle/0-2.tscn"
teleport_to = Vector2( -300, -976 )

[node name="teleport" parent="tilemap/TeleportGroup/Teleport2" index="0"]
scale = Vector2( 1, 5 )

[node name="boundaries" type="Node2D" parent="tilemap"]

[node name="NW" type="Position2D" parent="tilemap/boundaries"]
position = Vector2( -326, -1414 )

[node name="SE" type="Position2D" parent="tilemap/boundaries"]
position = Vector2( 522, 394 )

[node name="ParallaxBackground" type="ParallaxBackground" parent="."]

[node name="ParallaxLayer" type="ParallaxLayer" parent="ParallaxBackground"]
motion_scale = Vector2( 1, 0.5 )
motion_mirroring = Vector2( 0, 1536 )

[node name="TileMap" type="TileMap" parent="ParallaxBackground/ParallaxLayer"]
position = Vector2( 0, 512 )
tile_set = ExtResource( 1 )
cell_size = Vector2( 32, 32 )
format = 1
tile_data = PoolIntArray( -3080197, 29, 0, -3145725, 536870941, 0, -2555909, 29, 0, -2621437, 536870941, 0, -2031621, 29, 0, -2097149, 536870941, 0, -1507333, 29, 0, -1572861, 536870941, 0, -983045, 29, 0, -1048573, 536870941, 0, -458757, 29, 0, -524285, 536870941, 0 )

[editable path="tilemap/One-WayPlatformGroup/One-WayPlatform"]

[editable path="tilemap/One-WayPlatformGroup/One-WayPlatform1"]

[editable path="tilemap/One-WayPlatformGroup/One-WayPlatform2"]

[editable path="tilemap/HangableGroup/HangBlock3"]

[editable path="tilemap/HangableGroup/HangBlock4"]

[editable path="tilemap/SpikeGroup/SpikeTile"]

[editable path="tilemap/SpikeGroup/SpikeTile1"]

[editable path="tilemap/SpikeGroup/SpikeTile2"]

[editable path="tilemap/SpikeGroup/SpikeTile3"]

[editable path="tilemap/SpikeGroup/SpikeTile4"]

[editable path="tilemap/TeleportGroup/Teleport"]

[editable path="tilemap/TeleportGroup/Teleport1"]

[editable path="tilemap/TeleportGroup/Teleport2"]
