[gd_scene load_steps=16 format=2]

[ext_resource path="res://scenes/springislandcastle/tileset.tres" type="TileSet" id=1]
[ext_resource path="res://scenes/dungeon/ladder/ladder.tscn" type="PackedScene" id=2]
[ext_resource path="res://scenes/springislandcastle/climbableblock.tscn" type="PackedScene" id=3]
[ext_resource path="res://scenes/dungeon/onewayplatform.tscn" type="PackedScene" id=4]
[ext_resource path="res://scenes/dungeon/platforms/flooredge2.png" type="Texture" id=5]
[ext_resource path="res://scenes/springislandcastle/BGs/floor.png" type="Texture" id=6]
[ext_resource path="res://scenes/common/switches/pullswitch.tscn" type="PackedScene" id=7]
[ext_resource path="res://scenes/common/hangable.tscn" type="PackedScene" id=8]
[ext_resource path="res://scenes/common/hangblockend.png" type="Texture" id=9]
[ext_resource path="res://scenes/common/damagables/spiketile.tscn" type="PackedScene" id=10]
[ext_resource path="res://scenes/common/teleport.tscn" type="PackedScene" id=11]
[ext_resource path="res://scenes/springislandcastle/parallax.tscn" type="PackedScene" id=12]

[sub_resource type="PhysicsMaterial" id=1]
friction = 0.0

[sub_resource type="PhysicsMaterial" id=2]
friction = 0.0

[sub_resource type="RectangleShape2D" id=3]
extents = Vector2( 240, 16 )

[node name="LVL_NOTITLE" type="Node2D"]
__meta__ = {
"__editor_plugin_screen__": "2D"
}

[node name="tilemap" type="TileMap" parent="."]
tile_set = ExtResource( 1 )
cell_size = Vector2( 32, 32 )
compatibility_mode = true
collision_layer = 524288
format = 1
tile_data = PoolIntArray( -1638421, 536870935, 0, -1638420, 536870935, 0, -1638419, 536870935, 0, -1638418, 536870935, 0, -1638417, 536870935, 0, -1638416, 536870935, 0, -1638415, 536870935, 0, -1638414, 536870935, 0, -1638413, 536870935, 0, -1638412, 536870935, 0, -1638411, 536870935, 0, -1638410, 536870935, 0, -1638409, 536870935, 0, -1638408, 536870935, 0, -1638407, 536870935, 0, -1638406, 536870935, 0, -1638405, 536870935, 0, -1638404, 536870935, 0, -1638403, 536870935, 0, -1638402, 536870935, 0, -1638401, 536870935, 0, -1703936, 536870935, 0, -1703935, 536870935, 0, -1703934, 536870935, 0, -1703933, 536870935, 0, -1703932, 536870935, 0, -1703931, 536870935, 0, -1703930, 536870935, 0, -1703929, 536870935, 0, -1703928, 536870935, 0, -1703927, 536870935, 0, -1703926, 536870935, 0, -1703925, 536870935, 0, -1703924, 536870935, 0, -1703923, 536870935, 0, -1703922, 536870935, 0, -1703921, 536870935, 0, -1703920, 536870935, 0, -1703919, 536870935, 0, -1703918, 536870935, 0, -1703917, 536870935, 0, -1703916, 536870935, 0, -1703915, 536870935, 0, -1703914, 536870935, 0, -1703913, 536870935, 0, -1703912, 536870935, 0, -1703911, 536870935, 0, -1572885, 536870935, 0, -1572884, 536870935, 0, -1572883, 536870935, 0, -1572882, 536870935, 0, -1572881, 536870935, 0, -1572880, 536870935, 0, -1572879, 536870935, 0, -1572878, 536870935, 0, -1572877, 536870935, 0, -1572876, 536870935, 0, -1572875, 536870935, 0, -1572874, 536870935, 0, -1572873, 536870935, 0, -1572872, 536870935, 0, -1572871, 536870935, 0, -1572870, 536870935, 0, -1572869, 536870935, 0, -1572868, 536870935, 0, -1572867, 536870935, 0, -1572866, 536870935, 0, -1572865, 536870935, 0, -1638400, 536870935, 0, -1638399, 536870935, 0, -1638398, 536870935, 0, -1638397, 536870935, 0, -1638396, 536870935, 0, -1638395, 536870935, 0, -1638394, 536870935, 0, -1638393, 536870935, 0, -1638392, 536870935, 0, -1638391, 536870935, 0, -1638390, 536870935, 0, -1638389, 536870935, 0, -1638388, 536870935, 0, -1638387, 536870935, 0, -1638386, 536870935, 0, -1638385, 536870935, 0, -1638384, 536870935, 0, -1638383, 536870935, 0, -1638382, 536870935, 0, -1638381, 536870935, 0, -1638380, 536870935, 0, -1638379, 536870935, 0, -1638378, 536870935, 0, -1638377, 536870935, 0, -1638376, 536870935, 0, -1638375, 536870935, 0, -1507349, 536870935, 0, -1507348, 536870935, 0, -1507347, 536870935, 0, -1507346, 536870935, 0, -1507345, 536870935, 0, -1507344, 536870935, 0, -1507343, 536870935, 0, -1507342, 536870935, 0, -1507341, 536870935, 0, -1507340, 536870935, 0, -1507339, 536870935, 0, -1507338, 536870935, 0, -1507337, 536870935, 0, -1507336, 536870935, 0, -1507335, 536870935, 0, -1507334, 536870935, 0, -1507333, 536870935, 0, -1507332, 536870935, 0, -1507331, 536870935, 0, -1507330, 536870935, 0, -1507329, 536870935, 0, -1572864, 536870935, 0, -1572863, 536870935, 0, -1572862, 536870935, 0, -1572861, 536870935, 0, -1572860, 536870935, 0, -1572859, 536870935, 0, -1572858, 536870935, 0, -1572857, 536870935, 0, -1572856, 536870935, 0, -1572855, 536870935, 0, -1572854, 536870935, 0, -1572853, 536870935, 0, -1572852, 536870935, 0, -1572851, 536870935, 0, -1572850, 536870935, 0, -1572849, 536870935, 0, -1572848, 536870935, 0, -1572847, 536870935, 0, -1572846, 536870935, 0, -1572845, 536870935, 0, -1572844, 536870935, 0, -1572843, 536870935, 0, -1572842, 536870935, 0, -1572841, 536870935, 0, -1572840, 536870935, 0, -1572839, 536870935, 0, -1441813, 536870935, 0, -1441812, 536870935, 0, -1441811, 536870935, 0, -1441810, 536870935, 0, -1441809, 536870935, 0, -1441808, 536870935, 0, -1441807, 536870935, 0, -1441806, 536870935, 0, -1441805, 536870935, 0, -1441804, 536870935, 0, -1441803, 536870935, 0, -1441802, 536870935, 0, -1441801, 536870935, 0, -1441800, 536870935, 0, -1441799, 536870935, 0, -1441798, 536870935, 0, -1441797, 536870935, 0, -1441796, 536870935, 0, -1441795, 536870935, 0, -1441794, 536870935, 0, -1441793, 536870935, 0, -1507328, 536870935, 0, -1507327, 536870935, 0, -1507326, 536870935, 0, -1507325, 536870935, 0, -1507324, 536870935, 0, -1507323, 536870935, 0, -1507322, 536870935, 0, -1507321, 536870935, 0, -1507320, 536870935, 0, -1507319, 536870935, 0, -1507318, 536870935, 0, -1507317, 536870935, 0, -1507316, 536870935, 0, -1507315, 536870935, 0, -1507314, 536870935, 0, -1507313, 536870935, 0, -1507312, 536870935, 0, -1507311, 536870935, 0, -1507310, 536870935, 0, -1507309, 536870935, 0, -1507308, 536870935, 0, -1507307, 536870935, 0, -1507306, 536870935, 0, -1507305, 536870935, 0, -1507304, 536870935, 0, -1507303, 536870935, 0, -1376277, 536870935, 0, -1376276, 536870935, 0, -1376275, 536870935, 0, -1376274, 536870935, 0, -1376273, 536870935, 0, -1376272, 536870935, 0, -1376271, 536870935, 0, -1376270, 536870935, 0, -1376269, 536870935, 0, -1376268, 536870935, 0, -1376267, 536870935, 0, -1376266, 536870935, 0, -1376265, 536870935, 0, -1376264, 536870935, 0, -1376263, 536870935, 0, -1376262, 536870935, 0, -1376261, 536870935, 0, -1376260, 536870935, 0, -1376259, 536870935, 0, -1376258, 536870935, 0, -1376257, 536870935, 0, -1441792, 536870935, 0, -1441791, 536870935, 0, -1441790, 536870935, 0, -1441789, 536870935, 0, -1441788, 536870935, 0, -1441787, 536870935, 0, -1441786, 536870935, 0, -1441785, 536870935, 0, -1441784, 536870935, 0, -1441783, 536870935, 0, -1441782, 536870935, 0, -1441781, 536870935, 0, -1441780, 536870935, 0, -1441779, 536870935, 0, -1441778, 536870935, 0, -1441777, 536870935, 0, -1441776, 536870935, 0, -1441775, 536870935, 0, -1441774, 536870935, 0, -1441773, 536870935, 0, -1441772, 536870935, 0, -1441771, 536870935, 0, -1441770, 536870935, 0, -1441769, 536870935, 0, -1441768, 536870935, 0, -1441767, 536870935, 0, -1310741, 536870935, 0, -1310740, 536870935, 0, -1310739, 536870935, 0, -1310738, 536870935, 0, -1310737, 536870935, 0, -1310736, 536870935, 0, -1310735, 536870935, 0, -1310734, 536870935, 0, -1310733, 536870935, 0, -1310732, 536870935, 0, -1310731, 536870935, 0, -1310730, 536870935, 0, -1310729, 536870935, 0, -1310728, 536870935, 0, -1310727, 536870935, 0, -1310726, 536870935, 0, -1310725, 536870935, 0, -1310724, 536870935, 0, -1310723, 536870935, 0, -1310722, 536870935, 0, -1310721, 536870935, 0, -1376256, 536870935, 0, -1376255, 536870935, 0, -1376254, 536870935, 0, -1376253, 536870935, 0, -1376252, 536870935, 0, -1376251, 536870935, 0, -1376250, 536870935, 0, -1376249, 536870935, 0, -1376248, 536870935, 0, -1376247, 536870935, 0, -1376246, 536870935, 0, -1376245, 536870935, 0, -1376244, 536870935, 0, -1376243, 536870935, 0, -1376242, 536870935, 0, -1376241, 536870935, 0, -1376240, 536870935, 0, -1376239, 536870935, 0, -1376238, 536870935, 0, -1376237, 536870935, 0, -1376236, 536870935, 0, -1376235, 536870935, 0, -1376234, 536870935, 0, -1376233, 536870935, 0, -1376232, 536870935, 0, -1376231, 536870935, 0, -1245205, 536870935, 0, -1245204, 536870935, 0, -1245203, 536870935, 0, -1245202, 536870935, 0, -1245201, 536870935, 0, -1245200, 536870935, 0, -1245199, 536870935, 0, -1245198, 536870935, 0, -1245197, 536870935, 0, -1245196, 536870935, 0, -1245195, 536870935, 0, -1245194, 536870935, 0, -1245193, 536870935, 0, -1245192, 536870935, 0, -1245191, 536870935, 0, -1245190, 536870935, 0, -1245189, 536870935, 0, -1245188, 536870935, 0, -1245187, 536870935, 0, -1245186, 536870935, 0, -1245185, 536870935, 0, -1310720, 536870935, 0, -1310719, 536870935, 0, -1310718, 536870935, 0, -1310717, 536870935, 0, -1310716, 536870935, 0, -1310715, 536870935, 0, -1310714, 536870935, 0, -1310713, 536870935, 0, -1310712, 536870935, 0, -1310711, 536870935, 0, -1310710, 536870935, 0, -1310709, 536870935, 0, -1310708, 536870935, 0, -1310707, 536870935, 0, -1310706, 536870935, 0, -1310705, 536870935, 0, -1310704, 536870935, 0, -1310703, 536870935, 0, -1310702, 536870935, 0, -1310701, 536870935, 0, -1310700, 536870935, 0, -1310699, 536870935, 0, -1310698, 536870935, 0, -1310697, 536870935, 0, -1310696, 536870935, 0, -1310695, 536870935, 0, -1179669, 536870935, 0, -1179668, 536870935, 0, -1179667, 536870935, 0, -1179666, 536870935, 0, -1179665, 536870935, 0, -1179664, 536870935, 0, -1179663, 536870935, 0, -1179662, 536870935, 0, -1179661, 536870935, 0, -1179660, 536870935, 0, -1179659, 536870935, 0, -1179658, 536870935, 0, -1179657, 536870935, 0, -1179656, 536870935, 0, -1179655, 536870935, 0, -1179654, 536870935, 0, -1179653, 536870935, 0, -1179652, 536870935, 0, -1179651, 536870935, 0, -1179650, 536870935, 0, -1179649, 536870935, 0, -1245184, 536870935, 0, -1245183, 536870935, 0, -1245182, 536870935, 0, -1245181, 536870935, 0, -1245180, 536870935, 0, -1245179, 536870935, 0, -1245178, 536870935, 0, -1245177, 536870935, 0, -1245176, 536870935, 0, -1245175, 536870935, 0, -1245174, 536870935, 0, -1245173, 536870935, 0, -1245172, 536870935, 0, -1245171, 536870935, 0, -1245170, 536870935, 0, -1245169, 536870935, 0, -1245168, 536870935, 0, -1245167, 536870935, 0, -1245166, 536870935, 0, -1245165, 536870935, 0, -1245164, 536870935, 0, -1245163, 536870935, 0, -1245162, 536870935, 0, -1245161, 536870935, 0, -1245160, 536870935, 0, -1245159, 536870935, 0, -1114133, 536870935, 0, -1114132, 536870935, 0, -1114131, 536870935, 0, -1114130, 536870935, 0, -1114129, 536870935, 0, -1114128, 536870935, 0, -1114127, 536870935, 0, -1114126, 536870935, 0, -1114125, 536870935, 0, -1114124, 1610612737, 0, -1114123, 1073741824, 0, -1114122, 1073741824, 0, -1114121, 1073741824, 0, -1114120, 1073741824, 0, -1114119, 1073741824, 0, -1114118, 1073741824, 0, -1114117, 1073741824, 0, -1114116, 1073741824, 0, -1114115, 1073741824, 0, -1114114, 1073741824, 0, -1114113, 1073741824, 0, -1179648, 1073741824, 0, -1179647, 1073741824, 0, -1179646, 1073741825, 0, -1179642, 1610612737, 0, -1179641, 1073741824, 0, -1179640, 1073741824, 0, -1179639, 1073741824, 0, -1179638, 1073741824, 0, -1179637, 1073741824, 0, -1179636, 1073741824, 0, -1179635, 1073741824, 0, -1179634, 1073741824, 0, -1179633, 1073741824, 0, -1179632, 1073741824, 0, -1179631, 1073741825, 0, -1179630, 536870935, 0, -1179629, 536870935, 0, -1179628, 536870935, 0, -1179627, 536870935, 0, -1179626, 536870935, 0, -1179625, 536870935, 0, -1179624, 536870935, 0, -1179623, 536870935, 0, -1048597, 536870935, 0, -1048596, 536870935, 0, -1048595, 536870935, 0, -1048594, 536870935, 0, -1048593, 536870935, 0, -1048592, 536870935, 0, -1048591, 536870935, 0, -1048590, 536870935, 0, -1048589, 536870935, 0, -1048588, 2, 0, -1114095, 2, 0, -1114094, 536870935, 0, -1114093, 536870935, 0, -1114092, 536870935, 0, -1114091, 536870935, 0, -1114090, 536870935, 0, -1114089, 536870935, 0, -1114088, 536870935, 0, -1114087, 536870935, 0, -983061, 536870935, 0, -983060, 536870935, 0, -983059, 536870935, 0, -983058, 536870935, 0, -983057, 536870935, 0, -983056, 536870935, 0, -983055, 536870935, 0, -983054, 536870935, 0, -983053, 536870935, 0, -983052, 2, 0, -1048559, 2, 0, -1048558, 536870935, 0, -1048557, 536870935, 0, -1048556, 536870935, 0, -1048555, 536870935, 0, -1048554, 536870935, 0, -1048553, 536870935, 0, -1048552, 536870935, 0, -1048551, 536870935, 0, -917525, 536870935, 0, -917524, 536870935, 0, -917523, 536870935, 0, -917522, 536870935, 0, -917521, 536870935, 0, -917520, 536870935, 0, -917519, 536870935, 0, -917518, 536870935, 0, -917517, 536870935, 0, -917516, 2, 0, -983023, 2, 0, -983022, 536870935, 0, -983021, 536870935, 0, -983020, 536870935, 0, -983019, 536870935, 0, -983018, 536870935, 0, -983017, 536870935, 0, -983016, 536870935, 0, -983015, 536870935, 0, -851989, 536870935, 0, -851988, 536870935, 0, -851987, 536870935, 0, -851986, 536870935, 0, -851985, 536870935, 0, -851984, 536870935, 0, -851983, 536870935, 0, -851982, 536870935, 0, -851981, 536870935, 0, -851980, 2, 0, -917487, 2, 0, -917486, 536870935, 0, -917485, 536870935, 0, -917484, 536870935, 0, -917483, 536870935, 0, -917482, 536870935, 0, -917481, 536870935, 0, -917480, 536870935, 0, -917479, 536870935, 0, -786453, 536870935, 0, -786452, 536870935, 0, -786451, 536870935, 0, -786450, 536870935, 0, -786449, 536870935, 0, -786448, 536870935, 0, -786447, 536870935, 0, -786446, 536870935, 0, -786445, 536870935, 0, -786444, 2, 0, -851951, 2, 0, -851950, 536870935, 0, -851949, 536870935, 0, -851948, 536870935, 0, -851947, 536870935, 0, -851946, 536870935, 0, -851945, 536870935, 0, -851944, 536870935, 0, -851943, 536870935, 0, -720917, 536870935, 0, -720916, 536870935, 0, -720915, 536870935, 0, -720914, 536870935, 0, -720913, 536870935, 0, -720912, 536870935, 0, -720911, 536870935, 0, -720910, 536870935, 0, -720909, 536870935, 0, -720908, 2, 0, -786415, 2, 0, -786414, 536870935, 0, -786413, 536870935, 0, -786412, 536870935, 0, -786411, 536870935, 0, -786410, 536870935, 0, -786409, 536870935, 0, -786408, 536870935, 0, -786407, 536870935, 0, -655381, 536870935, 0, -655380, 536870935, 0, -655379, 536870935, 0, -655378, 536870935, 0, -655377, 536870935, 0, -655376, 536870935, 0, -655375, 536870935, 0, -655374, 536870935, 0, -655373, 536870935, 0, -655372, 2, 0, -720879, 2, 0, -720878, 536870935, 0, -720877, 536870935, 0, -720876, 536870935, 0, -720875, 536870935, 0, -720874, 536870935, 0, -720873, 536870935, 0, -720872, 536870935, 0, -720871, 536870935, 0, -589845, 536870935, 0, -589844, 536870935, 0, -589843, 536870935, 0, -589842, 536870935, 0, -589841, 536870935, 0, -589840, 536870935, 0, -589839, 536870935, 0, -589838, 536870935, 0, -589837, 536870935, 0, -589836, 2, 0, -655343, 2, 0, -655342, 536870935, 0, -655341, 536870935, 0, -655340, 536870935, 0, -655339, 536870935, 0, -655338, 536870935, 0, -655337, 536870935, 0, -655336, 536870935, 0, -655335, 536870935, 0, -524309, 536870935, 0, -524308, 536870935, 0, -524307, 536870935, 0, -524306, 536870935, 0, -524305, 536870935, 0, -524304, 536870935, 0, -524303, 536870935, 0, -524302, 536870935, 0, -524301, 536870935, 0, -524300, 2, 0, -589807, 2, 0, -589806, 536870935, 0, -589805, 536870935, 0, -589804, 536870935, 0, -589803, 536870935, 0, -589802, 536870935, 0, -589801, 536870935, 0, -589800, 536870935, 0, -589799, 536870935, 0, -458773, 536870935, 0, -458772, 536870935, 0, -458771, 536870935, 0, -458770, 536870935, 0, -458769, 536870935, 0, -458768, 536870935, 0, -458767, 536870935, 0, -458766, 536870935, 0, -458765, 536870935, 0, -458764, 2, 0, -524271, 2, 0, -524270, 536870935, 0, -524269, 536870935, 0, -524268, 536870935, 0, -524267, 536870935, 0, -524266, 536870935, 0, -524265, 536870935, 0, -524264, 536870935, 0, -524263, 536870935, 0, -393237, 536870935, 0, -393236, 536870935, 0, -393235, 536870935, 0, -393234, 536870935, 0, -393233, 536870935, 0, -393232, 536870935, 0, -393231, 536870935, 0, -393230, 536870935, 0, -393229, 536870935, 0, -393228, 2, 0, -458735, 2, 0, -458734, 536870935, 0, -458733, 536870935, 0, -458732, 536870935, 0, -458731, 536870935, 0, -458730, 536870935, 0, -458729, 536870935, 0, -458728, 536870935, 0, -458727, 536870935, 0, -327701, 536870935, 0, -327700, 536870935, 0, -327699, 536870935, 0, -327698, 536870935, 0, -327697, 536870935, 0, -327696, 536870935, 0, -327695, 536870935, 0, -327694, 536870935, 0, -327693, 536870935, 0, -327692, 2, 0, -393199, 2, 0, -393198, 536870935, 0, -393197, 536870935, 0, -393196, 536870935, 0, -393195, 536870935, 0, -393194, 536870935, 0, -393193, 536870935, 0, -393192, 536870935, 0, -393191, 536870935, 0, -262165, 536870935, 0, -262164, 536870935, 0, -262163, 536870935, 0, -262162, 536870935, 0, -262161, 536870935, 0, -262160, 536870935, 0, -262159, 536870935, 0, -262158, 536870935, 0, -262157, 536870935, 0, -262156, 2, 0, -327663, 2, 0, -327662, 536870935, 0, -327661, 536870935, 0, -327660, 536870935, 0, -327659, 536870935, 0, -327658, 536870935, 0, -327657, 536870935, 0, -327656, 536870935, 0, -327655, 536870935, 0, -196629, 536870935, 0, -196628, 536870935, 0, -196627, 536870935, 0, -196626, 536870935, 0, -196625, 536870935, 0, -196624, 536870935, 0, -196623, 536870935, 0, -196622, 536870935, 0, -196621, 536870935, 0, -196620, 2, 0, -262127, 2, 0, -262126, 536870935, 0, -262125, 536870935, 0, -262124, 536870935, 0, -262123, 536870935, 0, -262122, 536870935, 0, -262121, 536870935, 0, -262120, 536870935, 0, -262119, 536870935, 0, -131093, 536870935, 0, -131092, 536870935, 0, -131091, 536870935, 0, -131090, 536870935, 0, -131089, 536870935, 0, -131088, 536870935, 0, -131087, 536870935, 0, -131086, 536870935, 0, -131085, 536870935, 0, -131084, 2, 0, -196591, 2, 0, -196590, 536870935, 0, -196589, 536870935, 0, -196588, 536870935, 0, -196587, 536870935, 0, -196586, 536870935, 0, -196585, 536870935, 0, -196584, 536870935, 0, -196583, 536870935, 0, -65557, 536870935, 0, -65556, 536870935, 0, -65555, 536870935, 0, -65554, 536870935, 0, -65553, 536870935, 0, -65552, 536870935, 0, -65551, 536870935, 0, -65550, 536870935, 0, -65549, 536870935, 0, -65548, 2, 0, -131055, 2, 0, -131054, 536870935, 0, -131053, 536870935, 0, -131052, 536870935, 0, -131051, 536870935, 0, -131050, 536870935, 0, -131049, 536870935, 0, -131048, 536870935, 0, -131047, 536870935, 0, -21, 536870935, 0, -20, 536870935, 0, -19, 536870935, 0, -18, 536870935, 0, -17, 536870935, 0, -16, 536870935, 0, -15, 536870935, 0, -14, 536870935, 0, -13, 536870935, 0, -12, 2, 0, -65519, 2, 0, -65518, 536870935, 0, -65517, 536870935, 0, -65516, 536870935, 0, -65515, 536870935, 0, -65514, 536870935, 0, -65513, 536870935, 0, -65512, 536870935, 0, -65511, 536870935, 0, 65515, 536870935, 0, 65516, 536870935, 0, 65517, 536870935, 0, 65518, 536870935, 0, 65519, 536870935, 0, 65520, 536870935, 0, 65521, 536870935, 0, 65522, 536870935, 0, 65523, 536870935, 0, 65524, 2, 0, 17, 2, 0, 18, 536870935, 0, 19, 536870935, 0, 20, 536870935, 0, 21, 536870935, 0, 22, 536870935, 0, 23, 536870935, 0, 24, 536870935, 0, 25, 536870935, 0, 131051, 536870935, 0, 131052, 536870935, 0, 131053, 536870935, 0, 131054, 536870935, 0, 131055, 536870935, 0, 131056, 536870935, 0, 131057, 536870935, 0, 131058, 536870935, 0, 131059, 536870935, 0, 131060, 2, 0, 65553, 2, 0, 65554, 536870935, 0, 65555, 536870935, 0, 65556, 536870935, 0, 65557, 536870935, 0, 65558, 536870935, 0, 65559, 536870935, 0, 65560, 536870935, 0, 65561, 536870935, 0, 196587, 536870935, 0, 196588, 536870935, 0, 196589, 536870935, 0, 196590, 536870935, 0, 196591, 536870935, 0, 196592, 536870935, 0, 196593, 536870935, 0, 196594, 536870935, 0, 196595, 536870935, 0, 196596, 2, 0, 131089, 2, 0, 131090, 536870935, 0, 131091, 536870935, 0, 131092, 536870935, 0, 131093, 536870935, 0, 131094, 536870935, 0, 131095, 536870935, 0, 131096, 536870935, 0, 131097, 536870935, 0, 262123, 536870935, 0, 262124, 536870935, 0, 262125, 536870935, 0, 262126, 536870935, 0, 262127, 536870935, 0, 262128, 536870935, 0, 262129, 536870935, 0, 262130, 536870935, 0, 262131, 536870935, 0, 262132, 2, 0, 196625, 2, 0, 196626, 536870935, 0, 196627, 536870935, 0, 196628, 536870935, 0, 196629, 536870935, 0, 196630, 536870935, 0, 196631, 536870935, 0, 196632, 536870935, 0, 196633, 536870935, 0, 327659, 536870935, 0, 327660, 536870935, 0, 327661, 536870935, 0, 327662, 536870935, 0, 327663, 536870935, 0, 327664, 536870935, 0, 327665, 536870935, 0, 327666, 536870935, 0, 327667, 536870935, 0, 327668, 1073741825, 0, 262161, 2, 0, 262162, 536870935, 0, 262163, 536870935, 0, 262164, 536870935, 0, 262165, 536870935, 0, 262166, 536870935, 0, 262167, 536870935, 0, 262168, 536870935, 0, 262169, 536870935, 0, 393195, 536870935, 0, 393196, 536870935, 0, 393197, 536870935, 0, 393198, 536870935, 0, 393199, 536870935, 0, 393200, 536870935, 0, 393201, 536870935, 0, 393202, 536870935, 0, 393203, 536870935, 0, 327697, 2, 0, 327698, 536870935, 0, 327699, 536870935, 0, 327700, 536870935, 0, 327701, 536870935, 0, 327702, 536870935, 0, 327703, 536870935, 0, 327704, 536870935, 0, 327705, 536870935, 0, 458731, 536870935, 0, 458732, 536870935, 0, 458733, 536870935, 0, 458734, 536870935, 0, 458735, 536870935, 0, 458736, 536870935, 0, 458737, 536870935, 0, 458738, 536870935, 0, 458739, 536870935, 0, 393233, 2, 0, 393234, 536870935, 0, 393235, 536870935, 0, 393236, 536870935, 0, 393237, 536870935, 0, 393238, 536870935, 0, 393239, 536870935, 0, 393240, 536870935, 0, 393241, 536870935, 0, 524267, 536870935, 0, 524268, 536870935, 0, 524269, 536870935, 0, 524270, 536870935, 0, 524271, 536870935, 0, 524272, 536870935, 0, 524273, 536870935, 0, 524274, 536870935, 0, 524275, 536870935, 0, 458769, 2, 0, 458770, 536870935, 0, 458771, 536870935, 0, 458772, 536870935, 0, 458773, 536870935, 0, 458774, 536870935, 0, 458775, 536870935, 0, 458776, 536870935, 0, 458777, 536870935, 0, 589803, 536870935, 0, 589804, 536870935, 0, 589805, 536870935, 0, 589806, 536870935, 0, 589807, 536870935, 0, 589808, 536870935, 0, 589809, 536870935, 0, 589810, 536870935, 0, 589811, 536870935, 0, 524305, 2, 0, 524306, 536870935, 0, 524307, 536870935, 0, 524308, 536870935, 0, 524309, 536870935, 0, 524310, 536870935, 0, 524311, 536870935, 0, 524312, 536870935, 0, 524313, 536870935, 0, 655339, 536870935, 0, 655340, 536870935, 0, 655341, 536870935, 0, 655342, 536870935, 0, 655343, 536870935, 0, 655344, 536870935, 0, 655345, 536870935, 0, 655346, 536870935, 0, 655347, 536870935, 0, 655348, 536870936, 0, 655349, 536870936, 0, 655350, 536870936, 0, 655351, 536870936, 0, 589841, 2, 0, 589842, 536870935, 0, 589843, 536870935, 0, 589844, 536870935, 0, 589845, 536870935, 0, 589846, 536870935, 0, 589847, 536870935, 0, 589848, 536870935, 0, 589849, 536870935, 0, 720875, 536870935, 0, 720876, 536870935, 0, 720877, 536870935, 0, 720878, 536870935, 0, 720879, 536870935, 0, 720880, 536870935, 0, 720881, 536870935, 0, 720882, 536870935, 0, 720883, 536870935, 0, 720884, 536870913, 0, 720885, 0, 0, 720886, 0, 0, 720887, 0, 0, 655377, 2, 0, 655378, 536870935, 0, 655379, 536870935, 0, 655380, 536870935, 0, 655381, 536870935, 0, 655382, 536870935, 0, 655383, 536870935, 0, 655384, 536870935, 0, 655385, 536870935, 0, 786411, 536870935, 0, 786412, 536870935, 0, 786413, 536870935, 0, 786414, 536870935, 0, 786415, 536870935, 0, 786416, 536870935, 0, 786417, 536870935, 0, 786418, 536870935, 0, 786419, 536870935, 0, 786420, 2, 0, 720913, 2, 0, 720914, 536870935, 0, 720915, 536870935, 0, 720916, 536870935, 0, 720917, 536870935, 0, 720918, 536870935, 0, 720919, 536870935, 0, 720920, 536870935, 0, 720921, 536870935, 0, 851947, 536870935, 0, 851948, 536870935, 0, 851949, 536870935, 0, 851950, 536870935, 0, 851951, 536870935, 0, 851952, 536870935, 0, 851953, 536870935, 0, 851954, 536870935, 0, 851955, 536870935, 0, 851956, 2, 0, 786449, 2, 0, 786450, 536870935, 0, 786451, 536870935, 0, 786452, 536870935, 0, 786453, 536870935, 0, 786454, 536870935, 0, 786455, 536870935, 0, 786456, 536870935, 0, 786457, 536870935, 0, 917483, 536870935, 0, 917484, 536870935, 0, 917485, 536870935, 0, 917486, 536870935, 0, 917487, 536870935, 0, 917488, 536870935, 0, 917489, 536870935, 0, 917490, 536870935, 0, 917491, 536870935, 0, 917492, 2, 0, 851985, 2, 0, 851986, 536870935, 0, 851987, 536870935, 0, 851988, 536870935, 0, 851989, 536870935, 0, 851990, 536870935, 0, 851991, 536870935, 0, 851992, 536870935, 0, 851993, 536870935, 0, 983019, 536870935, 0, 983020, 536870935, 0, 983021, 536870935, 0, 983022, 536870935, 0, 983023, 536870935, 0, 983024, 536870935, 0, 983025, 536870935, 0, 983026, 536870935, 0, 983027, 536870935, 0, 983028, 2, 0, 917521, 2, 0, 917522, 536870935, 0, 917523, 536870935, 0, 917524, 536870935, 0, 917525, 536870935, 0, 917526, 536870935, 0, 917527, 536870935, 0, 917528, 536870935, 0, 917529, 536870935, 0, 1048555, 536870935, 0, 1048556, 536870935, 0, 1048557, 536870935, 0, 1048558, 536870935, 0, 1048559, 536870935, 0, 1048560, 536870935, 0, 1048561, 536870935, 0, 1048562, 536870935, 0, 1048563, 536870935, 0, 1048564, 2, 0, 983057, 2, 0, 983058, 536870935, 0, 983059, 536870935, 0, 983060, 536870935, 0, 983061, 536870935, 0, 983062, 536870935, 0, 983063, 536870935, 0, 983064, 536870935, 0, 983065, 536870935, 0, 1114091, 536870935, 0, 1114092, 536870935, 0, 1114093, 536870935, 0, 1114094, 536870935, 0, 1114095, 536870935, 0, 1114096, 536870935, 0, 1114097, 536870935, 0, 1114098, 536870935, 0, 1114099, 536870935, 0, 1114100, 2, 0, 1048593, 2, 0, 1048594, 536870935, 0, 1048595, 536870935, 0, 1048596, 536870935, 0, 1048597, 536870935, 0, 1048598, 536870935, 0, 1048599, 536870935, 0, 1048600, 536870935, 0, 1048601, 536870935, 0, 1179627, 536870935, 0, 1179628, 536870935, 0, 1179629, 536870935, 0, 1179630, 536870935, 0, 1179631, 536870935, 0, 1179632, 536870935, 0, 1179633, 536870935, 0, 1179634, 536870935, 0, 1179635, 536870935, 0, 1179636, 2, 0, 1114129, 2, 0, 1114130, 536870935, 0, 1114131, 536870935, 0, 1114132, 536870935, 0, 1114133, 536870935, 0, 1114134, 536870935, 0, 1114135, 536870935, 0, 1114136, 536870935, 0, 1114137, 536870935, 0, 1245163, 536870935, 0, 1245164, 536870935, 0, 1245165, 536870935, 0, 1245166, 536870935, 0, 1245167, 536870935, 0, 1245168, 536870935, 0, 1245169, 536870935, 0, 1245170, 536870935, 0, 1245171, 536870935, 0, 1245172, 2, 0, 1179665, 2, 0, 1179666, 536870935, 0, 1179667, 536870935, 0, 1179668, 536870935, 0, 1179669, 536870935, 0, 1179670, 536870935, 0, 1179671, 536870935, 0, 1179672, 536870935, 0, 1179673, 536870935, 0, 1310699, 536870935, 0, 1310700, 536870935, 0, 1310701, 536870935, 0, 1310702, 536870935, 0, 1310703, 536870935, 0, 1310704, 536870935, 0, 1310705, 536870935, 0, 1310706, 536870935, 0, 1310707, 536870935, 0, 1310708, 536870913, 0, 1310709, 0, 0, 1310710, 0, 0, 1310711, 0, 0, 1310712, 0, 0, 1310713, 0, 0, 1310714, 0, 0, 1310715, 0, 0, 1310716, 0, 0, 1310717, 0, 0, 1310718, 0, 0, 1310719, 0, 0, 1245184, 0, 0, 1245185, 0, 0, 1245186, 0, 0, 1245187, 0, 0, 1245188, 0, 0, 1245189, 0, 0, 1245190, 0, 0, 1245191, 0, 0, 1245192, 0, 0, 1245193, 0, 0, 1245194, 0, 0, 1245195, 0, 0, 1245196, 0, 0, 1245197, 0, 0, 1245198, 0, 0, 1245199, 0, 0, 1245200, 0, 0, 1245201, 1, 0, 1245202, 536870935, 0, 1245203, 536870935, 0, 1245204, 536870935, 0, 1245205, 536870935, 0, 1245206, 536870935, 0, 1245207, 536870935, 0, 1245208, 536870935, 0, 1245209, 536870935, 0, 1376235, 536870935, 0, 1376236, 536870935, 0, 1376237, 536870935, 0, 1376238, 536870935, 0, 1376239, 536870935, 0, 1376240, 536870935, 0, 1376241, 536870935, 0, 1376242, 536870935, 0, 1376243, 536870935, 0, 1376244, 536870935, 0, 1376245, 536870935, 0, 1376246, 536870935, 0, 1376247, 536870935, 0, 1376248, 536870935, 0, 1376249, 536870935, 0, 1376250, 536870935, 0, 1376251, 536870935, 0, 1376252, 536870935, 0, 1376253, 536870935, 0, 1376254, 536870935, 0, 1376255, 536870935, 0, 1310720, 536870935, 0, 1310721, 536870935, 0, 1310722, 536870935, 0, 1310723, 536870935, 0, 1310724, 536870935, 0, 1310725, 536870935, 0, 1310726, 536870935, 0, 1310727, 536870935, 0, 1310728, 536870935, 0, 1310729, 536870935, 0, 1310730, 536870935, 0, 1310731, 536870935, 0, 1310732, 536870935, 0, 1310733, 536870935, 0, 1310734, 536870935, 0, 1310735, 536870935, 0, 1310736, 536870935, 0, 1310737, 536870935, 0, 1310738, 536870935, 0, 1310739, 536870935, 0, 1310740, 536870935, 0, 1310741, 536870935, 0, 1310742, 536870935, 0, 1310743, 536870935, 0, 1310744, 536870935, 0, 1310745, 536870935, 0, 1441771, 536870935, 0, 1441772, 536870935, 0, 1441773, 536870935, 0, 1441774, 536870935, 0, 1441775, 536870935, 0, 1441776, 536870935, 0, 1441777, 536870935, 0, 1441778, 536870935, 0, 1441779, 536870935, 0, 1441780, 536870935, 0, 1441781, 536870935, 0, 1441782, 536870935, 0, 1441783, 536870935, 0, 1441784, 536870935, 0, 1441785, 536870935, 0, 1441786, 536870935, 0, 1441787, 536870935, 0, 1441788, 536870935, 0, 1441789, 536870935, 0, 1441790, 536870935, 0, 1441791, 536870935, 0, 1376256, 536870935, 0, 1376257, 536870935, 0, 1376258, 536870935, 0, 1376259, 536870935, 0, 1376260, 536870935, 0, 1376261, 536870935, 0, 1376262, 536870935, 0, 1376263, 536870935, 0, 1376264, 536870935, 0, 1376265, 536870935, 0, 1376266, 536870935, 0, 1376267, 536870935, 0, 1376268, 536870935, 0, 1376269, 536870935, 0, 1376270, 536870935, 0, 1376271, 536870935, 0, 1376272, 536870935, 0, 1376273, 536870935, 0, 1376274, 536870935, 0, 1376275, 536870935, 0, 1376276, 536870935, 0, 1376277, 536870935, 0, 1376278, 536870935, 0, 1376279, 536870935, 0, 1376280, 536870935, 0, 1376281, 536870935, 0, 1507307, 536870935, 0, 1507308, 536870935, 0, 1507309, 536870935, 0, 1507310, 536870935, 0, 1507311, 536870935, 0, 1507312, 536870935, 0, 1507313, 536870935, 0, 1507314, 536870935, 0, 1507315, 536870935, 0, 1507316, 536870935, 0, 1507317, 536870935, 0, 1507318, 536870935, 0, 1507319, 536870935, 0, 1507320, 536870935, 0, 1507321, 536870935, 0, 1507322, 536870935, 0, 1507323, 536870935, 0, 1507324, 536870935, 0, 1507325, 536870935, 0, 1507326, 536870935, 0, 1507327, 536870935, 0, 1441792, 536870935, 0, 1441793, 536870935, 0, 1441794, 536870935, 0, 1441795, 536870935, 0, 1441796, 536870935, 0, 1441797, 536870935, 0, 1441798, 536870935, 0, 1441799, 536870935, 0, 1441800, 536870935, 0, 1441801, 536870935, 0, 1441802, 536870935, 0, 1441803, 536870935, 0, 1441804, 536870935, 0, 1441805, 536870935, 0, 1441806, 536870935, 0, 1441807, 536870935, 0, 1441808, 536870935, 0, 1441809, 536870935, 0, 1441810, 536870935, 0, 1441811, 536870935, 0, 1441812, 536870935, 0, 1441813, 536870935, 0, 1441814, 536870935, 0, 1441815, 536870935, 0, 1441816, 536870935, 0, 1441817, 536870935, 0, 1572843, 536870935, 0, 1572844, 536870935, 0, 1572845, 536870935, 0, 1572846, 536870935, 0, 1572847, 536870935, 0, 1572848, 536870935, 0, 1572849, 536870935, 0, 1572850, 536870935, 0, 1572851, 536870935, 0, 1572852, 536870935, 0, 1572853, 536870935, 0, 1572854, 536870935, 0, 1572855, 536870935, 0, 1572856, 536870935, 0, 1572857, 536870935, 0, 1572858, 536870935, 0, 1572859, 536870935, 0, 1572860, 536870935, 0, 1572861, 536870935, 0, 1572862, 536870935, 0, 1572863, 536870935, 0, 1507328, 536870935, 0, 1507329, 536870935, 0, 1507330, 536870935, 0, 1507331, 536870935, 0, 1507332, 536870935, 0, 1507333, 536870935, 0, 1507334, 536870935, 0, 1507335, 536870935, 0, 1507336, 536870935, 0, 1507337, 536870935, 0, 1507338, 536870935, 0, 1507339, 536870935, 0, 1507340, 536870935, 0, 1507341, 536870935, 0, 1507342, 536870935, 0, 1507343, 536870935, 0, 1507344, 536870935, 0, 1507345, 536870935, 0, 1507346, 536870935, 0, 1507347, 536870935, 0, 1507348, 536870935, 0, 1507349, 536870935, 0, 1507350, 536870935, 0, 1507351, 536870935, 0, 1507352, 536870935, 0, 1507353, 536870935, 0, 1638379, 536870935, 0, 1638380, 536870935, 0, 1638381, 536870935, 0, 1638382, 536870935, 0, 1638383, 536870935, 0, 1638384, 536870935, 0, 1638385, 536870935, 0, 1638386, 536870935, 0, 1638387, 536870935, 0, 1638388, 536870935, 0, 1638389, 536870935, 0, 1638390, 536870935, 0, 1638391, 536870935, 0, 1638392, 536870935, 0, 1638393, 536870935, 0, 1638394, 536870935, 0, 1638395, 536870935, 0, 1638396, 536870935, 0, 1638397, 536870935, 0, 1638398, 536870935, 0, 1638399, 536870935, 0, 1572864, 536870935, 0, 1572865, 536870935, 0, 1572866, 536870935, 0, 1572867, 536870935, 0, 1572868, 536870935, 0, 1572869, 536870935, 0, 1572870, 536870935, 0, 1572871, 536870935, 0, 1572872, 536870935, 0, 1572873, 536870935, 0, 1572874, 536870935, 0, 1572875, 536870935, 0, 1572876, 536870935, 0, 1572877, 536870935, 0, 1572878, 536870935, 0, 1572879, 536870935, 0, 1572880, 536870935, 0, 1572881, 536870935, 0, 1572882, 536870935, 0, 1572883, 536870935, 0, 1572884, 536870935, 0, 1572885, 536870935, 0, 1572886, 536870935, 0, 1572887, 536870935, 0, 1572888, 536870935, 0, 1572889, 536870935, 0, 1703915, 536870935, 0, 1703916, 536870935, 0, 1703917, 536870935, 0, 1703918, 536870935, 0, 1703919, 536870935, 0, 1703920, 536870935, 0, 1703921, 536870935, 0, 1703922, 536870935, 0, 1703923, 536870935, 0, 1703924, 536870935, 0, 1703925, 536870935, 0, 1703926, 536870935, 0, 1703927, 536870935, 0, 1703928, 536870935, 0, 1703929, 536870935, 0, 1703930, 536870935, 0, 1703931, 536870935, 0, 1703932, 536870935, 0, 1703933, 536870935, 0, 1703934, 536870935, 0, 1703935, 536870935, 0, 1638400, 536870935, 0, 1638401, 536870935, 0, 1638402, 536870935, 0, 1638403, 536870935, 0, 1638404, 536870935, 0, 1638405, 536870935, 0, 1638406, 536870935, 0, 1638407, 536870935, 0, 1638408, 536870935, 0, 1638409, 536870935, 0, 1638410, 536870935, 0, 1638411, 536870935, 0, 1638412, 536870935, 0, 1638413, 536870935, 0, 1638414, 536870935, 0, 1638415, 536870935, 0, 1638416, 536870935, 0, 1638417, 536870935, 0, 1638418, 536870935, 0, 1638419, 536870935, 0, 1638420, 536870935, 0, 1638421, 536870935, 0, 1638422, 536870935, 0, 1638423, 536870935, 0, 1638424, 536870935, 0, 1638425, 536870935, 0, 1769451, 536870935, 0, 1769452, 536870935, 0, 1769453, 536870935, 0, 1769454, 536870935, 0, 1769455, 536870935, 0, 1769456, 536870935, 0, 1769457, 536870935, 0, 1769458, 536870935, 0, 1769459, 536870935, 0, 1769460, 536870935, 0, 1769461, 536870935, 0, 1769462, 536870935, 0, 1769463, 536870935, 0, 1769464, 536870935, 0, 1769465, 536870935, 0, 1769466, 536870935, 0, 1769467, 536870935, 0, 1769468, 536870935, 0, 1769469, 536870935, 0, 1769470, 536870935, 0, 1769471, 536870935, 0, 1703936, 536870935, 0, 1703937, 536870935, 0, 1703938, 536870935, 0, 1703939, 536870935, 0, 1703940, 536870935, 0, 1703941, 536870935, 0, 1703942, 536870935, 0, 1703943, 536870935, 0, 1703944, 536870935, 0, 1703945, 536870935, 0, 1703946, 536870935, 0, 1703947, 536870935, 0, 1703948, 536870935, 0, 1703949, 536870935, 0, 1703950, 536870935, 0, 1703951, 536870935, 0, 1703952, 536870935, 0, 1703953, 536870935, 0, 1703954, 536870935, 0, 1703955, 536870935, 0, 1703956, 536870935, 0, 1703957, 536870935, 0, 1703958, 536870935, 0, 1703959, 536870935, 0, 1703960, 536870935, 0, 1703961, 536870935, 0 )

[node name="LadderGroup" type="Node2D" parent="tilemap"]

[node name="TestLadder" parent="tilemap/LadderGroup" instance=ExtResource( 2 )]
position = Vector2( 144, -512 )

[node name="Sprite" parent="tilemap/LadderGroup/TestLadder/KinematicBody2D" index="0"]
region_rect = Rect2( 0, 0, 32, 128 )

[node name="ladder" parent="tilemap/LadderGroup/TestLadder/KinematicBody2D" index="1"]
scale = Vector2( 1, 4 )

[node name="ClimbableGroup" type="Node2D" parent="tilemap"]

[node name="ClimbableBlock" parent="tilemap/ClimbableGroup" instance=ExtResource( 3 )]
position = Vector2( -240, 336 )
physics_material_override = SubResource( 1 )

[node name="Sprite" parent="tilemap/ClimbableGroup/ClimbableBlock" index="0"]
flip_h = false

[node name="ClimbableBlock1" parent="tilemap/ClimbableGroup" instance=ExtResource( 3 )]
position = Vector2( 240, 336 )
physics_material_override = SubResource( 2 )

[node name="Sprite" parent="tilemap/ClimbableGroup/ClimbableBlock1" index="0"]
flip_h = false

[node name="One-WayPlatformGroup" type="Node2D" parent="tilemap"]

[node name="One-WayPlatform" parent="tilemap/One-WayPlatformGroup" instance=ExtResource( 4 )]
position = Vector2( 384, 144 )

[node name="Sprite" parent="tilemap/One-WayPlatformGroup/One-WayPlatform/KinematicBody2D" index="0"]
region_enabled = true
region_rect = Rect2( 0, 0, 128, 32 )

[node name="oneway" parent="tilemap/One-WayPlatformGroup/One-WayPlatform/KinematicBody2D" index="1"]
scale = Vector2( 4, 1 )

[node name="One-WayPlatform1" parent="tilemap/One-WayPlatformGroup" instance=ExtResource( 4 )]
position = Vector2( 464, 144 )

[node name="Sprite" parent="tilemap/One-WayPlatformGroup/One-WayPlatform1/KinematicBody2D" index="0"]
texture = ExtResource( 5 )
offset = Vector2( 3, 0 )

[node name="One-WayPlatform2" parent="tilemap/One-WayPlatformGroup" instance=ExtResource( 4 )]
position = Vector2( 304, 144 )

[node name="Sprite" parent="tilemap/One-WayPlatformGroup/One-WayPlatform2/KinematicBody2D" index="0"]
texture = ExtResource( 5 )
offset = Vector2( -3, 0 )
flip_h = true

[node name="PlatformGroup" type="Node2D" parent="tilemap"]

[node name="StaticBody2D" type="StaticBody2D" parent="tilemap/PlatformGroup"]
position = Vector2( -16, 336 )
collision_layer = 524288

[node name="Sprite" type="Sprite" parent="tilemap/PlatformGroup/StaticBody2D"]
texture = ExtResource( 6 )
region_enabled = true
region_rect = Rect2( 0, 0, 480, 32 )

[node name="CollisionShape2D" type="CollisionShape2D" parent="tilemap/PlatformGroup/StaticBody2D"]
shape = SubResource( 3 )

[node name="SwitchGroup" type="Node2D" parent="tilemap"]

[node name="PullSwitch" parent="tilemap/SwitchGroup" instance=ExtResource( 7 )]
position = Vector2( 144, 64 )
target_nodes = [ "PlatformGroup/StaticBody2D", "ClimbableGroup/ClimbableBlock1" ]

[node name="HangableGroup" type="Node2D" parent="tilemap"]

[node name="HangBlock" parent="tilemap/HangableGroup" instance=ExtResource( 8 )]
position = Vector2( 336, 176 )

[node name="HangBlock1" parent="tilemap/HangableGroup" instance=ExtResource( 8 )]
position = Vector2( 368, 176 )

[node name="HangBlock2" parent="tilemap/HangableGroup" instance=ExtResource( 8 )]
position = Vector2( 400, 176 )

[node name="HangBlock3" parent="tilemap/HangableGroup" instance=ExtResource( 8 )]
position = Vector2( 432, 176 )

[node name="HangBlock4" parent="tilemap/HangableGroup" instance=ExtResource( 8 )]
position = Vector2( 464, 176 )

[node name="Sprite" parent="tilemap/HangableGroup/HangBlock4" index="0"]
texture = ExtResource( 9 )
flip_h = true

[node name="HangBlock5" parent="tilemap/HangableGroup" instance=ExtResource( 8 )]
position = Vector2( 304, 176 )

[node name="Sprite" parent="tilemap/HangableGroup/HangBlock5" index="0"]
texture = ExtResource( 9 )

[node name="SpikeGroup" type="Node2D" parent="tilemap"]

[node name="SpikeTile" parent="tilemap/SpikeGroup" instance=ExtResource( 10 )]
position = Vector2( -336, 592 )

[node name="SpikeTile1" parent="tilemap/SpikeGroup" instance=ExtResource( 10 )]
position = Vector2( -304, 592 )

[node name="SpikeTile2" parent="tilemap/SpikeGroup" instance=ExtResource( 10 )]
position = Vector2( -272, 592 )

[node name="SpikeTile3" parent="tilemap/SpikeGroup" instance=ExtResource( 10 )]
position = Vector2( -240, 592 )

[node name="SpikeTile4" parent="tilemap/SpikeGroup" instance=ExtResource( 10 )]
position = Vector2( -208, 592 )

[node name="SpikeTile5" parent="tilemap/SpikeGroup" instance=ExtResource( 10 )]
position = Vector2( -176, 592 )

[node name="SpikeTile6" parent="tilemap/SpikeGroup" instance=ExtResource( 10 )]
position = Vector2( -144, 592 )

[node name="SpikeTile7" parent="tilemap/SpikeGroup" instance=ExtResource( 10 )]
position = Vector2( -112, 592 )

[node name="SpikeTile8" parent="tilemap/SpikeGroup" instance=ExtResource( 10 )]
position = Vector2( -80, 592 )

[node name="SpikeTile9" parent="tilemap/SpikeGroup" instance=ExtResource( 10 )]
position = Vector2( -48, 592 )

[node name="SpikeTile10" parent="tilemap/SpikeGroup" instance=ExtResource( 10 )]
position = Vector2( -16, 592 )

[node name="SpikeTile11" parent="tilemap/SpikeGroup" instance=ExtResource( 10 )]
position = Vector2( 16, 592 )

[node name="SpikeTile12" parent="tilemap/SpikeGroup" instance=ExtResource( 10 )]
position = Vector2( 48, 592 )

[node name="SpikeTile13" parent="tilemap/SpikeGroup" instance=ExtResource( 10 )]
position = Vector2( 80, 592 )

[node name="SpikeTile14" parent="tilemap/SpikeGroup" instance=ExtResource( 10 )]
position = Vector2( 112, 592 )

[node name="SpikeTile15" parent="tilemap/SpikeGroup" instance=ExtResource( 10 )]
position = Vector2( 144, 592 )

[node name="SpikeTile16" parent="tilemap/SpikeGroup" instance=ExtResource( 10 )]
position = Vector2( 176, 592 )

[node name="SpikeTile17" parent="tilemap/SpikeGroup" instance=ExtResource( 10 )]
position = Vector2( 208, 592 )

[node name="SpikeTile18" parent="tilemap/SpikeGroup" instance=ExtResource( 10 )]
position = Vector2( 240, 592 )

[node name="SpikeTile19" parent="tilemap/SpikeGroup" instance=ExtResource( 10 )]
position = Vector2( 272, 592 )

[node name="SpikeTile20" parent="tilemap/SpikeGroup" instance=ExtResource( 10 )]
position = Vector2( 304, 592 )

[node name="SpikeTile21" parent="tilemap/SpikeGroup" instance=ExtResource( 10 )]
position = Vector2( 336, 592 )

[node name="SpikeTile22" parent="tilemap/SpikeGroup" instance=ExtResource( 10 )]
position = Vector2( 368, 592 )

[node name="SpikeTile23" parent="tilemap/SpikeGroup" instance=ExtResource( 10 )]
position = Vector2( 400, 592 )

[node name="SpikeTile24" parent="tilemap/SpikeGroup" instance=ExtResource( 10 )]
position = Vector2( 432, 592 )

[node name="SpikeTile25" parent="tilemap/SpikeGroup" instance=ExtResource( 10 )]
position = Vector2( 464, 592 )

[node name="SpikeTile26" parent="tilemap/SpikeGroup" instance=ExtResource( 10 )]
position = Vector2( 496, 592 )

[node name="SpikeTile27" parent="tilemap/SpikeGroup" instance=ExtResource( 10 )]
position = Vector2( 528, 592 )

[node name="TeleportGroup" type="Node2D" parent="tilemap"]

[node name="Teleport" parent="tilemap/TeleportGroup" instance=ExtResource( 11 )]
position = Vector2( -400, 240 )
target_level = "res://levels/springislandcastle/0-4.tscn"
teleport_to = Vector2( 716, -1392 )

[node name="teleport" parent="tilemap/TeleportGroup/Teleport" index="0"]
scale = Vector2( 1, 5 )

[node name="Teleport1" parent="tilemap/TeleportGroup" instance=ExtResource( 11 )]
position = Vector2( 144, -592 )
is_horizontal = false
target_level = "res://levels/springislandcastle/0-6.tscn"
teleport_to = Vector2( 240, 128 )

[node name="teleport" parent="tilemap/TeleportGroup/Teleport1" index="0"]
scale = Vector2( 3, 1 )

[node name="boundaries" type="Node2D" parent="tilemap"]

[node name="NW" type="Position2D" parent="tilemap/boundaries"]
position = Vector2( -390, -582 )

[node name="SE" type="Position2D" parent="tilemap/boundaries"]
position = Vector2( 586, 650 )

[node name="ParallaxBackground" parent="." instance=ExtResource( 12 )]

[editable path="tilemap/LadderGroup/TestLadder"]

[editable path="tilemap/ClimbableGroup/ClimbableBlock"]

[editable path="tilemap/ClimbableGroup/ClimbableBlock1"]

[editable path="tilemap/One-WayPlatformGroup/One-WayPlatform"]

[editable path="tilemap/One-WayPlatformGroup/One-WayPlatform1"]

[editable path="tilemap/One-WayPlatformGroup/One-WayPlatform2"]

[editable path="tilemap/HangableGroup/HangBlock4"]

[editable path="tilemap/HangableGroup/HangBlock5"]

[editable path="tilemap/TeleportGroup/Teleport"]

[editable path="tilemap/TeleportGroup/Teleport1"]
