[gd_scene load_steps=14 format=2]

[ext_resource path="res://scenes/springislandcastle/tileset.tres" type="TileSet" id=1]
[ext_resource path="res://scenes/springislandcastle/climbableblock.tscn" type="PackedScene" id=2]
[ext_resource path="res://scenes/dungeon/ladder/ladder.tscn" type="PackedScene" id=3]
[ext_resource path="res://scenes/dungeon/ladder/laddertop.tscn" type="PackedScene" id=4]
[ext_resource path="res://scenes/dungeon/onewayplatform.tscn" type="PackedScene" id=5]
[ext_resource path="res://scenes/dungeon/platforms/flooredge2.png" type="Texture" id=6]
[ext_resource path="res://scenes/common/hangable.tscn" type="PackedScene" id=7]
[ext_resource path="res://scenes/common/hangblockend.png" type="Texture" id=8]
[ext_resource path="res://scenes/common/breakables/pot.tscn" type="PackedScene" id=9]
[ext_resource path="res://scenes/common/damagables/flyingskull/flyingskull.tscn" type="PackedScene" id=10]
[ext_resource path="res://scenes/common/teleport.tscn" type="PackedScene" id=11]
[ext_resource path="res://scenes/springislandcastle/parallax.tscn" type="PackedScene" id=12]

[sub_resource type="PhysicsMaterial" id=1]
friction = 0.0

[node name="LVL_NOTITLE" type="Node2D"]
__meta__ = {
"__editor_plugin_screen__": "2D"
}

[node name="tilemap" type="TileMap" parent="."]
tile_set = ExtResource( 1 )
cell_size = Vector2( 32, 32 )
compatibility_mode = true
collision_layer = 524288
format = 1
tile_data = PoolIntArray( -3276817, 23, 0, -3276816, 23, 0, -3276815, 23, 0, -3276814, 23, 0, -3276813, 23, 0, -3276812, 23, 0, -3276811, 23, 0, -3276810, 23, 0, -3276809, 23, 0, -3276808, 23, 0, -3276807, 23, 0, -3276806, 23, 0, -3276805, 23, 0, -3276804, 23, 0, -3276803, 23, 0, -3276802, 23, 0, -3276801, 23, 0, -3342336, 23, 0, -3342335, 23, 0, -3342334, 23, 0, -3342333, 23, 0, -3342332, 23, 0, -3342331, 23, 0, -3342330, 23, 0, -3342329, 23, 0, -3342328, 23, 0, -3342327, 23, 0, -3342326, 23, 0, -3342325, 23, 0, -3342324, 23, 0, -3342323, 23, 0, -3342322, 23, 0, -3342321, 23, 0, -3342320, 23, 0, -3342319, 23, 0, -3342318, 23, 0, -3342317, 23, 0, -3342316, 23, 0, -3342315, 23, 0, -3342314, 23, 0, -3342313, 23, 0, -3342312, 23, 0, -3342311, 23, 0, -3342310, 23, 0, -3342309, 23, 0, -3342308, 23, 0, -3342307, 23, 0, -3342306, 23, 0, -3342305, 23, 0, -3342304, 23, 0, -3342303, 23, 0, -3342302, 23, 0, -3342301, 23, 0, -3342300, 23, 0, -3342299, 23, 0, -3342298, 23, 0, -3342297, 23, 0, -3211281, 23, 0, -3211280, 23, 0, -3211279, 23, 0, -3211278, 23, 0, -3211277, 23, 0, -3211276, 23, 0, -3211275, 23, 0, -3211274, 23, 0, -3211273, 23, 0, -3211272, 23, 0, -3211271, 23, 0, -3211270, 23, 0, -3211269, 23, 0, -3211268, 23, 0, -3211267, 23, 0, -3211266, 23, 0, -3211265, 23, 0, -3276800, 23, 0, -3276799, 23, 0, -3276798, 23, 0, -3276797, 23, 0, -3276796, 23, 0, -3276795, 23, 0, -3276794, 23, 0, -3276793, 23, 0, -3276792, 23, 0, -3276791, 23, 0, -3276790, 23, 0, -3276789, 23, 0, -3276788, 23, 0, -3276787, 23, 0, -3276786, 23, 0, -3276785, 23, 0, -3276784, 23, 0, -3276783, 23, 0, -3276782, 23, 0, -3276781, 23, 0, -3276780, 23, 0, -3276779, 23, 0, -3276778, 23, 0, -3276777, 23, 0, -3276776, 23, 0, -3276775, 23, 0, -3276774, 23, 0, -3276773, 23, 0, -3276772, 23, 0, -3276771, 23, 0, -3276770, 23, 0, -3276769, 23, 0, -3276768, 23, 0, -3276767, 23, 0, -3276766, 23, 0, -3276765, 23, 0, -3276764, 23, 0, -3276763, 23, 0, -3276762, 23, 0, -3276761, 23, 0, -3145745, 23, 0, -3145744, 23, 0, -3145743, 23, 0, -3145742, 23, 0, -3145741, 23, 0, -3145740, 23, 0, -3145739, 23, 0, -3145738, 23, 0, -3145737, 23, 0, -3145736, 23, 0, -3145735, 23, 0, -3145734, 23, 0, -3145733, 23, 0, -3145732, 23, 0, -3145731, 23, 0, -3145730, 23, 0, -3145729, 23, 0, -3211264, 23, 0, -3211263, 23, 0, -3211262, 23, 0, -3211261, 23, 0, -3211260, 23, 0, -3211259, 23, 0, -3211258, 23, 0, -3211257, 23, 0, -3211256, 23, 0, -3211255, 23, 0, -3211254, 23, 0, -3211253, 23, 0, -3211252, 23, 0, -3211251, 23, 0, -3211250, 23, 0, -3211249, 23, 0, -3211248, 23, 0, -3211247, 23, 0, -3211246, 23, 0, -3211245, 23, 0, -3211244, 23, 0, -3211243, 23, 0, -3211242, 23, 0, -3211241, 23, 0, -3211240, 23, 0, -3211239, 23, 0, -3211238, 23, 0, -3211237, 23, 0, -3211236, 23, 0, -3211235, 23, 0, -3211234, 23, 0, -3211233, 23, 0, -3211232, 23, 0, -3211231, 23, 0, -3211230, 23, 0, -3211229, 23, 0, -3211228, 23, 0, -3211227, 23, 0, -3211226, 23, 0, -3211225, 23, 0, -3080209, 23, 0, -3080208, 23, 0, -3080207, 23, 0, -3080206, 23, 0, -3080205, 23, 0, -3080204, 23, 0, -3080203, 23, 0, -3080202, 23, 0, -3080201, 23, 0, -3080200, 23, 0, -3080199, 23, 0, -3080198, 23, 0, -3080197, 23, 0, -3080196, 23, 0, -3080195, 23, 0, -3080194, 23, 0, -3080193, 23, 0, -3145728, 23, 0, -3145727, 23, 0, -3145726, 23, 0, -3145725, 23, 0, -3145724, 23, 0, -3145723, 23, 0, -3145722, 23, 0, -3145721, 23, 0, -3145720, 23, 0, -3145719, 23, 0, -3145718, 23, 0, -3145717, 23, 0, -3145716, 23, 0, -3145715, 23, 0, -3145714, 23, 0, -3145713, 23, 0, -3145712, 23, 0, -3145711, 23, 0, -3145710, 23, 0, -3145709, 23, 0, -3145708, 23, 0, -3145707, 23, 0, -3145706, 23, 0, -3145705, 23, 0, -3145704, 23, 0, -3145703, 23, 0, -3145702, 23, 0, -3145701, 23, 0, -3145700, 23, 0, -3145699, 23, 0, -3145698, 23, 0, -3145697, 23, 0, -3145696, 23, 0, -3145695, 23, 0, -3145694, 23, 0, -3145693, 23, 0, -3145692, 23, 0, -3145691, 23, 0, -3145690, 23, 0, -3145689, 23, 0, -3014673, 23, 0, -3014672, 23, 0, -3014671, 23, 0, -3014670, 23, 0, -3014669, 23, 0, -3014668, 23, 0, -3014667, 23, 0, -3014666, 23, 0, -3014665, 23, 0, -3014664, 23, 0, -3014663, 23, 0, -3014662, 23, 0, -3014661, 23, 0, -3014660, 23, 0, -3014659, 23, 0, -3014658, 23, 0, -3014657, 23, 0, -3080192, 23, 0, -3080191, 23, 0, -3080190, 23, 0, -3080189, 23, 0, -3080188, 23, 0, -3080187, 23, 0, -3080186, 23, 0, -3080185, 23, 0, -3080184, 23, 0, -3080183, 23, 0, -3080182, 23, 0, -3080181, 23, 0, -3080180, 23, 0, -3080179, 23, 0, -3080178, 23, 0, -3080177, 23, 0, -3080176, 23, 0, -3080175, 23, 0, -3080174, 23, 0, -3080173, 23, 0, -3080172, 23, 0, -3080171, 23, 0, -3080170, 23, 0, -3080169, 23, 0, -3080168, 23, 0, -3080167, 23, 0, -3080166, 23, 0, -3080165, 23, 0, -3080164, 23, 0, -3080163, 23, 0, -3080162, 23, 0, -3080161, 23, 0, -3080160, 23, 0, -3080159, 23, 0, -3080158, 23, 0, -3080157, 23, 0, -3080156, 23, 0, -3080155, 23, 0, -3080154, 23, 0, -3080153, 23, 0, -2949137, 23, 0, -2949136, 23, 0, -2949135, 23, 0, -2949134, 23, 0, -2949133, 23, 0, -2949132, 23, 0, -2949131, 23, 0, -2949130, 23, 0, -2949129, 23, 0, -2949128, 23, 0, -2949127, 23, 0, -2949126, 23, 0, -2949125, 23, 0, -2949124, 23, 0, -2949123, 23, 0, -2949122, 23, 0, -2949121, 23, 0, -3014656, 23, 0, -3014655, 23, 0, -3014654, 23, 0, -3014653, 23, 0, -3014652, 23, 0, -3014651, 23, 0, -3014650, 23, 0, -3014649, 23, 0, -3014648, 23, 0, -3014647, 23, 0, -3014646, 23, 0, -3014645, 23, 0, -3014644, 23, 0, -3014643, 23, 0, -3014642, 23, 0, -3014641, 23, 0, -3014640, 23, 0, -3014639, 23, 0, -3014638, 23, 0, -3014637, 23, 0, -3014636, 23, 0, -3014635, 23, 0, -3014634, 23, 0, -3014633, 23, 0, -3014632, 23, 0, -3014631, 23, 0, -3014630, 23, 0, -3014629, 23, 0, -3014628, 23, 0, -3014627, 23, 0, -3014626, 23, 0, -3014625, 23, 0, -3014624, 23, 0, -3014623, 23, 0, -3014622, 23, 0, -3014621, 23, 0, -3014620, 23, 0, -3014619, 23, 0, -3014618, 23, 0, -3014617, 23, 0, -2883601, 23, 0, -2883600, 23, 0, -2883599, 23, 0, -2883598, 23, 0, -2883597, 23, 0, -2883596, 23, 0, -2883595, 23, 0, -2883594, 23, 0, -2883593, 23, 0, -2883592, 23, 0, -2883591, 23, 0, -2883590, 23, 0, -2883589, 23, 0, -2883588, 23, 0, -2883587, 23, 0, -2883586, 23, 0, -2883585, 23, 0, -2949120, 23, 0, -2949119, 23, 0, -2949118, 23, 0, -2949117, 23, 0, -2949116, 23, 0, -2949115, 23, 0, -2949114, 23, 0, -2949113, 23, 0, -2949112, 23, 0, -2949111, 23, 0, -2949110, 23, 0, -2949109, 23, 0, -2949108, 23, 0, -2949107, 23, 0, -2949106, 23, 0, -2949105, 23, 0, -2949104, 23, 0, -2949103, 23, 0, -2949102, 23, 0, -2949101, 23, 0, -2949100, 23, 0, -2949099, 23, 0, -2949098, 23, 0, -2949097, 23, 0, -2949096, 23, 0, -2949095, 23, 0, -2949094, 23, 0, -2949093, 23, 0, -2949092, 23, 0, -2949091, 23, 0, -2949090, 23, 0, -2949089, 23, 0, -2949088, 23, 0, -2949087, 23, 0, -2949086, 23, 0, -2949085, 23, 0, -2949084, 23, 0, -2949083, 23, 0, -2949082, 23, 0, -2949081, 23, 0, -2818065, 23, 0, -2818064, 23, 0, -2818063, 23, 0, -2818062, 23, 0, -2818061, 23, 0, -2818060, 23, 0, -2818059, 23, 0, -2818058, 23, 0, -2818057, 23, 0, -2818056, 23, 0, -2818055, 23, 0, -2818054, 23, 0, -2818053, 23, 0, -2818052, 23, 0, -2818051, 23, 0, -2818050, 23, 0, -2818049, 23, 0, -2883584, 23, 0, -2883583, 23, 0, -2883582, 23, 0, -2883581, 23, 0, -2883580, 23, 0, -2883579, 23, 0, -2883578, 23, 0, -2883577, 23, 0, -2883576, 23, 0, -2883575, 23, 0, -2883574, 23, 0, -2883573, 23, 0, -2883572, 23, 0, -2883571, 23, 0, -2883570, 23, 0, -2883569, 23, 0, -2883568, 23, 0, -2883567, 23, 0, -2883566, 23, 0, -2883565, 23, 0, -2883564, 23, 0, -2883563, 23, 0, -2883562, 23, 0, -2883561, 23, 0, -2883560, 23, 0, -2883559, 23, 0, -2883558, 23, 0, -2883557, 23, 0, -2883556, 23, 0, -2883555, 23, 0, -2883554, 23, 0, -2883553, 23, 0, -2883552, 23, 0, -2883551, 23, 0, -2883550, 23, 0, -2883549, 23, 0, -2883548, 23, 0, -2883547, 23, 0, -2883546, 23, 0, -2883545, 23, 0, -2752529, 23, 0, -2752528, 23, 0, -2752527, 23, 0, -2752526, 23, 0, -2752525, 23, 0, -2752524, 23, 0, -2752523, 23, 0, -2752522, 23, 0, -2752521, 23, 0, -2752520, 23, 0, -2752519, 23, 0, -2752518, 23, 0, -2752517, 23, 0, -2752516, 23, 0, -2752515, 23, 0, -2752514, 23, 0, -2752513, 23, 0, -2818048, 23, 0, -2818047, 23, 0, -2818046, 23, 0, -2818045, 23, 0, -2818044, 23, 0, -2818043, 23, 0, -2818042, 23, 0, -2818041, 23, 0, -2818040, 23, 0, -2818039, 23, 0, -2818038, 23, 0, -2818037, 23, 0, -2818036, 23, 0, -2818035, 23, 0, -2818034, 23, 0, -2818033, 23, 0, -2818032, 23, 0, -2818031, 23, 0, -2818030, 23, 0, -2818029, 23, 0, -2818028, 23, 0, -2818027, 23, 0, -2818026, 23, 0, -2818025, 23, 0, -2818024, 23, 0, -2818023, 23, 0, -2818022, 23, 0, -2818021, 23, 0, -2818020, 23, 0, -2818019, 23, 0, -2818018, 23, 0, -2818017, 23, 0, -2818016, 23, 0, -2818015, 23, 0, -2818014, 23, 0, -2818013, 23, 0, -2818012, 23, 0, -2818011, 23, 0, -2818010, 23, 0, -2818009, 23, 0, -2686993, 23, 0, -2686992, 23, 0, -2686991, 23, 0, -2686990, 23, 0, -2686989, 23, 0, -2686988, 23, 0, -2686987, 23, 0, -2686986, 23, 0, -2686985, 23, 0, -2686984, 23, 0, -2686983, 1610612737, 0, -2686982, 1073741824, 0, -2686981, 1073741824, 0, -2686980, 1073741824, 0, -2686979, 1073741824, 0, -2686978, 1073741824, 0, -2686977, 1073741825, 0, -2752509, 1610612737, 0, -2752508, 1073741824, 0, -2752507, 1073741824, 0, -2752506, 1073741824, 0, -2752505, 1073741824, 0, -2752504, 1073741824, 0, -2752503, 1073741824, 0, -2752502, 1073741824, 0, -2752501, 1073741824, 0, -2752500, 1073741824, 0, -2752499, 1073741824, 0, -2752498, 1073741824, 0, -2752497, 1073741824, 0, -2752496, 1073741824, 0, -2752495, 1073741824, 0, -2752494, 1073741824, 0, -2752493, 1073741824, 0, -2752492, 1073741824, 0, -2752491, 1073741824, 0, -2752490, 1073741824, 0, -2752489, 1073741824, 0, -2752488, 1073741824, 0, -2752487, 1073741824, 0, -2752486, 1073741824, 0, -2752485, 1073741824, 0, -2752484, 1073741824, 0, -2752483, 1073741824, 0, -2752482, 1073741825, 0, -2752481, 23, 0, -2752480, 23, 0, -2752479, 23, 0, -2752478, 23, 0, -2752477, 23, 0, -2752476, 23, 0, -2752475, 23, 0, -2752474, 23, 0, -2752473, 23, 0, -2621457, 23, 0, -2621456, 23, 0, -2621455, 23, 0, -2621454, 23, 0, -2621453, 23, 0, -2621452, 23, 0, -2621451, 23, 0, -2621450, 23, 0, -2621449, 23, 0, -2621448, 23, 0, -2621447, 2, 0, -2686965, 2, 0, -2686946, 2, 0, -2686945, 23, 0, -2686944, 23, 0, -2686943, 23, 0, -2686942, 23, 0, -2686941, 23, 0, -2686940, 23, 0, -2686939, 23, 0, -2686938, 23, 0, -2686937, 23, 0, -2555921, 23, 0, -2555920, 23, 0, -2555919, 23, 0, -2555918, 23, 0, -2555917, 23, 0, -2555916, 23, 0, -2555915, 23, 0, -2555914, 23, 0, -2555913, 23, 0, -2555912, 23, 0, -2555911, 2, 0, -2621429, 2, 0, -2621410, 2, 0, -2621409, 23, 0, -2621408, 23, 0, -2621407, 23, 0, -2621406, 23, 0, -2621405, 23, 0, -2621404, 23, 0, -2621403, 23, 0, -2621402, 23, 0, -2621401, 23, 0, -2490385, 23, 0, -2490384, 23, 0, -2490383, 23, 0, -2490382, 23, 0, -2490381, 23, 0, -2490380, 23, 0, -2490379, 23, 0, -2490378, 23, 0, -2490377, 23, 0, -2490376, 23, 0, -2490375, 2, 0, -2555893, 2, 0, -2555874, 2, 0, -2555873, 23, 0, -2555872, 23, 0, -2555871, 23, 0, -2555870, 23, 0, -2555869, 23, 0, -2555868, 23, 0, -2555867, 23, 0, -2555866, 23, 0, -2555865, 23, 0, -2424849, 23, 0, -2424848, 23, 0, -2424847, 23, 0, -2424846, 23, 0, -2424845, 23, 0, -2424844, 23, 0, -2424843, 23, 0, -2424842, 23, 0, -2424841, 23, 0, -2424840, 23, 0, -2424839, 2, 0, -2490357, 2, 0, -2490338, 2, 0, -2490337, 23, 0, -2490336, 23, 0, -2490335, 23, 0, -2490334, 23, 0, -2490333, 23, 0, -2490332, 23, 0, -2490331, 23, 0, -2490330, 23, 0, -2490329, 23, 0, -2359313, 23, 0, -2359312, 23, 0, -2359311, 23, 0, -2359310, 23, 0, -2359309, 23, 0, -2359308, 23, 0, -2359307, 23, 0, -2359306, 23, 0, -2359305, 23, 0, -2359304, 23, 0, -2359303, 2, 0, -2424821, 2, 0, -2424802, 2, 0, -2424801, 23, 0, -2424800, 23, 0, -2424799, 23, 0, -2424798, 23, 0, -2424797, 23, 0, -2424796, 23, 0, -2424795, 23, 0, -2424794, 23, 0, -2424793, 23, 0, -2293777, 23, 0, -2293776, 23, 0, -2293775, 23, 0, -2293774, 23, 0, -2293773, 23, 0, -2293772, 23, 0, -2293771, 23, 0, -2293770, 23, 0, -2293769, 23, 0, -2293768, 23, 0, -2293767, 2, 0, -2359285, 2, 0, -2359266, 2, 0, -2359265, 23, 0, -2359264, 23, 0, -2359263, 23, 0, -2359262, 23, 0, -2359261, 23, 0, -2359260, 23, 0, -2359259, 23, 0, -2359258, 23, 0, -2359257, 23, 0, -2228241, 23, 0, -2228240, 23, 0, -2228239, 23, 0, -2228238, 23, 0, -2228237, 23, 0, -2228236, 23, 0, -2228235, 23, 0, -2228234, 23, 0, -2228233, 23, 0, -2228232, 23, 0, -2228231, 2, 0, -2293749, 2, 0, -2293730, 2, 0, -2293729, 23, 0, -2293728, 23, 0, -2293727, 23, 0, -2293726, 23, 0, -2293725, 23, 0, -2293724, 23, 0, -2293723, 23, 0, -2293722, 23, 0, -2293721, 23, 0, -2162705, 23, 0, -2162704, 23, 0, -2162703, 23, 0, -2162702, 23, 0, -2162701, 23, 0, -2162700, 23, 0, -2162699, 23, 0, -2162698, 23, 0, -2162697, 23, 0, -2162696, 23, 0, -2162695, 2, 0, -2228213, 2, 0, -2228194, 1610612737, 0, -2228193, 23, 0, -2228192, 23, 0, -2228191, 23, 0, -2228190, 23, 0, -2228189, 23, 0, -2228188, 23, 0, -2228187, 23, 0, -2228186, 23, 0, -2228185, 23, 0, -2097169, 23, 0, -2097168, 23, 0, -2097167, 23, 0, -2097166, 23, 0, -2097165, 23, 0, -2097164, 23, 0, -2097163, 23, 0, -2097162, 23, 0, -2097161, 23, 0, -2097160, 23, 0, -2097159, 2, 0, -2162677, 2, 0, -2162657, 23, 0, -2162656, 23, 0, -2162655, 23, 0, -2162654, 23, 0, -2162653, 23, 0, -2162652, 23, 0, -2162651, 23, 0, -2162650, 23, 0, -2162649, 23, 0, -2031633, 23, 0, -2031632, 23, 0, -2031631, 23, 0, -2031630, 23, 0, -2031629, 23, 0, -2031628, 23, 0, -2031627, 23, 0, -2031626, 23, 0, -2031625, 23, 0, -2031624, 23, 0, -2031623, 2, 0, -2097141, 2, 0, -2097121, 23, 0, -2097120, 23, 0, -2097119, 23, 0, -2097118, 23, 0, -2097117, 23, 0, -2097116, 23, 0, -2097115, 23, 0, -2097114, 23, 0, -2097113, 23, 0, -1966097, 23, 0, -1966096, 23, 0, -1966095, 23, 0, -1966094, 23, 0, -1966093, 23, 0, -1966092, 23, 0, -1966091, 23, 0, -1966090, 23, 0, -1966089, 23, 0, -1966088, 23, 0, -1966087, 2, 0, -2031605, 2, 0, -2031585, 23, 0, -2031584, 23, 0, -2031583, 23, 0, -2031582, 23, 0, -2031581, 23, 0, -2031580, 23, 0, -2031579, 23, 0, -2031578, 23, 0, -2031577, 23, 0, -1900561, 23, 0, -1900560, 23, 0, -1900559, 23, 0, -1900558, 23, 0, -1900557, 23, 0, -1900556, 23, 0, -1900555, 23, 0, -1900554, 23, 0, -1900553, 23, 0, -1900552, 23, 0, -1900551, 1073741825, 0, -1966069, 2, 0, -1966049, 23, 0, -1966048, 23, 0, -1966047, 23, 0, -1966046, 23, 0, -1966045, 23, 0, -1966044, 23, 0, -1966043, 23, 0, -1966042, 23, 0, -1966041, 23, 0, -1835025, 23, 0, -1835024, 23, 0, -1835023, 23, 0, -1835022, 23, 0, -1835021, 23, 0, -1835020, 23, 0, -1835019, 23, 0, -1835018, 23, 0, -1835017, 23, 0, -1835016, 23, 0, -1900533, 2, 0, -1900515, 536870936, 0, -1900514, 536870936, 0, -1900513, 23, 0, -1900512, 23, 0, -1900511, 23, 0, -1900510, 23, 0, -1900509, 23, 0, -1900508, 23, 0, -1900507, 23, 0, -1900506, 23, 0, -1900505, 23, 0, -1769489, 23, 0, -1769488, 23, 0, -1769487, 23, 0, -1769486, 23, 0, -1769485, 23, 0, -1769484, 23, 0, -1769483, 23, 0, -1769482, 23, 0, -1769481, 23, 0, -1769480, 23, 0, -1834997, 2, 0, -1834981, 0, 0, -1834980, 0, 0, -1834979, 0, 0, -1834978, 1, 0, -1834977, 23, 0, -1834976, 23, 0, -1834975, 23, 0, -1834974, 23, 0, -1834973, 23, 0, -1834972, 23, 0, -1834971, 23, 0, -1834970, 23, 0, -1834969, 23, 0, -1703953, 23, 0, -1703952, 23, 0, -1703951, 23, 0, -1703950, 23, 0, -1703949, 23, 0, -1703948, 23, 0, -1703947, 23, 0, -1703946, 23, 0, -1703945, 23, 0, -1703944, 23, 0, -1769461, 2, 0, -1769442, 2, 0, -1769441, 23, 0, -1769440, 23, 0, -1769439, 23, 0, -1769438, 23, 0, -1769437, 23, 0, -1769436, 23, 0, -1769435, 23, 0, -1769434, 23, 0, -1769433, 23, 0, -1638417, 23, 0, -1638416, 23, 0, -1638415, 23, 0, -1638414, 23, 0, -1638413, 23, 0, -1638412, 23, 0, -1638411, 23, 0, -1638410, 23, 0, -1638409, 23, 0, -1638408, 23, 0, -1703925, 2, 0, -1703906, 2, 0, -1703905, 23, 0, -1703904, 23, 0, -1703903, 23, 0, -1703902, 23, 0, -1703901, 23, 0, -1703900, 23, 0, -1703899, 23, 0, -1703898, 23, 0, -1703897, 23, 0, -1572881, 23, 0, -1572880, 23, 0, -1572879, 23, 0, -1572878, 23, 0, -1572877, 23, 0, -1572876, 23, 0, -1572875, 23, 0, -1572874, 23, 0, -1572873, 23, 0, -1572872, 23, 0, -1572871, 536870936, 0, -1572870, 536870936, 0, -1572869, 536870936, 0, -1572868, 536870936, 0, -1572867, 536870936, 0, -1638389, 2, 0, -1638370, 2, 0, -1638369, 23, 0, -1638368, 23, 0, -1638367, 23, 0, -1638366, 23, 0, -1638365, 23, 0, -1638364, 23, 0, -1638363, 23, 0, -1638362, 23, 0, -1638361, 23, 0, -1507345, 23, 0, -1507344, 23, 0, -1507343, 23, 0, -1507342, 23, 0, -1507341, 23, 0, -1507340, 23, 0, -1507339, 23, 0, -1507338, 23, 0, -1507337, 23, 0, -1507336, 23, 0, -1507335, 536870913, 0, -1507334, 0, 0, -1507333, 0, 0, -1507332, 0, 0, -1507331, 0, 0, -1507330, 0, 0, -1507329, 0, 0, -1572864, 0, 0, -1572863, 0, 0, -1572862, 0, 0, -1572861, 0, 0, -1572860, 0, 0, -1572859, 0, 0, -1572858, 0, 0, -1572857, 0, 0, -1572856, 0, 0, -1572855, 0, 0, -1572854, 0, 0, -1572853, 1, 0, -1572834, 2, 0, -1572833, 23, 0, -1572832, 23, 0, -1572831, 23, 0, -1572830, 23, 0, -1572829, 23, 0, -1572828, 23, 0, -1572827, 23, 0, -1572826, 23, 0, -1572825, 23, 0, -1441809, 23, 0, -1441808, 23, 0, -1441807, 23, 0, -1441806, 23, 0, -1441805, 23, 0, -1441804, 23, 0, -1441803, 23, 0, -1441802, 23, 0, -1441801, 23, 0, -1441800, 23, 0, -1441799, 2, 0, -1507298, 2, 0, -1507297, 23, 0, -1507296, 23, 0, -1507295, 23, 0, -1507294, 23, 0, -1507293, 23, 0, -1507292, 23, 0, -1507291, 23, 0, -1507290, 23, 0, -1507289, 23, 0, -1376273, 23, 0, -1376272, 23, 0, -1376271, 23, 0, -1376270, 23, 0, -1376269, 23, 0, -1376268, 23, 0, -1376267, 23, 0, -1376266, 23, 0, -1376265, 23, 0, -1376264, 23, 0, -1376263, 2, 0, -1441762, 2, 0, -1441761, 23, 0, -1441760, 23, 0, -1441759, 23, 0, -1441758, 23, 0, -1441757, 23, 0, -1441756, 23, 0, -1441755, 23, 0, -1441754, 23, 0, -1441753, 23, 0, -1310737, 23, 0, -1310736, 23, 0, -1310735, 23, 0, -1310734, 23, 0, -1310733, 23, 0, -1310732, 23, 0, -1310731, 23, 0, -1310730, 23, 0, -1310729, 23, 0, -1310728, 23, 0, -1310727, 2, 0, -1376226, 2, 0, -1376225, 23, 0, -1376224, 23, 0, -1376223, 23, 0, -1376222, 23, 0, -1376221, 23, 0, -1376220, 23, 0, -1376219, 23, 0, -1376218, 23, 0, -1376217, 23, 0, -1245201, 23, 0, -1245200, 23, 0, -1245199, 23, 0, -1245198, 23, 0, -1245197, 23, 0, -1245196, 23, 0, -1245195, 23, 0, -1245194, 23, 0, -1245193, 23, 0, -1245192, 23, 0, -1245191, 2, 0, -1310690, 2, 0, -1310689, 23, 0, -1310688, 23, 0, -1310687, 23, 0, -1310686, 23, 0, -1310685, 23, 0, -1310684, 23, 0, -1310683, 23, 0, -1310682, 23, 0, -1310681, 23, 0, -1179665, 23, 0, -1179664, 23, 0, -1179663, 23, 0, -1179662, 23, 0, -1179661, 23, 0, -1179660, 23, 0, -1179659, 23, 0, -1179658, 23, 0, -1179657, 23, 0, -1179656, 23, 0, -1179655, 2, 0, -1245154, 2, 0, -1245153, 23, 0, -1245152, 23, 0, -1245151, 23, 0, -1245150, 23, 0, -1245149, 23, 0, -1245148, 23, 0, -1245147, 23, 0, -1245146, 23, 0, -1245145, 23, 0, -1114129, 23, 0, -1114128, 23, 0, -1114127, 23, 0, -1114126, 23, 0, -1114125, 23, 0, -1114124, 23, 0, -1114123, 23, 0, -1114122, 23, 0, -1114121, 23, 0, -1114120, 23, 0, -1114119, 2, 0, -1179618, 2, 0, -1179617, 23, 0, -1179616, 23, 0, -1179615, 23, 0, -1179614, 23, 0, -1179613, 23, 0, -1179612, 23, 0, -1179611, 23, 0, -1179610, 23, 0, -1179609, 23, 0, -1048593, 23, 0, -1048592, 23, 0, -1048591, 23, 0, -1048590, 23, 0, -1048589, 23, 0, -1048588, 23, 0, -1048587, 23, 0, -1048586, 23, 0, -1048585, 23, 0, -1048584, 23, 0, -1048583, 2, 0, -1114082, 2, 0, -1114081, 23, 0, -1114080, 23, 0, -1114079, 23, 0, -1114078, 23, 0, -1114077, 23, 0, -1114076, 23, 0, -1114075, 23, 0, -1114074, 23, 0, -1114073, 23, 0, -983057, 23, 0, -983056, 23, 0, -983055, 23, 0, -983054, 23, 0, -983053, 23, 0, -983052, 23, 0, -983051, 23, 0, -983050, 23, 0, -983049, 23, 0, -983048, 23, 0, -983047, 2, 0, -1048546, 2, 0, -1048545, 23, 0, -1048544, 23, 0, -1048543, 23, 0, -1048542, 23, 0, -1048541, 23, 0, -1048540, 23, 0, -1048539, 23, 0, -1048538, 23, 0, -1048537, 23, 0, -917521, 23, 0, -917520, 23, 0, -917519, 23, 0, -917518, 23, 0, -917517, 23, 0, -917516, 23, 0, -917515, 23, 0, -917514, 23, 0, -917513, 23, 0, -917512, 23, 0, -917511, 2, 0, -983010, 2, 0, -983009, 23, 0, -983008, 23, 0, -983007, 23, 0, -983006, 23, 0, -983005, 23, 0, -983004, 23, 0, -983003, 23, 0, -983002, 23, 0, -983001, 23, 0, -851985, 23, 0, -851984, 23, 0, -851983, 23, 0, -851982, 23, 0, -851981, 23, 0, -851980, 23, 0, -851979, 23, 0, -851978, 23, 0, -851977, 23, 0, -851976, 23, 0, -851975, 2, 0, -917474, 2, 0, -917473, 23, 0, -917472, 23, 0, -917471, 23, 0, -917470, 23, 0, -917469, 23, 0, -917468, 23, 0, -917467, 23, 0, -917466, 23, 0, -917465, 23, 0, -786449, 23, 0, -786448, 23, 0, -786447, 23, 0, -786446, 23, 0, -786445, 23, 0, -786444, 23, 0, -786443, 23, 0, -786442, 23, 0, -786441, 23, 0, -786440, 23, 0, -786439, 2, 0, -851938, 2, 0, -851937, 23, 0, -851936, 23, 0, -851935, 23, 0, -851934, 23, 0, -851933, 23, 0, -851932, 23, 0, -851931, 23, 0, -851930, 23, 0, -851929, 23, 0, -720913, 23, 0, -720912, 23, 0, -720911, 23, 0, -720910, 23, 0, -720909, 23, 0, -720908, 23, 0, -720907, 23, 0, -720906, 23, 0, -720905, 23, 0, -720904, 23, 0, -720903, 2, 0, -786402, 2, 0, -786401, 23, 0, -786400, 23, 0, -786399, 23, 0, -786398, 23, 0, -786397, 23, 0, -786396, 23, 0, -786395, 23, 0, -786394, 23, 0, -786393, 23, 0, -655377, 23, 0, -655376, 23, 0, -655375, 23, 0, -655374, 23, 0, -655373, 23, 0, -655372, 23, 0, -655371, 23, 0, -655370, 23, 0, -655369, 23, 0, -655368, 23, 0, -655367, 2, 0, -720866, 2, 0, -720865, 23, 0, -720864, 23, 0, -720863, 23, 0, -720862, 23, 0, -720861, 23, 0, -720860, 23, 0, -720859, 23, 0, -720858, 23, 0, -720857, 23, 0, -589841, 23, 0, -589840, 23, 0, -589839, 23, 0, -589838, 23, 0, -589837, 23, 0, -589836, 23, 0, -589835, 23, 0, -589834, 23, 0, -589833, 23, 0, -589832, 23, 0, -589831, 2, 0, -655330, 2, 0, -655329, 23, 0, -655328, 23, 0, -655327, 23, 0, -655326, 23, 0, -655325, 23, 0, -655324, 23, 0, -655323, 23, 0, -655322, 23, 0, -655321, 23, 0, -524305, 23, 0, -524304, 23, 0, -524303, 23, 0, -524302, 23, 0, -524301, 23, 0, -524300, 23, 0, -524299, 23, 0, -524298, 23, 0, -524297, 23, 0, -524296, 23, 0, -524295, 2, 0, -589794, 2, 0, -589793, 23, 0, -589792, 23, 0, -589791, 23, 0, -589790, 23, 0, -589789, 23, 0, -589788, 23, 0, -589787, 23, 0, -589786, 23, 0, -589785, 23, 0, -458769, 23, 0, -458768, 23, 0, -458767, 23, 0, -458766, 23, 0, -458765, 23, 0, -458764, 23, 0, -458763, 23, 0, -458762, 23, 0, -458761, 23, 0, -458760, 23, 0, -458759, 2, 0, -524258, 2, 0, -524257, 23, 0, -524256, 23, 0, -524255, 23, 0, -524254, 23, 0, -524253, 23, 0, -524252, 23, 0, -524251, 23, 0, -524250, 23, 0, -524249, 23, 0, -393233, 23, 0, -393232, 23, 0, -393231, 23, 0, -393230, 23, 0, -393229, 23, 0, -393228, 23, 0, -393227, 23, 0, -393226, 23, 0, -393225, 23, 0, -393224, 23, 0, -393223, 2, 0, -458722, 2, 0, -458721, 23, 0, -458720, 23, 0, -458719, 23, 0, -458718, 23, 0, -458717, 23, 0, -458716, 23, 0, -458715, 23, 0, -458714, 23, 0, -458713, 23, 0, -327697, 23, 0, -327696, 23, 0, -327695, 23, 0, -327694, 23, 0, -327693, 23, 0, -327692, 23, 0, -327691, 23, 0, -327690, 23, 0, -327689, 23, 0, -327688, 23, 0, -327687, 2, 0, -393186, 2, 0, -393185, 23, 0, -393184, 23, 0, -393183, 23, 0, -393182, 23, 0, -393181, 23, 0, -393180, 23, 0, -393179, 23, 0, -393178, 23, 0, -393177, 23, 0, -262161, 23, 0, -262160, 23, 0, -262159, 23, 0, -262158, 23, 0, -262157, 23, 0, -262156, 23, 0, -262155, 23, 0, -262154, 23, 0, -262153, 23, 0, -262152, 23, 0, -262151, 2, 0, -327650, 2, 0, -327649, 23, 0, -327648, 23, 0, -327647, 23, 0, -327646, 23, 0, -327645, 23, 0, -327644, 23, 0, -327643, 23, 0, -327642, 23, 0, -327641, 23, 0, -196625, 23, 0, -196624, 23, 0, -196623, 23, 0, -196622, 23, 0, -196621, 23, 0, -196620, 23, 0, -196619, 23, 0, -196618, 23, 0, -196617, 23, 0, -196616, 23, 0, -196615, 2, 0, -262114, 2, 0, -262113, 23, 0, -262112, 23, 0, -262111, 23, 0, -262110, 23, 0, -262109, 23, 0, -262108, 23, 0, -262107, 23, 0, -262106, 23, 0, -262105, 23, 0, -131089, 23, 0, -131088, 23, 0, -131087, 23, 0, -131086, 23, 0, -131085, 23, 0, -131084, 23, 0, -131083, 23, 0, -131082, 23, 0, -131081, 23, 0, -131080, 23, 0, -131079, 2, 0, -196578, 2, 0, -196577, 23, 0, -196576, 23, 0, -196575, 23, 0, -196574, 23, 0, -196573, 23, 0, -196572, 23, 0, -196571, 23, 0, -196570, 23, 0, -196569, 23, 0, -65553, 23, 0, -65552, 23, 0, -65551, 23, 0, -65550, 23, 0, -65549, 23, 0, -65548, 23, 0, -65547, 23, 0, -65546, 23, 0, -65545, 23, 0, -65544, 23, 0, -65543, 2, 0, -131042, 2, 0, -131041, 23, 0, -131040, 23, 0, -131039, 23, 0, -131038, 23, 0, -131037, 23, 0, -131036, 23, 0, -131035, 23, 0, -131034, 23, 0, -131033, 23, 0, -17, 23, 0, -16, 23, 0, -15, 23, 0, -14, 23, 0, -13, 23, 0, -12, 23, 0, -11, 23, 0, -10, 23, 0, -9, 23, 0, -8, 23, 0, -7, 2, 0, -65506, 2, 0, -65505, 23, 0, -65504, 23, 0, -65503, 23, 0, -65502, 23, 0, -65501, 23, 0, -65500, 23, 0, -65499, 23, 0, -65498, 23, 0, -65497, 23, 0, 65519, 23, 0, 65520, 23, 0, 65521, 23, 0, 65522, 23, 0, 65523, 23, 0, 65524, 23, 0, 65525, 23, 0, 65526, 23, 0, 65527, 23, 0, 65528, 23, 0, 65529, 2, 0, 30, 2, 0, 31, 23, 0, 32, 23, 0, 33, 23, 0, 34, 23, 0, 35, 23, 0, 36, 23, 0, 37, 23, 0, 38, 23, 0, 39, 23, 0, 131055, 23, 0, 131056, 23, 0, 131057, 23, 0, 131058, 23, 0, 131059, 23, 0, 131060, 23, 0, 131061, 23, 0, 131062, 23, 0, 131063, 23, 0, 131064, 23, 0, 131065, 2, 0, 65566, 2, 0, 65567, 23, 0, 65568, 23, 0, 65569, 23, 0, 65570, 23, 0, 65571, 23, 0, 65572, 23, 0, 65573, 23, 0, 65574, 23, 0, 65575, 23, 0, 196591, 23, 0, 196592, 23, 0, 196593, 23, 0, 196594, 23, 0, 196595, 23, 0, 196596, 23, 0, 196597, 23, 0, 196598, 23, 0, 196599, 23, 0, 196600, 23, 0, 196601, 2, 0, 131102, 2, 0, 131103, 23, 0, 131104, 23, 0, 131105, 23, 0, 131106, 23, 0, 131107, 23, 0, 131108, 23, 0, 131109, 23, 0, 131110, 23, 0, 131111, 23, 0, 262127, 23, 0, 262128, 23, 0, 262129, 23, 0, 262130, 23, 0, 262131, 23, 0, 262132, 23, 0, 262133, 23, 0, 262134, 23, 0, 262135, 23, 0, 262136, 23, 0, 262137, 2, 0, 196631, 536870936, 0, 196632, 536870936, 0, 196633, 536870936, 0, 196634, 536870936, 0, 196635, 536870936, 0, 196636, 536870936, 0, 196637, 536870936, 0, 196638, 2, 0, 196639, 23, 0, 196640, 23, 0, 196641, 23, 0, 196642, 23, 0, 196643, 23, 0, 196644, 23, 0, 196645, 23, 0, 196646, 23, 0, 196647, 23, 0, 327663, 23, 0, 327664, 23, 0, 327665, 23, 0, 327666, 23, 0, 327667, 23, 0, 327668, 23, 0, 327669, 23, 0, 327670, 23, 0, 327671, 23, 0, 327672, 23, 0, 327673, 536870913, 0, 327674, 0, 0, 327675, 0, 0, 327676, 0, 0, 327677, 0, 0, 327678, 0, 0, 327679, 1, 0, 262144, 7, 0, 262145, 7, 0, 262146, 7, 0, 262147, 536870913, 0, 262148, 0, 0, 262149, 0, 0, 262150, 0, 0, 262151, 0, 0, 262152, 0, 0, 262153, 0, 0, 262154, 0, 0, 262155, 0, 0, 262156, 0, 0, 262157, 0, 0, 262158, 0, 0, 262159, 0, 0, 262160, 0, 0, 262161, 0, 0, 262162, 0, 0, 262163, 0, 0, 262164, 0, 0, 262165, 0, 0, 262166, 0, 0, 262167, 0, 0, 262168, 0, 0, 262169, 0, 0, 262170, 0, 0, 262171, 0, 0, 262172, 0, 0, 262173, 0, 0, 262174, 1, 0, 262175, 23, 0, 262176, 23, 0, 262177, 23, 0, 262178, 23, 0, 262179, 23, 0, 262180, 23, 0, 262181, 23, 0, 262182, 23, 0, 262183, 23, 0, 393199, 23, 0, 393200, 23, 0, 393201, 23, 0, 393202, 23, 0, 393203, 23, 0, 393204, 23, 0, 393205, 23, 0, 393206, 23, 0, 393207, 23, 0, 393208, 23, 0, 393209, 2, 0, 393210, 3, 0, 393211, -1610612732, 0, 393212, -1610612732, 0, 393213, -1610612732, 0, 393214, 536870915, 0, 393215, 2, 0, 327680, 7, 0, 327681, 7, 0, 327682, 7, 0, 327683, 2, 0, 327684, 3, 0, 327685, -1610612732, 0, 327686, -1610612732, 0, 327687, -1610612732, 0, 327688, -1610612732, 0, 327689, -1610612732, 0, 327690, -1610612732, 0, 327691, -1610612732, 0, 327692, -1610612732, 0, 327693, -1610612732, 0, 327694, -1610612732, 0, 327695, -1610612732, 0, 327696, -1610612732, 0, 327697, -1610612732, 0, 327698, -1610612732, 0, 327699, -1610612732, 0, 327700, -1610612732, 0, 327701, -1610612732, 0, 327702, -1610612732, 0, 327703, -1610612732, 0, 327704, -1610612732, 0, 327705, -1610612732, 0, 327706, -1610612732, 0, 327707, -1610612732, 0, 327708, -1610612732, 0, 327709, 536870915, 0, 327710, 2, 0, 327711, 23, 0, 327712, 23, 0, 327713, 23, 0, 327714, 23, 0, 327715, 23, 0, 327716, 23, 0, 327717, 23, 0, 327718, 23, 0, 327719, 23, 0, 458735, 23, 0, 458736, 23, 0, 458737, 23, 0, 458738, 23, 0, 458739, 23, 0, 458740, 23, 0, 458741, 23, 0, 458742, 23, 0, 458743, 23, 0, 458744, 23, 0, 458745, 2, 0, 458746, 4, 0, 458747, 5, 0, 458748, 5, 0, 458749, 5, 0, 458750, 4, 0, 458751, 2, 0, 393216, 7, 0, 393217, 7, 0, 393218, 7, 0, 393219, 2, 0, 393220, 4, 0, 393221, 5, 0, 393222, 5, 0, 393223, 5, 0, 393224, 5, 0, 393225, 5, 0, 393226, 5, 0, 393227, 5, 0, 393228, 5, 0, 393229, 5, 0, 393230, 5, 0, 393231, 5, 0, 393232, 5, 0, 393233, 5, 0, 393234, 5, 0, 393235, 5, 0, 393236, 5, 0, 393237, 5, 0, 393238, 5, 0, 393239, 5, 0, 393240, 5, 0, 393241, 5, 0, 393242, 5, 0, 393243, 5, 0, 393244, 5, 0, 393245, 4, 0, 393246, 2, 0, 393247, 23, 0, 393248, 23, 0, 393249, 23, 0, 393250, 23, 0, 393251, 23, 0, 393252, 23, 0, 393253, 23, 0, 393254, 23, 0, 393255, 23, 0, 524271, 23, 0, 524272, 23, 0, 524273, 23, 0, 524274, 23, 0, 524275, 23, 0, 524276, 23, 0, 524277, 23, 0, 524278, 23, 0, 524279, 23, 0, 524280, 23, 0, 524281, 2, 0, 524282, 1073741827, 0, 524283, -1610612732, 0, 524284, -1610612732, 0, 524285, -1610612732, 0, 524286, 1610612739, 0, 524287, 2, 0, 458752, 7, 0, 458753, 7, 0, 458754, 7, 0, 458755, 2, 0, 458756, 1073741827, 0, 458757, -1610612732, 0, 458758, -1610612732, 0, 458759, -1610612732, 0, 458760, -1610612732, 0, 458761, -1610612732, 0, 458762, -1610612732, 0, 458763, -1610612732, 0, 458764, -1610612732, 0, 458765, -1610612732, 0, 458766, -1610612732, 0, 458767, -1610612732, 0, 458768, -1610612732, 0, 458769, -1610612732, 0, 458770, -1610612732, 0, 458771, -1610612732, 0, 458772, -1610612732, 0, 458773, -1610612732, 0, 458774, -1610612732, 0, 458775, -1610612732, 0, 458776, -1610612732, 0, 458777, -1610612732, 0, 458778, -1610612732, 0, 458779, -1610612732, 0, 458780, -1610612732, 0, 458781, 1610612739, 0, 458782, 2, 0, 458783, 23, 0, 458784, 23, 0, 458785, 23, 0, 458786, 23, 0, 458787, 23, 0, 458788, 23, 0, 458789, 23, 0, 458790, 23, 0, 458791, 23, 0, 589807, 23, 0, 589808, 23, 0, 589809, 23, 0, 589810, 23, 0, 589811, 23, 0, 589812, 23, 0, 589813, 23, 0, 589814, 23, 0, 589815, 23, 0, 589816, 23, 0, 589817, 23, 0, 589818, 23, 0, 589819, 23, 0, 589820, 23, 0, 589821, 23, 0, 589822, 23, 0, 589823, 23, 0, 524288, 23, 0, 524289, 23, 0, 524290, 23, 0, 524291, 23, 0, 524292, 23, 0, 524293, 23, 0, 524294, 23, 0, 524295, 23, 0, 524296, 23, 0, 524297, 23, 0, 524298, 23, 0, 524299, 23, 0, 524300, 23, 0, 524301, 23, 0, 524302, 23, 0, 524303, 23, 0, 524304, 23, 0, 524305, 23, 0, 524306, 23, 0, 524307, 23, 0, 524308, 23, 0, 524309, 23, 0, 524310, 23, 0, 524311, 23, 0, 524312, 23, 0, 524313, 23, 0, 524314, 23, 0, 524315, 23, 0, 524316, 23, 0, 524317, 23, 0, 524318, 23, 0, 524319, 23, 0, 524320, 23, 0, 524321, 23, 0, 524322, 23, 0, 524323, 23, 0, 524324, 23, 0, 524325, 23, 0, 524326, 23, 0, 524327, 23, 0, 655343, 23, 0, 655344, 23, 0, 655345, 23, 0, 655346, 23, 0, 655347, 23, 0, 655348, 23, 0, 655349, 23, 0, 655350, 23, 0, 655351, 23, 0, 655352, 23, 0, 655353, 23, 0, 655354, 23, 0, 655355, 23, 0, 655356, 23, 0, 655357, 23, 0, 655358, 23, 0, 655359, 23, 0, 589824, 23, 0, 589825, 23, 0, 589826, 23, 0, 589827, 23, 0, 589828, 23, 0, 589829, 23, 0, 589830, 23, 0, 589831, 23, 0, 589832, 23, 0, 589833, 23, 0, 589834, 23, 0, 589835, 23, 0, 589836, 23, 0, 589837, 23, 0, 589838, 23, 0, 589839, 23, 0, 589840, 23, 0, 589841, 23, 0, 589842, 23, 0, 589843, 23, 0, 589844, 23, 0, 589845, 23, 0, 589846, 23, 0, 589847, 23, 0, 589848, 23, 0, 589849, 23, 0, 589850, 23, 0, 589851, 23, 0, 589852, 23, 0, 589853, 23, 0, 589854, 23, 0, 589855, 23, 0, 589856, 23, 0, 589857, 23, 0, 589858, 23, 0, 589859, 23, 0, 589860, 23, 0, 589861, 23, 0, 589862, 23, 0, 589863, 23, 0, 720879, 23, 0, 720880, 23, 0, 720881, 23, 0, 720882, 23, 0, 720883, 23, 0, 720884, 23, 0, 720885, 23, 0, 720886, 23, 0, 720887, 23, 0, 720888, 23, 0, 720889, 23, 0, 720890, 23, 0, 720891, 23, 0, 720892, 23, 0, 720893, 23, 0, 720894, 23, 0, 720895, 23, 0, 655360, 23, 0, 655361, 23, 0, 655362, 23, 0, 655363, 23, 0, 655364, 23, 0, 655365, 23, 0, 655366, 23, 0, 655367, 23, 0, 655368, 23, 0, 655369, 23, 0, 655370, 23, 0, 655371, 23, 0, 655372, 23, 0, 655373, 23, 0, 655374, 23, 0, 655375, 23, 0, 655376, 23, 0, 655377, 23, 0, 655378, 23, 0, 655379, 23, 0, 655380, 23, 0, 655381, 23, 0, 655382, 23, 0, 655383, 23, 0, 655384, 23, 0, 655385, 23, 0, 655386, 23, 0, 655387, 23, 0, 655388, 23, 0, 655389, 23, 0, 655390, 23, 0, 655391, 23, 0, 655392, 23, 0, 655393, 23, 0, 655394, 23, 0, 655395, 23, 0, 655396, 23, 0, 655397, 23, 0, 655398, 23, 0, 655399, 23, 0, 786415, 23, 0, 786416, 23, 0, 786417, 23, 0, 786418, 23, 0, 786419, 23, 0, 786420, 23, 0, 786421, 23, 0, 786422, 23, 0, 786423, 23, 0, 786424, 23, 0, 786425, 23, 0, 786426, 23, 0, 786427, 23, 0, 786428, 23, 0, 786429, 23, 0, 786430, 23, 0, 786431, 23, 0, 720896, 23, 0, 720897, 23, 0, 720898, 23, 0, 720899, 23, 0, 720900, 23, 0, 720901, 23, 0, 720902, 23, 0, 720903, 23, 0, 720904, 23, 0, 720905, 23, 0, 720906, 23, 0, 720907, 23, 0, 720908, 23, 0, 720909, 23, 0, 720910, 23, 0, 720911, 23, 0, 720912, 23, 0, 720913, 23, 0, 720914, 23, 0, 720915, 23, 0, 720916, 23, 0, 720917, 23, 0, 720918, 23, 0, 720919, 23, 0, 720920, 23, 0, 720921, 23, 0, 720922, 23, 0, 720923, 23, 0, 720924, 23, 0, 720925, 23, 0, 720926, 23, 0, 720927, 23, 0, 720928, 23, 0, 720929, 23, 0, 720930, 23, 0, 720931, 23, 0, 720932, 23, 0, 720933, 23, 0, 720934, 23, 0, 720935, 23, 0, 851951, 23, 0, 851952, 23, 0, 851953, 23, 0, 851954, 23, 0, 851955, 23, 0, 851956, 23, 0, 851957, 23, 0, 851958, 23, 0, 851959, 23, 0, 851960, 23, 0, 851961, 23, 0, 851962, 23, 0, 851963, 23, 0, 851964, 23, 0, 851965, 23, 0, 851966, 23, 0, 851967, 23, 0, 786432, 23, 0, 786433, 23, 0, 786434, 23, 0, 786435, 23, 0, 786436, 23, 0, 786437, 23, 0, 786438, 23, 0, 786439, 23, 0, 786440, 23, 0, 786441, 23, 0, 786442, 23, 0, 786443, 23, 0, 786444, 23, 0, 786445, 23, 0, 786446, 23, 0, 786447, 23, 0, 786448, 23, 0, 786449, 23, 0, 786450, 23, 0, 786451, 23, 0, 786452, 23, 0, 786453, 23, 0, 786454, 23, 0, 786455, 23, 0, 786456, 23, 0, 786457, 23, 0, 786458, 23, 0, 786459, 23, 0, 786460, 23, 0, 786461, 23, 0, 786462, 23, 0, 786463, 23, 0, 786464, 23, 0, 786465, 23, 0, 786466, 23, 0, 786467, 23, 0, 786468, 23, 0, 786469, 23, 0, 786470, 23, 0, 786471, 23, 0, 917487, 23, 0, 917488, 23, 0, 917489, 23, 0, 917490, 23, 0, 917491, 23, 0, 917492, 23, 0, 917493, 23, 0, 917494, 23, 0, 917495, 23, 0, 917496, 23, 0, 917497, 23, 0, 917498, 23, 0, 917499, 23, 0, 917500, 23, 0, 917501, 23, 0, 917502, 23, 0, 917503, 23, 0, 851968, 23, 0, 851969, 23, 0, 851970, 23, 0, 851971, 23, 0, 851972, 23, 0, 851973, 23, 0, 851974, 23, 0, 851975, 23, 0, 851976, 23, 0, 851977, 23, 0, 851978, 23, 0, 851979, 23, 0, 851980, 23, 0, 851981, 23, 0, 851982, 23, 0, 851983, 23, 0, 851984, 23, 0, 851985, 23, 0, 851986, 23, 0, 851987, 23, 0, 851988, 23, 0, 851989, 23, 0, 851990, 23, 0, 851991, 23, 0, 851992, 23, 0, 851993, 23, 0, 851994, 23, 0, 851995, 23, 0, 851996, 23, 0, 851997, 23, 0, 851998, 23, 0, 851999, 23, 0, 852000, 23, 0, 852001, 23, 0, 852002, 23, 0, 852003, 23, 0, 852004, 23, 0, 852005, 23, 0, 852006, 23, 0, 852007, 23, 0, 983023, 23, 0, 983024, 23, 0, 983025, 23, 0, 983026, 23, 0, 983027, 23, 0, 983028, 23, 0, 983029, 23, 0, 983030, 23, 0, 983031, 23, 0, 983032, 23, 0, 983033, 23, 0, 983034, 23, 0, 983035, 23, 0, 983036, 23, 0, 983037, 23, 0, 983038, 23, 0, 983039, 23, 0, 917504, 23, 0, 917505, 23, 0, 917506, 23, 0, 917507, 23, 0, 917508, 23, 0, 917509, 23, 0, 917510, 23, 0, 917511, 23, 0, 917512, 23, 0, 917513, 23, 0, 917514, 23, 0, 917515, 23, 0, 917516, 23, 0, 917517, 23, 0, 917518, 23, 0, 917519, 23, 0, 917520, 23, 0, 917521, 23, 0, 917522, 23, 0, 917523, 23, 0, 917524, 23, 0, 917525, 23, 0, 917526, 23, 0, 917527, 23, 0, 917528, 23, 0, 917529, 23, 0, 917530, 23, 0, 917531, 23, 0, 917532, 23, 0, 917533, 23, 0, 917534, 23, 0, 917535, 23, 0, 917536, 23, 0, 917537, 23, 0, 917538, 23, 0, 917539, 23, 0, 917540, 23, 0, 917541, 23, 0, 917542, 23, 0, 917543, 23, 0, 1048559, 23, 0, 1048560, 23, 0, 1048561, 23, 0, 1048562, 23, 0, 1048563, 23, 0, 1048564, 23, 0, 1048565, 23, 0, 1048566, 23, 0, 1048567, 23, 0, 1048568, 23, 0, 1048569, 23, 0, 1048570, 23, 0, 1048571, 23, 0, 1048572, 23, 0, 1048573, 23, 0, 1048574, 23, 0, 1048575, 23, 0, 983040, 23, 0, 983041, 23, 0, 983042, 23, 0, 983043, 23, 0, 983044, 23, 0, 983045, 23, 0, 983046, 23, 0, 983047, 23, 0, 983048, 23, 0, 983049, 23, 0, 983050, 23, 0, 983051, 23, 0, 983052, 23, 0, 983053, 23, 0, 983054, 23, 0, 983055, 23, 0, 983056, 23, 0, 983057, 23, 0, 983058, 23, 0, 983059, 23, 0, 983060, 23, 0, 983061, 23, 0, 983062, 23, 0, 983063, 23, 0, 983064, 23, 0, 983065, 23, 0, 983066, 23, 0, 983067, 23, 0, 983068, 23, 0, 983069, 23, 0, 983070, 23, 0, 983071, 23, 0, 983072, 23, 0, 983073, 23, 0, 983074, 23, 0, 983075, 23, 0, 983076, 23, 0, 983077, 23, 0, 983078, 23, 0, 983079, 23, 0 )

[node name="ClimbableGroup" type="Node2D" parent="tilemap"]

[node name="ClimbableBlock" parent="tilemap/ClimbableGroup" instance=ExtResource( 2 )]
position = Vector2( 848, -880 )
physics_material_override = SubResource( 1 )

[node name="LadderGroup" type="Node2D" parent="tilemap"]

[node name="TestLadder" parent="tilemap/LadderGroup" instance=ExtResource( 3 )]
position = Vector2( 48, 192 )

[node name="Sprite" parent="tilemap/LadderGroup/TestLadder/KinematicBody2D" index="0"]
region_rect = Rect2( 0, 0, 32, 128 )

[node name="ladder" parent="tilemap/LadderGroup/TestLadder/KinematicBody2D" index="1"]
scale = Vector2( 1, 4 )

[node name="TestLadder1" parent="tilemap/LadderGroup" instance=ExtResource( 3 )]
position = Vector2( 48, -1184 )

[node name="Sprite" parent="tilemap/LadderGroup/TestLadder1/KinematicBody2D" index="0"]
region_rect = Rect2( 0, 0, 32, 320 )

[node name="ladder" parent="tilemap/LadderGroup/TestLadder1/KinematicBody2D" index="1"]
scale = Vector2( 1, 10 )

[node name="TestLadder 2" parent="tilemap/LadderGroup" instance=ExtResource( 4 )]
position = Vector2( 48, 112 )

[node name="One-WayPlatformGroup" type="Node2D" parent="tilemap"]

[node name="One-WayPlatform" parent="tilemap/One-WayPlatformGroup" instance=ExtResource( 5 )]
position = Vector2( 96, -208 )

[node name="Sprite" parent="tilemap/One-WayPlatformGroup/One-WayPlatform/KinematicBody2D" index="0"]
region_enabled = true
region_rect = Rect2( 0, 0, 384, 32 )

[node name="oneway" parent="tilemap/One-WayPlatformGroup/One-WayPlatform/KinematicBody2D" index="1"]
scale = Vector2( 12, 1 )

[node name="One-WayPlatform1" parent="tilemap/One-WayPlatformGroup" instance=ExtResource( 5 )]
position = Vector2( 304, -208 )

[node name="Sprite" parent="tilemap/One-WayPlatformGroup/One-WayPlatform1/KinematicBody2D" index="0"]
texture = ExtResource( 6 )
offset = Vector2( 3, 0 )

[node name="One-WayPlatform2" parent="tilemap/One-WayPlatformGroup" instance=ExtResource( 5 )]
position = Vector2( -112, -208 )

[node name="Sprite" parent="tilemap/One-WayPlatformGroup/One-WayPlatform2/KinematicBody2D" index="0"]
texture = ExtResource( 6 )
offset = Vector2( -3, 0 )
flip_h = true

[node name="HangableGroup" type="Node2D" parent="tilemap"]

[node name="HangBlock" parent="tilemap/HangableGroup" instance=ExtResource( 7 )]
position = Vector2( -80, -176 )

[node name="HangBlock1" parent="tilemap/HangableGroup" instance=ExtResource( 7 )]
position = Vector2( -48, -176 )

[node name="HangBlock2" parent="tilemap/HangableGroup" instance=ExtResource( 7 )]
position = Vector2( -16, -176 )

[node name="HangBlock3" parent="tilemap/HangableGroup" instance=ExtResource( 7 )]
position = Vector2( 16, -176 )

[node name="HangBlock4" parent="tilemap/HangableGroup" instance=ExtResource( 7 )]
position = Vector2( 48, -176 )

[node name="HangBlock5" parent="tilemap/HangableGroup" instance=ExtResource( 7 )]
position = Vector2( 80, -176 )

[node name="HangBlock6" parent="tilemap/HangableGroup" instance=ExtResource( 7 )]
position = Vector2( 112, -176 )

[node name="HangBlock7" parent="tilemap/HangableGroup" instance=ExtResource( 7 )]
position = Vector2( 144, -176 )

[node name="HangBlock8" parent="tilemap/HangableGroup" instance=ExtResource( 7 )]
position = Vector2( 176, -176 )

[node name="HangBlock9" parent="tilemap/HangableGroup" instance=ExtResource( 7 )]
position = Vector2( 208, -176 )

[node name="HangBlock10" parent="tilemap/HangableGroup" instance=ExtResource( 7 )]
position = Vector2( 240, -176 )

[node name="HangBlock11" parent="tilemap/HangableGroup" instance=ExtResource( 7 )]
position = Vector2( 272, -176 )

[node name="HangBlock12" parent="tilemap/HangableGroup" instance=ExtResource( 7 )]
position = Vector2( 304, -176 )

[node name="Sprite" parent="tilemap/HangableGroup/HangBlock12" index="0"]
texture = ExtResource( 8 )
flip_h = true

[node name="HangBlock13" parent="tilemap/HangableGroup" instance=ExtResource( 7 )]
position = Vector2( -112, -176 )

[node name="Sprite" parent="tilemap/HangableGroup/HangBlock13" index="0"]
texture = ExtResource( 8 )

[node name="PotGroup" type="Node2D" parent="tilemap"]

[node name="Pot" parent="tilemap/PotGroup" instance=ExtResource( 9 )]
position = Vector2( 384, 80 )

[node name="Pot1" parent="tilemap/PotGroup" instance=ExtResource( 9 )]
position = Vector2( 640, 80 )

[node name="EnemiesGroup" type="Node2D" parent="tilemap"]

[node name="FlyingSkull" parent="tilemap/EnemiesGroup" instance=ExtResource( 10 )]
position = Vector2( 512, -336 )

[node name="FlyingSkull1" parent="tilemap/EnemiesGroup" instance=ExtResource( 10 )]
position = Vector2( 624, -528 )

[node name="FlyingSkull2" parent="tilemap/EnemiesGroup" instance=ExtResource( 10 )]
position = Vector2( 624, -736 )

[node name="TeleportGroup" type="Node2D" parent="tilemap"]

[node name="Teleport" parent="tilemap/TeleportGroup" instance=ExtResource( 11 )]
position = Vector2( 48, 272 )
is_horizontal = false
target_level = "res://levels/springislandcastle/1-0.tscn"
teleport_to = Vector2( -336, -976 )

[node name="teleport" parent="tilemap/TeleportGroup/Teleport" index="0"]
scale = Vector2( 3, 1 )

[node name="Teleport1" parent="tilemap/TeleportGroup" instance=ExtResource( 11 )]
position = Vector2( 48, -1360 )
is_horizontal = false
target_level = "res://levels/springislandcastle/1-5.tscn"
teleport_to = Vector2( -240, 544 )

[node name="teleport" parent="tilemap/TeleportGroup/Teleport1" index="0"]
scale = Vector2( 3, 1 )

[node name="Teleport2" parent="tilemap/TeleportGroup" instance=ExtResource( 11 )]
position = Vector2( 1008, -976 )
target_level = "res://levels/springislandcastle/1-2.tscn"
teleport_to = Vector2( -332, 48 )

[node name="teleport" parent="tilemap/TeleportGroup/Teleport2" index="0"]
scale = Vector2( 1, 5 )

[node name="Teleport3" parent="tilemap/TeleportGroup" instance=ExtResource( 11 )]
position = Vector2( -240, -848 )
target_level = "res://levels/springislandcastle/6-0.tscn"
teleport_to = Vector2( 364, 80 )

[node name="teleport" parent="tilemap/TeleportGroup/Teleport3" index="0"]
scale = Vector2( 1, 5 )

[node name="boundaries" type="Node2D" parent="tilemap"]

[node name="NW" type="Position2D" parent="tilemap/boundaries"]
position = Vector2( -230, -1350 )

[node name="SE" type="Position2D" parent="tilemap/boundaries"]
position = Vector2( 1002, 266 )

[node name="ParallaxBackground" parent="." instance=ExtResource( 12 )]

[node name="tilemap2" parent="ParallaxBackground/ParallaxLayer" index="0"]
position = Vector2( 896, 512 )

[editable path="tilemap/LadderGroup/TestLadder"]

[editable path="tilemap/LadderGroup/TestLadder1"]

[editable path="tilemap/One-WayPlatformGroup/One-WayPlatform"]

[editable path="tilemap/One-WayPlatformGroup/One-WayPlatform1"]

[editable path="tilemap/One-WayPlatformGroup/One-WayPlatform2"]

[editable path="tilemap/HangableGroup/HangBlock12"]

[editable path="tilemap/HangableGroup/HangBlock13"]

[editable path="tilemap/TeleportGroup/Teleport"]

[editable path="tilemap/TeleportGroup/Teleport1"]

[editable path="tilemap/TeleportGroup/Teleport2"]

[editable path="tilemap/TeleportGroup/Teleport3"]

[editable path="ParallaxBackground"]
