[gd_scene load_steps=10 format=2]

[ext_resource path="res://scenes/springislandcastle/tileset.tres" type="TileSet" id=1]
[ext_resource path="res://scenes/springislandcastle/climbableblock.tscn" type="PackedScene" id=2]
[ext_resource path="res://scenes/common/breakables/lamp.tscn" type="PackedScene" id=3]
[ext_resource path="res://scenes/dungeon/ladder/ladder.tscn" type="PackedScene" id=4]
[ext_resource path="res://scenes/dungeon/movingplatform/movingplatform.tscn" type="PackedScene" id=5]
[ext_resource path="res://scenes/common/damagables/spiketile.tscn" type="PackedScene" id=6]
[ext_resource path="res://scenes/common/teleport.tscn" type="PackedScene" id=7]

[sub_resource type="PhysicsMaterial" id=1]
friction = 0.0

[sub_resource type="PhysicsMaterial" id=2]
friction = 0.0

[node name="LVL_NOTITLE" type="Node2D"]
__meta__ = {
"__editor_plugin_screen__": "2D"
}

[node name="tilemap" type="TileMap" parent="."]
tile_set = ExtResource( 1 )
cell_size = Vector2( 32, 32 )
compatibility_mode = true
collision_layer = 524288
format = 1
tile_data = PoolIntArray( -589835, 1610612737, 0, -589834, 1073741824, 0, -589833, 1073741824, 0, -589832, 1073741824, 0, -589831, 1073741824, 0, -589830, 1073741824, 0, -589829, 1073741824, 0, -589828, 1073741824, 0, -589827, 1073741824, 0, -589826, 1073741824, 0, -589825, 1073741824, 0, -655360, 1073741824, 0, -655359, 1073741824, 0, -655358, 1073741825, 0, -655357, 3, 0, -655356, -1610612732, 0, -655355, -1610612732, 0, -655354, -1610612732, 0, -655353, -1610612732, 0, -655352, 536870915, 0, -655351, 1610612737, 0, -655350, 1073741824, 0, -655349, 1073741824, 0, -655348, 1073741824, 0, -655347, 1073741824, 0, -655346, 1073741824, 0, -655345, 1073741824, 0, -655344, 1073741824, 0, -655343, 1073741824, 0, -655342, 1073741824, 0, -655341, 1073741824, 0, -655340, 1073741824, 0, -655339, 1073741824, 0, -655338, 1073741824, 0, -655337, 1073741824, 0, -655336, 1073741824, 0, -655335, 1073741824, 0, -655334, 1073741825, 0, -655333, 3, 0, -655332, -1610612732, 0, -655331, -1610612732, 0, -655330, -1610612732, 0, -655329, -1610612732, 0, -655328, 536870915, 0, -655327, 1610612737, 0, -655326, 1073741824, 0, -655325, 1073741824, 0, -655324, 1073741824, 0, -655323, 1073741824, 0, -655322, 1073741824, 0, -655321, 1073741824, 0, -655320, 1073741824, 0, -655319, 1073741824, 0, -655318, 1073741824, 0, -655317, 1073741824, 0, -655316, 1073741824, 0, -655315, 1073741824, 0, -655314, 1073741824, 0, -655313, 1073741824, 0, -655312, 1073741824, 0, -655311, 1073741824, 0, -655310, 1073741825, 0, -655309, 3, 0, -655308, -1610612732, 0, -655307, -1610612732, 0, -655306, -1610612732, 0, -655305, -1610612732, 0, -655304, 536870915, 0, -655303, 1610612737, 0, -655302, 1073741824, 0, -655301, 1073741824, 0, -655300, 1073741824, 0, -655299, 1073741825, 0, -655298, 7, 0, -655297, 7, 0, -655296, 7, 0, -655295, 1610612737, 0, -655294, 1073741824, 0, -655293, 1073741824, 0, -655292, 1073741824, 0, -655291, 1073741824, 0, -655290, 1073741825, 0, -524299, 2, 0, -524298, 27, 0, -524294, 6, 0, -524290, 27, 0, -589822, 2, 0, -589821, 4, 0, -589820, 5, 0, -589819, 5, 0, -589818, 5, 0, -589817, 5, 0, -589816, 4, 0, -589815, 2, 0, -589814, 27, 0, -589810, 27, 0, -589806, 28, 0, -589802, 27, 0, -589798, 2, 0, -589797, 4, 0, -589796, 5, 0, -589795, 5, 0, -589794, 5, 0, -589793, 5, 0, -589792, 4, 0, -589791, 2, 0, -589790, 27, 0, -589786, 28, 0, -589782, 27, 0, -589778, 27, 0, -589774, 2, 0, -589773, 4, 0, -589772, 5, 0, -589771, 5, 0, -589770, 5, 0, -589769, 5, 0, -589768, 4, 0, -589767, 2, 0, -589766, 27, 0, -589762, 12, 0, -589758, 27, 0, -589754, 2, 0, -458763, 2, 0, -524286, 2, 0, -524285, 4, 0, -524284, 5, 0, -524283, 5, 0, -524282, 5, 0, -524281, 5, 0, -524280, 4, 0, -524279, 2, 0, -524262, 2, 0, -524261, 4, 0, -524260, 5, 0, -524259, 5, 0, -524258, 5, 0, -524257, 5, 0, -524256, 4, 0, -524255, 2, 0, -524238, 2, 0, -524237, 4, 0, -524236, 5, 0, -524235, 5, 0, -524234, 5, 0, -524233, 5, 0, -524232, 4, 0, -524231, 2, 0, -524218, 2, 0, -393227, 2, 0, -458750, 2, 0, -458749, 4, 0, -458748, 5, 0, -458747, 5, 0, -458746, 5, 0, -458745, 5, 0, -458744, 4, 0, -458743, 2, 0, -458726, 2, 0, -458725, 4, 0, -458724, 5, 0, -458723, 5, 0, -458722, 5, 0, -458721, 5, 0, -458720, 4, 0, -458719, 2, 0, -458702, 2, 0, -458701, 4, 0, -458700, 5, 0, -458699, 5, 0, -458698, 5, 0, -458697, 5, 0, -458696, 4, 0, -458695, 2, 0, -458682, 2, 0, -327691, 2, 0, -393214, 2, 0, -393213, 4, 0, -393212, 5, 0, -393211, 5, 0, -393210, 5, 0, -393209, 5, 0, -393208, 4, 0, -393207, 2, 0, -393190, 2, 0, -393189, 4, 0, -393188, 5, 0, -393187, 5, 0, -393186, 5, 0, -393185, 5, 0, -393184, 4, 0, -393183, 2, 0, -393166, 2, 0, -393165, 4, 0, -393164, 5, 0, -393163, 5, 0, -393162, 5, 0, -393161, 5, 0, -393160, 4, 0, -393159, 2, 0, -393146, 2, 0, -262155, 2, 0, -327678, 2, 0, -327677, 4, 0, -327676, 5, 0, -327675, 5, 0, -327674, 5, 0, -327673, 5, 0, -327672, 4, 0, -327671, 2, 0, -327654, 2, 0, -327653, 4, 0, -327652, 5, 0, -327651, 5, 0, -327650, 5, 0, -327649, 5, 0, -327648, 4, 0, -327647, 2, 0, -327630, 2, 0, -327629, 4, 0, -327628, 5, 0, -327627, 5, 0, -327626, 5, 0, -327625, 5, 0, -327624, 4, 0, -327623, 2, 0, -327610, 2, 0, -196619, 2, 0, -262142, 2, 0, -262141, 4, 0, -262140, 5, 0, -262139, 5, 0, -262138, 5, 0, -262137, 5, 0, -262136, 4, 0, -262135, 2, 0, -262118, 2, 0, -262117, 4, 0, -262116, 5, 0, -262115, 5, 0, -262114, 5, 0, -262113, 5, 0, -262112, 4, 0, -262111, 2, 0, -262094, 2, 0, -262093, 4, 0, -262092, 5, 0, -262091, 5, 0, -262090, 5, 0, -262089, 5, 0, -262088, 4, 0, -262087, 2, 0, -262074, 2, 0, -131083, 2, 0, -196606, 2, 0, -196605, 1073741827, 0, -196604, -1610612732, 0, -196603, -1610612732, 0, -196602, -1610612732, 0, -196601, -1610612732, 0, -196600, 1610612739, 0, -196599, 2, 0, -196582, 2, 0, -196581, 1073741827, 0, -196580, -1610612732, 0, -196579, -1610612732, 0, -196578, -1610612732, 0, -196577, -1610612732, 0, -196576, 1610612739, 0, -196575, 2, 0, -196558, 2, 0, -196557, 1073741827, 0, -196556, -1610612732, 0, -196555, -1610612732, 0, -196554, -1610612732, 0, -196553, -1610612732, 0, -196552, 1610612739, 0, -196551, 2, 0, -196538, 2, 0, -65547, 1073741825, 0, -131070, 1610612737, 0, -131069, 1073741824, 0, -131068, 1073741824, 0, -131067, 1073741824, 0, -131066, 1073741824, 0, -131065, 1073741824, 0, -131064, 1073741824, 0, -131063, 1073741825, 0, -131046, 1610612737, 0, -131045, 1073741824, 0, -131044, 1073741824, 0, -131043, 1073741824, 0, -131042, 1073741824, 0, -131041, 1073741824, 0, -131040, 1073741824, 0, -131039, 1073741825, 0, -131022, 1610612737, 0, -131021, 1073741824, 0, -131020, 1073741824, 0, -131019, 1073741824, 0, -131018, 1073741824, 0, -131017, 1073741824, 0, -131016, 1073741824, 0, -131015, 1073741825, 0, -131002, 2, 0, -11, 7, 0, -10, 6, 0, -6, 12, 0, -2, 6, 0, -65534, 12, 0, -65530, 6, 0, -65526, 12, 0, -65522, 6, 0, -65518, 12, 0, -65514, 6, 0, -65510, 12, 0, -65506, 6, 0, -65502, 12, 0, -65498, 6, 0, -65494, 12, 0, -65490, 6, 0, -65486, 12, 0, -65482, 6, 0, -65478, 12, 0, -65474, 6, 0, -65470, 12, 0, -65466, 2, 0, 65525, 7, 0, 70, 2, 0, 131061, 7, 0, 65606, 2, 0, 196597, 7, 0, 131142, 2, 0, 262133, 7, 0, 196678, 2, 0, 327669, 536870913, 0, 327670, 0, 0, 327671, 0, 0, 327672, 0, 0, 327673, 0, 0, 262210, 0, 0, 262211, 0, 0, 262212, 0, 0, 262213, 0, 0, 262214, 1, 0, 393205, 2, 0, 327750, 2, 0, 458741, 2, 0, 393230, 536870913, 0, 393231, 0, 0, 393232, 0, 0, 393233, 0, 0, 393234, 0, 0, 393235, 0, 0, 393236, 0, 0, 393237, 1, 0, 393254, 536870913, 0, 393255, 0, 0, 393256, 0, 0, 393257, 0, 0, 393258, 0, 0, 393259, 0, 0, 393260, 0, 0, 393261, 1, 0, 393286, 2, 0, 524277, 2, 0, 524278, 26, 0, 524282, 25, 0, 524286, 25, 0, 458754, 26, 0, 458758, 26, 0, 458762, 25, 0, 458766, 2, 0, 458767, 3, 0, 458768, -1610612732, 0, 458769, -1610612732, 0, 458770, -1610612732, 0, 458771, -1610612732, 0, 458772, 536870915, 0, 458773, 2, 0, 458774, 27, 0, 458778, 28, 0, 458782, 27, 0, 458786, 27, 0, 458790, 2, 0, 458791, 3, 0, 458792, -1610612732, 0, 458793, -1610612732, 0, 458794, -1610612732, 0, 458795, -1610612732, 0, 458796, 536870915, 0, 458797, 2, 0, 458798, 25, 0, 458802, 26, 0, 458806, 26, 0, 458810, 25, 0, 458814, 26, 0, 458818, 25, 0, 458822, 2, 0, 589813, 2, 0, 524302, 2, 0, 524303, 4, 0, 524304, 5, 0, 524305, 5, 0, 524306, 5, 0, 524307, 5, 0, 524308, 4, 0, 524309, 2, 0, 524326, 2, 0, 524327, 4, 0, 524328, 5, 0, 524329, 5, 0, 524330, 5, 0, 524331, 5, 0, 524332, 4, 0, 524333, 2, 0, 524358, 2, 0, 655349, 2, 0, 589838, 2, 0, 589839, 4, 0, 589840, 5, 0, 589841, 5, 0, 589842, 5, 0, 589843, 5, 0, 589844, 4, 0, 589845, 2, 0, 589862, 2, 0, 589863, 4, 0, 589864, 5, 0, 589865, 5, 0, 589866, 5, 0, 589867, 5, 0, 589868, 4, 0, 589869, 2, 0, 589894, 2, 0, 720885, 2, 0, 655374, 2, 0, 655375, 4, 0, 655376, 5, 0, 655377, 5, 0, 655378, 5, 0, 655379, 5, 0, 655380, 4, 0, 655381, 2, 0, 655398, 2, 0, 655399, 4, 0, 655400, 5, 0, 655401, 5, 0, 655402, 5, 0, 655403, 5, 0, 655404, 4, 0, 655405, 2, 0, 655430, 2, 0, 786421, 2, 0, 720910, 2, 0, 720911, 4, 0, 720912, 5, 0, 720913, 5, 0, 720914, 5, 0, 720915, 5, 0, 720916, 4, 0, 720917, 2, 0, 720934, 2, 0, 720935, 4, 0, 720936, 5, 0, 720937, 5, 0, 720938, 5, 0, 720939, 5, 0, 720940, 4, 0, 720941, 2, 0, 720966, 2, 0, 851957, 2, 0, 786446, 2, 0, 786447, 4, 0, 786448, 5, 0, 786449, 5, 0, 786450, 5, 0, 786451, 5, 0, 786452, 4, 0, 786453, 2, 0, 786470, 2, 0, 786471, 4, 0, 786472, 5, 0, 786473, 5, 0, 786474, 5, 0, 786475, 5, 0, 786476, 4, 0, 786477, 2, 0, 786502, 2, 0, 917493, 2, 0, 851982, 2, 0, 851983, 4, 0, 851984, 5, 0, 851985, 5, 0, 851986, 5, 0, 851987, 5, 0, 851988, 4, 0, 851989, 2, 0, 852006, 2, 0, 852007, 4, 0, 852008, 5, 0, 852009, 5, 0, 852010, 5, 0, 852011, 5, 0, 852012, 4, 0, 852013, 2, 0, 852038, 2, 0, 983029, 2, 0, 917518, 2, 0, 917519, 4, 0, 917520, 5, 0, 917521, 5, 0, 917522, 5, 0, 917523, 5, 0, 917524, 4, 0, 917525, 2, 0, 917542, 2, 0, 917543, 4, 0, 917544, 5, 0, 917545, 5, 0, 917546, 5, 0, 917547, 5, 0, 917548, 4, 0, 917549, 2, 0, 917574, 2, 0, 1048565, 536870913, 0, 1048566, 0, 0, 1048567, 0, 0, 1048568, 0, 0, 1048569, 0, 0, 1048570, 0, 0, 1048571, 0, 0, 1048572, 0, 0, 1048573, 0, 0, 1048574, 0, 0, 1048575, 0, 0, 983040, 0, 0, 983041, 0, 0, 983042, 0, 0, 983043, 0, 0, 983044, 0, 0, 983045, 0, 0, 983046, 0, 0, 983047, 0, 0, 983048, 0, 0, 983049, 0, 0, 983050, 0, 0, 983051, 0, 0, 983052, 0, 0, 983053, 0, 0, 983054, 1, 0, 983055, 4, 0, 983056, 5, 0, 983057, 5, 0, 983058, 5, 0, 983059, 5, 0, 983060, 4, 0, 983061, 536870913, 0, 983062, 0, 0, 983063, 0, 0, 983064, 0, 0, 983065, 0, 0, 983066, 0, 0, 983067, 0, 0, 983068, 0, 0, 983069, 0, 0, 983070, 0, 0, 983071, 0, 0, 983072, 0, 0, 983073, 0, 0, 983074, 0, 0, 983075, 0, 0, 983076, 0, 0, 983077, 0, 0, 983078, 1, 0, 983079, 4, 0, 983080, 5, 0, 983081, 5, 0, 983082, 5, 0, 983083, 5, 0, 983084, 4, 0, 983085, 536870913, 0, 983086, 0, 0, 983087, 0, 0, 983088, 0, 0, 983089, 0, 0, 983090, 0, 0, 983091, 0, 0, 983092, 0, 0, 983093, 0, 0, 983094, 0, 0, 983095, 0, 0, 983096, 0, 0, 983097, 0, 0, 983098, 0, 0, 983099, 0, 0, 983100, 0, 0, 983101, 0, 0, 983102, 0, 0, 983103, 0, 0, 983104, 0, 0, 983105, 0, 0, 983106, 0, 0, 983107, 0, 0, 983108, 0, 0, 983109, 0, 0, 983110, 1, 0, 1114101, 2, 0, 1114102, 3, 0, 1114103, -1610612732, 0, 1114104, -1610612732, 0, 1114105, -1610612732, 0, 1114106, -1610612732, 0, 1114107, -1610612732, 0, 1114108, -1610612732, 0, 1114109, -1610612732, 0, 1114110, -1610612732, 0, 1114111, -1610612732, 0, 1048576, -1610612732, 0, 1048577, -1610612732, 0, 1048578, -1610612732, 0, 1048579, -1610612732, 0, 1048580, -1610612732, 0, 1048581, -1610612732, 0, 1048582, -1610612732, 0, 1048583, -1610612732, 0, 1048584, -1610612732, 0, 1048585, -1610612732, 0, 1048586, -1610612732, 0, 1048587, -1610612732, 0, 1048588, -1610612732, 0, 1048589, -1610612732, 0, 1048590, -1610612732, 0, 1048591, 1610612739, 0, 1048592, 5, 0, 1048593, 5, 0, 1048594, 5, 0, 1048595, 5, 0, 1048596, 1073741827, 0, 1048597, -1610612732, 0, 1048598, -1610612732, 0, 1048599, -1610612732, 0, 1048600, -1610612732, 0, 1048601, -1610612732, 0, 1048602, -1610612732, 0, 1048603, -1610612732, 0, 1048604, -1610612732, 0, 1048605, -1610612732, 0, 1048606, -1610612732, 0, 1048607, -1610612732, 0, 1048608, -1610612732, 0, 1048609, -1610612732, 0, 1048610, -1610612732, 0, 1048611, -1610612732, 0, 1048612, -1610612732, 0, 1048613, -1610612732, 0, 1048614, -1610612732, 0, 1048615, 1610612739, 0, 1048616, 5, 0, 1048617, 5, 0, 1048618, 5, 0, 1048619, 5, 0, 1048620, 1073741827, 0, 1048621, -1610612732, 0, 1048622, -1610612732, 0, 1048623, -1610612732, 0, 1048624, -1610612732, 0, 1048625, -1610612732, 0, 1048626, -1610612732, 0, 1048627, -1610612732, 0, 1048628, -1610612732, 0, 1048629, -1610612732, 0, 1048630, -1610612732, 0, 1048631, -1610612732, 0, 1048632, -1610612732, 0, 1048633, -1610612732, 0, 1048634, -1610612732, 0, 1048635, -1610612732, 0, 1048636, -1610612732, 0, 1048637, -1610612732, 0, 1048638, -1610612732, 0, 1048639, -1610612732, 0, 1048640, -1610612732, 0, 1048641, -1610612732, 0, 1048642, -1610612732, 0, 1048643, -1610612732, 0, 1048644, -1610612732, 0, 1048645, 536870915, 0, 1048646, 2, 0, 1179637, 2, 0, 1179638, 4, 0, 1179639, 5, 0, 1179640, 5, 0, 1179641, 5, 0, 1179642, 5, 0, 1179643, 5, 0, 1179644, 5, 0, 1179645, 5, 0, 1179646, 5, 0, 1179647, 5, 0, 1114112, 5, 0, 1114113, 5, 0, 1114114, 5, 0, 1114115, 5, 0, 1114116, 5, 0, 1114117, 5, 0, 1114118, 5, 0, 1114119, 5, 0, 1114120, 5, 0, 1114121, 5, 0, 1114122, 5, 0, 1114123, 5, 0, 1114124, 5, 0, 1114125, 5, 0, 1114126, 5, 0, 1114127, 5, 0, 1114128, 5, 0, 1114129, 5, 0, 1114130, 5, 0, 1114131, 5, 0, 1114132, 5, 0, 1114133, 5, 0, 1114134, 5, 0, 1114135, 5, 0, 1114136, 5, 0, 1114137, 5, 0, 1114138, 5, 0, 1114139, 5, 0, 1114140, 5, 0, 1114141, 5, 0, 1114142, 5, 0, 1114143, 5, 0, 1114144, 5, 0, 1114145, 5, 0, 1114146, 5, 0, 1114147, 5, 0, 1114148, 5, 0, 1114149, 5, 0, 1114150, 5, 0, 1114151, 5, 0, 1114152, 5, 0, 1114153, 5, 0, 1114154, 5, 0, 1114155, 5, 0, 1114156, 5, 0, 1114157, 5, 0, 1114158, 5, 0, 1114159, 5, 0, 1114160, 5, 0, 1114161, 5, 0, 1114162, 5, 0, 1114163, 5, 0, 1114164, 5, 0, 1114165, 5, 0, 1114166, 5, 0, 1114167, 5, 0, 1114168, 5, 0, 1114169, 5, 0, 1114170, 5, 0, 1114171, 5, 0, 1114172, 5, 0, 1114173, 5, 0, 1114174, 5, 0, 1114175, 5, 0, 1114176, 5, 0, 1114177, 5, 0, 1114178, 5, 0, 1114179, 5, 0, 1114180, 5, 0, 1114181, 4, 0, 1114182, 2, 0, 1245173, 2, 0, 1245174, 1073741827, 0, 1245175, -1610612732, 0, 1245176, -1610612732, 0, 1245177, -1610612732, 0, 1245178, -1610612732, 0, 1245179, -1610612732, 0, 1245180, -1610612732, 0, 1245181, -1610612732, 0, 1245182, -1610612732, 0, 1245183, -1610612732, 0, 1179648, -1610612732, 0, 1179649, -1610612732, 0, 1179650, -1610612732, 0, 1179651, -1610612732, 0, 1179652, -1610612732, 0, 1179653, -1610612732, 0, 1179654, -1610612732, 0, 1179655, -1610612732, 0, 1179656, -1610612732, 0, 1179657, -1610612732, 0, 1179658, -1610612732, 0, 1179659, -1610612732, 0, 1179660, -1610612732, 0, 1179661, -1610612732, 0, 1179662, -1610612732, 0, 1179663, -1610612732, 0, 1179664, -1610612732, 0, 1179665, -1610612732, 0, 1179666, -1610612732, 0, 1179667, -1610612732, 0, 1179668, -1610612732, 0, 1179669, -1610612732, 0, 1179670, -1610612732, 0, 1179671, -1610612732, 0, 1179672, -1610612732, 0, 1179673, -1610612732, 0, 1179674, -1610612732, 0, 1179675, -1610612732, 0, 1179676, -1610612732, 0, 1179677, -1610612732, 0, 1179678, -1610612732, 0, 1179679, -1610612732, 0, 1179680, -1610612732, 0, 1179681, -1610612732, 0, 1179682, -1610612732, 0, 1179683, -1610612732, 0, 1179684, -1610612732, 0, 1179685, -1610612732, 0, 1179686, -1610612732, 0, 1179687, -1610612732, 0, 1179688, -1610612732, 0, 1179689, -1610612732, 0, 1179690, -1610612732, 0, 1179691, -1610612732, 0, 1179692, -1610612732, 0, 1179693, -1610612732, 0, 1179694, -1610612732, 0, 1179695, -1610612732, 0, 1179696, -1610612732, 0, 1179697, -1610612732, 0, 1179698, -1610612732, 0, 1179699, -1610612732, 0, 1179700, -1610612732, 0, 1179701, -1610612732, 0, 1179702, -1610612732, 0, 1179703, -1610612732, 0, 1179704, -1610612732, 0, 1179705, -1610612732, 0, 1179706, -1610612732, 0, 1179707, -1610612732, 0, 1179708, -1610612732, 0, 1179709, -1610612732, 0, 1179710, -1610612732, 0, 1179711, -1610612732, 0, 1179712, -1610612732, 0, 1179713, -1610612732, 0, 1179714, -1610612732, 0, 1179715, -1610612732, 0, 1179716, -1610612732, 0, 1179717, 1610612739, 0, 1179718, 2, 0 )

[node name="ClimbableGroup" type="Node2D" parent="tilemap"]

[node name="ClimbableBlock" parent="tilemap/ClimbableGroup" instance=ExtResource( 2 )]
position = Vector2( -176, 144 )
physics_material_override = SubResource( 1 )

[node name="Sprite" parent="tilemap/ClimbableGroup/ClimbableBlock" index="0"]
flip_h = false

[node name="ClimbableBlock1" parent="tilemap/ClimbableGroup" instance=ExtResource( 2 )]
position = Vector2( 2096, 144 )
physics_material_override = SubResource( 2 )

[node name="LampGroup" type="Node2D" parent="tilemap"]

[node name="lamp" parent="tilemap/LampGroup" instance=ExtResource( 3 )]
position = Vector2( 0, 80 )

[node name="lamp2" parent="tilemap/LampGroup" instance=ExtResource( 3 )]
position = Vector2( 512, 80 )

[node name="lamp3" parent="tilemap/LampGroup" instance=ExtResource( 3 )]
position = Vector2( 1024, 80 )

[node name="lamp4" parent="tilemap/LampGroup" instance=ExtResource( 3 )]
position = Vector2( 1536, 80 )

[node name="lamp5" parent="tilemap/LampGroup" instance=ExtResource( 3 )]
position = Vector2( 2048, 80 )

[node name="LadderGroup" type="Node2D" parent="tilemap"]

[node name="TestLadder" parent="tilemap/LadderGroup" instance=ExtResource( 4 )]
position = Vector2( 2032, -192 )

[node name="Sprite" parent="tilemap/LadderGroup/TestLadder/KinematicBody2D" index="0"]
region_rect = Rect2( 0, 0, 32, 256 )

[node name="ladder" parent="tilemap/LadderGroup/TestLadder/KinematicBody2D" index="1"]
scale = Vector2( 1, 8 )

[node name="MovingPlatformGroup" type="Node2D" parent="tilemap"]

[node name="MovingPlatform" parent="tilemap/MovingPlatformGroup" instance=ExtResource( 5 )]
position = Vector2( -96, 80 )
motion = Vector2( 1088, 0 )
cycle = 6.0
offset = -1.0
linear = true

[node name="SpikeGroup" type="Node2D" parent="tilemap"]

[node name="SpikeTile" parent="tilemap/SpikeGroup" instance=ExtResource( 6 )]
position = Vector2( -304, 464 )

[node name="SpikeTile1" parent="tilemap/SpikeGroup" instance=ExtResource( 6 )]
position = Vector2( -272, 464 )

[node name="SpikeTile2" parent="tilemap/SpikeGroup" instance=ExtResource( 6 )]
position = Vector2( -240, 464 )

[node name="SpikeTile3" parent="tilemap/SpikeGroup" instance=ExtResource( 6 )]
position = Vector2( -208, 464 )

[node name="SpikeTile4" parent="tilemap/SpikeGroup" instance=ExtResource( 6 )]
position = Vector2( -176, 464 )

[node name="SpikeTile5" parent="tilemap/SpikeGroup" instance=ExtResource( 6 )]
position = Vector2( -144, 464 )

[node name="SpikeTile6" parent="tilemap/SpikeGroup" instance=ExtResource( 6 )]
position = Vector2( -112, 464 )

[node name="SpikeTile7" parent="tilemap/SpikeGroup" instance=ExtResource( 6 )]
position = Vector2( -80, 464 )

[node name="SpikeTile8" parent="tilemap/SpikeGroup" instance=ExtResource( 6 )]
position = Vector2( -48, 464 )

[node name="SpikeTile9" parent="tilemap/SpikeGroup" instance=ExtResource( 6 )]
position = Vector2( -16, 464 )

[node name="SpikeTile10" parent="tilemap/SpikeGroup" instance=ExtResource( 6 )]
position = Vector2( 16, 464 )

[node name="SpikeTile11" parent="tilemap/SpikeGroup" instance=ExtResource( 6 )]
position = Vector2( 48, 464 )

[node name="SpikeTile12" parent="tilemap/SpikeGroup" instance=ExtResource( 6 )]
position = Vector2( 80, 464 )

[node name="SpikeTile13" parent="tilemap/SpikeGroup" instance=ExtResource( 6 )]
position = Vector2( 112, 464 )

[node name="SpikeTile14" parent="tilemap/SpikeGroup" instance=ExtResource( 6 )]
position = Vector2( 144, 464 )

[node name="SpikeTile15" parent="tilemap/SpikeGroup" instance=ExtResource( 6 )]
position = Vector2( 176, 464 )

[node name="SpikeTile16" parent="tilemap/SpikeGroup" instance=ExtResource( 6 )]
position = Vector2( 208, 464 )

[node name="SpikeTile17" parent="tilemap/SpikeGroup" instance=ExtResource( 6 )]
position = Vector2( 240, 464 )

[node name="SpikeTile18" parent="tilemap/SpikeGroup" instance=ExtResource( 6 )]
position = Vector2( 272, 464 )

[node name="SpikeTile19" parent="tilemap/SpikeGroup" instance=ExtResource( 6 )]
position = Vector2( 304, 464 )

[node name="SpikeTile20" parent="tilemap/SpikeGroup" instance=ExtResource( 6 )]
position = Vector2( 336, 464 )

[node name="SpikeTile21" parent="tilemap/SpikeGroup" instance=ExtResource( 6 )]
position = Vector2( 368, 464 )

[node name="SpikeTile22" parent="tilemap/SpikeGroup" instance=ExtResource( 6 )]
position = Vector2( 400, 464 )

[node name="SpikeTile23" parent="tilemap/SpikeGroup" instance=ExtResource( 6 )]
position = Vector2( 432, 464 )

[node name="SpikeTile24" parent="tilemap/SpikeGroup" instance=ExtResource( 6 )]
position = Vector2( 464, 176 )

[node name="SpikeTile25" parent="tilemap/SpikeGroup" instance=ExtResource( 6 )]
position = Vector2( 496, 176 )

[node name="SpikeTile26" parent="tilemap/SpikeGroup" instance=ExtResource( 6 )]
position = Vector2( 528, 176 )

[node name="SpikeTile27" parent="tilemap/SpikeGroup" instance=ExtResource( 6 )]
position = Vector2( 560, 176 )

[node name="SpikeTile28" parent="tilemap/SpikeGroup" instance=ExtResource( 6 )]
position = Vector2( 592, 176 )

[node name="SpikeTile29" parent="tilemap/SpikeGroup" instance=ExtResource( 6 )]
position = Vector2( 624, 176 )

[node name="SpikeTile30" parent="tilemap/SpikeGroup" instance=ExtResource( 6 )]
position = Vector2( 656, 176 )

[node name="SpikeTile31" parent="tilemap/SpikeGroup" instance=ExtResource( 6 )]
position = Vector2( 688, 176 )

[node name="SpikeTile32" parent="tilemap/SpikeGroup" instance=ExtResource( 6 )]
position = Vector2( 720, 464 )

[node name="SpikeTile33" parent="tilemap/SpikeGroup" instance=ExtResource( 6 )]
position = Vector2( 752, 464 )

[node name="SpikeTile34" parent="tilemap/SpikeGroup" instance=ExtResource( 6 )]
position = Vector2( 784, 464 )

[node name="SpikeTile35" parent="tilemap/SpikeGroup" instance=ExtResource( 6 )]
position = Vector2( 816, 464 )

[node name="SpikeTile36" parent="tilemap/SpikeGroup" instance=ExtResource( 6 )]
position = Vector2( 848, 464 )

[node name="SpikeTile37" parent="tilemap/SpikeGroup" instance=ExtResource( 6 )]
position = Vector2( 880, 464 )

[node name="SpikeTile38" parent="tilemap/SpikeGroup" instance=ExtResource( 6 )]
position = Vector2( 912, 464 )

[node name="SpikeTile39" parent="tilemap/SpikeGroup" instance=ExtResource( 6 )]
position = Vector2( 944, 464 )

[node name="SpikeTile40" parent="tilemap/SpikeGroup" instance=ExtResource( 6 )]
position = Vector2( 976, 464 )

[node name="SpikeTile41" parent="tilemap/SpikeGroup" instance=ExtResource( 6 )]
position = Vector2( 1008, 464 )

[node name="SpikeTile42" parent="tilemap/SpikeGroup" instance=ExtResource( 6 )]
position = Vector2( 1040, 464 )

[node name="SpikeTile43" parent="tilemap/SpikeGroup" instance=ExtResource( 6 )]
position = Vector2( 1072, 464 )

[node name="SpikeTile44" parent="tilemap/SpikeGroup" instance=ExtResource( 6 )]
position = Vector2( 1104, 464 )

[node name="SpikeTile45" parent="tilemap/SpikeGroup" instance=ExtResource( 6 )]
position = Vector2( 1136, 464 )

[node name="SpikeTile46" parent="tilemap/SpikeGroup" instance=ExtResource( 6 )]
position = Vector2( 1168, 464 )

[node name="SpikeTile47" parent="tilemap/SpikeGroup" instance=ExtResource( 6 )]
position = Vector2( 1200, 464 )

[node name="SpikeTile48" parent="tilemap/SpikeGroup" instance=ExtResource( 6 )]
position = Vector2( 1232, 176 )

[node name="SpikeTile49" parent="tilemap/SpikeGroup" instance=ExtResource( 6 )]
position = Vector2( 1264, 176 )

[node name="SpikeTile50" parent="tilemap/SpikeGroup" instance=ExtResource( 6 )]
position = Vector2( 1296, 176 )

[node name="SpikeTile51" parent="tilemap/SpikeGroup" instance=ExtResource( 6 )]
position = Vector2( 1328, 176 )

[node name="SpikeTile52" parent="tilemap/SpikeGroup" instance=ExtResource( 6 )]
position = Vector2( 1360, 176 )

[node name="SpikeTile53" parent="tilemap/SpikeGroup" instance=ExtResource( 6 )]
position = Vector2( 1392, 176 )

[node name="SpikeTile54" parent="tilemap/SpikeGroup" instance=ExtResource( 6 )]
position = Vector2( 1424, 176 )

[node name="SpikeTile55" parent="tilemap/SpikeGroup" instance=ExtResource( 6 )]
position = Vector2( 1456, 176 )

[node name="SpikeTile56" parent="tilemap/SpikeGroup" instance=ExtResource( 6 )]
position = Vector2( 1488, 464 )

[node name="SpikeTile57" parent="tilemap/SpikeGroup" instance=ExtResource( 6 )]
position = Vector2( 1520, 464 )

[node name="SpikeTile58" parent="tilemap/SpikeGroup" instance=ExtResource( 6 )]
position = Vector2( 1552, 464 )

[node name="SpikeTile59" parent="tilemap/SpikeGroup" instance=ExtResource( 6 )]
position = Vector2( 1584, 464 )

[node name="SpikeTile60" parent="tilemap/SpikeGroup" instance=ExtResource( 6 )]
position = Vector2( 1616, 464 )

[node name="SpikeTile61" parent="tilemap/SpikeGroup" instance=ExtResource( 6 )]
position = Vector2( 1648, 464 )

[node name="SpikeTile62" parent="tilemap/SpikeGroup" instance=ExtResource( 6 )]
position = Vector2( 1680, 464 )

[node name="SpikeTile63" parent="tilemap/SpikeGroup" instance=ExtResource( 6 )]
position = Vector2( 1712, 464 )

[node name="SpikeTile64" parent="tilemap/SpikeGroup" instance=ExtResource( 6 )]
position = Vector2( 1744, 464 )

[node name="SpikeTile65" parent="tilemap/SpikeGroup" instance=ExtResource( 6 )]
position = Vector2( 1776, 464 )

[node name="SpikeTile66" parent="tilemap/SpikeGroup" instance=ExtResource( 6 )]
position = Vector2( 1808, 464 )

[node name="SpikeTile67" parent="tilemap/SpikeGroup" instance=ExtResource( 6 )]
position = Vector2( 1840, 464 )

[node name="SpikeTile68" parent="tilemap/SpikeGroup" instance=ExtResource( 6 )]
position = Vector2( 1872, 464 )

[node name="SpikeTile69" parent="tilemap/SpikeGroup" instance=ExtResource( 6 )]
position = Vector2( 1904, 464 )

[node name="SpikeTile70" parent="tilemap/SpikeGroup" instance=ExtResource( 6 )]
position = Vector2( 1936, 464 )

[node name="SpikeTile71" parent="tilemap/SpikeGroup" instance=ExtResource( 6 )]
position = Vector2( 1968, 464 )

[node name="SpikeTile72" parent="tilemap/SpikeGroup" instance=ExtResource( 6 )]
position = Vector2( 2000, 464 )

[node name="SpikeTile73" parent="tilemap/SpikeGroup" instance=ExtResource( 6 )]
position = Vector2( 2032, 464 )

[node name="SpikeTile74" parent="tilemap/SpikeGroup" instance=ExtResource( 6 )]
position = Vector2( 2064, 464 )

[node name="SpikeTile75" parent="tilemap/SpikeGroup" instance=ExtResource( 6 )]
position = Vector2( 2096, 464 )

[node name="SpikeTile76" parent="tilemap/SpikeGroup" instance=ExtResource( 6 )]
position = Vector2( 2128, 464 )

[node name="SpikeTile77" parent="tilemap/SpikeGroup" instance=ExtResource( 6 )]
position = Vector2( 2160, 464 )

[node name="SpikeTile78" parent="tilemap/SpikeGroup" instance=ExtResource( 6 )]
position = Vector2( 2192, 464 )

[node name="SpikeTile79" parent="tilemap/SpikeGroup" instance=ExtResource( 6 )]
position = Vector2( 2224, 464 )

[node name="SpikeTile80" parent="tilemap/SpikeGroup" instance=ExtResource( 6 )]
position = Vector2( 2224, -272 )

[node name="Sprite" parent="tilemap/SpikeGroup/SpikeTile80" index="0"]
flip_v = true

[node name="SpikeTile81" parent="tilemap/SpikeGroup" instance=ExtResource( 6 )]
position = Vector2( 2192, -272 )

[node name="Sprite" parent="tilemap/SpikeGroup/SpikeTile81" index="0"]
flip_v = true

[node name="SpikeTile82" parent="tilemap/SpikeGroup" instance=ExtResource( 6 )]
position = Vector2( 2160, -272 )

[node name="Sprite" parent="tilemap/SpikeGroup/SpikeTile82" index="0"]
flip_v = true

[node name="SpikeTile83" parent="tilemap/SpikeGroup" instance=ExtResource( 6 )]
position = Vector2( 2128, -272 )

[node name="Sprite" parent="tilemap/SpikeGroup/SpikeTile83" index="0"]
flip_v = true

[node name="SpikeTile84" parent="tilemap/SpikeGroup" instance=ExtResource( 6 )]
position = Vector2( 2096, -272 )

[node name="Sprite" parent="tilemap/SpikeGroup/SpikeTile84" index="0"]
flip_v = true

[node name="SpikeTile85" parent="tilemap/SpikeGroup" instance=ExtResource( 6 )]
position = Vector2( 1968, -272 )

[node name="Sprite" parent="tilemap/SpikeGroup/SpikeTile85" index="0"]
flip_v = true

[node name="SpikeTile86" parent="tilemap/SpikeGroup" instance=ExtResource( 6 )]
position = Vector2( 1936, -272 )

[node name="Sprite" parent="tilemap/SpikeGroup/SpikeTile86" index="0"]
flip_v = true

[node name="SpikeTile87" parent="tilemap/SpikeGroup" instance=ExtResource( 6 )]
position = Vector2( 1904, -272 )

[node name="Sprite" parent="tilemap/SpikeGroup/SpikeTile87" index="0"]
flip_v = true

[node name="SpikeTile88" parent="tilemap/SpikeGroup" instance=ExtResource( 6 )]
position = Vector2( 1872, -272 )

[node name="Sprite" parent="tilemap/SpikeGroup/SpikeTile88" index="0"]
flip_v = true

[node name="SpikeTile89" parent="tilemap/SpikeGroup" instance=ExtResource( 6 )]
position = Vector2( 1840, -16 )

[node name="Sprite" parent="tilemap/SpikeGroup/SpikeTile89" index="0"]
flip_v = true

[node name="SpikeTile90" parent="tilemap/SpikeGroup" instance=ExtResource( 6 )]
position = Vector2( 1808, -16 )

[node name="Sprite" parent="tilemap/SpikeGroup/SpikeTile90" index="0"]
flip_v = true

[node name="SpikeTile91" parent="tilemap/SpikeGroup" instance=ExtResource( 6 )]
position = Vector2( 1776, -16 )

[node name="Sprite" parent="tilemap/SpikeGroup/SpikeTile91" index="0"]
flip_v = true

[node name="SpikeTile92" parent="tilemap/SpikeGroup" instance=ExtResource( 6 )]
position = Vector2( 1744, -16 )

[node name="Sprite" parent="tilemap/SpikeGroup/SpikeTile92" index="0"]
flip_v = true

[node name="SpikeTile93" parent="tilemap/SpikeGroup" instance=ExtResource( 6 )]
position = Vector2( 1712, -16 )

[node name="Sprite" parent="tilemap/SpikeGroup/SpikeTile93" index="0"]
flip_v = true

[node name="SpikeTile94" parent="tilemap/SpikeGroup" instance=ExtResource( 6 )]
position = Vector2( 1680, -16 )

[node name="Sprite" parent="tilemap/SpikeGroup/SpikeTile94" index="0"]
flip_v = true

[node name="SpikeTile95" parent="tilemap/SpikeGroup" instance=ExtResource( 6 )]
position = Vector2( 1648, -16 )

[node name="Sprite" parent="tilemap/SpikeGroup/SpikeTile95" index="0"]
flip_v = true

[node name="SpikeTile96" parent="tilemap/SpikeGroup" instance=ExtResource( 6 )]
position = Vector2( 1616, -16 )

[node name="Sprite" parent="tilemap/SpikeGroup/SpikeTile96" index="0"]
flip_v = true

[node name="SpikeTile97" parent="tilemap/SpikeGroup" instance=ExtResource( 6 )]
position = Vector2( 1584, -272 )

[node name="Sprite" parent="tilemap/SpikeGroup/SpikeTile97" index="0"]
flip_v = true

[node name="SpikeTile98" parent="tilemap/SpikeGroup" instance=ExtResource( 6 )]
position = Vector2( 1552, -272 )

[node name="Sprite" parent="tilemap/SpikeGroup/SpikeTile98" index="0"]
flip_v = true

[node name="SpikeTile99" parent="tilemap/SpikeGroup" instance=ExtResource( 6 )]
position = Vector2( 1520, -272 )

[node name="Sprite" parent="tilemap/SpikeGroup/SpikeTile99" index="0"]
flip_v = true

[node name="SpikeTile100" parent="tilemap/SpikeGroup" instance=ExtResource( 6 )]
position = Vector2( 1488, -272 )

[node name="Sprite" parent="tilemap/SpikeGroup/SpikeTile100" index="0"]
flip_v = true

[node name="SpikeTile101" parent="tilemap/SpikeGroup" instance=ExtResource( 6 )]
position = Vector2( 1456, -272 )

[node name="Sprite" parent="tilemap/SpikeGroup/SpikeTile101" index="0"]
flip_v = true

[node name="SpikeTile102" parent="tilemap/SpikeGroup" instance=ExtResource( 6 )]
position = Vector2( 1424, -272 )

[node name="Sprite" parent="tilemap/SpikeGroup/SpikeTile102" index="0"]
flip_v = true

[node name="SpikeTile103" parent="tilemap/SpikeGroup" instance=ExtResource( 6 )]
position = Vector2( 1392, -272 )

[node name="Sprite" parent="tilemap/SpikeGroup/SpikeTile103" index="0"]
flip_v = true

[node name="SpikeTile104" parent="tilemap/SpikeGroup" instance=ExtResource( 6 )]
position = Vector2( 1360, -272 )

[node name="Sprite" parent="tilemap/SpikeGroup/SpikeTile104" index="0"]
flip_v = true

[node name="SpikeTile105" parent="tilemap/SpikeGroup" instance=ExtResource( 6 )]
position = Vector2( 1328, -272 )

[node name="Sprite" parent="tilemap/SpikeGroup/SpikeTile105" index="0"]
flip_v = true

[node name="SpikeTile106" parent="tilemap/SpikeGroup" instance=ExtResource( 6 )]
position = Vector2( 1296, -272 )

[node name="Sprite" parent="tilemap/SpikeGroup/SpikeTile106" index="0"]
flip_v = true

[node name="SpikeTile107" parent="tilemap/SpikeGroup" instance=ExtResource( 6 )]
position = Vector2( 1264, -272 )

[node name="Sprite" parent="tilemap/SpikeGroup/SpikeTile107" index="0"]
flip_v = true

[node name="SpikeTile108" parent="tilemap/SpikeGroup" instance=ExtResource( 6 )]
position = Vector2( 1232, -272 )

[node name="Sprite" parent="tilemap/SpikeGroup/SpikeTile108" index="0"]
flip_v = true

[node name="SpikeTile109" parent="tilemap/SpikeGroup" instance=ExtResource( 6 )]
position = Vector2( 1200, -272 )

[node name="Sprite" parent="tilemap/SpikeGroup/SpikeTile109" index="0"]
flip_v = true

[node name="SpikeTile110" parent="tilemap/SpikeGroup" instance=ExtResource( 6 )]
position = Vector2( 1168, -272 )

[node name="Sprite" parent="tilemap/SpikeGroup/SpikeTile110" index="0"]
flip_v = true

[node name="SpikeTile111" parent="tilemap/SpikeGroup" instance=ExtResource( 6 )]
position = Vector2( 1136, -272 )

[node name="Sprite" parent="tilemap/SpikeGroup/SpikeTile111" index="0"]
flip_v = true

[node name="SpikeTile112" parent="tilemap/SpikeGroup" instance=ExtResource( 6 )]
position = Vector2( 1104, -272 )

[node name="Sprite" parent="tilemap/SpikeGroup/SpikeTile112" index="0"]
flip_v = true

[node name="SpikeTile113" parent="tilemap/SpikeGroup" instance=ExtResource( 6 )]
position = Vector2( 1072, -16 )

[node name="Sprite" parent="tilemap/SpikeGroup/SpikeTile113" index="0"]
flip_v = true

[node name="SpikeTile114" parent="tilemap/SpikeGroup" instance=ExtResource( 6 )]
position = Vector2( 1040, -16 )

[node name="Sprite" parent="tilemap/SpikeGroup/SpikeTile114" index="0"]
flip_v = true

[node name="SpikeTile115" parent="tilemap/SpikeGroup" instance=ExtResource( 6 )]
position = Vector2( 1008, -16 )

[node name="Sprite" parent="tilemap/SpikeGroup/SpikeTile115" index="0"]
flip_v = true

[node name="SpikeTile116" parent="tilemap/SpikeGroup" instance=ExtResource( 6 )]
position = Vector2( 976, -16 )

[node name="Sprite" parent="tilemap/SpikeGroup/SpikeTile116" index="0"]
flip_v = true

[node name="SpikeTile117" parent="tilemap/SpikeGroup" instance=ExtResource( 6 )]
position = Vector2( 944, -16 )

[node name="Sprite" parent="tilemap/SpikeGroup/SpikeTile117" index="0"]
flip_v = true

[node name="SpikeTile118" parent="tilemap/SpikeGroup" instance=ExtResource( 6 )]
position = Vector2( 912, -16 )

[node name="Sprite" parent="tilemap/SpikeGroup/SpikeTile118" index="0"]
flip_v = true

[node name="SpikeTile119" parent="tilemap/SpikeGroup" instance=ExtResource( 6 )]
position = Vector2( 880, -16 )

[node name="Sprite" parent="tilemap/SpikeGroup/SpikeTile119" index="0"]
flip_v = true

[node name="SpikeTile120" parent="tilemap/SpikeGroup" instance=ExtResource( 6 )]
position = Vector2( 848, -16 )

[node name="Sprite" parent="tilemap/SpikeGroup/SpikeTile120" index="0"]
flip_v = true

[node name="SpikeTile121" parent="tilemap/SpikeGroup" instance=ExtResource( 6 )]
position = Vector2( 816, -272 )

[node name="Sprite" parent="tilemap/SpikeGroup/SpikeTile121" index="0"]
flip_v = true

[node name="SpikeTile122" parent="tilemap/SpikeGroup" instance=ExtResource( 6 )]
position = Vector2( 784, -272 )

[node name="Sprite" parent="tilemap/SpikeGroup/SpikeTile122" index="0"]
flip_v = true

[node name="SpikeTile123" parent="tilemap/SpikeGroup" instance=ExtResource( 6 )]
position = Vector2( 752, -272 )

[node name="Sprite" parent="tilemap/SpikeGroup/SpikeTile123" index="0"]
flip_v = true

[node name="SpikeTile124" parent="tilemap/SpikeGroup" instance=ExtResource( 6 )]
position = Vector2( 720, -272 )

[node name="Sprite" parent="tilemap/SpikeGroup/SpikeTile124" index="0"]
flip_v = true

[node name="SpikeTile125" parent="tilemap/SpikeGroup" instance=ExtResource( 6 )]
position = Vector2( 688, -272 )

[node name="Sprite" parent="tilemap/SpikeGroup/SpikeTile125" index="0"]
flip_v = true

[node name="SpikeTile126" parent="tilemap/SpikeGroup" instance=ExtResource( 6 )]
position = Vector2( 656, -272 )

[node name="Sprite" parent="tilemap/SpikeGroup/SpikeTile126" index="0"]
flip_v = true

[node name="SpikeTile127" parent="tilemap/SpikeGroup" instance=ExtResource( 6 )]
position = Vector2( 624, -272 )

[node name="Sprite" parent="tilemap/SpikeGroup/SpikeTile127" index="0"]
flip_v = true

[node name="SpikeTile128" parent="tilemap/SpikeGroup" instance=ExtResource( 6 )]
position = Vector2( 592, -272 )

[node name="Sprite" parent="tilemap/SpikeGroup/SpikeTile128" index="0"]
flip_v = true

[node name="SpikeTile129" parent="tilemap/SpikeGroup" instance=ExtResource( 6 )]
position = Vector2( 560, -272 )

[node name="Sprite" parent="tilemap/SpikeGroup/SpikeTile129" index="0"]
flip_v = true

[node name="SpikeTile130" parent="tilemap/SpikeGroup" instance=ExtResource( 6 )]
position = Vector2( 528, -272 )

[node name="Sprite" parent="tilemap/SpikeGroup/SpikeTile130" index="0"]
flip_v = true

[node name="SpikeTile131" parent="tilemap/SpikeGroup" instance=ExtResource( 6 )]
position = Vector2( 496, -272 )

[node name="Sprite" parent="tilemap/SpikeGroup/SpikeTile131" index="0"]
flip_v = true

[node name="SpikeTile132" parent="tilemap/SpikeGroup" instance=ExtResource( 6 )]
position = Vector2( 464, -272 )

[node name="Sprite" parent="tilemap/SpikeGroup/SpikeTile132" index="0"]
flip_v = true

[node name="SpikeTile133" parent="tilemap/SpikeGroup" instance=ExtResource( 6 )]
position = Vector2( 432, -272 )

[node name="Sprite" parent="tilemap/SpikeGroup/SpikeTile133" index="0"]
flip_v = true

[node name="SpikeTile134" parent="tilemap/SpikeGroup" instance=ExtResource( 6 )]
position = Vector2( 400, -272 )

[node name="Sprite" parent="tilemap/SpikeGroup/SpikeTile134" index="0"]
flip_v = true

[node name="SpikeTile135" parent="tilemap/SpikeGroup" instance=ExtResource( 6 )]
position = Vector2( 368, -272 )

[node name="Sprite" parent="tilemap/SpikeGroup/SpikeTile135" index="0"]
flip_v = true

[node name="SpikeTile136" parent="tilemap/SpikeGroup" instance=ExtResource( 6 )]
position = Vector2( 336, -272 )

[node name="Sprite" parent="tilemap/SpikeGroup/SpikeTile136" index="0"]
flip_v = true

[node name="SpikeTile137" parent="tilemap/SpikeGroup" instance=ExtResource( 6 )]
position = Vector2( 304, -16 )

[node name="Sprite" parent="tilemap/SpikeGroup/SpikeTile137" index="0"]
flip_v = true

[node name="SpikeTile138" parent="tilemap/SpikeGroup" instance=ExtResource( 6 )]
position = Vector2( 272, -16 )

[node name="Sprite" parent="tilemap/SpikeGroup/SpikeTile138" index="0"]
flip_v = true

[node name="SpikeTile139" parent="tilemap/SpikeGroup" instance=ExtResource( 6 )]
position = Vector2( 240, -16 )

[node name="Sprite" parent="tilemap/SpikeGroup/SpikeTile139" index="0"]
flip_v = true

[node name="SpikeTile140" parent="tilemap/SpikeGroup" instance=ExtResource( 6 )]
position = Vector2( 208, -16 )

[node name="Sprite" parent="tilemap/SpikeGroup/SpikeTile140" index="0"]
flip_v = true

[node name="SpikeTile141" parent="tilemap/SpikeGroup" instance=ExtResource( 6 )]
position = Vector2( 176, -16 )

[node name="Sprite" parent="tilemap/SpikeGroup/SpikeTile141" index="0"]
flip_v = true

[node name="SpikeTile142" parent="tilemap/SpikeGroup" instance=ExtResource( 6 )]
position = Vector2( 144, -16 )

[node name="Sprite" parent="tilemap/SpikeGroup/SpikeTile142" index="0"]
flip_v = true

[node name="SpikeTile143" parent="tilemap/SpikeGroup" instance=ExtResource( 6 )]
position = Vector2( 112, -16 )

[node name="Sprite" parent="tilemap/SpikeGroup/SpikeTile143" index="0"]
flip_v = true

[node name="SpikeTile144" parent="tilemap/SpikeGroup" instance=ExtResource( 6 )]
position = Vector2( 80, -16 )

[node name="Sprite" parent="tilemap/SpikeGroup/SpikeTile144" index="0"]
flip_v = true

[node name="SpikeTile145" parent="tilemap/SpikeGroup" instance=ExtResource( 6 )]
position = Vector2( 48, -272 )

[node name="Sprite" parent="tilemap/SpikeGroup/SpikeTile145" index="0"]
flip_v = true

[node name="SpikeTile146" parent="tilemap/SpikeGroup" instance=ExtResource( 6 )]
position = Vector2( 16, -272 )

[node name="Sprite" parent="tilemap/SpikeGroup/SpikeTile146" index="0"]
flip_v = true

[node name="SpikeTile147" parent="tilemap/SpikeGroup" instance=ExtResource( 6 )]
position = Vector2( -16, -272 )

[node name="Sprite" parent="tilemap/SpikeGroup/SpikeTile147" index="0"]
flip_v = true

[node name="SpikeTile148" parent="tilemap/SpikeGroup" instance=ExtResource( 6 )]
position = Vector2( -48, -272 )

[node name="Sprite" parent="tilemap/SpikeGroup/SpikeTile148" index="0"]
flip_v = true

[node name="SpikeTile149" parent="tilemap/SpikeGroup" instance=ExtResource( 6 )]
position = Vector2( -80, -272 )

[node name="Sprite" parent="tilemap/SpikeGroup/SpikeTile149" index="0"]
flip_v = true

[node name="SpikeTile150" parent="tilemap/SpikeGroup" instance=ExtResource( 6 )]
position = Vector2( -112, -272 )

[node name="Sprite" parent="tilemap/SpikeGroup/SpikeTile150" index="0"]
flip_v = true

[node name="SpikeTile151" parent="tilemap/SpikeGroup" instance=ExtResource( 6 )]
position = Vector2( -144, -272 )

[node name="Sprite" parent="tilemap/SpikeGroup/SpikeTile151" index="0"]
flip_v = true

[node name="SpikeTile152" parent="tilemap/SpikeGroup" instance=ExtResource( 6 )]
position = Vector2( -176, -272 )

[node name="Sprite" parent="tilemap/SpikeGroup/SpikeTile152" index="0"]
flip_v = true

[node name="SpikeTile153" parent="tilemap/SpikeGroup" instance=ExtResource( 6 )]
position = Vector2( -208, -272 )

[node name="Sprite" parent="tilemap/SpikeGroup/SpikeTile153" index="0"]
flip_v = true

[node name="SpikeTile154" parent="tilemap/SpikeGroup" instance=ExtResource( 6 )]
position = Vector2( -240, -272 )

[node name="Sprite" parent="tilemap/SpikeGroup/SpikeTile154" index="0"]
flip_v = true

[node name="SpikeTile155" parent="tilemap/SpikeGroup" instance=ExtResource( 6 )]
position = Vector2( -272, -272 )

[node name="Sprite" parent="tilemap/SpikeGroup/SpikeTile155" index="0"]
flip_v = true

[node name="SpikeTile156" parent="tilemap/SpikeGroup" instance=ExtResource( 6 )]
position = Vector2( -304, -272 )

[node name="Sprite" parent="tilemap/SpikeGroup/SpikeTile156" index="0"]
flip_v = true

[node name="TeleportGroup" type="Node2D" parent="tilemap"]

[node name="Teleport" parent="tilemap/TeleportGroup" instance=ExtResource( 7 )]
position = Vector2( -368, 48 )
target_level = "res://levels/springislandcastle/1-1.tscn"
teleport_to = Vector2( 972, -976 )

[node name="teleport" parent="tilemap/TeleportGroup/Teleport" index="0"]
scale = Vector2( 1, 5 )

[node name="Teleport1" parent="tilemap/TeleportGroup" instance=ExtResource( 7 )]
position = Vector2( 2032, -336 )
is_horizontal = false
target_level = "res://levels/springislandcastle/1-3.tscn"
teleport_to = Vector2( 720, 192 )

[node name="teleport" parent="tilemap/TeleportGroup/Teleport1" index="0"]
scale = Vector2( 3, 1 )

[node name="boundaries" type="Node2D" parent="tilemap"]

[node name="NW" type="Position2D" parent="tilemap/boundaries"]
position = Vector2( -358, -326 )

[node name="SE" type="Position2D" parent="tilemap/boundaries"]
position = Vector2( 2282, 618 )

[editable path="tilemap/ClimbableGroup/ClimbableBlock"]

[editable path="tilemap/LadderGroup/TestLadder"]

[editable path="tilemap/SpikeGroup/SpikeTile80"]

[editable path="tilemap/SpikeGroup/SpikeTile81"]

[editable path="tilemap/SpikeGroup/SpikeTile82"]

[editable path="tilemap/SpikeGroup/SpikeTile83"]

[editable path="tilemap/SpikeGroup/SpikeTile84"]

[editable path="tilemap/SpikeGroup/SpikeTile85"]

[editable path="tilemap/SpikeGroup/SpikeTile86"]

[editable path="tilemap/SpikeGroup/SpikeTile87"]

[editable path="tilemap/SpikeGroup/SpikeTile88"]

[editable path="tilemap/SpikeGroup/SpikeTile89"]

[editable path="tilemap/SpikeGroup/SpikeTile90"]

[editable path="tilemap/SpikeGroup/SpikeTile91"]

[editable path="tilemap/SpikeGroup/SpikeTile92"]

[editable path="tilemap/SpikeGroup/SpikeTile93"]

[editable path="tilemap/SpikeGroup/SpikeTile94"]

[editable path="tilemap/SpikeGroup/SpikeTile95"]

[editable path="tilemap/SpikeGroup/SpikeTile96"]

[editable path="tilemap/SpikeGroup/SpikeTile97"]

[editable path="tilemap/SpikeGroup/SpikeTile98"]

[editable path="tilemap/SpikeGroup/SpikeTile99"]

[editable path="tilemap/SpikeGroup/SpikeTile100"]

[editable path="tilemap/SpikeGroup/SpikeTile101"]

[editable path="tilemap/SpikeGroup/SpikeTile102"]

[editable path="tilemap/SpikeGroup/SpikeTile103"]

[editable path="tilemap/SpikeGroup/SpikeTile104"]

[editable path="tilemap/SpikeGroup/SpikeTile105"]

[editable path="tilemap/SpikeGroup/SpikeTile106"]

[editable path="tilemap/SpikeGroup/SpikeTile107"]

[editable path="tilemap/SpikeGroup/SpikeTile108"]

[editable path="tilemap/SpikeGroup/SpikeTile109"]

[editable path="tilemap/SpikeGroup/SpikeTile110"]

[editable path="tilemap/SpikeGroup/SpikeTile111"]

[editable path="tilemap/SpikeGroup/SpikeTile112"]

[editable path="tilemap/SpikeGroup/SpikeTile113"]

[editable path="tilemap/SpikeGroup/SpikeTile114"]

[editable path="tilemap/SpikeGroup/SpikeTile115"]

[editable path="tilemap/SpikeGroup/SpikeTile116"]

[editable path="tilemap/SpikeGroup/SpikeTile117"]

[editable path="tilemap/SpikeGroup/SpikeTile118"]

[editable path="tilemap/SpikeGroup/SpikeTile119"]

[editable path="tilemap/SpikeGroup/SpikeTile120"]

[editable path="tilemap/SpikeGroup/SpikeTile121"]

[editable path="tilemap/SpikeGroup/SpikeTile122"]

[editable path="tilemap/SpikeGroup/SpikeTile123"]

[editable path="tilemap/SpikeGroup/SpikeTile124"]

[editable path="tilemap/SpikeGroup/SpikeTile125"]

[editable path="tilemap/SpikeGroup/SpikeTile126"]

[editable path="tilemap/SpikeGroup/SpikeTile127"]

[editable path="tilemap/SpikeGroup/SpikeTile128"]

[editable path="tilemap/SpikeGroup/SpikeTile129"]

[editable path="tilemap/SpikeGroup/SpikeTile130"]

[editable path="tilemap/SpikeGroup/SpikeTile131"]

[editable path="tilemap/SpikeGroup/SpikeTile132"]

[editable path="tilemap/SpikeGroup/SpikeTile133"]

[editable path="tilemap/SpikeGroup/SpikeTile134"]

[editable path="tilemap/SpikeGroup/SpikeTile135"]

[editable path="tilemap/SpikeGroup/SpikeTile136"]

[editable path="tilemap/SpikeGroup/SpikeTile137"]

[editable path="tilemap/SpikeGroup/SpikeTile138"]

[editable path="tilemap/SpikeGroup/SpikeTile139"]

[editable path="tilemap/SpikeGroup/SpikeTile140"]

[editable path="tilemap/SpikeGroup/SpikeTile141"]

[editable path="tilemap/SpikeGroup/SpikeTile142"]

[editable path="tilemap/SpikeGroup/SpikeTile143"]

[editable path="tilemap/SpikeGroup/SpikeTile144"]

[editable path="tilemap/SpikeGroup/SpikeTile145"]

[editable path="tilemap/SpikeGroup/SpikeTile146"]

[editable path="tilemap/SpikeGroup/SpikeTile147"]

[editable path="tilemap/SpikeGroup/SpikeTile148"]

[editable path="tilemap/SpikeGroup/SpikeTile149"]

[editable path="tilemap/SpikeGroup/SpikeTile150"]

[editable path="tilemap/SpikeGroup/SpikeTile151"]

[editable path="tilemap/SpikeGroup/SpikeTile152"]

[editable path="tilemap/SpikeGroup/SpikeTile153"]

[editable path="tilemap/SpikeGroup/SpikeTile154"]

[editable path="tilemap/SpikeGroup/SpikeTile155"]

[editable path="tilemap/SpikeGroup/SpikeTile156"]

[editable path="tilemap/TeleportGroup/Teleport"]

[editable path="tilemap/TeleportGroup/Teleport1"]
