[gd_scene load_steps=5 format=2]

[ext_resource path="res://scenes/lavacave/tileset.tres" type="TileSet" id=1]
[ext_resource path="res://scenes/common/breakables/torch.tscn" type="PackedScene" id=2]
[ext_resource path="res://scenes/savepoint/savepoint.tscn" type="PackedScene" id=3]
[ext_resource path="res://scenes/common/teleport.tscn" type="PackedScene" id=4]

[node name="LVL_NOTITLE" type="Node2D"]
__meta__ = {
"__editor_plugin_screen__": "2D"
}

[node name="tilemap" type="TileMap" parent="."]
tile_set = ExtResource( 1 )
cell_size = Vector2( 32, 32 )
compatibility_mode = true
collision_layer = 524288
format = 1
tile_data = PoolIntArray( -393227, 1073741825, 0, -393226, 1073741824, 0, -393225, 1073741824, 0, -393224, 1073741824, 0, -393223, 1073741824, 0, -393222, 1073741824, 0, -393221, 1073741824, 0, -393220, 1073741824, 0, -393219, 1073741824, 0, -393218, 1073741824, 0, -393217, 1073741824, 0, -458752, 1073741824, 0, -458751, 1073741824, 0, -458750, 1073741824, 0, -458749, 1073741824, 0, -458748, 1073741824, 0, -458747, 1073741824, 0, -458746, 1073741824, 0, -458745, 1073741824, 0, -458744, 1073741824, 0, -458743, 1073741824, 0, -458742, 1073741824, 0, -458741, 1073741824, 0, -458740, 1073741824, 0, -458739, 1073741824, 0, -458738, 1073741826, 0, -327691, 3, 0, -327690, 11, 0, -327689, 11, 0, -327688, 11, 0, -327687, 11, 0, -327686, 11, 0, -327685, 11, 0, -327684, 11, 0, -327683, 11, 0, -327682, 11, 0, -327681, 11, 0, -393216, 11, 0, -393215, 11, 0, -393214, 11, 0, -393213, 11, 0, -393212, 11, 0, -393211, 11, 0, -393210, 11, 0, -393209, 11, 0, -393208, 11, 0, -393207, 11, 0, -393206, 11, 0, -393205, 11, 0, -393204, 11, 0, -393203, 11, 0, -393202, 536870915, 0, -262155, 3, 0, -262154, 11, 0, -262153, 11, 0, -262152, 11, 0, -262151, 11, 0, -262150, 11, 0, -262149, 11, 0, -262148, 11, 0, -262147, 11, 0, -262146, 11, 0, -262145, 11, 0, -327680, 11, 0, -327679, 11, 0, -327678, 11, 0, -327677, 11, 0, -327676, 11, 0, -327675, 11, 0, -327674, 11, 0, -327673, 11, 0, -327672, 11, 0, -327671, 11, 0, -327670, 11, 0, -327669, 11, 0, -327668, 11, 0, -327667, 11, 0, -327666, 536870915, 0, -196619, 3, 0, -196618, 11, 0, -196617, 11, 0, -196616, 11, 0, -196615, 11, 0, -196614, 11, 0, -196613, 11, 0, -196612, 11, 0, -196611, 11, 0, -196610, 11, 0, -196609, 11, 0, -262144, 11, 0, -262143, 11, 0, -262142, 11, 0, -262141, 11, 0, -262140, 11, 0, -262139, 11, 0, -262138, 11, 0, -262137, 11, 0, -262136, 11, 0, -262135, 11, 0, -262134, 11, 0, -262133, 11, 0, -262132, 11, 0, -262131, 11, 0, -262130, 536870915, 0, -131083, 3, 0, -131082, 11, 0, -131081, 11, 0, -131080, 11, 0, -131079, 11, 0, -131078, 11, 0, -131077, 11, 0, -131076, 11, 0, -131075, 11, 0, -131074, 11, 0, -131073, 11, 0, -196608, 11, 0, -196607, 11, 0, -196606, 11, 0, -196605, 11, 0, -196604, 11, 0, -196603, 11, 0, -196602, 11, 0, -196601, 11, 0, -196600, 11, 0, -196599, 11, 0, -196598, 11, 0, -196597, 11, 0, -196596, 11, 0, -196595, 11, 0, -196594, 536870915, 0, -65547, 3, 0, -65546, 11, 0, -65545, 18, 0, -65544, 11, 0, -65543, 11, 0, -65542, 11, 0, -65541, 11, 0, -65540, 11, 0, -65539, 11, 0, -65538, 11, 0, -65537, 11, 0, -131072, 11, 0, -131071, 11, 0, -131070, 11, 0, -131069, 11, 0, -131068, 11, 0, -131067, 11, 0, -131066, 11, 0, -131065, 11, 0, -131064, 11, 0, -131063, 11, 0, -131062, 11, 0, -131061, 11, 0, -131060, 11, 0, -131059, 11, 0, -131058, 536870915, 0, -11, 3, 0, -10, 11, 0, -9, 11, 0, -8, 11, 0, -7, 11, 0, -6, 11, 0, -5, 11, 0, -4, 11, 0, -3, 11, 0, -2, 11, 0, -1, 11, 0, -65536, 11, 0, -65535, 11, 0, -65534, 11, 0, -65533, 11, 0, -65532, 11, 0, -65531, 11, 0, -65530, 11, 0, -65529, 11, 0, -65528, 11, 0, -65527, 18, 0, -65526, 11, 0, -65525, 11, 0, -65524, 11, 0, -65523, 11, 0, -65522, 536870915, 0, 65525, 3, 0, 65526, 11, 0, 65527, 11, 0, 65528, 11, 0, 65529, 11, 0, 65530, 11, 0, 65531, 11, 0, 65532, 11, 0, 65533, 11, 0, 65534, 11, 0, 65535, 11, 0, 0, 11, 0, 1, 11, 0, 2, 11, 0, 3, 11, 0, 4, 11, 0, 5, 11, 0, 6, 11, 0, 7, 11, 0, 8, 11, 0, 9, 11, 0, 10, 11, 0, 11, 11, 0, 12, 11, 0, 13, 11, 0, 14, 536870915, 0, 131061, 3, 0, 131062, 11, 0, 131063, 11, 0, 131064, 11, 0, 131065, 11, 0, 131066, 11, 0, 131067, 11, 0, 131068, 11, 0, 131069, 11, 0, 131070, 11, 0, 131071, 11, 0, 65536, 11, 0, 65537, 11, 0, 65538, 11, 0, 65539, 11, 0, 65540, 18, 0, 65541, 11, 0, 65542, 11, 0, 65543, 11, 0, 65544, 11, 0, 65545, 11, 0, 65546, 11, 0, 65547, 11, 0, 65548, 11, 0, 65549, 11, 0, 65550, 536870915, 0, 196597, 3, 0, 196598, 11, 0, 196599, 11, 0, 196600, 11, 0, 196601, 18, 0, 196602, 11, 0, 196603, 11, 0, 196604, 11, 0, 196605, 11, 0, 196606, 11, 0, 196607, 11, 0, 131072, 11, 0, 131073, 11, 0, 131074, 11, 0, 131075, 11, 0, 131076, 11, 0, 131077, 11, 0, 131078, 11, 0, 131079, 11, 0, 131080, 11, 0, 131081, 11, 0, 131082, 11, 0, 131083, 11, 0, 131084, 11, 0, 131085, 11, 0, 131086, 536870915, 0, 262133, 3, 0, 262134, 11, 0, 262135, 11, 0, 262136, 11, 0, 262137, 11, 0, 262138, 11, 0, 262139, 11, 0, 262140, 11, 0, 262141, 11, 0, 262142, 11, 0, 262143, 11, 0, 196608, 11, 0, 196609, 11, 0, 196610, 11, 0, 196611, 11, 0, 196612, 11, 0, 196613, 11, 0, 196614, 11, 0, 196615, 11, 0, 196616, 11, 0, 196617, 11, 0, 196618, 11, 0, 196619, 11, 0, 196620, 11, 0, 196621, 11, 0, 196622, 536870915, 0, 327669, 3, 0, 327670, 11, 0, 327671, 11, 0, 327672, 11, 0, 327673, 11, 0, 327674, 11, 0, 327675, 11, 0, 327676, 11, 0, 327677, 11, 0, 327678, 11, 0, 327679, 11, 0, 262144, 11, 0, 262145, 11, 0, 262146, 11, 0, 262147, 11, 0, 262148, 11, 0, 262149, 11, 0, 262150, 11, 0, 262151, 11, 0, 262152, 11, 0, 262153, 11, 0, 262154, 11, 0, 262155, 11, 0, 262156, 11, 0, 262157, 11, 0, 262158, 536870915, 0, 393205, 3, 0, 393206, 11, 0, 393207, 11, 0, 393208, 11, 0, 393209, 11, 0, 393210, 11, 0, 393211, 11, 0, 393212, 11, 0, 393213, 11, 0, 393214, 11, 0, 393215, 11, 0, 327680, 11, 0, 327681, 11, 0, 327682, 11, 0, 327683, 11, 0, 327684, 11, 0, 327685, 11, 0, 327686, 11, 0, 327687, 11, 0, 327688, 11, 0, 327689, 11, 0, 327690, 11, 0, 327691, 11, 0, 327692, 11, 0, 327693, 11, 0, 327694, 536870915, 0, 458741, 3, 0, 458742, 11, 0, 458743, 11, 0, 458744, 11, 0, 458745, 11, 0, 458746, 11, 0, 458747, 11, 0, 458748, 11, 0, 458749, 11, 0, 458750, 11, 0, 458751, 11, 0, 393216, 11, 0, 393217, 11, 0, 393218, 11, 0, 393219, 11, 0, 393220, 11, 0, 393221, 11, 0, 393222, 11, 0, 393223, 11, 0, 393224, 11, 0, 393225, 11, 0, 393226, 11, 0, 393227, 11, 0, 393228, 11, 0, 393229, 11, 0, 393230, 536870915, 0, 524277, 1073741826, 0, 524278, 11, 0, 524279, 11, 0, 524280, 11, 0, 524281, 11, 0, 524282, 11, 0, 524283, 11, 0, 524284, 11, 0, 524285, 11, 0, 524286, 11, 0, 524287, 11, 0, 458752, 11, 0, 458753, 11, 0, 458754, 11, 0, 458755, 11, 0, 458756, 11, 0, 458757, 11, 0, 458758, 11, 0, 458759, 11, 0, 458760, 11, 0, 458761, 11, 0, 458762, 11, 0, 458763, 11, 0, 458764, 11, 0, 458765, 11, 0, 458766, 1073741825, 0, 589813, 11, 0, 589814, 11, 0, 589815, 11, 0, 589816, 11, 0, 589817, 11, 0, 589818, 11, 0, 589819, 11, 0, 589820, 11, 0, 589821, 11, 0, 589822, 11, 0, 589823, 11, 0, 524288, 11, 0, 524289, 11, 0, 524290, 11, 0, 524291, 11, 0, 524292, 11, 0, 524293, 11, 0, 524294, 11, 0, 524295, 11, 0, 524296, 11, 0, 524297, 11, 0, 524298, 11, 0, 524299, 11, 0, 524300, 11, 0, 524301, 11, 0, 524302, 11, 0, 655349, 11, 0, 655350, 11, 0, 655351, 11, 0, 655352, 11, 0, 655353, 11, 0, 655354, 11, 0, 655355, 11, 0, 655356, 11, 0, 655357, 11, 0, 655358, 11, 0, 655359, 11, 0, 589824, 11, 0, 589825, 11, 0, 589826, 11, 0, 589827, 11, 0, 589828, 11, 0, 589829, 11, 0, 589830, 11, 0, 589831, 11, 0, 589832, 11, 0, 589833, 11, 0, 589834, 11, 0, 589835, 11, 0, 589836, 11, 0, 589837, 11, 0, 589838, 11, 0, 720885, 11, 0, 720886, 11, 0, 720887, 11, 0, 720888, 11, 0, 720889, 11, 0, 720890, 11, 0, 720891, 11, 0, 720892, 11, 0, 720893, 11, 0, 720894, 11, 0, 720895, 11, 0, 655360, 11, 0, 655361, 11, 0, 655362, 11, 0, 655363, 11, 0, 655364, 11, 0, 655365, 11, 0, 655366, 11, 0, 655367, 11, 0, 655368, 11, 0, 655369, 11, 0, 655370, 11, 0, 655371, 11, 0, 655372, 11, 0, 655373, 11, 0, 655374, 11, 0, 786421, 11, 0, 786422, 11, 0, 786423, 11, 0, 786424, 11, 0, 786425, 11, 0, 786426, 11, 0, 786427, 11, 0, 786428, 11, 0, 786429, 11, 0, 786430, 11, 0, 786431, 11, 0, 720896, 11, 0, 720897, 11, 0, 720898, 11, 0, 720899, 11, 0, 720900, 11, 0, 720901, 11, 0, 720902, 11, 0, 720903, 11, 0, 720904, 11, 0, 720905, 11, 0, 720906, 11, 0, 720907, 18, 0, 720908, 11, 0, 720909, 11, 0, 720910, 11, 0, 851957, 11, 0, 851958, 11, 0, 851959, 18, 0, 851960, 18, 0, 851961, 11, 0, 851962, 11, 0, 851963, 11, 0, 851964, 11, 0, 851965, 11, 0, 851966, 11, 0, 851967, 11, 0, 786432, 11, 0, 786433, 11, 0, 786434, 11, 0, 786435, 11, 0, 786436, 11, 0, 786437, 11, 0, 786438, 11, 0, 786439, 11, 0, 786440, 11, 0, 786441, 11, 0, 786442, 11, 0, 786443, 11, 0, 786444, 11, 0, 786445, 18, 0, 786446, 11, 0, 917493, 1, 0, 917494, 0, 0, 917495, 0, 0, 917496, 0, 0, 917497, 0, 0, 917498, 0, 0, 917499, 0, 0, 917500, 0, 0, 917501, 0, 0, 917502, 0, 0, 917503, 0, 0, 851968, 0, 0, 851969, 0, 0, 851970, 0, 0, 851971, 0, 0, 851972, 0, 0, 851973, 0, 0, 851974, 0, 0, 851975, 0, 0, 851976, 0, 0, 851977, 0, 0, 851978, 0, 0, 851979, 0, 0, 851980, 0, 0, 851981, 0, 0, 851982, 2, 0, 983029, 536870915, 0, 983030, 15, 0, 983031, 15, 0, 983032, 15, 0, 983033, 15, 0, 983034, 15, 0, 983035, 15, 0, 983036, 15, 0, 983037, 15, 0, 983038, 15, 0, 983039, 15, 0, 917504, 15, 0, 917505, 15, 0, 917506, 15, 0, 917507, 15, 0, 917508, 15, 0, 917509, 15, 0, 917510, 15, 0, 917511, 15, 0, 917512, 15, 0, 917513, 15, 0, 917514, 15, 0, 917515, 15, 0, 917516, 15, 0, 917517, 15, 0, 917518, 3, 0, 1048565, 536870915, 0, 1048566, 15, 0, 1048567, 15, 0, 1048568, 15, 0, 1048569, 15, 0, 1048570, 15, 0, 1048571, 15, 0, 1048572, 15, 0, 1048573, 15, 0, 1048574, 15, 0, 1048575, 15, 0, 983040, 15, 0, 983041, 15, 0, 983042, 15, 0, 983043, 15, 0, 983044, 15, 0, 983045, 15, 0, 983046, 15, 0, 983047, 15, 0, 983048, 15, 0, 983049, 15, 0, 983050, 15, 0, 983051, 15, 0, 983052, 15, 0, 983053, 15, 0, 983054, 3, 0, 1114101, 536870915, 0, 1114102, 15, 0, 1114103, 15, 0, 1114104, 15, 0, 1114105, 15, 0, 1114106, 15, 0, 1114107, 15, 0, 1114108, 15, 0, 1114109, 15, 0, 1114110, 15, 0, 1114111, 15, 0, 1048576, 15, 0, 1048577, 15, 0, 1048578, 15, 0, 1048579, 15, 0, 1048580, 15, 0, 1048581, 15, 0, 1048582, 15, 0, 1048583, 15, 0, 1048584, 15, 0, 1048585, 15, 0, 1048586, 15, 0, 1048587, 15, 0, 1048588, 15, 0, 1048589, 15, 0, 1048590, 3, 0 )

[node name="DecoGroup" type="Node2D" parent="tilemap"]

[node name="TileMap" type="TileMap" parent="tilemap/DecoGroup"]
tile_set = ExtResource( 1 )
cell_size = Vector2( 32, 32 )
compatibility_mode = true
format = 1
tile_data = PoolIntArray( -393224, 20, 0, -458752, 20, 0, -458742, 19, 0, 0, -458741, 0 )

[node name="TorchGroup" type="Node2D" parent="tilemap"]

[node name="torch" parent="tilemap/TorchGroup" instance=ExtResource( 2 )]
position = Vector2( -128, 288 )

[node name="torch2" parent="tilemap/TorchGroup" instance=ExtResource( 2 )]
position = Vector2( 288, 288 )

[node name="SaveGroup" type="Node2D" parent="tilemap"]

[node name="savepoint" parent="tilemap/SaveGroup" instance=ExtResource( 3 )]
position = Vector2( 80, 384 )
savelocation = "LVL_LAVACAVE"

[node name="TeleportGroup" type="Node2D" parent="tilemap"]

[node name="Teleport" parent="tilemap/TeleportGroup" instance=ExtResource( 4 )]
position = Vector2( 496, 336 )
target_level = "res://levels/lavacave/1-1.tscn"
teleport_to = Vector2( -204, -400 )

[node name="teleport" parent="tilemap/TeleportGroup/Teleport" index="0"]
scale = Vector2( 1, 5 )

[node name="Teleport1" parent="tilemap/TeleportGroup" instance=ExtResource( 4 )]
position = Vector2( -368, 336 )
target_level = "res://levels/lavacave/0-5.tscn"
teleport_to = Vector2( 4236, 112 )

[node name="teleport" parent="tilemap/TeleportGroup/Teleport1" index="0"]
scale = Vector2( 1, 5 )

[node name="boundaries" type="Node2D" parent="tilemap"]

[node name="NW" type="Position2D" parent="tilemap/boundaries"]
position = Vector2( -358, -230 )

[node name="SE" type="Position2D" parent="tilemap/boundaries"]
position = Vector2( 490, 554 )

[editable path="tilemap/TeleportGroup/Teleport"]

[editable path="tilemap/TeleportGroup/Teleport1"]
