[gd_scene load_steps=2 format=2]

[ext_resource path="res://gui/achievements/academic/warp_storyboard.png" type="Texture" id=1]

[node name="contents" type="Control"]
margin_right = 576.0
margin_bottom = 336.0
rect_min_size = Vector2( 576, 336 )
size_flags_horizontal = 0
size_flags_vertical = 0
size_flags_stretch_ratio = 0.0

[node name="Sprite" type="TextureRect" parent="."]
margin_left = 32.0
margin_right = 544.0
margin_bottom = 291.0
texture = ExtResource( 1 )
__meta__ = {
"_edit_use_anchors_": false
}
