[gd_scene load_steps=9 format=2]

[ext_resource path="res://scenes/mausoleum/tileset.tres" type="TileSet" id=1]
[ext_resource path="res://scenes/common/cryptFGtileset.tres" type="TileSet" id=2]
[ext_resource path="res://scenes/common/breakables/bluetorch.tscn" type="PackedScene" id=3]
[ext_resource path="res://scenes/dungeon/ladder/ladder.tscn" type="PackedScene" id=4]
[ext_resource path="res://scenes/dungeon/ladder/laddertop.tscn" type="PackedScene" id=5]
[ext_resource path="res://scenes/common/damagables/spiketile.tscn" type="PackedScene" id=6]
[ext_resource path="res://scenes/common/swingable.tscn" type="PackedScene" id=7]
[ext_resource path="res://scenes/common/teleport.tscn" type="PackedScene" id=8]

[node name="LVL_NOTITLE" type="Node2D"]
__meta__ = {
"__editor_plugin_screen__": "2D"
}

[node name="tilemap" type="TileMap" parent="."]
tile_set = ExtResource( 1 )
cell_size = Vector2( 32, 32 )
compatibility_mode = true
collision_layer = 524288
format = 1
tile_data = PoolIntArray( -196649, 1610612737, 0, -196648, 1073741824, 0, -196647, 1073741824, 0, -196646, 1073741824, 0, -196645, 1073741824, 0, -196644, 1073741824, 0, -196643, 1073741824, 0, -196642, 1073741824, 0, -196641, 1073741824, 0, -196640, 1073741824, 0, -196639, 1073741824, 0, -196638, 1073741824, 0, -196637, 1073741824, 0, -196636, 1073741824, 0, -196635, 1073741824, 0, -196634, 1073741824, 0, -196633, 1073741824, 0, -196632, 1073741824, 0, -196631, 1073741824, 0, -196630, 1073741824, 0, -196629, 1073741824, 0, -196628, 1073741824, 0, -196627, 1073741824, 0, -196626, 1073741824, 0, -196625, 1073741824, 0, -196624, 1073741824, 0, -196623, 1073741824, 0, -196622, 1073741824, 0, -196621, 1073741824, 0, -196620, 1073741824, 0, -196619, 1073741824, 0, -196618, 1073741824, 0, -196617, 1073741824, 0, -196616, 1073741824, 0, -196615, 1073741824, 0, -196614, 1073741824, 0, -196613, 1073741824, 0, -196612, 1073741824, 0, -196611, 1073741824, 0, -196610, 1073741824, 0, -196609, 1073741824, 0, -262144, 1073741824, 0, -262143, 1073741824, 0, -262142, 1073741824, 0, -262141, 1073741824, 0, -262140, 1073741824, 0, -262139, 1073741824, 0, -262138, 1073741824, 0, -262137, 1073741824, 0, -262136, 1073741824, 0, -262135, 1073741824, 0, -262134, 1073741824, 0, -262133, 1073741824, 0, -262132, 1073741824, 0, -262131, 1073741824, 0, -262130, 1073741824, 0, -262129, 1073741824, 0, -262128, 1073741824, 0, -262127, 1073741824, 0, -262126, 1073741824, 0, -262125, 1073741824, 0, -262124, 1073741824, 0, -262123, 1073741824, 0, -262122, 1073741824, 0, -262121, 1073741824, 0, -262120, 1073741824, 0, -262119, 1073741824, 0, -262118, 1073741824, 0, -262117, 1073741824, 0, -262116, 1073741824, 0, -262115, 1073741824, 0, -262114, 1073741825, 0, -131113, 2, 0, -131112, 3, 0, -131111, 3, 0, -131110, 3, 0, -131109, 3, 0, -131108, 3, 0, -131107, 3, 0, -131106, 3, 0, -131105, 3, 0, -131104, 3, 0, -131103, 3, 0, -131102, 3, 0, -131101, 3, 0, -131100, 3, 0, -131099, 3, 0, -131098, 3, 0, -131097, 3, 0, -131096, 3, 0, -131095, 3, 0, -131094, 3, 0, -131093, 3, 0, -131092, 3, 0, -131091, 3, 0, -131090, 3, 0, -131089, 3, 0, -131088, 3, 0, -131087, 3, 0, -131086, 3, 0, -131085, 3, 0, -131084, 3, 0, -131083, 3, 0, -131082, 3, 0, -131081, 3, 0, -131080, 3, 0, -131079, 3, 0, -131078, 3, 0, -131077, 3, 0, -131076, 3, 0, -131075, 3, 0, -131074, 3, 0, -131073, 3, 0, -196608, 3, 0, -196607, 3, 0, -196606, 3, 0, -196605, 3, 0, -196604, 3, 0, -196603, 3, 0, -196602, 3, 0, -196601, 3, 0, -196600, 3, 0, -196599, 3, 0, -196598, 3, 0, -196597, 3, 0, -196596, 3, 0, -196595, 3, 0, -196594, 3, 0, -196593, 3, 0, -196592, 3, 0, -196591, 3, 0, -196590, 3, 0, -196589, 3, 0, -196588, 3, 0, -196587, 3, 0, -196586, 3, 0, -196585, 3, 0, -196584, 3, 0, -196583, 3, 0, -196582, 3, 0, -196581, 3, 0, -196580, 3, 0, -196579, 3, 0, -196578, 536870914, 0, -65577, 2, 0, -65576, 3, 0, -65575, 3, 0, -65574, 3, 0, -65573, 3, 0, -65572, 3, 0, -65571, 3, 0, -65570, 3, 0, -65569, 3, 0, -65568, 3, 0, -65567, 3, 0, -65566, 3, 0, -65565, 3, 0, -65564, 3, 0, -65563, 3, 0, -65562, 3, 0, -65561, 3, 0, -65560, 3, 0, -65559, 3, 0, -65558, 3, 0, -65557, 3, 0, -65556, 3, 0, -65555, 3, 0, -65554, 3, 0, -65553, 3, 0, -65552, 3, 0, -65551, 3, 0, -65550, 3, 0, -65549, 3, 0, -65548, 3, 0, -65547, 3, 0, -65546, 3, 0, -65545, 3, 0, -65544, 3, 0, -65543, 3, 0, -65542, 3, 0, -65541, 3, 0, -65540, 3, 0, -65539, 3, 0, -65538, 3, 0, -65537, 3, 0, -131072, 3, 0, -131071, 3, 0, -131070, 3, 0, -131069, 3, 0, -131068, 3, 0, -131067, 3, 0, -131066, 3, 0, -131065, 3, 0, -131064, 3, 0, -131063, 3, 0, -131062, 3, 0, -131061, 3, 0, -131060, 3, 0, -131059, 3, 0, -131058, 3, 0, -131057, 3, 0, -131056, 3, 0, -131055, 3, 0, -131054, 3, 0, -131053, 3, 0, -131052, 3, 0, -131051, 3, 0, -131050, 3, 0, -131049, 3, 0, -131048, 3, 0, -131047, 3, 0, -131046, 3, 0, -131045, 3, 0, -131044, 3, 0, -131043, 3, 0, -131042, 536870914, 0, -41, 2, 0, -40, 3, 0, -39, 3, 0, -38, 3, 0, -37, 3, 0, -36, 3, 0, -35, 3, 0, -34, 3, 0, -33, 3, 0, -32, 3, 0, -31, 3, 0, -30, 3, 0, -29, 3, 0, -28, 3, 0, -27, 3, 0, -26, 3, 0, -25, 3, 0, -24, 3, 0, -23, 3, 0, -22, 3, 0, -21, 3, 0, -20, 3, 0, -19, 3, 0, -18, 3, 0, -17, 3, 0, -16, 3, 0, -15, 3, 0, -14, 3, 0, -13, 3, 0, -12, 3, 0, -11, 3, 0, -10, 3, 0, -9, 3, 0, -8, 3, 0, -7, 3, 0, -6, 3, 0, -5, 3, 0, -4, 3, 0, -3, 3, 0, -2, 3, 0, -1, 3, 0, -65536, 3, 0, -65535, 3, 0, -65534, 3, 0, -65533, 3, 0, -65532, 3, 0, -65531, 3, 0, -65530, 3, 0, -65529, 3, 0, -65528, 3, 0, -65527, 3, 0, -65526, 3, 0, -65525, 3, 0, -65524, 3, 0, -65523, 3, 0, -65522, 3, 0, -65521, 3, 0, -65520, 3, 0, -65519, 3, 0, -65518, 3, 0, -65517, 3, 0, -65516, 3, 0, -65515, 3, 0, -65514, 3, 0, -65513, 3, 0, -65512, 3, 0, -65511, 3, 0, -65510, 3, 0, -65509, 3, 0, -65508, 3, 0, -65507, 3, 0, -65506, 536870914, 0, 65495, 2, 0, 65496, 3, 0, 65497, 3, 0, 65498, 3, 0, 65499, 3, 0, 65500, 3, 0, 65501, 3, 0, 65502, 3, 0, 65503, 3, 0, 65504, 3, 0, 65505, 3, 0, 65506, 3, 0, 65507, 3, 0, 65508, 3, 0, 65509, 3, 0, 65510, 3, 0, 65511, 3, 0, 65512, 3, 0, 65513, 3, 0, 65514, 3, 0, 65515, 3, 0, 65516, 3, 0, 65517, 3, 0, 65518, 3, 0, 65519, 3, 0, 65520, 3, 0, 65521, 3, 0, 65522, 3, 0, 65523, 3, 0, 65524, 3, 0, 65525, 3, 0, 65526, 3, 0, 65527, 3, 0, 65528, 3, 0, 65529, 3, 0, 65530, 3, 0, 65531, 3, 0, 65532, 3, 0, 65533, 3, 0, 65534, 3, 0, 65535, 3, 0, 0, 3, 0, 1, 3, 0, 2, 3, 0, 3, 3, 0, 4, 3, 0, 5, 3, 0, 6, 3, 0, 7, 3, 0, 8, 3, 0, 9, 3, 0, 10, 3, 0, 11, 3, 0, 12, 3, 0, 13, 3, 0, 14, 3, 0, 15, 3, 0, 16, 3, 0, 17, 3, 0, 18, 3, 0, 19, 3, 0, 20, 3, 0, 21, 3, 0, 22, 3, 0, 23, 3, 0, 24, 3, 0, 25, 3, 0, 26, 3, 0, 27, 3, 0, 28, 3, 0, 29, 3, 0, 30, 536870914, 0, 131031, 2, 0, 131032, 3, 0, 131033, 3, 0, 131034, 3, 0, 131035, 3, 0, 131036, 3, 0, 131037, 3, 0, 131038, 3, 0, 131039, 3, 0, 131040, 3, 0, 131041, 3, 0, 131042, 3, 0, 131043, 3, 0, 131044, 3, 0, 131045, 3, 0, 131046, 3, 0, 131047, 3, 0, 131048, 3, 0, 131049, 3, 0, 131050, 3, 0, 131051, 3, 0, 131052, 3, 0, 131053, 3, 0, 131054, 3, 0, 131055, 3, 0, 131056, 3, 0, 131057, 3, 0, 131058, 3, 0, 131059, 3, 0, 131060, 3, 0, 131061, 3, 0, 131062, 3, 0, 131063, 3, 0, 131064, 3, 0, 131065, 3, 0, 131066, 3, 0, 131067, 3, 0, 131068, 3, 0, 131069, 3, 0, 131070, 3, 0, 131071, 3, 0, 65536, 3, 0, 65537, 3, 0, 65538, 3, 0, 65539, 3, 0, 65540, 3, 0, 65541, 3, 0, 65542, 3, 0, 65543, 3, 0, 65544, 3, 0, 65545, 3, 0, 65546, 3, 0, 65547, 3, 0, 65548, 3, 0, 65549, 3, 0, 65550, 3, 0, 65551, 3, 0, 65552, 3, 0, 65553, 3, 0, 65554, 3, 0, 65555, 3, 0, 65556, 3, 0, 65557, 3, 0, 65558, 3, 0, 65559, 3, 0, 65560, 3, 0, 65561, 3, 0, 65562, 3, 0, 65563, 3, 0, 65564, 3, 0, 65565, 3, 0, 65566, 536870914, 0, 196567, 2, 0, 196568, 3, 0, 196569, 3, 0, 196570, 3, 0, 196571, 3, 0, 196572, 3, 0, 196573, 3, 0, 196574, 3, 0, 196575, 3, 0, 196576, 3, 0, 196577, 3, 0, 196578, 3, 0, 196579, 3, 0, 196580, 3, 0, 196581, 3, 0, 196582, 3, 0, 196583, 3, 0, 196584, 3, 0, 196585, 3, 0, 196586, 3, 0, 196587, 3, 0, 196588, 3, 0, 196589, 3, 0, 196590, 3, 0, 196591, 3, 0, 196592, 3, 0, 196593, 3, 0, 196594, 3, 0, 196595, 3, 0, 196596, 3, 0, 196597, 3, 0, 196598, 3, 0, 196599, 3, 0, 196600, 3, 0, 196601, 3, 0, 196602, 3, 0, 196603, 3, 0, 196604, 3, 0, 196605, 3, 0, 196606, 3, 0, 196607, 3, 0, 131072, 3, 0, 131073, 3, 0, 131074, 3, 0, 131075, 3, 0, 131076, 3, 0, 131077, 3, 0, 131078, 3, 0, 131079, 3, 0, 131080, 3, 0, 131081, 3, 0, 131082, 3, 0, 131083, 3, 0, 131084, 3, 0, 131085, 3, 0, 131086, 3, 0, 131087, 3, 0, 131088, 3, 0, 131089, 3, 0, 131090, 3, 0, 131091, 3, 0, 131092, 3, 0, 131093, 3, 0, 131094, 3, 0, 131095, 3, 0, 131096, 3, 0, 131097, 3, 0, 131098, 3, 0, 131099, 3, 0, 131100, 3, 0, 131101, 3, 0, 131102, 536870914, 0, 262103, 2, 0, 262104, 3, 0, 262105, 3, 0, 262106, 3, 0, 262107, 3, 0, 262108, 3, 0, 262109, 3, 0, 262110, 3, 0, 262111, 3, 0, 262112, 3, 0, 262113, 3, 0, 262114, 3, 0, 262115, 3, 0, 262116, 3, 0, 262117, 3, 0, 262118, 3, 0, 262119, 3, 0, 262120, 3, 0, 262121, 3, 0, 262122, 3, 0, 262123, 3, 0, 262124, 3, 0, 262125, 3, 0, 262126, 3, 0, 262127, 3, 0, 262128, 3, 0, 262129, 3, 0, 262130, 3, 0, 262131, 3, 0, 262132, 3, 0, 262133, 3, 0, 262134, 3, 0, 262135, 3, 0, 262136, 3, 0, 262137, 3, 0, 262138, 3, 0, 262139, 3, 0, 262140, 3, 0, 262141, 3, 0, 262142, 3, 0, 262143, 3, 0, 196608, 3, 0, 196609, 3, 0, 196610, 3, 0, 196611, 3, 0, 196612, 3, 0, 196613, 3, 0, 196614, 3, 0, 196615, 3, 0, 196616, 3, 0, 196617, 3, 0, 196618, 3, 0, 196619, 3, 0, 196620, 3, 0, 196621, 3, 0, 196622, 3, 0, 196623, 3, 0, 196624, 3, 0, 196625, 3, 0, 196626, 3, 0, 196627, 3, 0, 196628, 3, 0, 196629, 3, 0, 196630, 3, 0, 196631, 3, 0, 196632, 3, 0, 196633, 3, 0, 196634, 3, 0, 196635, 3, 0, 196636, 3, 0, 196637, 3, 0, 196638, 536870914, 0, 327639, 2, 0, 327640, 3, 0, 327641, 3, 0, 327642, 3, 0, 327643, 3, 0, 327644, 3, 0, 327645, 3, 0, 327646, 3, 0, 327647, 3, 0, 327648, 3, 0, 327649, 3, 0, 327650, 3, 0, 327651, 3, 0, 327652, 3, 0, 327653, 3, 0, 327654, 3, 0, 327655, 3, 0, 327656, 3, 0, 327657, 3, 0, 327658, 3, 0, 327659, 3, 0, 327660, 3, 0, 327661, 3, 0, 327662, 3, 0, 327663, 3, 0, 327664, 3, 0, 327665, 3, 0, 327666, 3, 0, 327667, 3, 0, 327668, 3, 0, 327669, 3, 0, 327670, 3, 0, 327671, 3, 0, 327672, 3, 0, 327673, 3, 0, 327674, 3, 0, 327675, 3, 0, 327676, 3, 0, 327677, 3, 0, 327678, 3, 0, 327679, 3, 0, 262144, 3, 0, 262145, 3, 0, 262146, 3, 0, 262147, 3, 0, 262148, 3, 0, 262149, 3, 0, 262150, 3, 0, 262151, 3, 0, 262152, 3, 0, 262153, 3, 0, 262154, 3, 0, 262155, 3, 0, 262156, 3, 0, 262157, 3, 0, 262158, 3, 0, 262159, 3, 0, 262160, 3, 0, 262161, 3, 0, 262162, 3, 0, 262163, 3, 0, 262164, 3, 0, 262165, 3, 0, 262166, 3, 0, 262167, 3, 0, 262168, 3, 0, 262169, 3, 0, 262170, 3, 0, 262171, 3, 0, 262172, 3, 0, 262173, 3, 0, 262174, 536870914, 0, 393175, 2, 0, 393176, 3, 0, 393177, 3, 0, 393178, 3, 0, 393179, 3, 0, 393180, 3, 0, 393181, 3, 0, 393182, 3, 0, 393183, 3, 0, 393184, 3, 0, 393185, 3, 0, 393186, 3, 0, 393187, 3, 0, 393188, 3, 0, 393189, 3, 0, 393190, 3, 0, 393191, 3, 0, 393192, 3, 0, 393193, 3, 0, 393194, 3, 0, 393195, 3, 0, 393196, 3, 0, 393197, 3, 0, 393198, 3, 0, 393199, 3, 0, 393200, 3, 0, 393201, 3, 0, 393202, 3, 0, 393203, 3, 0, 393204, 3, 0, 393205, 3, 0, 393206, 3, 0, 393207, 3, 0, 393208, 3, 0, 393209, 3, 0, 393210, 3, 0, 393211, 3, 0, 393212, 3, 0, 393213, 3, 0, 393214, 3, 0, 393215, 3, 0, 327680, 3, 0, 327681, 3, 0, 327682, 3, 0, 327683, 3, 0, 327684, 3, 0, 327685, 3, 0, 327686, 3, 0, 327687, 3, 0, 327688, 3, 0, 327689, 3, 0, 327690, 3, 0, 327691, 3, 0, 327692, 3, 0, 327693, 3, 0, 327694, 3, 0, 327695, 3, 0, 327696, 3, 0, 327697, 3, 0, 327698, 3, 0, 327699, 3, 0, 327700, 3, 0, 327701, 3, 0, 327702, 3, 0, 327703, 3, 0, 327704, 3, 0, 327705, 3, 0, 327706, 3, 0, 327707, 3, 0, 327708, 3, 0, 327709, 3, 0, 327710, 536870914, 0, 458711, 1073741825, 0, 458712, 3, 0, 458713, 3, 0, 458714, 3, 0, 458715, 3, 0, 458716, 3, 0, 458717, 3, 0, 458718, 3, 0, 458719, 3, 0, 458720, 3, 0, 458721, 3, 0, 458722, 3, 0, 458723, 3, 0, 458724, 3, 0, 458725, 3, 0, 458726, 3, 0, 458727, 3, 0, 458728, 3, 0, 458729, 3, 0, 458730, 3, 0, 458731, 3, 0, 458732, 3, 0, 458733, 3, 0, 458734, 3, 0, 458735, 3, 0, 458736, 3, 0, 458737, 3, 0, 458738, 3, 0, 458739, 3, 0, 458740, 3, 0, 458741, 3, 0, 458742, 3, 0, 458743, 3, 0, 458744, 3, 0, 458745, 3, 0, 458746, 3, 0, 458747, 3, 0, 458748, 3, 0, 458749, 3, 0, 458750, 3, 0, 458751, 3, 0, 393216, 3, 0, 393217, 3, 0, 393218, 3, 0, 393219, 3, 0, 393220, 3, 0, 393221, 3, 0, 393222, 3, 0, 393223, 3, 0, 393224, 3, 0, 393225, 3, 0, 393226, 3, 0, 393227, 3, 0, 393228, 3, 0, 393229, 3, 0, 393230, 3, 0, 393231, 3, 0, 393232, 3, 0, 393233, 3, 0, 393234, 3, 0, 393235, 3, 0, 393236, 3, 0, 393237, 3, 0, 393238, 3, 0, 393239, 3, 0, 393240, 3, 0, 393241, 3, 0, 393242, 3, 0, 393243, 3, 0, 393244, 3, 0, 393245, 3, 0, 393246, 536870914, 0, 524247, 3, 0, 524248, 3, 0, 524249, 3, 0, 524250, 3, 0, 524251, 3, 0, 524252, 3, 0, 524253, 3, 0, 524254, 3, 0, 524255, 3, 0, 524256, 3, 0, 524257, 3, 0, 524258, 3, 0, 524259, 3, 0, 524260, 3, 0, 524261, 3, 0, 524262, 3, 0, 524263, 3, 0, 524264, 3, 0, 524265, 3, 0, 524266, 3, 0, 524267, 3, 0, 524268, 3, 0, 524269, 3, 0, 524270, 3, 0, 524271, 3, 0, 524272, 3, 0, 524273, 3, 0, 524274, 3, 0, 524275, 3, 0, 524276, 3, 0, 524277, 3, 0, 524278, 3, 0, 524279, 3, 0, 524280, 3, 0, 524281, 3, 0, 524282, 3, 0, 524283, 3, 0, 524284, 3, 0, 524285, 3, 0, 524286, 3, 0, 524287, 3, 0, 458752, 3, 0, 458753, 3, 0, 458754, 3, 0, 458755, 3, 0, 458756, 3, 0, 458757, 3, 0, 458758, 3, 0, 458759, 3, 0, 458760, 3, 0, 458761, 3, 0, 458762, 3, 0, 458763, 3, 0, 458764, 3, 0, 458765, 3, 0, 458766, 3, 0, 458767, 3, 0, 458768, 3, 0, 458769, 3, 0, 458770, 3, 0, 458771, 3, 0, 458772, 3, 0, 458773, 3, 0, 458774, 3, 0, 458775, 3, 0, 458776, 3, 0, 458777, 3, 0, 458778, 3, 0, 458779, 3, 0, 458780, 3, 0, 458781, 3, 0, 458782, 536870914, 0, 589783, 3, 0, 589784, 3, 0, 589785, 3, 0, 589786, 3, 0, 589787, 3, 0, 589788, 3, 0, 589789, 3, 0, 589790, 3, 0, 589791, 3, 0, 589792, 3, 0, 589793, 3, 0, 589794, 3, 0, 589795, 3, 0, 589796, 3, 0, 589797, 3, 0, 589798, 3, 0, 589799, 3, 0, 589800, 3, 0, 589801, 3, 0, 589802, 3, 0, 589803, 3, 0, 589804, 3, 0, 589805, 3, 0, 589806, 3, 0, 589807, 3, 0, 589808, 3, 0, 589809, 3, 0, 589810, 3, 0, 589811, 3, 0, 589812, 3, 0, 589813, 3, 0, 589814, 3, 0, 589815, 3, 0, 589816, 3, 0, 589817, 3, 0, 589818, 3, 0, 589819, 3, 0, 589820, 3, 0, 589821, 3, 0, 589822, 3, 0, 589823, 3, 0, 524288, 3, 0, 524289, 3, 0, 524290, 3, 0, 524291, 3, 0, 524292, 3, 0, 524293, 3, 0, 524294, 3, 0, 524295, 3, 0, 524296, 3, 0, 524297, 3, 0, 524298, 3, 0, 524299, 3, 0, 524300, 3, 0, 524301, 3, 0, 524302, 3, 0, 524303, 3, 0, 524304, 3, 0, 524305, 3, 0, 524306, 3, 0, 524307, 3, 0, 524308, 3, 0, 524309, 3, 0, 524310, 3, 0, 524311, 3, 0, 524312, 3, 0, 524313, 3, 0, 524314, 3, 0, 524315, 3, 0, 524316, 3, 0, 524317, 3, 0, 524318, 536870914, 0, 655319, 3, 0, 655320, 3, 0, 655321, 3, 0, 655322, 3, 0, 655323, 3, 0, 655324, 3, 0, 655325, 3, 0, 655326, 3, 0, 655327, 3, 0, 655328, 3, 0, 655329, 3, 0, 655330, 3, 0, 655331, 3, 0, 655332, 3, 0, 655333, 3, 0, 655334, 3, 0, 655335, 3, 0, 655336, 3, 0, 655337, 3, 0, 655338, 3, 0, 655339, 3, 0, 655340, 3, 0, 655341, 3, 0, 655342, 3, 0, 655343, 3, 0, 655344, 3, 0, 655345, 3, 0, 655346, 3, 0, 655347, 3, 0, 655348, 3, 0, 655349, 3, 0, 655350, 3, 0, 655351, 3, 0, 655352, 3, 0, 655353, 3, 0, 655354, 3, 0, 655355, 3, 0, 655356, 3, 0, 655357, 3, 0, 655358, 3, 0, 655359, 3, 0, 589824, 3, 0, 589825, 3, 0, 589826, 3, 0, 589827, 3, 0, 589828, 3, 0, 589829, 3, 0, 589830, 3, 0, 589831, 3, 0, 589832, 3, 0, 589833, 3, 0, 589834, 3, 0, 589835, 3, 0, 589836, 3, 0, 589837, 3, 0, 589838, 3, 0, 589839, 3, 0, 589840, 3, 0, 589841, 3, 0, 589842, 3, 0, 589843, 3, 0, 589844, 3, 0, 589845, 3, 0, 589846, 3, 0, 589847, 3, 0, 589848, 3, 0, 589849, 3, 0, 589850, 3, 0, 589851, 3, 0, 589852, 3, 0, 589853, 3, 0, 589854, 536870914, 0, 720855, 3, 0, 720856, 3, 0, 720857, 3, 0, 720858, 3, 0, 720859, 3, 0, 720860, 3, 0, 720861, 3, 0, 720862, 3, 0, 720863, 3, 0, 720864, 3, 0, 720865, 3, 0, 720866, 3, 0, 720867, 3, 0, 720868, 3, 0, 720869, 3, 0, 720870, 3, 0, 720871, 3, 0, 720872, 3, 0, 720873, 3, 0, 720874, 3, 0, 720875, 3, 0, 720876, 3, 0, 720877, 3, 0, 720878, 3, 0, 720879, 3, 0, 720880, 3, 0, 720881, 3, 0, 720882, 3, 0, 720883, 3, 0, 720884, 3, 0, 720885, 3, 0, 720886, 3, 0, 720887, 3, 0, 720888, 3, 0, 720889, 3, 0, 720890, 3, 0, 720891, 3, 0, 720892, 3, 0, 720893, 3, 0, 720894, 3, 0, 720895, 3, 0, 655360, 3, 0, 655361, 3, 0, 655362, 3, 0, 655363, 3, 0, 655364, 3, 0, 655365, 3, 0, 655366, 3, 0, 655367, 3, 0, 655368, 3, 0, 655369, 3, 0, 655370, 3, 0, 655371, 3, 0, 655372, 3, 0, 655373, 3, 0, 655374, 3, 0, 655375, 3, 0, 655376, 3, 0, 655377, 3, 0, 655378, 3, 0, 655379, 3, 0, 655380, 3, 0, 655381, 3, 0, 655382, 3, 0, 655383, 3, 0, 655384, 3, 0, 655385, 3, 0, 655386, 3, 0, 655387, 3, 0, 655388, 3, 0, 655389, 3, 0, 655390, 536870914, 0, 786391, 3, 0, 786392, 3, 0, 786393, 3, 0, 786394, 3, 0, 786395, 3, 0, 786396, 3, 0, 786397, 3, 0, 786398, 3, 0, 786399, 3, 0, 786400, 3, 0, 786401, 3, 0, 786402, 3, 0, 786403, 3, 0, 786404, 3, 0, 786405, 3, 0, 786406, 3, 0, 786407, 3, 0, 786408, 3, 0, 786409, 3, 0, 786410, 3, 0, 786411, 3, 0, 786412, 3, 0, 786413, 3, 0, 786414, 3, 0, 786415, 3, 0, 786416, 3, 0, 786417, 3, 0, 786418, 3, 0, 786419, 3, 0, 786420, 3, 0, 786421, 3, 0, 786422, 3, 0, 786423, 3, 0, 786424, 3, 0, 786425, 3, 0, 786426, 3, 0, 786427, 3, 0, 786428, 3, 0, 786429, 3, 0, 786430, 3, 0, 786431, 3, 0, 720896, 3, 0, 720897, 3, 0, 720898, 3, 0, 720899, 3, 0, 720900, 3, 0, 720901, 3, 0, 720902, 3, 0, 720903, 3, 0, 720904, 3, 0, 720905, 3, 0, 720906, 3, 0, 720907, 3, 0, 720908, 3, 0, 720909, 3, 0, 720910, 3, 0, 720911, 3, 0, 720912, 3, 0, 720913, 3, 0, 720914, 3, 0, 720915, 3, 0, 720916, 3, 0, 720917, 3, 0, 720918, 3, 0, 720919, 3, 0, 720920, 3, 0, 720921, 3, 0, 720922, 3, 0, 720923, 3, 0, 720924, 3, 0, 720925, 3, 0, 720926, 536870914, 0, 851927, 536870913, 0, 851928, 0, 0, 851929, 0, 0, 851930, 0, 0, 851931, 0, 0, 851932, 0, 0, 851933, 0, 0, 851934, 0, 0, 851935, 0, 0, 851936, 0, 0, 851937, 0, 0, 851938, 0, 0, 851939, 0, 0, 851940, 0, 0, 851941, 0, 0, 851942, 0, 0, 851943, 0, 0, 851944, 0, 0, 851945, 0, 0, 851946, 0, 0, 851947, 0, 0, 851948, 0, 0, 851949, 0, 0, 851950, 0, 0, 851951, 0, 0, 851952, 0, 0, 851953, 0, 0, 851954, 0, 0, 851955, 0, 0, 851956, 0, 0, 851957, 0, 0, 851958, 0, 0, 851959, 0, 0, 851960, 0, 0, 851961, 0, 0, 851962, 0, 0, 851963, 0, 0, 851964, 0, 0, 851965, 0, 0, 851966, 0, 0, 851967, 0, 0, 786432, 0, 0, 786433, 0, 0, 786434, 0, 0, 786435, 0, 0, 786436, 0, 0, 786437, 0, 0, 786438, 0, 0, 786439, 0, 0, 786440, 0, 0, 786441, 0, 0, 786442, 0, 0, 786443, 0, 0, 786444, 0, 0, 786445, 0, 0, 786446, 0, 0, 786447, 0, 0, 786448, 0, 0, 786449, 0, 0, 786450, 0, 0, 786451, 0, 0, 786452, 0, 0, 786453, 1, 0, 786454, 3, 0, 786455, 3, 0, 786456, 3, 0, 786457, 536870913, 0, 786458, 0, 0, 786459, 0, 0, 786460, 0, 0, 786461, 0, 0, 786462, 0, 0, 917463, 536870914, 0, 917464, 4, 0, 917465, 4, 0, 917466, 4, 0, 917467, 4, 0, 917468, 4, 0, 917469, 4, 0, 917470, 4, 0, 917471, 4, 0, 917472, 4, 0, 917473, 4, 0, 917474, 4, 0, 917475, 4, 0, 917476, 4, 0, 917477, 4, 0, 917478, 4, 0, 917479, 4, 0, 917480, 4, 0, 917481, 4, 0, 917482, 4, 0, 917483, 4, 0, 917484, 4, 0, 917485, 4, 0, 917486, 4, 0, 917487, 4, 0, 917488, 4, 0, 917489, 4, 0, 917490, 4, 0, 917491, 4, 0, 917492, 4, 0, 917493, 4, 0, 917494, 4, 0, 917495, 4, 0, 917496, 4, 0, 917497, 4, 0, 917498, 4, 0, 917499, 4, 0, 917500, 4, 0, 917501, 4, 0, 917502, 4, 0, 917503, 4, 0, 851968, 4, 0, 851969, 4, 0, 851970, 4, 0, 851971, 4, 0, 851972, 4, 0, 851973, 4, 0, 851974, 4, 0, 851975, 4, 0, 851976, 4, 0, 851977, 4, 0, 851978, 4, 0, 851979, 4, 0, 851980, 4, 0, 851981, 4, 0, 851982, 4, 0, 851983, 4, 0, 851984, 4, 0, 851985, 4, 0, 851986, 4, 0, 851987, 4, 0, 851988, 4, 0, 851989, 2, 0, 851990, 3, 0, 851991, 3, 0, 851992, 3, 0, 851993, 536870914, 0, 851994, 4, 0, 851995, 4, 0, 851996, 4, 0, 851997, 4, 0, 851998, 2, 0, 982999, 536870914, 0, 983000, 4, 0, 983001, 4, 0, 983002, 4, 0, 983003, 4, 0, 983004, 4, 0, 983005, 4, 0, 983006, 4, 0, 983007, 4, 0, 983008, 4, 0, 983009, 4, 0, 983010, 4, 0, 983011, 4, 0, 983012, 4, 0, 983013, 4, 0, 983014, 4, 0, 983015, 4, 0, 983016, 4, 0, 983017, 4, 0, 983018, 4, 0, 983019, 4, 0, 983020, 4, 0, 983021, 4, 0, 983022, 4, 0, 983023, 4, 0, 983024, 4, 0, 983025, 4, 0, 983026, 4, 0, 983027, 4, 0, 983028, 4, 0, 983029, 4, 0, 983030, 4, 0, 983031, 4, 0, 983032, 4, 0, 983033, 4, 0, 983034, 4, 0, 983035, 4, 0, 983036, 4, 0, 983037, 4, 0, 983038, 4, 0, 983039, 4, 0, 917504, 4, 0, 917505, 4, 0, 917506, 4, 0, 917507, 4, 0, 917508, 4, 0, 917509, 4, 0, 917510, 4, 0, 917511, 4, 0, 917512, 4, 0, 917513, 4, 0, 917514, 4, 0, 917515, 4, 0, 917516, 4, 0, 917517, 4, 0, 917518, 4, 0, 917519, 4, 0, 917520, 4, 0, 917521, 4, 0, 917522, 4, 0, 917523, 4, 0, 917524, 4, 0, 917525, 2, 0, 917526, 3, 0, 917527, 3, 0, 917528, 3, 0, 917529, 536870914, 0, 917530, 4, 0, 917531, 4, 0, 917532, 4, 0, 917533, 4, 0, 917534, 2, 0, 1048535, 536870914, 0, 1048536, 4, 0, 1048537, 4, 0, 1048538, 4, 0, 1048539, 4, 0, 1048540, 4, 0, 1048541, 4, 0, 1048542, 4, 0, 1048543, 4, 0, 1048544, 4, 0, 1048545, 4, 0, 1048546, 4, 0, 1048547, 4, 0, 1048548, 4, 0, 1048549, 4, 0, 1048550, 4, 0, 1048551, 4, 0, 1048552, 4, 0, 1048553, 4, 0, 1048554, 4, 0, 1048555, 4, 0, 1048556, 4, 0, 1048557, 4, 0, 1048558, 4, 0, 1048559, 4, 0, 1048560, 4, 0, 1048561, 4, 0, 1048562, 4, 0, 1048563, 4, 0, 1048564, 4, 0, 1048565, 4, 0, 1048566, 4, 0, 1048567, 4, 0, 1048568, 4, 0, 1048569, 4, 0, 1048570, 4, 0, 1048571, 4, 0, 1048572, 4, 0, 1048573, 4, 0, 1048574, 4, 0, 1048575, 4, 0, 983040, 4, 0, 983041, 4, 0, 983042, 4, 0, 983043, 4, 0, 983044, 4, 0, 983045, 4, 0, 983046, 4, 0, 983047, 4, 0, 983048, 4, 0, 983049, 4, 0, 983050, 4, 0, 983051, 4, 0, 983052, 4, 0, 983053, 4, 0, 983054, 4, 0, 983055, 4, 0, 983056, 4, 0, 983057, 4, 0, 983058, 4, 0, 983059, 4, 0, 983060, 4, 0, 983061, 2, 0, 983062, 3, 0, 983063, 3, 0, 983064, 3, 0, 983065, 536870914, 0, 983066, 4, 0, 983067, 4, 0, 983068, 4, 0, 983069, 4, 0, 983070, 2, 0, 1114071, 536870914, 0, 1114072, 4, 0, 1114073, 4, 0, 1114074, 4, 0, 1114075, 4, 0, 1114076, 4, 0, 1114077, 4, 0, 1114078, 4, 0, 1114079, 4, 0, 1114080, 4, 0, 1114081, 4, 0, 1114082, 4, 0, 1114083, 4, 0, 1114084, 4, 0, 1114085, 4, 0, 1114086, 4, 0, 1114087, 4, 0, 1114088, 4, 0, 1114089, 4, 0, 1114090, 4, 0, 1114091, 4, 0, 1114092, 4, 0, 1114093, 4, 0, 1114094, 4, 0, 1114095, 4, 0, 1114096, 4, 0, 1114097, 4, 0, 1114098, 4, 0, 1114099, 4, 0, 1114100, 4, 0, 1114101, 4, 0, 1114102, 4, 0, 1114103, 4, 0, 1114104, 4, 0, 1114105, 4, 0, 1114106, 4, 0, 1114107, 4, 0, 1114108, 4, 0, 1114109, 4, 0, 1114110, 4, 0, 1114111, 4, 0, 1048576, 4, 0, 1048577, 4, 0, 1048578, 4, 0, 1048579, 4, 0, 1048580, 4, 0, 1048581, 4, 0, 1048582, 4, 0, 1048583, 4, 0, 1048584, 4, 0, 1048585, 4, 0, 1048586, 4, 0, 1048587, 4, 0, 1048588, 4, 0, 1048589, 4, 0, 1048590, 4, 0, 1048591, 4, 0, 1048592, 4, 0, 1048593, 4, 0, 1048594, 4, 0, 1048595, 4, 0, 1048596, 4, 0, 1048597, 2, 0, 1048598, 3, 0, 1048599, 3, 0, 1048600, 3, 0, 1048601, 536870914, 0, 1048602, 4, 0, 1048603, 4, 0, 1048604, 4, 0, 1048605, 4, 0, 1048606, 2, 0, 1179607, 536870914, 0, 1179608, 4, 0, 1179609, 4, 0, 1179610, 4, 0, 1179611, 4, 0, 1179612, 4, 0, 1179613, 4, 0, 1179614, 4, 0, 1179615, 4, 0, 1179616, 4, 0, 1179617, 4, 0, 1179618, 4, 0, 1179619, 4, 0, 1179620, 4, 0, 1179621, 4, 0, 1179622, 4, 0, 1179623, 4, 0, 1179624, 4, 0, 1179625, 4, 0, 1179626, 4, 0, 1179627, 4, 0, 1179628, 4, 0, 1179629, 4, 0, 1179630, 4, 0, 1179631, 4, 0, 1179632, 4, 0, 1179633, 4, 0, 1179634, 4, 0, 1179635, 4, 0, 1179636, 4, 0, 1179637, 4, 0, 1179638, 4, 0, 1179639, 4, 0, 1179640, 4, 0, 1179641, 4, 0, 1179642, 4, 0, 1179643, 4, 0, 1179644, 4, 0, 1179645, 4, 0, 1179646, 4, 0, 1179647, 4, 0, 1114112, 4, 0, 1114113, 4, 0, 1114114, 4, 0, 1114115, 4, 0, 1114116, 4, 0, 1114117, 4, 0, 1114118, 4, 0, 1114119, 4, 0, 1114120, 4, 0, 1114121, 4, 0, 1114122, 4, 0, 1114123, 4, 0, 1114124, 4, 0, 1114125, 4, 0, 1114126, 4, 0, 1114127, 4, 0, 1114128, 4, 0, 1114129, 4, 0, 1114130, 4, 0, 1114131, 4, 0, 1114132, 4, 0, 1114133, 2, 0, 1114134, 3, 0, 1114135, 3, 0, 1114136, 3, 0, 1114137, 536870914, 0, 1114138, 4, 0, 1114139, 4, 0, 1114140, 4, 0, 1114141, 4, 0, 1114142, 2, 0, 1245143, 536870914, 0, 1245144, 4, 0, 1245145, 4, 0, 1245146, 4, 0, 1245147, 4, 0, 1245148, 4, 0, 1245149, 4, 0, 1245150, 4, 0, 1245151, 4, 0, 1245152, 4, 0, 1245153, 4, 0, 1245154, 4, 0, 1245155, 4, 0, 1245156, 4, 0, 1245157, 4, 0, 1245158, 4, 0, 1245159, 4, 0, 1245160, 4, 0, 1245161, 4, 0, 1245162, 4, 0, 1245163, 4, 0, 1245164, 4, 0, 1245165, 4, 0, 1245166, 4, 0, 1245167, 4, 0, 1245168, 4, 0, 1245169, 4, 0, 1245170, 4, 0, 1245171, 4, 0, 1245172, 4, 0, 1245173, 4, 0, 1245174, 4, 0, 1245175, 4, 0, 1245176, 4, 0, 1245177, 4, 0, 1245178, 4, 0, 1245179, 4, 0, 1245180, 4, 0, 1245181, 4, 0, 1245182, 4, 0, 1245183, 4, 0, 1179648, 4, 0, 1179649, 4, 0, 1179650, 4, 0, 1179651, 4, 0, 1179652, 4, 0, 1179653, 4, 0, 1179654, 4, 0, 1179655, 4, 0, 1179656, 4, 0, 1179657, 4, 0, 1179658, 4, 0, 1179659, 4, 0, 1179660, 4, 0, 1179661, 4, 0, 1179662, 4, 0, 1179663, 4, 0, 1179664, 4, 0, 1179665, 4, 0, 1179666, 4, 0, 1179667, 4, 0, 1179668, 4, 0, 1179669, 2, 0, 1179670, 3, 0, 1179671, 3, 0, 1179672, 3, 0, 1179673, 536870914, 0, 1179674, 4, 0, 1179675, 4, 0, 1179676, 4, 0, 1179677, 4, 0, 1179678, 2, 0 )

[node name="DecoGroup" type="Node2D" parent="tilemap"]

[node name="TileMap" type="TileMap" parent="tilemap/DecoGroup"]
tile_set = ExtResource( 2 )
cell_size = Vector2( 32, 32 )
compatibility_mode = true
format = 1
tile_data = PoolIntArray( -131109, 3, 0, -131096, 2, 0, -131085, 536870915, 0, -131075, 536870915, 0, -196598, 3, 0, -196584, 2, 0, 196588, 1, 0, 196606, 1, 0, 458715, 1, 0, 393233, 536870913, 0, 524268, 536870918, 0, 458752, 5, 0, 786397, 0, 0, 786414, 0, 0, 720896, 0, 0, 720912, 0, 0, 536870912, 0, 0, 536870913, 0, 0, 536870914, 0, 0 )

[node name="TorchGroup" type="Node2D" parent="tilemap"]

[node name="torch" parent="tilemap/TorchGroup" instance=ExtResource( 3 )]
position = Vector2( 752, 224 )
mode = "strong"

[node name="torch2" parent="tilemap/TorchGroup" instance=ExtResource( 3 )]
position = Vector2( 288, 224 )
mode = "strong"

[node name="torch3" parent="tilemap/TorchGroup" instance=ExtResource( 3 )]
position = Vector2( -288, 224 )
mode = "strong"

[node name="torch4" parent="tilemap/TorchGroup" instance=ExtResource( 3 )]
position = Vector2( -864, 224 )
mode = "strong"

[node name="LadderGroup" type="Node2D" parent="tilemap"]

[node name="TestLadder" parent="tilemap/LadderGroup" instance=ExtResource( 4 )]
position = Vector2( 752, 496 )

[node name="Sprite" parent="tilemap/LadderGroup/TestLadder/KinematicBody2D" index="0"]
region_rect = Rect2( 0, 0, 32, 224 )

[node name="ladder" parent="tilemap/LadderGroup/TestLadder/KinematicBody2D" index="1"]
scale = Vector2( 1, 7 )

[node name="TestLadder 2" parent="tilemap/LadderGroup" instance=ExtResource( 5 )]
position = Vector2( 752, 368 )

[node name="SpikeGroup" type="Node2D" parent="tilemap"]

[node name="SpikeTile" parent="tilemap/SpikeGroup" instance=ExtResource( 6 )]
position = Vector2( 544, 368 )

[node name="SpikeTile1" parent="tilemap/SpikeGroup" instance=ExtResource( 6 )]
position = Vector2( 512, 368 )

[node name="SpikeTile2" parent="tilemap/SpikeGroup" instance=ExtResource( 6 )]
position = Vector2( 480, 368 )

[node name="SpikeTile3" parent="tilemap/SpikeGroup" instance=ExtResource( 6 )]
position = Vector2( 448, 368 )

[node name="SpikeTile4" parent="tilemap/SpikeGroup" instance=ExtResource( 6 )]
position = Vector2( 416, 368 )

[node name="SpikeTile5" parent="tilemap/SpikeGroup" instance=ExtResource( 6 )]
position = Vector2( 384, 368 )

[node name="SpikeTile6" parent="tilemap/SpikeGroup" instance=ExtResource( 6 )]
position = Vector2( 352, 368 )

[node name="SpikeTile7" parent="tilemap/SpikeGroup" instance=ExtResource( 6 )]
position = Vector2( 320, 368 )

[node name="SpikeTile8" parent="tilemap/SpikeGroup" instance=ExtResource( 6 )]
position = Vector2( 288, 368 )

[node name="SpikeTile9" parent="tilemap/SpikeGroup" instance=ExtResource( 6 )]
position = Vector2( 256, 368 )

[node name="SpikeTile10" parent="tilemap/SpikeGroup" instance=ExtResource( 6 )]
position = Vector2( 224, 368 )

[node name="SpikeTile11" parent="tilemap/SpikeGroup" instance=ExtResource( 6 )]
position = Vector2( 192, 368 )

[node name="SpikeTile12" parent="tilemap/SpikeGroup" instance=ExtResource( 6 )]
position = Vector2( 160, 368 )

[node name="SpikeTile13" parent="tilemap/SpikeGroup" instance=ExtResource( 6 )]
position = Vector2( 128, 368 )

[node name="SpikeTile14" parent="tilemap/SpikeGroup" instance=ExtResource( 6 )]
position = Vector2( 96, 368 )

[node name="SpikeTile15" parent="tilemap/SpikeGroup" instance=ExtResource( 6 )]
position = Vector2( 64, 368 )

[node name="SpikeTile16" parent="tilemap/SpikeGroup" instance=ExtResource( 6 )]
position = Vector2( 32, 368 )

[node name="SpikeTile17" parent="tilemap/SpikeGroup" instance=ExtResource( 6 )]
position = Vector2( 0, 368 )

[node name="SpikeTile18" parent="tilemap/SpikeGroup" instance=ExtResource( 6 )]
position = Vector2( -32, 368 )

[node name="SpikeTile19" parent="tilemap/SpikeGroup" instance=ExtResource( 6 )]
position = Vector2( -64, 368 )

[node name="SpikeTile20" parent="tilemap/SpikeGroup" instance=ExtResource( 6 )]
position = Vector2( -96, 368 )

[node name="SpikeTile21" parent="tilemap/SpikeGroup" instance=ExtResource( 6 )]
position = Vector2( -128, 368 )

[node name="SpikeTile22" parent="tilemap/SpikeGroup" instance=ExtResource( 6 )]
position = Vector2( -160, 368 )

[node name="SpikeTile23" parent="tilemap/SpikeGroup" instance=ExtResource( 6 )]
position = Vector2( -192, 368 )

[node name="SpikeTile24" parent="tilemap/SpikeGroup" instance=ExtResource( 6 )]
position = Vector2( -224, 368 )

[node name="SpikeTile25" parent="tilemap/SpikeGroup" instance=ExtResource( 6 )]
position = Vector2( -256, 368 )

[node name="SpikeTile26" parent="tilemap/SpikeGroup" instance=ExtResource( 6 )]
position = Vector2( -288, 368 )

[node name="SpikeTile27" parent="tilemap/SpikeGroup" instance=ExtResource( 6 )]
position = Vector2( -320, 368 )

[node name="SpikeTile28" parent="tilemap/SpikeGroup" instance=ExtResource( 6 )]
position = Vector2( -352, 368 )

[node name="SpikeTile29" parent="tilemap/SpikeGroup" instance=ExtResource( 6 )]
position = Vector2( -384, 368 )

[node name="SpikeTile30" parent="tilemap/SpikeGroup" instance=ExtResource( 6 )]
position = Vector2( -416, 368 )

[node name="SpikeTile31" parent="tilemap/SpikeGroup" instance=ExtResource( 6 )]
position = Vector2( -448, 368 )

[node name="SpikeTile32" parent="tilemap/SpikeGroup" instance=ExtResource( 6 )]
position = Vector2( -480, 368 )

[node name="SpikeTile33" parent="tilemap/SpikeGroup" instance=ExtResource( 6 )]
position = Vector2( -512, 368 )

[node name="SpikeTile34" parent="tilemap/SpikeGroup" instance=ExtResource( 6 )]
position = Vector2( -544, 368 )

[node name="SpikeTile35" parent="tilemap/SpikeGroup" instance=ExtResource( 6 )]
position = Vector2( -576, 368 )

[node name="SpikeTile36" parent="tilemap/SpikeGroup" instance=ExtResource( 6 )]
position = Vector2( -608, 368 )

[node name="SpikeTile37" parent="tilemap/SpikeGroup" instance=ExtResource( 6 )]
position = Vector2( -640, 368 )

[node name="SpikeTile38" parent="tilemap/SpikeGroup" instance=ExtResource( 6 )]
position = Vector2( -672, 368 )

[node name="SpikeTile39" parent="tilemap/SpikeGroup" instance=ExtResource( 6 )]
position = Vector2( -704, 368 )

[node name="SpikeTile40" parent="tilemap/SpikeGroup" instance=ExtResource( 6 )]
position = Vector2( -736, 368 )

[node name="SpikeTile41" parent="tilemap/SpikeGroup" instance=ExtResource( 6 )]
position = Vector2( -768, 368 )

[node name="SpikeTile42" parent="tilemap/SpikeGroup" instance=ExtResource( 6 )]
position = Vector2( -800, 368 )

[node name="SpikeTile43" parent="tilemap/SpikeGroup" instance=ExtResource( 6 )]
position = Vector2( -832, 368 )

[node name="SpikeTile44" parent="tilemap/SpikeGroup" instance=ExtResource( 6 )]
position = Vector2( -864, 368 )

[node name="SpikeTile45" parent="tilemap/SpikeGroup" instance=ExtResource( 6 )]
position = Vector2( -896, 368 )

[node name="SpikeTile46" parent="tilemap/SpikeGroup" instance=ExtResource( 6 )]
position = Vector2( -928, 368 )

[node name="SpikeTile47" parent="tilemap/SpikeGroup" instance=ExtResource( 6 )]
position = Vector2( -960, 368 )

[node name="SpikeTile48" parent="tilemap/SpikeGroup" instance=ExtResource( 6 )]
position = Vector2( -992, 368 )

[node name="SpikeTile49" parent="tilemap/SpikeGroup" instance=ExtResource( 6 )]
position = Vector2( -1024, 368 )

[node name="SpikeTile50" parent="tilemap/SpikeGroup" instance=ExtResource( 6 )]
position = Vector2( -1056, 368 )

[node name="SpikeTile51" parent="tilemap/SpikeGroup" instance=ExtResource( 6 )]
position = Vector2( -1088, 368 )

[node name="SwingableGroup" type="Node2D" parent="tilemap"]

[node name="SwingBlock" parent="tilemap/SwingableGroup" instance=ExtResource( 7 )]
position = Vector2( 432, 80 )

[node name="SwingBlock1" parent="tilemap/SwingableGroup" instance=ExtResource( 7 )]
position = Vector2( 144, 80 )

[node name="SwingBlock2" parent="tilemap/SwingableGroup" instance=ExtResource( 7 )]
position = Vector2( -144, 80 )

[node name="SwingBlock3" parent="tilemap/SwingableGroup" instance=ExtResource( 7 )]
position = Vector2( -432, 80 )

[node name="SwingBlock4" parent="tilemap/SwingableGroup" instance=ExtResource( 7 )]
position = Vector2( -720, 80 )

[node name="SwingBlock5" parent="tilemap/SwingableGroup" instance=ExtResource( 7 )]
position = Vector2( -1008, 80 )

[node name="TeleportGroup" type="Node2D" parent="tilemap"]

[node name="Teleport" parent="tilemap/TeleportGroup" instance=ExtResource( 8 )]
position = Vector2( 752, 624 )
is_horizontal = false
target_level = "res://levels/mausoleum/0-5.tscn"
teleport_to = Vector2( 112, -816 )

[node name="teleport" parent="tilemap/TeleportGroup/Teleport" index="0"]
scale = Vector2( 3, 1 )

[node name="Teleport1" parent="tilemap/TeleportGroup" instance=ExtResource( 8 )]
position = Vector2( -1328, 304 )
target_level = "res://levels/mausoleum/0-7.tscn"
teleport_to = Vector2( 428, 80 )

[node name="teleport" parent="tilemap/TeleportGroup/Teleport1" index="0"]
scale = Vector2( 1, 5 )

[node name="boundaries" type="Node2D" parent="tilemap"]

[node name="NW" type="Position2D" parent="tilemap/boundaries"]
position = Vector2( -1318, -134 )

[node name="SE" type="Position2D" parent="tilemap/boundaries"]
position = Vector2( 1002, 618 )

[editable path="tilemap/LadderGroup/TestLadder"]

[editable path="tilemap/TeleportGroup/Teleport"]

[editable path="tilemap/TeleportGroup/Teleport1"]
