[gd_scene load_steps=10 format=2]

[ext_resource path="res://scenes/mausoleum/tileset.tres" type="TileSet" id=1]
[ext_resource path="res://scenes/common/cryptFGtileset.tres" type="TileSet" id=2]
[ext_resource path="res://scenes/mausoleum/climbableblock.tscn" type="PackedScene" id=3]
[ext_resource path="res://scenes/common/breakables/bluetorch.tscn" type="PackedScene" id=4]
[ext_resource path="res://scenes/npcs/npc.tscn" type="PackedScene" id=5]
[ext_resource path="res://scenes/common/fluid/water.tscn" type="PackedScene" id=6]
[ext_resource path="res://scenes/common/teleport.tscn" type="PackedScene" id=7]

[sub_resource type="PhysicsMaterial" id=1]
friction = 0.0

[sub_resource type="PhysicsMaterial" id=2]
friction = 0.0

[node name="LVL_NOTITLE" type="Node2D"]
__meta__ = {
"__editor_plugin_screen__": "2D"
}

[node name="tilemap" type="TileMap" parent="."]
tile_set = ExtResource( 1 )
cell_size = Vector2( 32, 32 )
compatibility_mode = true
collision_layer = 524288
format = 1
tile_data = PoolIntArray( -262161, 1610612737, 0, -262160, 1073741824, 0, -262159, 1073741824, 0, -262158, 1073741824, 0, -262157, 1073741824, 0, -262156, 1073741824, 0, -262155, 1073741824, 0, -262154, 1073741824, 0, -262153, 1073741824, 0, -262152, 1073741824, 0, -262151, 1073741824, 0, -262150, 1073741824, 0, -262149, 1073741824, 0, -262148, 1073741824, 0, -262147, 1073741825, 0, -262146, 3, 0, -262145, 3, 0, -327680, 3, 0, -327679, 1610612737, 0, -327678, 1073741824, 0, -327677, 1073741824, 0, -327676, 1073741824, 0, -327675, 1073741824, 0, -327674, 1073741824, 0, -327673, 536870914, 0, -327672, 4, 0, -327671, 2, 0, -327670, 1073741824, 0, -327669, 1073741824, 0, -327668, 1073741824, 0, -327667, 1073741824, 0, -327666, 1073741824, 0, -327665, 1073741824, 0, -327664, 1073741824, 0, -327663, 1073741824, 0, -327662, 1073741824, 0, -327661, 1073741824, 0, -327660, 1073741824, 0, -327659, 1073741824, 0, -327658, 1073741824, 0, -327657, 1073741824, 0, -327656, 1073741824, 0, -327655, 1073741825, 0, -196625, 2, 0, -196624, 3, 0, -196623, 3, 0, -196622, 3, 0, -196621, 3, 0, -196620, 3, 0, -196619, 3, 0, -196618, 3, 0, -196617, 3, 0, -196616, 3, 0, -196615, 3, 0, -196614, 3, 0, -196613, 3, 0, -196612, 3, 0, -196611, 3, 0, -196610, 3, 0, -196609, 3, 0, -262144, 3, 0, -262143, 3, 0, -262142, 3, 0, -262141, 3, 0, -262140, 3, 0, -262139, 3, 0, -262138, 3, 0, -262137, 536870914, 0, -262136, 4, 0, -262135, 2, 0, -262134, 3, 0, -262133, 3, 0, -262132, 3, 0, -262131, 3, 0, -262130, 3, 0, -262129, 3, 0, -262128, 3, 0, -262127, 3, 0, -262126, 3, 0, -262125, 3, 0, -262124, 3, 0, -262123, 3, 0, -262122, 3, 0, -262121, 3, 0, -262120, 3, 0, -262119, 536870914, 0, -131089, 2, 0, -131088, 3, 0, -131087, 3, 0, -131086, 3, 0, -131085, 3, 0, -131084, 3, 0, -131083, 3, 0, -131082, 3, 0, -131081, 3, 0, -131080, 3, 0, -131079, 3, 0, -131078, 3, 0, -131077, 3, 0, -131076, 3, 0, -131075, 3, 0, -131074, 3, 0, -131073, 3, 0, -196608, 3, 0, -196607, 3, 0, -196606, 3, 0, -196605, 3, 0, -196604, 3, 0, -196603, 3, 0, -196602, 3, 0, -196601, 536870914, 0, -196600, 4, 0, -196599, 2, 0, -196598, 3, 0, -196597, 3, 0, -196596, 3, 0, -196595, 3, 0, -196594, 3, 0, -196593, 3, 0, -196592, 3, 0, -196591, 3, 0, -196590, 3, 0, -196589, 3, 0, -196588, 3, 0, -196587, 3, 0, -196586, 3, 0, -196585, 3, 0, -196584, 3, 0, -196583, 536870914, 0, -65553, 2, 0, -65552, 3, 0, -65551, 3, 0, -65550, 3, 0, -65549, 3, 0, -65548, 3, 0, -65547, 3, 0, -65546, 3, 0, -65545, 3, 0, -65544, 3, 0, -65543, 3, 0, -65542, 3, 0, -65541, 3, 0, -65540, 3, 0, -65539, 3, 0, -65538, 3, 0, -65537, 3, 0, -131072, 3, 0, -131071, 3, 0, -131070, 3, 0, -131069, 3, 0, -131068, 3, 0, -131067, 3, 0, -131066, 3, 0, -131065, 536870914, 0, -131064, 4, 0, -131063, 2, 0, -131062, 3, 0, -131061, 3, 0, -131060, 3, 0, -131059, 3, 0, -131058, 3, 0, -131057, 3, 0, -131056, 3, 0, -131055, 3, 0, -131054, 3, 0, -131053, 3, 0, -131052, 3, 0, -131051, 3, 0, -131050, 3, 0, -131049, 3, 0, -131048, 3, 0, -131047, 536870914, 0, -17, 2, 0, -16, 3, 0, -15, 3, 0, -14, 3, 0, -13, 3, 0, -12, 3, 0, -11, 3, 0, -10, 3, 0, -9, 3, 0, -8, 3, 0, -7, 3, 0, -6, 3, 0, -5, 3, 0, -4, 3, 0, -3, 3, 0, -2, 3, 0, -1, 3, 0, -65536, 3, 0, -65535, 3, 0, -65534, 3, 0, -65533, 3, 0, -65532, 3, 0, -65531, 3, 0, -65530, 3, 0, -65529, 536870914, 0, -65528, 4, 0, -65527, 2, 0, -65526, 3, 0, -65525, 3, 0, -65524, 3, 0, -65523, 3, 0, -65522, 3, 0, -65521, 3, 0, -65520, 3, 0, -65519, 3, 0, -65518, 3, 0, -65517, 3, 0, -65516, 3, 0, -65515, 3, 0, -65514, 3, 0, -65513, 3, 0, -65512, 3, 0, -65511, 536870914, 0, 65519, 2, 0, 65520, 3, 0, 65521, 3, 0, 65522, 3, 0, 65523, 3, 0, 65524, 3, 0, 65525, 3, 0, 65526, 3, 0, 65527, 3, 0, 65528, 3, 0, 65529, 3, 0, 65530, 3, 0, 65531, 3, 0, 65532, 3, 0, 65533, 3, 0, 65534, 3, 0, 65535, 3, 0, 0, 3, 0, 1, 3, 0, 2, 3, 0, 3, 3, 0, 4, 3, 0, 5, 3, 0, 6, 3, 0, 7, 536870914, 0, 8, 4, 0, 9, 2, 0, 10, 3, 0, 11, 3, 0, 12, 3, 0, 13, 3, 0, 14, 3, 0, 15, 3, 0, 16, 3, 0, 17, 3, 0, 18, 3, 0, 19, 3, 0, 20, 3, 0, 21, 3, 0, 22, 3, 0, 23, 3, 0, 24, 3, 0, 25, 536870914, 0, 131055, 2, 0, 131056, 3, 0, 131057, 3, 0, 131058, 3, 0, 131059, 3, 0, 131060, 3, 0, 131061, 3, 0, 131062, 3, 0, 131063, 3, 0, 131064, 3, 0, 131065, 3, 0, 131066, 3, 0, 131067, 3, 0, 131068, 3, 0, 131069, 3, 0, 131070, 3, 0, 131071, 3, 0, 65536, 3, 0, 65537, 3, 0, 65538, 3, 0, 65539, 3, 0, 65540, 3, 0, 65541, 3, 0, 65542, 3, 0, 65543, 536870914, 0, 65544, 4, 0, 65545, 2, 0, 65546, 3, 0, 65547, 3, 0, 65548, 3, 0, 65549, 3, 0, 65550, 3, 0, 65551, 3, 0, 65552, 3, 0, 65553, 3, 0, 65554, 3, 0, 65555, 3, 0, 65556, 3, 0, 65557, 3, 0, 65558, 3, 0, 65559, 3, 0, 65560, 3, 0, 65561, 536870914, 0, 196591, 2, 0, 196592, 3, 0, 196593, 3, 0, 196594, 3, 0, 196595, 3, 0, 196596, 3, 0, 196597, 3, 0, 196598, 3, 0, 196599, 3, 0, 196600, 3, 0, 196601, 3, 0, 196602, 3, 0, 196603, 3, 0, 196604, 3, 0, 196605, 3, 0, 196606, 3, 0, 196607, 3, 0, 131072, 3, 0, 131073, 3, 0, 131074, 3, 0, 131075, 3, 0, 131076, 3, 0, 131077, 3, 0, 131078, 3, 0, 131079, 536870914, 0, 131080, 4, 0, 131081, 2, 0, 131082, 3, 0, 131083, 3, 0, 131084, 3, 0, 131085, 3, 0, 131086, 3, 0, 131087, 3, 0, 131088, 3, 0, 131089, 3, 0, 131090, 3, 0, 131091, 3, 0, 131092, 3, 0, 131093, 3, 0, 131094, 3, 0, 131095, 3, 0, 131096, 3, 0, 131097, 536870914, 0, 262127, 2, 0, 262128, 3, 0, 262129, 3, 0, 262130, 3, 0, 262131, 3, 0, 262132, 3, 0, 262133, 3, 0, 262134, 3, 0, 262135, 3, 0, 262136, 3, 0, 262137, 3, 0, 262138, 3, 0, 262139, 3, 0, 262140, 3, 0, 262141, 3, 0, 262142, 3, 0, 262143, 3, 0, 196608, 3, 0, 196609, 3, 0, 196610, 3, 0, 196611, 3, 0, 196612, 3, 0, 196613, 3, 0, 196614, 3, 0, 196615, 536870914, 0, 196616, 4, 0, 196617, 2, 0, 196618, 3, 0, 196619, 3, 0, 196620, 3, 0, 196621, 3, 0, 196622, 3, 0, 196623, 3, 0, 196624, 3, 0, 196625, 3, 0, 196626, 3, 0, 196627, 3, 0, 196628, 3, 0, 196629, 3, 0, 196630, 3, 0, 196631, 3, 0, 196632, 3, 0, 196633, 536870914, 0, 327663, 2, 0, 327664, 3, 0, 327665, 3, 0, 327666, 3, 0, 327667, 3, 0, 327668, 3, 0, 327669, 3, 0, 327670, 3, 0, 327671, 3, 0, 327672, 3, 0, 327673, 3, 0, 327674, 3, 0, 327675, 3, 0, 327676, 3, 0, 327677, 3, 0, 327678, 3, 0, 327679, 3, 0, 262144, 3, 0, 262145, 3, 0, 262146, 3, 0, 262147, 3, 0, 262148, 3, 0, 262149, 3, 0, 262150, 3, 0, 262151, 536870914, 0, 262152, 4, 0, 262153, 2, 0, 262154, 3, 0, 262155, 3, 0, 262156, 3, 0, 262157, 3, 0, 262158, 3, 0, 262159, 3, 0, 262160, 3, 0, 262161, 3, 0, 262162, 3, 0, 262163, 3, 0, 262164, 3, 0, 262165, 3, 0, 262166, 3, 0, 262167, 3, 0, 262168, 3, 0, 262169, 536870914, 0, 393199, 2, 0, 393200, 3, 0, 393201, 3, 0, 393202, 3, 0, 393203, 3, 0, 393204, 3, 0, 393205, 3, 0, 393206, 3, 0, 393207, 3, 0, 393208, 3, 0, 393209, 3, 0, 393210, 3, 0, 393211, 3, 0, 393212, 3, 0, 393213, 3, 0, 393214, 3, 0, 393215, 3, 0, 327680, 3, 0, 327681, 3, 0, 327682, 3, 0, 327683, 3, 0, 327684, 3, 0, 327685, 3, 0, 327686, 3, 0, 327687, 536870914, 0, 327688, 4, 0, 327689, 2, 0, 327690, 3, 0, 327691, 3, 0, 327692, 3, 0, 327693, 3, 0, 327694, 3, 0, 327695, 3, 0, 327696, 3, 0, 327697, 3, 0, 327698, 3, 0, 327699, 3, 0, 327700, 3, 0, 327701, 3, 0, 327702, 3, 0, 327703, 3, 0, 327704, 3, 0, 327705, 536870914, 0, 458735, 2, 0, 458736, 3, 0, 458737, 3, 0, 458738, 3, 0, 458739, 3, 0, 458740, 3, 0, 458741, 3, 0, 458742, 3, 0, 458743, 3, 0, 458744, 3, 0, 458745, 3, 0, 458746, 3, 0, 458747, 3, 0, 458748, 3, 0, 458749, 3, 0, 458750, 3, 0, 458751, 3, 0, 393216, 3, 0, 393217, 3, 0, 393218, 3, 0, 393219, 3, 0, 393220, 3, 0, 393221, 3, 0, 393222, 3, 0, 393223, 536870914, 0, 393224, 4, 0, 393225, 2, 0, 393226, 3, 0, 393227, 3, 0, 393228, 3, 0, 393229, 3, 0, 393230, 3, 0, 393231, 3, 0, 393232, 3, 0, 393233, 3, 0, 393234, 3, 0, 393235, 3, 0, 393236, 3, 0, 393237, 3, 0, 393238, 3, 0, 393239, 3, 0, 393240, 3, 0, 393241, 536870914, 0, 524271, 2, 0, 524272, 3, 0, 524273, 3, 0, 524274, 3, 0, 524275, 3, 0, 524276, 3, 0, 524277, 3, 0, 524278, 3, 0, 524279, 3, 0, 524280, 3, 0, 524281, 3, 0, 524282, 3, 0, 524283, 3, 0, 524284, 3, 0, 524285, 3, 0, 524286, 3, 0, 524287, 3, 0, 458752, 3, 0, 458753, 3, 0, 458754, 3, 0, 458755, 3, 0, 458756, 3, 0, 458757, 3, 0, 458758, 3, 0, 458759, 536870914, 0, 458760, 4, 0, 458761, 2, 0, 458762, 3, 0, 458763, 3, 0, 458764, 3, 0, 458765, 3, 0, 458766, 3, 0, 458767, 3, 0, 458768, 3, 0, 458769, 3, 0, 458770, 3, 0, 458771, 3, 0, 458772, 3, 0, 458773, 3, 0, 458774, 3, 0, 458775, 3, 0, 458776, 3, 0, 458777, 536870914, 0, 589807, 2, 0, 589808, 3, 0, 589809, 3, 0, 589810, 3, 0, 589811, 3, 0, 589812, 3, 0, 589813, 3, 0, 589814, 3, 0, 589815, 3, 0, 589816, 3, 0, 589817, 3, 0, 589818, 3, 0, 589819, 3, 0, 589820, 3, 0, 589821, 3, 0, 589822, 3, 0, 589823, 3, 0, 524288, 3, 0, 524289, 3, 0, 524290, 3, 0, 524291, 3, 0, 524292, 3, 0, 524293, 3, 0, 524294, 3, 0, 524295, 536870913, 0, 524296, 0, 0, 524297, 0, 0, 524298, 0, 0, 524299, 0, 0, 524300, 0, 0, 524301, 0, 0, 524302, 3, 0, 524303, 3, 0, 524304, 3, 0, 524305, 3, 0, 524306, 3, 0, 524307, 0, 0, 524308, 0, 0, 524309, 0, 0, 524310, 0, 0, 524311, 0, 0, 524312, 0, 0, 524313, 1, 0, 655343, 2, 0, 655344, 3, 0, 655345, 3, 0, 655346, 3, 0, 655347, 3, 0, 655348, 3, 0, 655349, 3, 0, 655350, 3, 0, 655351, 3, 0, 655352, 3, 0, 655353, 3, 0, 655354, 3, 0, 655355, 3, 0, 655356, 3, 0, 655357, 3, 0, 655358, 3, 0, 655359, 3, 0, 589824, 3, 0, 589825, 3, 0, 589826, 3, 0, 589827, 3, 0, 589828, 3, 0, 589829, 3, 0, 589830, 3, 0, 589831, 3, 0, 589832, 3, 0, 589833, 3, 0, 589834, 3, 0, 589835, 3, 0, 589836, 3, 0, 589837, 3, 0, 589838, 3, 0, 589839, 3, 0, 589840, 3, 0, 589841, 3, 0, 589842, 3, 0, 589843, 3, 0, 589844, 3, 0, 589845, 3, 0, 589846, 3, 0, 589847, 3, 0, 589848, 3, 0, 589849, 536870914, 0, 720879, 2, 0, 720880, 3, 0, 720881, 3, 0, 720882, 3, 0, 720883, 3, 0, 720884, 3, 0, 720885, 3, 0, 720886, 3, 0, 720887, 3, 0, 720888, 3, 0, 720889, 3, 0, 720890, 3, 0, 720891, 3, 0, 720892, 3, 0, 720893, 3, 0, 720894, 3, 0, 720895, 3, 0, 655360, 3, 0, 655361, 3, 0, 655362, 3, 0, 655363, 3, 0, 655364, 3, 0, 655365, 3, 0, 655366, 3, 0, 655367, 3, 0, 655368, 3, 0, 655369, 3, 0, 655370, 3, 0, 655371, 3, 0, 655372, 3, 0, 655373, 3, 0, 655374, 3, 0, 655375, 3, 0, 655376, 3, 0, 655377, 3, 0, 655378, 3, 0, 655379, 3, 0, 655380, 3, 0, 655381, 3, 0, 655382, 3, 0, 655383, 3, 0, 655384, 3, 0, 655385, 536870914, 0, 786415, 2, 0, 786416, 3, 0, 786417, 3, 0, 786418, 3, 0, 786419, 3, 0, 786420, 3, 0, 786421, 3, 0, 786422, 3, 0, 786423, 3, 0, 786424, 3, 0, 786425, 3, 0, 786426, 3, 0, 786427, 3, 0, 786428, 3, 0, 786429, 3, 0, 786430, 3, 0, 786431, 3, 0, 720896, 3, 0, 720897, 3, 0, 720898, 3, 0, 720899, 3, 0, 720900, 3, 0, 720901, 3, 0, 720902, 3, 0, 720903, 3, 0, 720904, 3, 0, 720905, 3, 0, 720906, 3, 0, 720907, 3, 0, 720908, 3, 0, 720909, 3, 0, 720910, 3, 0, 720911, 3, 0, 720912, 3, 0, 720913, 3, 0, 720914, 3, 0, 720915, 3, 0, 720916, 3, 0, 720917, 3, 0, 720918, 3, 0, 720919, 3, 0, 720920, 3, 0, 720921, 536870914, 0, 851951, 2, 0, 851952, 3, 0, 851953, 3, 0, 851954, 3, 0, 851955, 3, 0, 851956, 3, 0, 851957, 3, 0, 851958, 3, 0, 851959, 3, 0, 851960, 3, 0, 851961, 3, 0, 851962, 3, 0, 851963, 3, 0, 851964, 3, 0, 851965, 3, 0, 851966, 3, 0, 851967, 3, 0, 786432, 3, 0, 786433, 3, 0, 786434, 3, 0, 786435, 3, 0, 786436, 3, 0, 786437, 3, 0, 786438, 3, 0, 786439, 3, 0, 786440, 3, 0, 786441, 3, 0, 786442, 3, 0, 786443, 3, 0, 786444, 3, 0, 786445, 3, 0, 786446, 3, 0, 786447, 3, 0, 786448, 3, 0, 786449, 3, 0, 786450, 3, 0, 786451, 3, 0, 786452, 3, 0, 786453, 3, 0, 786454, 3, 0, 786455, 3, 0, 786456, 3, 0, 786457, 536870914, 0, 917487, 2, 0, 917488, 3, 0, 917489, 3, 0, 917490, 3, 0, 917491, 3, 0, 917492, 3, 0, 917493, 3, 0, 917494, 3, 0, 917495, 3, 0, 917496, 3, 0, 917497, 3, 0, 917498, 3, 0, 917499, 3, 0, 917500, 3, 0, 917501, 3, 0, 917502, 3, 0, 917503, 3, 0, 851968, 3, 0, 851969, 3, 0, 851970, 3, 0, 851971, 3, 0, 851972, 3, 0, 851973, 3, 0, 851974, 3, 0, 851975, 3, 0, 851976, 3, 0, 851977, 3, 0, 851978, 3, 0, 851979, 3, 0, 851980, 3, 0, 851981, 3, 0, 851982, 3, 0, 851983, 3, 0, 851984, 3, 0, 851985, 3, 0, 851986, 3, 0, 851987, 3, 0, 851988, 3, 0, 851989, 3, 0, 851990, 3, 0, 851991, 3, 0, 851992, 3, 0, 851993, 536870914, 0, 983023, 2, 0, 983024, 3, 0, 983025, 3, 0, 983026, 3, 0, 983027, 3, 0, 983028, 3, 0, 983029, 3, 0, 983030, 3, 0, 983031, 3, 0, 983032, 3, 0, 983033, 3, 0, 983034, 3, 0, 983035, 3, 0, 983036, 3, 0, 983037, 3, 0, 983038, 3, 0, 983039, 3, 0, 917504, 3, 0, 917505, 3, 0, 917506, 3, 0, 917507, 3, 0, 917508, 3, 0, 917509, 3, 0, 917510, 3, 0, 917511, 3, 0, 917512, 3, 0, 917513, 3, 0, 917514, 3, 0, 917515, 3, 0, 917516, 3, 0, 917517, 3, 0, 917518, 3, 0, 917519, 3, 0, 917520, 3, 0, 917521, 3, 0, 917522, 3, 0, 917523, 3, 0, 917524, 3, 0, 917525, 3, 0, 917526, 3, 0, 917527, 3, 0, 917528, 3, 0, 917529, 536870914, 0, 1048559, 2, 0, 1048560, 3, 0, 1048561, 3, 0, 1048562, 3, 0, 1048563, 3, 0, 1048564, 3, 0, 1048565, 3, 0, 1048566, 3, 0, 1048567, 3, 0, 1048568, 3, 0, 1048569, 3, 0, 1048570, 3, 0, 1048571, 3, 0, 1048572, 3, 0, 1048573, 3, 0, 1048574, 3, 0, 1048575, 3, 0, 983040, 3, 0, 983041, 3, 0, 983042, 3, 0, 983043, 3, 0, 983044, 3, 0, 983045, 3, 0, 983046, 3, 0, 983047, 3, 0, 983048, 3, 0, 983049, 3, 0, 983050, 3, 0, 983051, 3, 0, 983052, 3, 0, 983053, 3, 0, 983054, 3, 0, 983055, 3, 0, 983056, 3, 0, 983057, 3, 0, 983058, 3, 0, 983059, 3, 0, 983060, 3, 0, 983061, 3, 0, 983062, 3, 0, 983063, 3, 0, 983064, 3, 0, 983065, 536870914, 0, 1114095, 2, 0, 1114096, 3, 0, 1114097, 3, 0, 1114098, 3, 0, 1114099, 3, 0, 1114100, 3, 0, 1114101, 3, 0, 1114102, 3, 0, 1114103, 3, 0, 1114104, 3, 0, 1114105, 3, 0, 1114106, 3, 0, 1114107, 3, 0, 1114108, 3, 0, 1114109, 3, 0, 1114110, 3, 0, 1114111, 3, 0, 1048576, 3, 0, 1048577, 3, 0, 1048578, 3, 0, 1048579, 3, 0, 1048580, 3, 0, 1048581, 3, 0, 1048582, 3, 0, 1048583, 3, 0, 1048584, 3, 0, 1048585, 3, 0, 1048586, 3, 0, 1048587, 3, 0, 1048588, 3, 0, 1048589, 3, 0, 1048590, 3, 0, 1048591, 3, 0, 1048592, 3, 0, 1048593, 3, 0, 1048594, 3, 0, 1048595, 3, 0, 1048596, 3, 0, 1048597, 3, 0, 1048598, 3, 0, 1048599, 3, 0, 1048600, 3, 0, 1048601, 536870914, 0, 1179631, 2, 0, 1179632, 3, 0, 1179633, 3, 0, 1179634, 3, 0, 1179635, 3, 0, 1179636, 3, 0, 1179637, 3, 0, 1179638, 3, 0, 1179639, 3, 0, 1179640, 3, 0, 1179641, 3, 0, 1179642, 3, 0, 1179643, 3, 0, 1179644, 3, 0, 1179645, 3, 0, 1179646, 3, 0, 1179647, 3, 0, 1114112, 3, 0, 1114113, 3, 0, 1114114, 3, 0, 1114115, 3, 0, 1114116, 3, 0, 1114117, 3, 0, 1114118, 3, 0, 1114119, 3, 0, 1114120, 3, 0, 1114121, 3, 0, 1114122, 3, 0, 1114123, 3, 0, 1114124, 3, 0, 1114125, 3, 0, 1114126, 3, 0, 1114127, 3, 0, 1114128, 3, 0, 1114129, 3, 0, 1114130, 3, 0, 1114131, 3, 0, 1114132, 3, 0, 1114133, 3, 0, 1114134, 3, 0, 1114135, 3, 0, 1114136, 3, 0, 1114137, 536870914, 0, 1245167, 2, 0, 1245168, 3, 0, 1245169, 3, 0, 1245170, 3, 0, 1245171, 3, 0, 1245172, 3, 0, 1245173, 3, 0, 1245174, 3, 0, 1245175, 3, 0, 1245176, 3, 0, 1245177, 3, 0, 1245178, 3, 0, 1245179, 3, 0, 1245180, 3, 0, 1245181, 3, 0, 1245182, 3, 0, 1245183, 3, 0, 1179648, 3, 0, 1179649, 3, 0, 1179650, 3, 0, 1179651, 3, 0, 1179652, 3, 0, 1179653, 3, 0, 1179654, 3, 0, 1179655, 3, 0, 1179656, 3, 0, 1179657, 3, 0, 1179658, 3, 0, 1179659, 3, 0, 1179660, 3, 0, 1179661, 3, 0, 1179662, 3, 0, 1179663, 3, 0, 1179664, 3, 0, 1179665, 3, 0, 1179666, 3, 0, 1179667, 3, 0, 1179668, 3, 0, 1179669, 3, 0, 1179670, 3, 0, 1179671, 3, 0, 1179672, 3, 0, 1179673, 536870914, 0, 1310703, 2, 0, 1310704, 3, 0, 1310705, 3, 0, 1310706, 3, 0, 1310707, 3, 0, 1310708, 3, 0, 1310709, 3, 0, 1310710, 3, 0, 1310711, 3, 0, 1310712, 3, 0, 1310713, 3, 0, 1310714, 3, 0, 1310715, 3, 0, 1310716, 3, 0, 1310717, 3, 0, 1310718, 3, 0, 1310719, 3, 0, 1245184, 3, 0, 1245185, 3, 0, 1245186, 3, 0, 1245187, 3, 0, 1245188, 3, 0, 1245189, 3, 0, 1245190, 3, 0, 1245191, 3, 0, 1245192, 3, 0, 1245193, 3, 0, 1245194, 3, 0, 1245195, 3, 0, 1245196, 3, 0, 1245197, 3, 0, 1245198, 3, 0, 1245199, 3, 0, 1245200, 3, 0, 1245201, 3, 0, 1245202, 3, 0, 1245203, 3, 0, 1245204, 3, 0, 1245205, 3, 0, 1245206, 3, 0, 1245207, 3, 0, 1245208, 3, 0, 1245209, 536870914, 0, 1376239, 2, 0, 1376240, 3, 0, 1376241, 3, 0, 1376242, 3, 0, 1376243, 3, 0, 1376244, 3, 0, 1376245, 3, 0, 1376246, 3, 0, 1376247, 3, 0, 1376248, 3, 0, 1376249, 3, 0, 1376250, 3, 0, 1376251, 3, 0, 1376252, 3, 0, 1376253, 3, 0, 1376254, 3, 0, 1376255, 3, 0, 1310720, 3, 0, 1310721, 3, 0, 1310722, 3, 0, 1310723, 3, 0, 1310724, 3, 0, 1310725, 3, 0, 1310726, 3, 0, 1310727, 3, 0, 1310728, 3, 0, 1310729, 3, 0, 1310730, 3, 0, 1310731, 3, 0, 1310732, 3, 0, 1310733, 3, 0, 1310734, 3, 0, 1310735, 3, 0, 1310736, 3, 0, 1310737, 3, 0, 1310738, 3, 0, 1310739, 3, 0, 1310740, 3, 0, 1310741, 3, 0, 1310742, 3, 0, 1310743, 3, 0, 1310744, 3, 0, 1310745, 536870914, 0, 1441775, 536870913, 0, 1441776, 0, 0, 1441777, 0, 0, 1441778, 0, 0, 1441779, 0, 0, 1441780, 0, 0, 1441781, 0, 0, 1441782, 0, 0, 1441783, 0, 0, 1441784, 0, 0, 1441785, 0, 0, 1441786, 0, 0, 1441787, 0, 0, 1441788, 0, 0, 1441789, 0, 0, 1441790, 0, 0, 1441791, 0, 0, 1376256, 0, 0, 1376257, 0, 0, 1376258, 0, 0, 1376259, 0, 0, 1376260, 0, 0, 1376261, 0, 0, 1376262, 0, 0, 1376263, 0, 0, 1376264, 0, 0, 1376265, 0, 0, 1376266, 0, 0, 1376267, 0, 0, 1376268, 0, 0, 1376269, 0, 0, 1376270, 0, 0, 1376271, 0, 0, 1376272, 0, 0, 1376273, 0, 0, 1376274, 0, 0, 1376275, 0, 0, 1376276, 0, 0, 1376277, 0, 0, 1376278, 0, 0, 1376279, 0, 0, 1376280, 0, 0, 1376281, 1, 0 )

[node name="DecoGroup" type="Node2D" parent="tilemap"]

[node name="TileMap" type="TileMap" parent="tilemap/DecoGroup"]
tile_set = ExtResource( 2 )
cell_size = Vector2( 32, 32 )
compatibility_mode = true
format = 1
tile_data = PoolIntArray( -262123, 2, 0, 458763, 0, 0, 1376252, 536870912, 0, 1310733, 536870912, 0 )

[node name="ClimbableGroup" type="Node2D" parent="tilemap"]
position = Vector2( 0, -2 )

[node name="ClimbableBlock" parent="tilemap/ClimbableGroup" instance=ExtResource( 3 )]
position = Vector2( 592, 274 )
physics_material_override = SubResource( 1 )

[node name="ClimbableBlock1" parent="tilemap/ClimbableGroup" instance=ExtResource( 3 )]
position = Vector2( 464, 274 )
physics_material_override = SubResource( 2 )

[node name="Sprite" parent="tilemap/ClimbableGroup/ClimbableBlock1" index="0"]
flip_h = false

[node name="TorchGroup" type="Node2D" parent="tilemap"]

[node name="torch" parent="tilemap/TorchGroup" instance=ExtResource( 4 )]
position = Vector2( 560, 96 )
type = "ITEM"
reward = "res://scenes/items/gold/gold.tscn"
value = 50
mode = "strong"

[node name="NPCGroup" type="Node2D" parent="tilemap"]

[node name="NPC" parent="tilemap/NPCGroup" instance=ExtResource( 5 )]
position = Vector2( 736, 192 )
dialogues = [ [ -1, "CHARACTER_POTIONSMASTER", "DIAG_MAUSOLEUM0", null, [ [ "KEY_YES", "shop", "SHOP_POTIONSMASTER2", true ], [ "KEY_NO", "end" ] ] ] ]

[node name="Sprite" parent="tilemap/NPCGroup/NPC" index="1"]
scale = Vector2( -1, 1 )

[node name="WaterGroup" type="Node2D" parent="tilemap"]

[node name="TestWaterSurface" parent="tilemap/WaterGroup" instance=ExtResource( 6 )]
position = Vector2( -160, 64 )

[node name="Sprite" parent="tilemap/WaterGroup/TestWaterSurface" index="0"]
scale = Vector2( 24, 14 )

[node name="Sprite2" parent="tilemap/WaterGroup/TestWaterSurface" index="1"]
visible = false

[node name="Sprite3" parent="tilemap/WaterGroup/TestWaterSurface" index="2"]
visible = false

[node name="water" parent="tilemap/WaterGroup/TestWaterSurface" index="4"]
scale = Vector2( 24, 14 )

[node name="TestWaterSurface1" parent="tilemap/WaterGroup" instance=ExtResource( 6 )]
position = Vector2( 144, 496 )

[node name="Sprite" parent="tilemap/WaterGroup/TestWaterSurface1" index="0"]
scale = Vector2( 43, 13 )

[node name="Sprite2" parent="tilemap/WaterGroup/TestWaterSurface1" index="1"]
position = Vector2( 384, -192 )
region_rect = Rect2( 16, 0, 96, 32 )

[node name="Sprite3" parent="tilemap/WaterGroup/TestWaterSurface1" index="2"]
position = Vector2( 384, -192 )
region_rect = Rect2( 0, 0, 96, 32 )

[node name="water" parent="tilemap/WaterGroup/TestWaterSurface1" index="4"]
scale = Vector2( 43, 13 )

[node name="TeleportGroup" type="Node2D" parent="tilemap"]

[node name="Teleport" parent="tilemap/TeleportGroup" instance=ExtResource( 7 )]
position = Vector2( -16, -176 )
is_horizontal = false
target_level = "res://levels/mausoleum/0-2.tscn"
teleport_to = Vector2( 1744, 384 )

[node name="teleport" parent="tilemap/TeleportGroup/Teleport" index="0"]
scale = Vector2( 3, 1 )

[node name="boundaries" type="Node2D" parent="tilemap"]

[node name="NW" type="Position2D" parent="tilemap/boundaries"]
position = Vector2( -550, -166 )

[node name="SE" type="Position2D" parent="tilemap/boundaries"]
position = Vector2( 842, 714 )

[editable path="tilemap/ClimbableGroup/ClimbableBlock1"]

[editable path="tilemap/NPCGroup/NPC"]

[editable path="tilemap/WaterGroup/TestWaterSurface"]

[editable path="tilemap/WaterGroup/TestWaterSurface1"]

[editable path="tilemap/TeleportGroup/Teleport"]
