[gd_scene load_steps=6 format=2]

[ext_resource path="res://scenes/summerislandcastle/tileset.tres" type="TileSet" id=1]
[ext_resource path="res://scenes/common/breakables/lamp.tscn" type="PackedScene" id=2]
[ext_resource path="res://scenes/common/damagables/spiketile.tscn" type="PackedScene" id=3]
[ext_resource path="res://scenes/common/damagables/statues/statue1.tscn" type="PackedScene" id=4]
[ext_resource path="res://scenes/common/teleport.tscn" type="PackedScene" id=5]

[node name="LVL_NOTITLE" type="Node2D"]
__meta__ = {
"__editor_plugin_screen__": "2D"
}

[node name="tilemap" type="TileMap" parent="."]
tile_set = ExtResource( 1 )
cell_size = Vector2( 32, 32 )
compatibility_mode = true
collision_layer = 524288
format = 1
tile_data = PoolIntArray( -524331, 1610612737, 0, -524330, 1073741824, 0, -524329, 1073741824, 0, -524328, 1073741824, 0, -524327, 1073741824, 0, -524326, 1073741824, 0, -524325, 1073741824, 0, -524324, 1073741824, 0, -524323, 1073741824, 0, -524322, 1073741824, 0, -524321, 1073741824, 0, -524320, 1073741824, 0, -524319, 1073741824, 0, -524318, 1073741824, 0, -524317, 1073741824, 0, -524316, 1073741824, 0, -524315, 1073741824, 0, -524314, 1073741824, 0, -524313, 1073741824, 0, -524312, 1073741824, 0, -524311, 1073741824, 0, -524310, 1073741824, 0, -524309, 1073741824, 0, -524308, 1073741824, 0, -524307, 1073741824, 0, -524306, 1073741824, 0, -524305, 1073741824, 0, -524304, 1073741824, 0, -524303, 1073741824, 0, -524302, 1073741824, 0, -524301, 1073741824, 0, -524300, 1073741824, 0, -524299, 1073741824, 0, -524298, 1073741824, 0, -524297, 1073741824, 0, -524296, 1073741824, 0, -524295, 1073741824, 0, -524294, 1073741824, 0, -524293, 1073741824, 0, -524292, 1073741824, 0, -524291, 1073741824, 0, -524290, 1073741824, 0, -524289, 1073741824, 0, -589824, 1073741824, 0, -589823, 1073741824, 0, -589822, 1073741824, 0, -589821, 1073741824, 0, -589820, 1073741824, 0, -589819, 1073741824, 0, -589818, 1073741824, 0, -589817, 1073741824, 0, -589816, 1073741824, 0, -589815, 1073741824, 0, -589814, 1073741824, 0, -589813, 1073741824, 0, -589812, 1073741824, 0, -589811, 1073741824, 0, -589810, 1073741824, 0, -589809, 1073741824, 0, -589808, 1073741824, 0, -589807, 1073741824, 0, -589806, 1073741824, 0, -589805, 1073741824, 0, -589804, 1073741824, 0, -589803, 1073741824, 0, -589802, 1073741824, 0, -589801, 1073741824, 0, -589800, 1073741824, 0, -589799, 1073741824, 0, -589798, 1073741824, 0, -589797, 1073741824, 0, -589796, 1073741824, 0, -589795, 1073741824, 0, -589794, 1073741824, 0, -589793, 1073741824, 0, -589792, 1073741824, 0, -589791, 1073741824, 0, -589790, 1073741824, 0, -589789, 1073741824, 0, -589788, 1073741824, 0, -589787, 1073741824, 0, -589786, 1073741825, 0, -458795, 2, 0, -458794, 6, 0, -458790, 12, 0, -458786, 6, 0, -458782, 12, 0, -458778, 6, 0, -458774, 12, 0, -458770, 6, 0, -458766, 12, 0, -458762, 6, 0, -458758, 12, 0, -458754, 6, 0, -524286, 12, 0, -524282, 6, 0, -524278, 12, 0, -524274, 6, 0, -524270, 12, 0, -524266, 6, 0, -524262, 12, 0, -524258, 6, 0, -524254, 12, 0, -524250, 2, 0, -393259, 2, 0, -458714, 2, 0, -327723, 2, 0, -393178, 2, 0, -262187, 2, 0, -327642, 2, 0, -196651, 2, 0, -262106, 2, 0, -131115, 2, 0, -196570, 2, 0, -65579, 2, 0, -131034, 2, 0, -43, 2, 0, -65498, 2, 0, 65493, 2, 0, 65494, 13, 0, 65498, 6, 0, 65502, 13, 0, 65506, 6, 0, 65510, 536870937, 0, 65514, 6, 0, 65518, 536870937, 0, 65522, 6, 0, 65526, 13, 0, 65530, 6, 0, 65534, 13, 0, 2, 6, 0, 6, 536870937, 0, 10, 6, 0, 14, 536870937, 0, 18, 6, 0, 22, 13, 0, 26, 6, 0, 30, 13, 0, 34, 6, 0, 38, 2, 0, 131029, 2, 0, 65574, 2, 0, 196565, 1073741825, 0, 131110, 1610612737, 0, 262101, 7, 0, 196646, 7, 0, 327637, 7, 0, 262182, 7, 0, 393173, 7, 0, 327718, 7, 0, 458709, 7, 0, 393254, 7, 0, 524245, 7, 0, 458790, 7, 0, 589781, 536870913, 0, 589782, 0, 0, 589783, 0, 0, 589784, 0, 0, 589785, 0, 0, 589786, 0, 0, 589787, 0, 0, 589788, 0, 0, 589789, 0, 0, 589790, 0, 0, 589791, 0, 0, 589792, 0, 0, 589793, 1, 0, 589794, 11, 0, 589798, 11, 0, 589802, 11, 0, 589806, 11, 0, 589810, 11, 0, 589814, 536870913, 0, 589815, 0, 0, 589816, 0, 0, 589817, 0, 0, 589818, 0, 0, 589819, 0, 0, 589820, 0, 0, 589821, 0, 0, 589822, 0, 0, 589823, 0, 0, 524288, 0, 0, 524289, 1, 0, 524290, 11, 0, 524294, 11, 0, 524298, 11, 0, 524302, 11, 0, 524306, 11, 0, 524310, 536870913, 0, 524311, 0, 0, 524312, 0, 0, 524313, 0, 0, 524314, 0, 0, 524315, 0, 0, 524316, 0, 0, 524317, 0, 0, 524318, 0, 0, 524319, 0, 0, 524320, 0, 0, 524321, 0, 0, 524322, 0, 0, 524323, 0, 0, 524324, 0, 0, 524325, 0, 0, 524326, 1, 0, 655317, 536870914, 0, 655318, 3, 0, 655319, -1610612732, 0, 655320, -1610612732, 0, 655321, -1610612732, 0, 655322, -1610612732, 0, 655323, -1610612732, 0, 655324, -1610612732, 0, 655325, -1610612732, 0, 655326, -1610612732, 0, 655327, -1610612732, 0, 655328, 536870915, 0, 655329, 2, 0, 655350, 2, 0, 655351, 3, 0, 655352, -1610612732, 0, 655353, -1610612732, 0, 655354, -1610612732, 0, 655355, -1610612732, 0, 655356, -1610612732, 0, 655357, -1610612732, 0, 655358, -1610612732, 0, 655359, -1610612732, 0, 589824, 536870915, 0, 589825, 2, 0, 589846, 2, 0, 589847, 3, 0, 589848, -1610612732, 0, 589849, -1610612732, 0, 589850, -1610612732, 0, 589851, -1610612732, 0, 589852, -1610612732, 0, 589853, -1610612732, 0, 589854, -1610612732, 0, 589855, -1610612732, 0, 589856, -1610612732, 0, 589857, -1610612732, 0, 589858, -1610612732, 0, 589859, -1610612732, 0, 589860, -1610612732, 0, 589861, 536870915, 0, 589862, 2, 0, 720853, 536870914, 0, 720854, 4, 0, 720855, 5, 0, 720856, 5, 0, 720857, 5, 0, 720858, 5, 0, 720859, 5, 0, 720860, 5, 0, 720861, 5, 0, 720862, 5, 0, 720863, 5, 0, 720864, 4, 0, 720865, 2, 0, 720886, 2, 0, 720887, 4, 0, 720888, 5, 0, 720889, 5, 0, 720890, 5, 0, 720891, 5, 0, 720892, 5, 0, 720893, 5, 0, 720894, 5, 0, 720895, 5, 0, 655360, 4, 0, 655361, 2, 0, 655382, 2, 0, 655383, 4, 0, 655384, 5, 0, 655385, 5, 0, 655386, 5, 0, 655387, 5, 0, 655388, 5, 0, 655389, 5, 0, 655390, 5, 0, 655391, 5, 0, 655392, 5, 0, 655393, 5, 0, 655394, 5, 0, 655395, 5, 0, 655396, 5, 0, 655397, 4, 0, 655398, 2, 0, 786389, 536870914, 0, 786390, 4, 0, 786391, 5, 0, 786392, 5, 0, 786393, 5, 0, 786394, 5, 0, 786395, 5, 0, 786396, 5, 0, 786397, 5, 0, 786398, 5, 0, 786399, 5, 0, 786400, 4, 0, 786401, 536870913, 0, 786402, 0, 0, 786403, 0, 0, 786404, 0, 0, 786405, 0, 0, 786406, 0, 0, 786407, 0, 0, 786408, 0, 0, 786409, 0, 0, 786410, 0, 0, 786411, 0, 0, 786412, 0, 0, 786413, 0, 0, 786414, 0, 0, 786415, 0, 0, 786416, 0, 0, 786417, 0, 0, 786418, 0, 0, 786419, 0, 0, 786420, 0, 0, 786421, 0, 0, 786422, 1, 0, 786423, 4, 0, 786424, 5, 0, 786425, 5, 0, 786426, 5, 0, 786427, 5, 0, 786428, 5, 0, 786429, 5, 0, 786430, 5, 0, 786431, 5, 0, 720896, 4, 0, 720897, 536870913, 0, 720898, 0, 0, 720899, 0, 0, 720900, 0, 0, 720901, 0, 0, 720902, 0, 0, 720903, 0, 0, 720904, 0, 0, 720905, 0, 0, 720906, 0, 0, 720907, 0, 0, 720908, 0, 0, 720909, 0, 0, 720910, 0, 0, 720911, 0, 0, 720912, 0, 0, 720913, 0, 0, 720914, 0, 0, 720915, 0, 0, 720916, 0, 0, 720917, 0, 0, 720918, 1, 0, 720919, 4, 0, 720920, 5, 0, 720921, 5, 0, 720922, 5, 0, 720923, 5, 0, 720924, 5, 0, 720925, 5, 0, 720926, 5, 0, 720927, 5, 0, 720928, 5, 0, 720929, 5, 0, 720930, 5, 0, 720931, 5, 0, 720932, 5, 0, 720933, 4, 0, 720934, 2, 0, 851925, 536870914, 0, 851926, 4, 0, 851927, 5, 0, 851928, 5, 0, 851929, 5, 0, 851930, 5, 0, 851931, 5, 0, 851932, 5, 0, 851933, 5, 0, 851934, 5, 0, 851935, 5, 0, 851936, 1073741827, 0, 851937, -1610612732, 0, 851938, -1610612732, 0, 851939, -1610612732, 0, 851940, -1610612732, 0, 851941, -1610612732, 0, 851942, -1610612732, 0, 851943, -1610612732, 0, 851944, -1610612732, 0, 851945, -1610612732, 0, 851946, -1610612732, 0, 851947, -1610612732, 0, 851948, -1610612732, 0, 851949, -1610612732, 0, 851950, -1610612732, 0, 851951, -1610612732, 0, 851952, -1610612732, 0, 851953, -1610612732, 0, 851954, -1610612732, 0, 851955, -1610612732, 0, 851956, -1610612732, 0, 851957, -1610612732, 0, 851958, -1610612732, 0, 851959, 1610612739, 0, 851960, 5, 0, 851961, 5, 0, 851962, 5, 0, 851963, 5, 0, 851964, 5, 0, 851965, 5, 0, 851966, 5, 0, 851967, 5, 0, 786432, 1073741827, 0, 786433, -1610612732, 0, 786434, -1610612732, 0, 786435, -1610612732, 0, 786436, -1610612732, 0, 786437, -1610612732, 0, 786438, -1610612732, 0, 786439, -1610612732, 0, 786440, -1610612732, 0, 786441, -1610612732, 0, 786442, -1610612732, 0, 786443, -1610612732, 0, 786444, -1610612732, 0, 786445, -1610612732, 0, 786446, -1610612732, 0, 786447, -1610612732, 0, 786448, -1610612732, 0, 786449, -1610612732, 0, 786450, -1610612732, 0, 786451, -1610612732, 0, 786452, -1610612732, 0, 786453, -1610612732, 0, 786454, -1610612732, 0, 786455, 1610612739, 0, 786456, 5, 0, 786457, 5, 0, 786458, 5, 0, 786459, 5, 0, 786460, 5, 0, 786461, 5, 0, 786462, 5, 0, 786463, 5, 0, 786464, 5, 0, 786465, 5, 0, 786466, 5, 0, 786467, 5, 0, 786468, 5, 0, 786469, 4, 0, 786470, 2, 0, 917461, 536870914, 0, 917462, 1073741827, 0, 917463, -1610612732, 0, 917464, -1610612732, 0, 917465, -1610612732, 0, 917466, -1610612732, 0, 917467, -1610612732, 0, 917468, -1610612732, 0, 917469, -1610612732, 0, 917470, -1610612732, 0, 917471, -1610612732, 0, 917472, -1610612732, 0, 917473, -1610612732, 0, 917474, -1610612732, 0, 917475, -1610612732, 0, 917476, -1610612732, 0, 917477, -1610612732, 0, 917478, -1610612732, 0, 917479, -1610612732, 0, 917480, -1610612732, 0, 917481, -1610612732, 0, 917482, -1610612732, 0, 917483, -1610612732, 0, 917484, -1610612732, 0, 917485, -1610612732, 0, 917486, -1610612732, 0, 917487, -1610612732, 0, 917488, -1610612732, 0, 917489, -1610612732, 0, 917490, -1610612732, 0, 917491, -1610612732, 0, 917492, -1610612732, 0, 917493, -1610612732, 0, 917494, -1610612732, 0, 917495, -1610612732, 0, 917496, -1610612732, 0, 917497, -1610612732, 0, 917498, -1610612732, 0, 917499, -1610612732, 0, 917500, -1610612732, 0, 917501, -1610612732, 0, 917502, -1610612732, 0, 917503, -1610612732, 0, 851968, -1610612732, 0, 851969, -1610612732, 0, 851970, -1610612732, 0, 851971, -1610612732, 0, 851972, -1610612732, 0, 851973, -1610612732, 0, 851974, -1610612732, 0, 851975, -1610612732, 0, 851976, -1610612732, 0, 851977, -1610612732, 0, 851978, -1610612732, 0, 851979, -1610612732, 0, 851980, -1610612732, 0, 851981, -1610612732, 0, 851982, -1610612732, 0, 851983, -1610612732, 0, 851984, -1610612732, 0, 851985, -1610612732, 0, 851986, -1610612732, 0, 851987, -1610612732, 0, 851988, -1610612732, 0, 851989, -1610612732, 0, 851990, -1610612732, 0, 851991, -1610612732, 0, 851992, -1610612732, 0, 851993, -1610612732, 0, 851994, -1610612732, 0, 851995, -1610612732, 0, 851996, -1610612732, 0, 851997, -1610612732, 0, 851998, -1610612732, 0, 851999, -1610612732, 0, 852000, -1610612732, 0, 852001, -1610612732, 0, 852002, -1610612732, 0, 852003, -1610612732, 0, 852004, -1610612732, 0, 852005, 1610612739, 0, 852006, 2, 0 )

[node name="LampGroup" type="Node2D" parent="tilemap"]

[node name="lamp" parent="tilemap/LampGroup" instance=ExtResource( 2 )]
position = Vector2( 384, 112 )
type = "ITEM"
reward = "res://scenes/items/gold/gold.tscn"
value = 400

[node name="lamp2" parent="tilemap/LampGroup" instance=ExtResource( 2 )]
position = Vector2( -640, 112 )
type = "ITEM"
reward = "res://scenes/items/gold/gold.tscn"
value = 200

[node name="SpikeGroup" type="Node2D" parent="tilemap"]

[node name="SpikeTile" parent="tilemap/SpikeGroup" instance=ExtResource( 3 )]
position = Vector2( -944, 336 )

[node name="SpikeTile1" parent="tilemap/SpikeGroup" instance=ExtResource( 3 )]
position = Vector2( -912, 336 )

[node name="SpikeTile2" parent="tilemap/SpikeGroup" instance=ExtResource( 3 )]
position = Vector2( -880, 336 )

[node name="SpikeTile3" parent="tilemap/SpikeGroup" instance=ExtResource( 3 )]
position = Vector2( -848, 336 )

[node name="SpikeTile4" parent="tilemap/SpikeGroup" instance=ExtResource( 3 )]
position = Vector2( -816, 336 )

[node name="SpikeTile5" parent="tilemap/SpikeGroup" instance=ExtResource( 3 )]
position = Vector2( -784, 336 )

[node name="SpikeTile6" parent="tilemap/SpikeGroup" instance=ExtResource( 3 )]
position = Vector2( -752, 336 )

[node name="SpikeTile7" parent="tilemap/SpikeGroup" instance=ExtResource( 3 )]
position = Vector2( -720, 336 )

[node name="SpikeTile8" parent="tilemap/SpikeGroup" instance=ExtResource( 3 )]
position = Vector2( -688, 336 )

[node name="SpikeTile9" parent="tilemap/SpikeGroup" instance=ExtResource( 3 )]
position = Vector2( -656, 336 )

[node name="SpikeTile10" parent="tilemap/SpikeGroup" instance=ExtResource( 3 )]
position = Vector2( -624, 336 )

[node name="SpikeTile11" parent="tilemap/SpikeGroup" instance=ExtResource( 3 )]
position = Vector2( -592, 336 )

[node name="SpikeTile12" parent="tilemap/SpikeGroup" instance=ExtResource( 3 )]
position = Vector2( -560, 336 )

[node name="SpikeTile13" parent="tilemap/SpikeGroup" instance=ExtResource( 3 )]
position = Vector2( -528, 336 )

[node name="SpikeTile14" parent="tilemap/SpikeGroup" instance=ExtResource( 3 )]
position = Vector2( -496, 336 )

[node name="SpikeTile15" parent="tilemap/SpikeGroup" instance=ExtResource( 3 )]
position = Vector2( -464, 336 )

[node name="SpikeTile16" parent="tilemap/SpikeGroup" instance=ExtResource( 3 )]
position = Vector2( -432, 336 )

[node name="SpikeTile17" parent="tilemap/SpikeGroup" instance=ExtResource( 3 )]
position = Vector2( -400, 336 )

[node name="SpikeTile18" parent="tilemap/SpikeGroup" instance=ExtResource( 3 )]
position = Vector2( -368, 336 )

[node name="SpikeTile19" parent="tilemap/SpikeGroup" instance=ExtResource( 3 )]
position = Vector2( -336, 336 )

[node name="SpikeTile20" parent="tilemap/SpikeGroup" instance=ExtResource( 3 )]
position = Vector2( 80, 336 )

[node name="SpikeTile21" parent="tilemap/SpikeGroup" instance=ExtResource( 3 )]
position = Vector2( 112, 336 )

[node name="SpikeTile22" parent="tilemap/SpikeGroup" instance=ExtResource( 3 )]
position = Vector2( 144, 336 )

[node name="SpikeTile23" parent="tilemap/SpikeGroup" instance=ExtResource( 3 )]
position = Vector2( 176, 336 )

[node name="SpikeTile24" parent="tilemap/SpikeGroup" instance=ExtResource( 3 )]
position = Vector2( 208, 336 )

[node name="SpikeTile25" parent="tilemap/SpikeGroup" instance=ExtResource( 3 )]
position = Vector2( 240, 336 )

[node name="SpikeTile26" parent="tilemap/SpikeGroup" instance=ExtResource( 3 )]
position = Vector2( 272, 336 )

[node name="SpikeTile27" parent="tilemap/SpikeGroup" instance=ExtResource( 3 )]
position = Vector2( 304, 336 )

[node name="SpikeTile28" parent="tilemap/SpikeGroup" instance=ExtResource( 3 )]
position = Vector2( 336, 336 )

[node name="SpikeTile29" parent="tilemap/SpikeGroup" instance=ExtResource( 3 )]
position = Vector2( 368, 336 )

[node name="SpikeTile30" parent="tilemap/SpikeGroup" instance=ExtResource( 3 )]
position = Vector2( 400, 336 )

[node name="SpikeTile31" parent="tilemap/SpikeGroup" instance=ExtResource( 3 )]
position = Vector2( 432, 336 )

[node name="SpikeTile32" parent="tilemap/SpikeGroup" instance=ExtResource( 3 )]
position = Vector2( 464, 336 )

[node name="SpikeTile33" parent="tilemap/SpikeGroup" instance=ExtResource( 3 )]
position = Vector2( 496, 336 )

[node name="SpikeTile34" parent="tilemap/SpikeGroup" instance=ExtResource( 3 )]
position = Vector2( 528, 336 )

[node name="SpikeTile35" parent="tilemap/SpikeGroup" instance=ExtResource( 3 )]
position = Vector2( 560, 336 )

[node name="SpikeTile36" parent="tilemap/SpikeGroup" instance=ExtResource( 3 )]
position = Vector2( 592, 336 )

[node name="SpikeTile37" parent="tilemap/SpikeGroup" instance=ExtResource( 3 )]
position = Vector2( 624, 336 )

[node name="SpikeTile38" parent="tilemap/SpikeGroup" instance=ExtResource( 3 )]
position = Vector2( 656, 336 )

[node name="SpikeTile39" parent="tilemap/SpikeGroup" instance=ExtResource( 3 )]
position = Vector2( 688, 336 )

[node name="EnemiesGroup" type="Node2D" parent="tilemap"]

[node name="Statue1" parent="tilemap/EnemiesGroup" instance=ExtResource( 4 )]
position = Vector2( 384, 256 )

[node name="Statue2" parent="tilemap/EnemiesGroup" instance=ExtResource( 4 )]
position = Vector2( -640, 256 )

[node name="TeleportGroup" type="Node2D" parent="tilemap"]

[node name="Teleport" parent="tilemap/TeleportGroup" instance=ExtResource( 5 )]
position = Vector2( 1264, 176 )
target_level = "res://levels/summerislandcastle/4-0.tscn"
teleport_to = Vector2( -396, 144 )

[node name="teleport" parent="tilemap/TeleportGroup/Teleport" index="0"]
scale = Vector2( 1, 5 )

[node name="Teleport1" parent="tilemap/TeleportGroup" instance=ExtResource( 5 )]
position = Vector2( -1392, 176 )
target_level = "res://levels/summerislandcastle/4-2.tscn"
teleport_to = Vector2( 620, 112 )

[node name="teleport" parent="tilemap/TeleportGroup/Teleport1" index="0"]
scale = Vector2( 1, 5 )

[node name="boundaries" type="Node2D" parent="tilemap"]

[node name="NW" type="Position2D" parent="tilemap/boundaries"]
position = Vector2( -1392, -304 )

[node name="SE" type="Position2D" parent="tilemap/boundaries"]
position = Vector2( 1264, 464 )

[editable path="tilemap/TeleportGroup/Teleport"]
[editable path="tilemap/TeleportGroup/Teleport1"]
