[gd_scene load_steps=24 format=2]

[ext_resource path="res://scenes/fallislandcastle/tileset.tres" type="TileSet" id=1]
[ext_resource path="res://scenes/fallislandcastle/slopes/slope16-23.tscn" type="PackedScene" id=2]
[ext_resource path="res://scenes/fallislandcastle/slopes/slope31-24.tscn" type="PackedScene" id=3]
[ext_resource path="res://scenes/fallislandcastle/slopes/slope23-16.tscn" type="PackedScene" id=4]
[ext_resource path="res://scenes/fallislandcastle/slopes/slope15-8.tscn" type="PackedScene" id=5]
[ext_resource path="res://scenes/fallislandcastle/slopes/slope7-0.tscn" type="PackedScene" id=6]
[ext_resource path="res://scenes/dungeon/slopes/slopea-b.tscn" type="PackedScene" id=7]
[ext_resource path="res://scenes/fallislandcastle/slopes/slope0-7.tscn" type="PackedScene" id=8]
[ext_resource path="res://scenes/fallislandcastle/slopes/slope8-15.tscn" type="PackedScene" id=9]
[ext_resource path="res://scenes/fallislandcastle/slopes/slope24-31.tscn" type="PackedScene" id=10]
[ext_resource path="res://scenes/fallislandcastle/climbableblock.tscn" type="PackedScene" id=11]
[ext_resource path="res://scenes/common/breakables/lamp.tscn" type="PackedScene" id=12]
[ext_resource path="res://scenes/dungeon/ladder/ladder.tscn" type="PackedScene" id=13]
[ext_resource path="res://scenes/dungeon/ladder/laddertop.tscn" type="PackedScene" id=14]
[ext_resource path="res://scenes/common/breakables/chainbreakable.tscn" type="PackedScene" id=15]
[ext_resource path="res://scenes/common/damagables/spiketile.tscn" type="PackedScene" id=16]
[ext_resource path="res://scenes/common/damagables/lizardman/lizardman.tscn" type="PackedScene" id=17]
[ext_resource path="res://scenes/common/teleport.tscn" type="PackedScene" id=18]

[sub_resource type="RectangleShape2D" id=1]
extents = Vector2( 16, 16 )

[sub_resource type="PhysicsMaterial" id=2]
friction = 0.0

[sub_resource type="PhysicsMaterial" id=3]
friction = 0.0

[sub_resource type="PhysicsMaterial" id=4]
friction = 0.0

[sub_resource type="PhysicsMaterial" id=5]
friction = 0.0

[node name="LVL_NOTITLE" type="Node2D"]
__meta__ = {
"__editor_plugin_screen__": "2D"
}

[node name="tilemap" type="TileMap" parent="."]
tile_set = ExtResource( 1 )
cell_size = Vector2( 32, 32 )
compatibility_mode = true
collision_layer = 524288
format = 1
tile_data = PoolIntArray( -1703936, 1610612737, 0, -1703935, 1073741824, 0, -1703934, 1073741824, 0, -1703933, 1073741824, 0, -1703932, 1073741824, 0, -1703931, 1073741824, 0, -1703930, 1073741824, 0, -1703929, 1073741824, 0, -1703928, 1073741824, 0, -1703927, 1073741824, 0, -1703926, 1073741824, 0, -1703925, 1073741824, 0, -1703924, 1073741824, 0, -1703923, 1073741824, 0, -1703922, 1073741824, 0, -1703921, 1073741824, 0, -1703920, 1073741824, 0, -1703919, 1073741824, 0, -1703918, 1073741824, 0, -1703917, 1073741824, 0, -1703916, 1073741824, 0, -1703915, 1073741825, 0, -1638400, 1073741826, 0, -1638399, 10, 0, -1638395, 10, 0, -1638391, 10, 0, -1638387, 10, 0, -1638383, 10, 0, -1638379, 2, 0, -1572864, 1073741826, 0, -1572843, 2, 0, -1507328, 1073741826, 0, -1507327, 12, 0, -1507323, 6, 0, -1507319, 12, 0, -1507315, 6, 0, -1507311, 12, 0, -1507307, 2, 0, -1441792, 1073741825, 0, -1441771, 2, 0, -1376256, 7, 0, -1376235, 2, 0, -1310720, 7, 0, -1310699, 2, 0, -1245184, 7, 0, -1245163, 2, 0, -1179648, 7, 0, -1179627, 2, 0, -1114112, 7, 0, -1114091, 2, 0, -1048576, 0, 0, -1048575, 0, 0, -1048574, 0, 0, -1048573, 0, 0, -1048572, 0, 0, -1048571, 0, 0, -1048555, 2, 0, -983040, 2, 0, -983039, 6, 0, -983035, 27, 0, -983031, 6, 0, -983027, 28, 0, -983023, 6, 0, -983019, 2, 0, -917504, 2, 0, -917483, 2, 0, -851968, 2, 0, -851947, 2, 0, -786432, 2, 0, -786411, 2, 0, -720896, 2, 0, -720875, 2, 0, -655360, 2, 0, -655339, 2, 0, -589824, 2, 0, -589803, 1, 0, -524288, 2, 0, -524272, 21, 0, -524271, 536870932, 0, -524270, 536870931, 0, -524269, 536870930, 0, -524268, 536870929, 0, -524267, 2, 0, -458752, 2, 0, -458751, 12, 0, -458747, 6, 0, -458743, 12, 0, -458739, 6, 0, -458735, 12, 0, -458731, 2, 0, -393216, 2, 0, -393195, 2, 0, -327680, 2, 0, -327659, 2, 0, -262144, 2, 0, -262123, 2, 0, -196608, 2, 0, -196587, 2, 0, -131072, 2, 0, -131051, 2, 0, -65536, 536870913, 0, -65515, 2, 0, 0, 2, 0, 1, 17, 0, 2, 18, 0, 3, 19, 0, 4, 20, 0, 5, 21, 0, 6, 8, 0, 21, 2, 0, 65536, 2, 0, 65537, 9, 0, 65538, 8, 0, 65539, 8, 0, 65540, 9, 0, 65541, 9, 0, 65542, 8, 0, 65543, 8, 0, 65544, 9, 0, 65545, 9, 0, 65546, 8, 0, 65547, 8, 0, 65548, 9, 0, 65549, 9, 0, 65550, 8, 0, 65551, 8, 0, 65552, 9, 0, 65553, 9, 0, 65554, 8, 0, 65555, 8, 0, 65556, 9, 0, 65557, 2, 0, 131072, 2, 0, 131073, 11, 0, 131077, 11, 0, 131081, 11, 0, 131085, 11, 0, 131089, 11, 0, 131093, 2, 0, 196608, 2, 0, 196629, 2, 0, 262144, 2, 0, 262165, 1073741826, 0, 327680, 2, 0, 327681, 9, 0, 327682, 8, 0, 327683, 8, 0, 327684, 9, 0, 327685, 9, 0, 327686, 8, 0, 327687, 8, 0, 327688, 9, 0, 327689, 9, 0, 327690, 8, 0, 327691, 8, 0, 327692, 9, 0, 327693, 9, 0, 327694, 8, 0, 327695, 8, 0, 327696, 9, 0, 327697, 9, 0, 327698, 8, 0, 327699, 8, 0, 327700, 9, 0, 327701, 2, 0, 393216, 2, 0, 393217, 26, 0, 393221, 27, 0, 393225, 26, 0, 393229, 27, 0, 393233, 26, 0, 393237, 2, 0, 458752, 2, 0, 458773, 1, 0, 524288, 2, 0, 524304, 536870933, 0, 524305, 536870932, 0, 524306, 536870931, 0, 524307, 536870930, 0, 524308, 536870929, 0, 524309, 2, 0, 589824, 2, 0, 589845, 7, 0, 655360, 2, 0, 655381, 7, 0, 720896, 2, 0, 720917, 7, 0, 786432, 2, 0, 786453, 7, 0, 851968, 2, 0, 851989, 7, 0, 917504, 536870913, 0, 917505, 0, 0, 917506, 0, 0, 917507, 0, 0, 917508, 0, 0, 917509, 0, 0, 917510, 0, 0, 917511, 1, 0, 917512, 7, 0, 917513, 7, 0, 917514, 7, 0, 917515, 536870913, 0, 917516, 0, 0, 917517, 0, 0, 917518, 0, 0, 917519, 0, 0, 917520, 0, 0, 917521, 0, 0, 917522, 0, 0, 917523, 0, 0, 917524, 0, 0, 917525, 1, 0, 983040, 2, 0, 983041, 3, 0, 983042, -1610612732, 0, 983043, -1610612732, 0, 983044, -1610612732, 0, 983045, -1610612732, 0, 983046, 536870915, 0, 983047, 2, 0, 983048, 7, 0, 983049, 7, 0, 983050, 7, 0, 983051, 2, 0, 983052, 3, 0, 983053, -1610612732, 0, 983054, -1610612732, 0, 983055, -1610612732, 0, 983056, -1610612732, 0, 983057, -1610612732, 0, 983058, -1610612732, 0, 983059, -1610612732, 0, 983060, 536870915, 0, 983061, 1073741826, 0, 1048576, 2, 0, 1048577, 4, 0, 1048578, -2147483643, 0, 1048579, -2147483643, 0, 1048580, -2147483643, 0, 1048581, -2147483643, 0, 1048582, 4, 0, 1048583, 2, 0, 1048584, 7, 0, 1048585, 7, 0, 1048586, 7, 0, 1048587, 2, 0, 1048588, 4, 0, 1048589, 5, 0, 1048590, 5, 0, 1048591, -2147483643, 0, 1048592, -2147483643, 0, 1048593, -2147483643, 0, 1048594, -2147483643, 0, 1048595, -2147483643, 0, 1048596, 4, 0, 1048597, 1073741826, 0, 1114112, 2, 0, 1114113, 1073741827, 0, 1114114, -1610612732, 0, 1114115, -1610612732, 0, 1114116, -1610612732, 0, 1114117, -1610612732, 0, 1114118, 1610612739, 0, 1114119, 2, 0, 1114120, 7, 0, 1114121, 7, 0, 1114122, 7, 0, 1114123, 2, 0, 1114124, 1073741827, 0, 1114125, -1610612732, 0, 1114126, -1610612732, 0, 1114127, -1610612732, 0, 1114128, -1610612732, 0, 1114129, -1610612732, 0, 1114130, -1610612732, 0, 1114131, -1610612732, 0, 1114132, 1610612739, 0, 1114133, 1073741826, 0 )

[node name="SlopeGroup" type="Node2D" parent="tilemap"]

[node name="Slope16-23" parent="tilemap/SlopeGroup" instance=ExtResource( 2 )]
position = Vector2( 112, -16 )

[node name="Slope31-24" parent="tilemap/SlopeGroup" instance=ExtResource( 3 )]
position = Vector2( 560, 240 )

[node name="Slope31-25" parent="tilemap/SlopeGroup" instance=ExtResource( 3 )]
position = Vector2( 560, -272 )

[node name="Slope23-16" parent="tilemap/SlopeGroup" instance=ExtResource( 4 )]
position = Vector2( 592, 240 )

[node name="Slope23-17" parent="tilemap/SlopeGroup" instance=ExtResource( 4 )]
position = Vector2( 592, -272 )

[node name="Slope15-8" parent="tilemap/SlopeGroup" instance=ExtResource( 5 )]
position = Vector2( 624, 240 )

[node name="Slope15-9" parent="tilemap/SlopeGroup" instance=ExtResource( 5 )]
position = Vector2( 624, -272 )

[node name="Slope7-0" parent="tilemap/SlopeGroup" instance=ExtResource( 6 )]
position = Vector2( 656, 240 )

[node name="Slope7-1" parent="tilemap/SlopeGroup" instance=ExtResource( 6 )]
position = Vector2( 656, -272 )

[node name="TestSlopea-b" parent="tilemap/SlopeGroup" instance=ExtResource( 7 )]
position = Vector2( 528, 272 )

[node name="TestSlopea-b2" parent="tilemap/SlopeGroup" instance=ExtResource( 7 )]
position = Vector2( 144, 16 )

[node name="TestSlopea-b1" parent="tilemap/SlopeGroup" instance=ExtResource( 7 )]
position = Vector2( 560, 272 )

[node name="TestSlopea-b3" parent="tilemap/SlopeGroup" instance=ExtResource( 7 )]
position = Vector2( 528, -240 )

[node name="TestSlopea-b4" parent="tilemap/SlopeGroup" instance=ExtResource( 7 )]
position = Vector2( 560, -240 )

[node name="TestSlopea-b2 2" parent="tilemap/SlopeGroup" instance=ExtResource( 7 )]
position = Vector2( 176, 16 )

[node name="Slope0-7" parent="tilemap/SlopeGroup" instance=ExtResource( 8 )]
position = Vector2( 48, -16 )

[node name="Slope8-15" parent="tilemap/SlopeGroup" instance=ExtResource( 9 )]
position = Vector2( 80, -16 )

[node name="Slope24-31" parent="tilemap/SlopeGroup" instance=ExtResource( 10 )]
position = Vector2( 144, -16 )

[node name="DecoGroup" type="Node2D" parent="tilemap"]

[node name="StaticBody2D" type="StaticBody2D" parent="tilemap/DecoGroup"]
position = Vector2( 592, 272 )

[node name="CollisionShape2D" type="CollisionShape2D" parent="tilemap/DecoGroup/StaticBody2D"]
shape = SubResource( 1 )

[node name="StaticBody2D6" type="StaticBody2D" parent="tilemap/DecoGroup"]
position = Vector2( 592, -240 )

[node name="CollisionShape2D" type="CollisionShape2D" parent="tilemap/DecoGroup/StaticBody2D6"]
shape = SubResource( 1 )

[node name="StaticBody2D7" type="StaticBody2D" parent="tilemap/DecoGroup"]
position = Vector2( 624, -240 )

[node name="CollisionShape2D" type="CollisionShape2D" parent="tilemap/DecoGroup/StaticBody2D7"]
shape = SubResource( 1 )

[node name="StaticBody2D8" type="StaticBody2D" parent="tilemap/DecoGroup"]
position = Vector2( 656, -240 )

[node name="CollisionShape2D" type="CollisionShape2D" parent="tilemap/DecoGroup/StaticBody2D8"]
shape = SubResource( 1 )

[node name="StaticBody2D3" type="StaticBody2D" parent="tilemap/DecoGroup"]
position = Vector2( 48, 16 )

[node name="CollisionShape2D" type="CollisionShape2D" parent="tilemap/DecoGroup/StaticBody2D3"]
shape = SubResource( 1 )

[node name="StaticBody2D4" type="StaticBody2D" parent="tilemap/DecoGroup"]
position = Vector2( 80, 16 )

[node name="CollisionShape2D" type="CollisionShape2D" parent="tilemap/DecoGroup/StaticBody2D4"]
shape = SubResource( 1 )

[node name="StaticBody2D5" type="StaticBody2D" parent="tilemap/DecoGroup"]
position = Vector2( 112, 16 )

[node name="CollisionShape2D" type="CollisionShape2D" parent="tilemap/DecoGroup/StaticBody2D5"]
shape = SubResource( 1 )

[node name="StaticBody2D1" type="StaticBody2D" parent="tilemap/DecoGroup"]
position = Vector2( 624, 272 )

[node name="CollisionShape2D" type="CollisionShape2D" parent="tilemap/DecoGroup/StaticBody2D1"]
shape = SubResource( 1 )

[node name="StaticBody2D2" type="StaticBody2D" parent="tilemap/DecoGroup"]
position = Vector2( 656, 272 )

[node name="CollisionShape2D" type="CollisionShape2D" parent="tilemap/DecoGroup/StaticBody2D2"]
shape = SubResource( 1 )

[node name="ClimbableGroup" type="Node2D" parent="tilemap"]

[node name="ClimbableBlock" parent="tilemap/ClimbableGroup" instance=ExtResource( 11 )]
position = Vector2( 496, 272 )
physics_material_override = SubResource( 2 )

[node name="ClimbableBlock2" parent="tilemap/ClimbableGroup" instance=ExtResource( 11 )]
position = Vector2( 496, -240 )
physics_material_override = SubResource( 3 )

[node name="ClimbableBlock1" parent="tilemap/ClimbableGroup" instance=ExtResource( 11 )]
position = Vector2( 208, 16 )
physics_material_override = SubResource( 4 )

[node name="Sprite" parent="tilemap/ClimbableGroup/ClimbableBlock1" index="0"]
flip_h = false

[node name="ClimbableBlock3" parent="tilemap/ClimbableGroup" instance=ExtResource( 11 )]
position = Vector2( 208, -496 )
physics_material_override = SubResource( 5 )

[node name="Sprite" parent="tilemap/ClimbableGroup/ClimbableBlock3" index="0"]
flip_h = false

[node name="LampGroup" type="Node2D" parent="tilemap"]

[node name="lamp" parent="tilemap/LampGroup" instance=ExtResource( 12 )]
position = Vector2( 160, 320 )

[node name="lamp2" parent="tilemap/LampGroup" instance=ExtResource( 12 )]
position = Vector2( 480, -112 )

[node name="lamp3" parent="tilemap/LampGroup" instance=ExtResource( 12 )]
position = Vector2( 224, -624 )

[node name="LadderGroup" type="Node2D" parent="tilemap"]

[node name="TestLadder" parent="tilemap/LadderGroup" instance=ExtResource( 13 )]
position = Vector2( 304, 512 )

[node name="Sprite" parent="tilemap/LadderGroup/TestLadder/KinematicBody2D" index="0"]
region_rect = Rect2( 0, 0, 32, 128 )

[node name="ladder" parent="tilemap/LadderGroup/TestLadder/KinematicBody2D" index="1"]
scale = Vector2( 1, 4 )

[node name="TestLadder 2" parent="tilemap/LadderGroup" instance=ExtResource( 14 )]
position = Vector2( 304, 432 )

[node name="BreakableGroup" type="Node2D" parent="tilemap"]

[node name="ChainBreakable" parent="tilemap/BreakableGroup" instance=ExtResource( 15 )]
position = Vector2( 112, -528 )
hp = 3

[node name="ChainBreakable1" parent="tilemap/BreakableGroup" instance=ExtResource( 15 )]
position = Vector2( 112, -560 )
hp = 3

[node name="ChainBreakable2" parent="tilemap/BreakableGroup" instance=ExtResource( 15 )]
position = Vector2( 112, -592 )
hp = 3

[node name="ChainBreakable3" parent="tilemap/BreakableGroup" instance=ExtResource( 15 )]
position = Vector2( 112, -624 )
hp = 3

[node name="ChainBreakable4" parent="tilemap/BreakableGroup" instance=ExtResource( 15 )]
position = Vector2( 112, -656 )
hp = 3

[node name="ChainBreakable5" parent="tilemap/BreakableGroup" instance=ExtResource( 15 )]
position = Vector2( 112, -688 )
hp = 3

[node name="ChainBreakable6" parent="tilemap/BreakableGroup" instance=ExtResource( 15 )]
position = Vector2( 112, -720 )
hp = 3

[node name="ChainBreakable7" parent="tilemap/BreakableGroup" instance=ExtResource( 15 )]
position = Vector2( 112, -752 )
hp = 3

[node name="ChainBreakable8" parent="tilemap/BreakableGroup" instance=ExtResource( 15 )]
position = Vector2( 112, -784 )
hp = 3

[node name="DamageGroup" type="Node2D" parent="tilemap"]

[node name="SpikeTile" parent="tilemap/DamageGroup" instance=ExtResource( 16 )]
position = Vector2( 144, -784 )

[node name="Sprite" parent="tilemap/DamageGroup/SpikeTile" index="0"]
flip_v = true

[node name="SpikeTile1" parent="tilemap/DamageGroup" instance=ExtResource( 16 )]
position = Vector2( 176, -784 )

[node name="Sprite" parent="tilemap/DamageGroup/SpikeTile1" index="0"]
flip_v = true

[node name="SpikeTile2" parent="tilemap/DamageGroup" instance=ExtResource( 16 )]
position = Vector2( 208, -784 )

[node name="Sprite" parent="tilemap/DamageGroup/SpikeTile2" index="0"]
flip_v = true

[node name="SpikeTile3" parent="tilemap/DamageGroup" instance=ExtResource( 16 )]
position = Vector2( 240, -784 )

[node name="Sprite" parent="tilemap/DamageGroup/SpikeTile3" index="0"]
flip_v = true

[node name="SpikeTile4" parent="tilemap/DamageGroup" instance=ExtResource( 16 )]
position = Vector2( 272, -784 )

[node name="Sprite" parent="tilemap/DamageGroup/SpikeTile4" index="0"]
flip_v = true

[node name="SpikeTile5" parent="tilemap/DamageGroup" instance=ExtResource( 16 )]
position = Vector2( 304, -784 )

[node name="Sprite" parent="tilemap/DamageGroup/SpikeTile5" index="0"]
flip_v = true

[node name="SpikeTile6" parent="tilemap/DamageGroup" instance=ExtResource( 16 )]
position = Vector2( 336, -784 )

[node name="Sprite" parent="tilemap/DamageGroup/SpikeTile6" index="0"]
flip_v = true

[node name="SpikeTile7" parent="tilemap/DamageGroup" instance=ExtResource( 16 )]
position = Vector2( 368, -784 )

[node name="Sprite" parent="tilemap/DamageGroup/SpikeTile7" index="0"]
flip_v = true

[node name="SpikeTile8" parent="tilemap/DamageGroup" instance=ExtResource( 16 )]
position = Vector2( 400, -784 )

[node name="Sprite" parent="tilemap/DamageGroup/SpikeTile8" index="0"]
flip_v = true

[node name="SpikeTile9" parent="tilemap/DamageGroup" instance=ExtResource( 16 )]
position = Vector2( 432, -784 )

[node name="Sprite" parent="tilemap/DamageGroup/SpikeTile9" index="0"]
flip_v = true

[node name="SpikeTile10" parent="tilemap/DamageGroup" instance=ExtResource( 16 )]
position = Vector2( 464, -784 )

[node name="Sprite" parent="tilemap/DamageGroup/SpikeTile10" index="0"]
flip_v = true

[node name="SpikeTile11" parent="tilemap/DamageGroup" instance=ExtResource( 16 )]
position = Vector2( 496, -784 )

[node name="Sprite" parent="tilemap/DamageGroup/SpikeTile11" index="0"]
flip_v = true

[node name="SpikeTile12" parent="tilemap/DamageGroup" instance=ExtResource( 16 )]
position = Vector2( 528, -784 )

[node name="Sprite" parent="tilemap/DamageGroup/SpikeTile12" index="0"]
flip_v = true

[node name="SpikeTile13" parent="tilemap/DamageGroup" instance=ExtResource( 16 )]
position = Vector2( 560, -784 )

[node name="Sprite" parent="tilemap/DamageGroup/SpikeTile13" index="0"]
flip_v = true

[node name="SpikeTile14" parent="tilemap/DamageGroup" instance=ExtResource( 16 )]
position = Vector2( 592, -784 )

[node name="Sprite" parent="tilemap/DamageGroup/SpikeTile14" index="0"]
flip_v = true

[node name="SpikeTile15" parent="tilemap/DamageGroup" instance=ExtResource( 16 )]
position = Vector2( 624, -784 )

[node name="Sprite" parent="tilemap/DamageGroup/SpikeTile15" index="0"]
flip_v = true

[node name="SpikeTile16" parent="tilemap/DamageGroup" instance=ExtResource( 16 )]
position = Vector2( 656, -784 )

[node name="Sprite" parent="tilemap/DamageGroup/SpikeTile16" index="0"]
flip_v = true

[node name="EnemiesGroup" type="Node2D" parent="tilemap"]

[node name="Lizardman" parent="tilemap/EnemiesGroup" instance=ExtResource( 17 )]
position = Vector2( 528, -320 )

[node name="Lizardman1" parent="tilemap/EnemiesGroup" instance=ExtResource( 17 )]
position = Vector2( 176, -64 )

[node name="Lizardman2" parent="tilemap/EnemiesGroup" instance=ExtResource( 17 )]
position = Vector2( 528, 192 )

[node name="TeleportGroup" type="Node2D" parent="tilemap"]

[node name="Teleport" parent="tilemap/TeleportGroup" instance=ExtResource( 18 )]
position = Vector2( 720, 368 )
target_level = "res://levels/bergfortress/0-0.tscn"
teleport_to = Vector2( -620, 16 )

[node name="teleport" parent="tilemap/TeleportGroup/Teleport" index="0"]
scale = Vector2( 1, 5 )

[node name="Teleport2" parent="tilemap/TeleportGroup" instance=ExtResource( 18 )]
position = Vector2( -16, -592 )
target_level = "res://levels/bergfortress/0-2.tscn"
teleport_to = Vector2( 684, 304 )

[node name="teleport" parent="tilemap/TeleportGroup/Teleport2" index="0"]
scale = Vector2( 1, 5 )

[node name="Teleport1" parent="tilemap/TeleportGroup" instance=ExtResource( 18 )]
position = Vector2( 304, 592 )
is_horizontal = false
target_level = "res://levels/bergfortress/0-8.tscn"
teleport_to = Vector2( 16, -432 )

[node name="teleport" parent="tilemap/TeleportGroup/Teleport1" index="0"]
scale = Vector2( 3, 1 )

[node name="boundaries" type="Node2D" parent="tilemap"]

[node name="NW" type="Position2D" parent="tilemap/boundaries"]
position = Vector2( -6, -838 )

[node name="SE" type="Position2D" parent="tilemap/boundaries"]
position = Vector2( 714, 586 )

[editable path="tilemap/ClimbableGroup/ClimbableBlock1"]
[editable path="tilemap/ClimbableGroup/ClimbableBlock3"]
[editable path="tilemap/LadderGroup/TestLadder"]
[editable path="tilemap/DamageGroup/SpikeTile"]
[editable path="tilemap/DamageGroup/SpikeTile1"]
[editable path="tilemap/DamageGroup/SpikeTile2"]
[editable path="tilemap/DamageGroup/SpikeTile3"]
[editable path="tilemap/DamageGroup/SpikeTile4"]
[editable path="tilemap/DamageGroup/SpikeTile5"]
[editable path="tilemap/DamageGroup/SpikeTile6"]
[editable path="tilemap/DamageGroup/SpikeTile7"]
[editable path="tilemap/DamageGroup/SpikeTile8"]
[editable path="tilemap/DamageGroup/SpikeTile9"]
[editable path="tilemap/DamageGroup/SpikeTile10"]
[editable path="tilemap/DamageGroup/SpikeTile11"]
[editable path="tilemap/DamageGroup/SpikeTile12"]
[editable path="tilemap/DamageGroup/SpikeTile13"]
[editable path="tilemap/DamageGroup/SpikeTile14"]
[editable path="tilemap/DamageGroup/SpikeTile15"]
[editable path="tilemap/DamageGroup/SpikeTile16"]
[editable path="tilemap/TeleportGroup/Teleport"]
[editable path="tilemap/TeleportGroup/Teleport2"]
[editable path="tilemap/TeleportGroup/Teleport1"]
